<?xml version="1.0" encoding="utf-8"?>
<!-- Generator: Adobe Illustrator 21.1.0, SVG Export Plug-In . SVG Version: 6.00 Build 0)  -->
<svg version="1.1" id="Calque_1" xmlns="http://www.w3.org/2000/svg" xmlns:xlink="http://www.w3.org/1999/xlink" x="0px" y="0px"
	 viewBox="0 0 432 432" style="enable-background:new 0 0 432 432;" xml:space="preserve">
<style type="text/css">
	.st0{fill:#343434;}
	.st1{fill:#687FA1;}
	.st2{fill:#D1A569;}
	.st3{fill:#6ABCD9;}
	.st4{fill:#DEA641;}
	.st5{fill:#EBC27F;}
	.st6{fill:#020203;}
	.st7{fill:#D2B461;}
	.st8{fill:#99A568;}
	.st9{fill:#92AA3C;}
	.st10{fill:#EBC383;}
	.st11{fill:#5F9994;}
	.st12{fill:#1B1B1B;}
	.st13{fill:#B4B4B4;}
	.st14{fill:#EEC785;}
	.st15{fill:#C59796;}
	.st16{fill:#C79D8F;}
	.st17{fill:#BDAEA3;}
	.st18{fill:#95C6D3;}
	.st19{fill:#527E8A;}
	.st20{fill:#847A77;}
	.st21{fill:#C6B6B2;}
	.st22{fill:#C69168;}
	.st23{fill:#B88D7E;}
	.st24{fill:#D8A290;}
	.st25{fill:#DDAB5B;}
	.st26{fill:#8FC9D7;}
	.st27{fill:#746458;}
	.st28{fill:#6CAFC1;}
	.st29{fill:#945D62;}
	.st30{fill:#544842;}
	.st31{fill:#AF9785;}
	.st32{fill:#AF7967;}
	.st33{fill:#809CAF;}
	.st34{fill:#9A6554;}
	.st35{fill:#57876E;}
	.st36{fill:#998675;}
	.st37{fill:#A47060;}
	.st38{fill:#769EA9;}
	.st39{fill:#CE9E52;}
	.st40{fill:#DA8469;}
	.st41{fill:#6F93AD;}
	.st42{fill:#C46F58;}
	.st43{fill:#C1292E;}
	.st44{fill:#C69C6C;}
	.st45{fill:#BBCC53;}
	.st46{fill:#A67D52;}
	.st47{fill:#BE1622;}
	.st48{fill:#006633;}
	.st49{fill:#634E42;}
	.st50{fill:#135B2C;}
	.st51{fill:#1D71B8;}
	.st52{fill:#95C11F;}
	.st53{fill:#DADADA;}
	.st54{fill:#3C3C3B;}
	.st55{fill:#008D36;}
	.st56{fill:#F3B200;}
	.st57{fill:#DD7472;}
	.st58{fill:#00A19A;}
	.st59{fill:#29235C;}
	.st60{fill:#8799C0;}
	.st61{fill:#F8AE4C;}
	.st62{fill:#A4529B;}
	.st63{fill:#5C74B5;}
	.st64{fill:#9465A1;}
	.st65{fill:#72457D;}
	.st66{fill:#B1DDE2;}
	.st67{fill:#C99DC6;}
	.st68{fill:#E71D73;}
	.st69{fill:#BC177D;}
	.st70{fill:#E94E1B;}
	.st71{fill:#FEC800;}
	.st72{fill:#23234F;}
	.st73{fill:#94191D;}
	.st74{fill:#9D9D9C;}
	.st75{fill:#033B23;}
	.st76{fill:#43744E;}
	.st77{fill:#132F1D;}
	.st78{fill:#68113F;}
	.st79{fill:#9C4268;}
	.st80{fill:#67431C;}
	.st81{fill:#AB6E2E;}
	.st82{fill:#7B709C;}
	.st83{fill:#59537A;}
</style>
<g>
	<path class="st47" d="M98.9,311.1c-0.1-3.2-0.2-6-0.3-8.8c-0.1-19.2,22.7-21.9,19,6.9c-1,8-2.3,16-3.5,24c-0.3,2.2-0.9,2.6-3.1,2.4
		c-3.2-0.3-6.3-1.4-9.3-2.6c-6.7-2.6-12.7-6.5-18.4-10.8c-2.5-1.8-4.6-4-6.1-6.7c-0.7-1.3-1.4-2.8-1.7-4.3c-0.7-3.2,0.6-6,3.4-7.5
		c2.8-1.6,5.8-1.5,8.8-0.6c3.2,1,5.8,3,8.2,5.3C96.9,309.1,97.8,310,98.9,311.1z"/>
	<g>
		<path class="st47" d="M307.7,109.6c-7.7-4-13.7-2.6-19.8,1.4c-0.3-0.2-0.1,0.1-0.6-1.4c-3.1-11.1-13.3-14-20.3-9.2
			c-22.5,15.7-8.8,53.5,18.6,54.7c8.9,0.4,23.9-6.1,29.3-17C320.6,126.8,319.5,115.7,307.7,109.6z"/>
		<g>
			<path class="st50" d="M338.8,79.3c-8.3,0-28.5-2.2-40.8,18c13.9-6.1,20.8-5.5,28.8-10.3c1.5-0.9,3.1,1,1.4,2.2
				c-7.8,5.4-23.8,6.4-28.7,11.6c4.3,1.2,2.3,0.5,8.5,2.7c9.1,3.2,19.3-3.3,25.6-10.9c1.3-1.7,7.4-9.9,7.5-10
				C341.9,81,341.1,79.3,338.8,79.3z"/>
			<path class="st50" d="M286.2,90c-1.2-4.6-8.2-9.9-16.9-9.1c-6.6,0.6-10.7,3.2-15.2,6.3c-1.7,1.2-0.6,3.1,1.2,2.1
				c8.3-4.5,15.4,7,23,5.9c2.5-0.4,4.7-1.6,7.1-2.9c-4.9-1.9-18.2-5.5-19.2-6.3c-0.3-0.2-0.4-0.7-0.6-1.1
				C267.4,84.3,264.6,83.6,286.2,90z"/>
		</g>
		<path class="st49" d="M293.3,73c-2.7-0.9-6-2.6-5.5,0.6c0.1,0.8,0.4,1.5,0.6,2.3c5.3,19.1-2.2,29.2,1.1,30.1
			c1.9,0.5,1.8-2.6,3.8-8.1C302.8,72.6,304,76.5,293.3,73z"/>
	</g>
	<g>
		<path d="M302,221.8c-0.6,0.6-0.8,13.4,6.9,21.1c7.9,7.8,20.7-16.9,23.7-38.4c0.1-1.1,0.1-1.1-0.8-1.4c-49.5-17.5-18.4-58-0.4-36.1
			c6.9,8.4,7.9,21.5,7.5,32.4c0,0.5,0,0.6,0.6,0.8c2.9,0.8,5.8,1.6,8.9,2c18.6,2.3-0.5,17.9-0.3,52.6c0.1,6.9,3.4,25.9,9,21.8
			c5.7-4.2,13.4-25.2,15.6-29.3c0.9-1.7,3-2,4.2-1.5c1.6,0.6,1.3,1.9,0.6,3.4c-4.1,9.7-10.8,29.2-20.1,32.4c-4.9,1.7-9.3,0.1-12.3-3
			c-4.9-5.2-8-11.2-7.9-24.3c0.1-19,7.1-40,8.4-44.9c0.6-2.2,0.8-2.1-6.7-4.1c-1.6-0.4,0.3,4.3-5.8,21.2c-1.9,5.3-5.1,12.3-8.8,16.6
			c-6.4,7.5-16.3,9.8-25,3.8c-0.2-0.2-0.4-0.4-0.7-0.4c-0.9,0.2-2.9,40-10.1,51.3c-3.5,5.6-9.3,6-13.5,0.4
			c-8.9-11.9-5.9-29.1-4.7-49c0.2-3.7,1.2-16.4-1.2-19.3c-5.3,2.4-13.8,19.5-12.5,30.5c0.4,3.7-5.7,5.4-8.1,1.6
			c-5.3-8.7-5.2-18-6-23.8c-1.4-0.6-8.7,27.1-25.9,20.8c-9.4-3.4-13.2-14.3-14-14.2c-1.1,0.2-5.6,37.1-12.3,44.9
			c-2.9,3.3-7.6,4.3-11.5-1.3c-12.4-17.3-6-45.4-6.3-48.9c-0.8,0.1-3.2,5.3-8.5,6.2c-6.8,1.1-9.1-6.4-10.1-6.8
			c-0.8,0.9-4.3,14-10.2,19.1c-8.3,7.2-17.1-4.1-17.7-4.2c-0.5-0.1-1.1,10.5-3.8,15.7c-2.3,4.5-6.3,5.1-9.2,3.3
			c-1.7-1-3.5-3.3-4.7-4.9c-18.4-24.7-11.5-60.8-12.1-68.7c-1.2-0.6-17.8,8.9-19.3,15.3c-1,4.1-12.7,1.9,0.7-9.7
			c10.1-8.7,18.8-10.3,19-11.7c0,0,0.4-4.2,1-8.9c1.1-7.8,11.8-8.8,10.4,3.3c-0.1,0.6-0.2,1.2-0.1,1.8c1,0.3,25.3-9.4,68.5-3.2
			c28.2,4,37,9.5,71.6,9.5c0.7,0,1-0.3,1.2-0.9c21.4-55.3,56.5-31.5,36.9-9.1c-6.7,7.7-16.4,11.5-26.5,13.3
			c-0.9,0.2-0.9,0.6-1.9,3.8c-6.5,19.5-4.3,38.5-3.7,39.4c0.6-0.3,9.6-26.5,23.2-16.7c9.3,6.7,0.2,35.6,3.2,59
			c0.5,3.7,0,7.1,2.3,11.8c0.5,1,1.6-1.7,2-2.8c3.9-9.7,6.9-39.1,8.6-53.8c0.4-3.4-1.4-3.4-2.2-12.9c-2.7-30.6,18.9-34.8,25-21.9
			c4.3,9-1.9,18.9-13.2,17.2C302.6,221.9,302.3,221.7,302,221.8z M186.4,286.6c1.2-1.4,2.5-5.8,3-7.7c1.7-6.6,11.2-51.5,11.3-52.6
			c1.5-16.2,14.2-25.9,24.9-19.4c4.5,2.8,6.7,7.7,6.3,11.1c-0.3,2.6-4.4,2.6-5.3,0.5c-1.3-3-3.5-4.7-6.5-5.7
			c-3.8-1.2-11.4,10.1-7.9,25.2c4.3,18.6,12,24.1,21.4,5.2c0.9-1.8,9.1-18.6,9.2-20.6c1.5-20.3,6.5-22.6,3.1-22.3
			c-37.5,2.6-85.9-22.9-137.2-6.2c-1.5,0.5-1.4-1.5-2,13.4c-0.7,16.2-0.6,46.5,9.1,60c0.3,0.4,0.5,0.9,1.1,1.1
			c2.4-3.9,4.7-24.2,4.1-26.3c-3.3-12.3-3-32.2,9.7-32.9c10.1-0.5,17.7,15,9.6,20c-4.5,2.8-10.1,1.7-10.2,2.7
			c-0.2,6.3,6.2,25.5,9.1,23.2c3.3-2.7,5-5.5,12.2-25c0.6-1.6,0-2.5,0.7-5.9c1-4.8,3.8-10.5,7.6-13.5c10.2-8.2,19,0.3,19.2,0.4
			c0.1-0.1,0.2-0.2,0.3-0.3c2.5-4.9,11.6-3,10.3,2.5c-0.2,0.9-6.3,19.1-7.2,39.2C182,258.4,182.8,282.7,186.4,286.6z M333,198.2
			c0.8-1.1,1-20.9-6.3-29.5c-7.1-8.3-16.7,1.6-14.7,12.2C314.3,193,332.8,198.3,333,198.2z M261.6,193.4c0.7,0.5,7.1-2,8.1-2.5
			c13.2-5.9,18.5-17.7,15.4-22.8c-2.4-4.1-8.7,2.9-11.8,6.4c-4.7,5.4-8.4,11.6-11.5,18.1C261.6,192.9,261.5,193.1,261.6,193.4z
			 M164.1,241.1c2.3-1.3,4.7-5.1,6-7.4c2-3.6,7.8-12.9,6.2-15c-1.4-1.8-5-4.4-7-3.4c-4.1,2.2-6.2,9.2-7.2,13.7
			C161.3,232.3,162.7,241.9,164.1,241.1z M309.5,204.8c-0.8-0.8-1-0.8-1.8,0c-2.7,2.8-4.8,6.4-5.4,11.3c0,0.3,0.1,0.5,0.4,0.6
			c3,0.6,5.8,1.1,7.8-2.6C312.1,211.2,311.7,207.1,309.5,204.8z M134.3,226.2c7.2-0.9,0.2-11.6-1-9.7c-1.3,1.9-2.3,4.2-3,8.3
			C130,226.6,129.8,226.8,134.3,226.2z"/>
		<path d="M162.5,143.8c-0.7-0.1-1.6,3-8.7,8.3c-0.9,0.7-1.2,0.8-0.9,1.5c1.8,3.5,2.7,8.3,1.7,12.4c-1.7,7.2-9,11.6-14.6,10.7
			c-6.4-1-9-10.1-1.6-17.5c1.2-1.2,3.8-3.5,3.9-3.6c0.6-0.6-1.2-3.2-1.7-3.9c-0.3-0.4-0.7-0.5-1.2-0.5c-5.9,0.5-11.6,12.9-11,18.8
			c0.3,3.2-5.2,4.4-6.7,1.2c-0.8-1.8-3.8-10.1-5.7-22.5c-0.3-0.1-0.5,0-0.7,0.1c-12.9,7.2-35.4,13.2-50,11.7
			c-16.1-1.6-11.1-6.7-7.4-5.6c15.5,4.6,42.6-2.4,56.3-11.1c1.7-1.1,1.6-0.6,1.6-3c0.5-60.6,35.1-46.7,23.6-17.9
			c-4.9,12.3-12.8,16.3-12.8,18.7c0,0.1,0.3,12,0.7,12.7c0.8-0.1,3.4-6.6,10.8-8.3c4.7-1.1,8.4,0.2,11.7,3.3
			c1.1,1,12.9-11.8,13.3-19.7c0.4-7.8,0.6-15.9,6.3-16.2c2.7-0.2,11.8,0.1,13.8,2.1c1.3,1.3,0.5,3.2-2.2,3.6c-3.6,0.4-6.1-1-6.1,0.2
			c0,2.4-0.6,4.7-0.7,7.1c-0.3,5.9-0.8,5.8,0.5,5.9c1.3,0.1,2.8,0,4.1,0.6c1.9,1,1.9,2.9-0.2,3.7c-1.2,0.4-2.4,0.3-4.3,0.3
			c-0.6,0-0.6,0.6-0.5,1.3c0.1,22,0,14.8,0.5,25.2c0.8,17-1.9,11,5.5,11.1c2.9,0,3.9,3.2-0.4,4.8c-5.2,1.9-10.2,2.9-12.9-1.6
			c-3.6-6.2-3.7-25.4-3.6-32.6C162.6,144.5,162.7,144.1,162.5,143.8z M126.9,132.2c13.1-14.6,8.5-28.6,7.2-27.1
			C129.5,110.8,126.3,130,126.9,132.2z M144.6,163.8c-0.4-3.1-0.4-4-1.2-3.2c-2.6,2.5-4.9,5.6-4,9.1c1.2,4.5,4.4,1.1,5-1.6
			C144.7,166.7,144.8,165.2,144.6,163.8z"/>
		<path d="M178.1,351.5c1.4-1,10.7-33.9,7.9-35.1c-7.8-3.4-9.8-9.1-8.1-14c2.2-6.2,10.8-6.8,13.7,2.4c2.2,7.2-0.6,8.8,2.6,8.3
			c3.8-0.6,5.7-3.3,8.2-6.5c0.8-1.1-0.1-1.5,1.5-24.1c0.2-3.1,3.3-5.4,5.7-5.4c5.5,0,6.3,0,12,0.9c6,0.9,6.3,6.5-0.5,5.4
			c-6.3-0.9-6.5-0.9-6.5-0.3c0.1,2.8-0.3-2.5-0.9,19.7c0,1.1-0.1,0.8,2.6,1.2c4.2,0.6,4.6,4.4-0.1,4.5c-2.3,0-2.6-0.2-2.7,0.4
			c-1.6,12.2,1.5,35.8,1.7,37.4c0.9,9.4,0.1,8.3,4.4,7.2c5.2-1.4,7.5,3.7,1.6,4.8c-4.6,0.9-10.1,2.7-13.1-2.1
			c-5.4-8.5-5.7-30.8-5.5-40.9c0-1.7-0.9,1-7.2,2c-2.7,0.4-2.8-0.3-2.9,1.2c-2.4,18-9.1,37.4-11.9,40.5c-1.7,1.8-5,2-6.7-0.1
			c-9.7-11.4-14-48.2-16.9-64.8c-0.8-4.8,0-9.4,4.9-8.5c3.5,0.6,5.1,4.4,5.6,7.9c0,0.1,9.1,51,10.5,57.4
			C177.8,351,177.8,351.3,178.1,351.5z M184.6,303.1c-1.6,2.7-0.5,7.3,2.2,8.3C186.9,308.7,185.9,304.5,184.6,303.1z"/>
		<path d="M233.4,130.3c-2.5,17.9-2.5,46.2-0.4,49.3c1.4,2.1,9.4-17.7,10.4-21.5c0.7-2.8,6.4-3,5.1,1.2c-2.4,7.4-5.3,15.8-9.8,21.5
			c-3.6,4.6-10.1,5.9-13.8-1.3c-8.6-16.5-1.8-38.6-4.2-37.3c-0.1,0.1-9.3,6.7-12.6,9c-5.1,3.7-1.9,0.6,0.2,10.6
			c4.4,21.2-29.4,17.8-13.8-4c1.9-2.6,0.9,0.6-6.2-13.3c-4.8-9.5-7.3-18.8-0.4-27.1c8.9-10.7,25.1,1.5,21,15.9
			c-0.5,1.7-2.5,2-3.8,1.6c-3.4-1.2-0.8-3.3-1.5-8.2c-0.5-3.6-2.5-6.6-4.7-7.9c-2.2-1.4-5.9,3.5-4.7,11.9c1.1,8.1,7.9,18.5,8.8,18.8
			c0.1-0.1,12.4-8.8,12.5-8.9c6.1-4.4,6.4-4.4,6.5-5.8c0.3-2.7,0.7-5.6,0.7-6c0-0.8-2.2-0.2-2.6,0c-3.3,1.5-6.8-2.3-2.2-4.2
			c2.7-1.1,4.9-0.7,5.3-1c0.4-0.4,0.3-1,0.4-1.6c0.6-3.9,0.4-4.4,1.5-6.2c1.5-2.6,4.8-2.5,7-1.1c4.7,3,0.8,10.3,2.6,10.8
			c14.6,4,15.5,2.8,16.9,4.5c1.1,1.3,0.5,3.4-2.5,3.3C242.2,133.2,234.6,130.1,233.4,130.3z M198.3,161.7c-1.2,0.2-3.2,6.8-1.2,9.3
			C198.6,173,203.1,171.7,198.3,161.7z"/>
		<path d="M241.6,308.9c3.4-10,9-20,19-16.5c14.7,5.2,16.9,32.3-8.1,38.4c-0.3,0.1-0.6,0-0.7,0.3c0,0.1,15,16.2,32,6.5
			c11.5-6.6,6.7-19.4,4.9-17.7c-4.3,4.3-11.7-0.7-6.6-5c4.7-4,13.3-1.1,15,7.1c1.7,8.4-4.4,19.1-19.4,22.8
			c-18.2,4.5-31.3-8.9-32.6-8.5c1.1,10.3,5.2,16.5-0.5,17.5c-1.3,0.2-2.3-0.1-3-1.2c-10.3-15.1-12.1-44.3-10.6-62.5
			c0.5-6.6,11.4-5.7,10.8,0.9c-0.5,5.8-0.5,15.3-0.4,17.5C241.4,308.4,241.5,308.5,241.6,308.9z M256.9,297.3
			c-1.1-0.8-2.5,0.4-3.6,1.4c-8.2,7.7-9.8,27.8-8.1,27.6c3.4-0.4,7.2-2.2,9.8-4.1C263.4,316.1,262.1,301.1,256.9,297.3z"/>
		<path d="M134.9,280c0.9-1.7,2.3-2.7,4.2-2.8c2.6-0.2,12.5-1.4,15.8,0.8c1.6,1.1,1.6,2.6,0.6,3.5c-2.8,2.3-10.8-0.7-10.8,1
			c-0.1,3.7-0.7,7.4-0.7,11.1c-0.1,6.7-0.4,6.5,0.6,6.5c6.6,0.1,6.3,4.6,2.2,4.8c-3.1,0.2-3-0.4-3.1,1.4c-0.4,16.8,3,37.5,4.6,42.2
			c1,2.8,6.7,0.1,9.1,2.6c1.9,2-1.1,4.3-3.8,4c-6.6-0.7-10.9-0.6-13.7-6.2c-4.9-9.7-6.1-19.8-6.7-27.8
			C132.8,316,132.5,284.3,134.9,280z"/>
	</g>
</g>
</svg>
