<?xml version="1.0" encoding="utf-8"?>
<!-- Generator: Adobe Illustrator 21.1.0, SVG Export Plug-In . SVG Version: 6.00 Build 0)  -->
<svg version="1.1" id="Calque_1" xmlns="http://www.w3.org/2000/svg" xmlns:xlink="http://www.w3.org/1999/xlink" x="0px" y="0px"
	 viewBox="0 0 432 432" style="enable-background:new 0 0 432 432;" xml:space="preserve">
<style type="text/css">
	.st0{fill:#74696B;}
	.st1{fill:#609176;}
	.st2{fill:#BF7B55;}
	.st3{fill:#B3B3B3;}
	.st4{fill:#1A1A1A;}
	.st5{fill:#59473F;}
	.st6{fill:#C1C3CC;}
	.st7{fill:#E5AA65;}
	.st8{fill:#995F4B;}
	.st9{fill:#A88E6C;}
	.st10{fill:#4F9969;}
	.st11{fill:#8DAF71;}
	.st12{fill:#D66B92;}
	.st13{fill:#86995C;}
	.st14{fill:#E5A18A;}
	.st15{fill:#A67463;}
	.st16{fill:#6B7A7D;}
	.st17{fill:#396650;}
	.st18{fill:#42210B;}
	.st19{fill:#E7AA8D;}
	.st20{fill:#9FAF88;}
	.st21{fill:#808080;}
	.st22{fill:#736357;}
	.st23{fill:#AD8674;}
	.st24{fill:#7E8AA4;}
	.st25{fill:#E0AB65;}
	.st26{fill:#ADBC82;}
	.st27{fill:#534741;}
	.st28{fill:#9F887D;}
	.st29{fill:#BC6753;}
	.st30{fill:#DDBE94;}
	.st31{fill:#333333;}
	.st32{fill:#3D5159;}
	.st33{fill:#754432;}
	.st34{fill:#806D66;}
	.st35{fill:#B59979;}
	.st36{fill:#506E87;}
	.st37{fill:#2A4654;}
	.st38{fill:#B28A7D;}
	.st39{fill:#736E6C;}
	.st40{fill:#998675;}
	.st41{fill:#383850;}
	.st42{fill:#EAAD98;}
	.st43{fill:#86B2CA;}
	.st44{fill:#998B87;}
	.st45{fill:#77939E;}
	.st46{fill:#4D4542;}
	.st47{fill:#816AA0;}
	.st48{fill:#C69C6D;}
	.st49{fill:#337D83;}
	.st50{fill:#CF7051;}
	.st51{fill:#919093;}
	.st52{fill:#E2BE7B;}
	.st53{fill:#D88770;}
	.st54{fill:#9A847A;}
	.st55{fill:#E7D5CD;}
	.st56{fill:#AF9882;}
	.st57{fill:#456353;}
	.st58{fill:#231F20;}
	.st59{fill:#424546;}
	.st60{fill:#B6906F;}
	.st61{fill:#C48837;}
	.st62{fill:#60795D;}
	.st63{fill:#D39D7B;}
	.st64{fill:#DDA2A1;}
	.st65{fill:#7BB4BB;}
	.st66{fill:#BF96B0;}
	.st67{fill:#89587E;}
	.st68{fill:#9EC49A;}
	.st69{fill:#34423C;}
	.st70{fill:#BC9A72;}
	.st71{fill:#E89650;}
	.st72{fill:#607390;}
	.st73{fill:#7E886B;}
	.st74{fill:#DBB588;}
	.st75{fill:#AB9688;}
	.st76{fill:#AF6EA0;}
	.st77{fill:#545A71;}
	.st78{fill:#72A371;}
	.st79{fill:#6E8770;}
	.st80{fill:#9D9F79;}
	.st81{fill:#9C4862;}
	.st82{fill:#445FA5;}
	.st83{fill:#6E967D;}
	.st84{fill:none;}
	.st85{fill:#B03553;}
	.st86{fill:#9A5499;}
	.st87{fill:#CFA5B7;}
	.st88{fill:#894491;}
	.st89{fill:#AE3034;}
	.st90{fill:#EFB156;}
	.st91{fill:#8689A9;}
	.st92{fill:#54A691;}
	.st93{fill:#79C1B6;}
	.st94{fill:#9F5398;}
	.st95{fill:#53A7DB;}
	.st96{fill:#98C355;}
	.st97{fill:#749B80;}
	.st98{fill:#607161;}
	.st99{fill:#97B898;}
	.st100{fill:#366E91;}
	.st101{fill:#D99A70;}
	.st102{fill:#84328A;}
	.st103{fill:#CB7052;}
	.st104{fill:#A8A8A8;}
	.st105{fill:#686C6D;}
	.st106{fill:#70615C;}
	.st107{fill:#5D876B;}
	.st108{fill:#78748A;}
	.st109{fill:#947B76;}
	.st110{fill:#E8A97C;}
	.st111{fill:#879B72;}
	.st112{fill:#B2B8A3;}
	.st113{fill:#7F8966;}
	.st114{fill:#91516B;}
	.st115{fill:#BF8B56;}
	.st116{fill:#8F7982;}
	.st117{fill:#BAA79E;}
	.st118{fill:#7F6D64;}
	.st119{fill:#7D9496;}
	.st120{fill:#8E6D76;}
	.st121{fill:#A54462;}
	.st122{fill:#BF924C;}
	.st123{fill:#713B47;}
	.st124{fill:#580E1D;}
	.st125{fill:#BB7578;}
	.st126{fill:#A54748;}
	.st127{fill:#79895B;}
	.st128{fill:#D3B9C4;}
	.st129{fill:#C1272D;}
	.st130{fill:#709983;}
	.st131{fill:#909B73;}
	.st132{fill:#721037;}
	.st133{fill:#748B96;}
	.st134{fill:#D1B361;}
	.st135{fill:#844A37;}
	.st136{fill:#D1916B;}
	.st137{fill:#56858C;}
	.st138{fill:#C6985C;}
	.st139{fill:#2E485E;}
	.st140{fill:#7C93A3;}
	.st141{fill:#C89698;}
	.st142{fill:#D1A661;}
	.st143{fill:#D18B61;}
	.st144{fill:#7F9BBA;}
	.st145{fill:#D17D61;}
	.st146{fill:#D99882;}
	.st147{fill:#C185A1;}
	.st148{fill:#94AD84;}
	.st149{fill:#CBA89D;}
	.st150{fill:#CCAB8B;}
	.st151{fill:#677B89;}
	.st152{fill:#7E9E6A;}
	.st153{fill:#E59F5A;}
	.st154{fill:#4D6040;}
	.st155{fill:#BA5B42;}
	.st156{fill:#844530;}
	.st157{fill:#BBA677;}
	.st158{fill:#BF7F9F;}
	.st159{fill:#FBB03B;}
	.st160{fill:#B24A58;}
	.st161{fill:#E29D86;}
	.st162{fill:#D89E64;}
	.st163{fill:#BA8B7F;}
	.st164{fill:#BFA37B;}
	.st165{fill:#8E9DBF;}
	.st166{fill:#4D4D4D;}
	.st167{fill:#B28E69;}
	.st168{fill:#7D8DAA;}
	.st169{fill:#48687A;}
	.st170{fill:#629599;}
	.st171{fill:#475E7A;}
	.st172{fill:#1D303F;}
	.st173{fill:#597687;}
	.st174{fill:#6A8955;}
	.st175{fill:#7DAF5A;}
	.st176{fill:#CF789A;}
	.st177{fill:#9391C6;}
	.st178{fill:#C49A6C;}
	.st179{fill:#8ABC9E;}
	.st180{fill:#999999;}
	.st181{fill:#8B4140;}
	.st182{fill:#29404F;}
	.st183{fill:#A05F50;}
	.st184{fill:#C4826C;}
	.st185{fill:#BF8574;}
	.st186{fill:#D39A46;}
	.st187{fill:#9BADCC;}
	.st188{fill:#D48E77;}
	.st189{fill:#D08E78;}
	.st190{fill:#517A5F;}
</style>
<g>
	<g>
		<g>
			<path class="st129" d="M307.6,117.9c5.1-0.5,9.7,0,14.2,1.6c2.2,0.8,4.2,2.1,6,3.7c2.7,2.4,3.9,5.3,3.3,8.9
				c-0.4,2.6-1.1,5-2.2,7.4c-1.1,2.6-2.3,5.1-3.5,7.6c-0.2,0.5-0.5,1-0.8,1.4c-2,3.5-5,5.2-9,5.3c-0.9,0-1.8,0-2.7-0.1
				c-2.8-0.2-5.5-0.4-8.3-0.6c-4.2-0.2-9.2-2.4-11.1-8.4c-0.8-2.4-1.4-4.9-1.6-7.4c-0.1-1.1,0-2.2,0.1-3.3c0.6-4.1,2.1-7.8,4.8-11
				c2.1-2.5,4.7-3.9,7.8-4.7C305.9,118.2,306.9,118,307.6,117.9z M312.7,134.6c0,0.2,0,0.3,0,0.5c-0.2,0.8-0.4,1.5-0.6,2.3
				c-0.2,0.6-0.3,1.2-0.4,1.9c0,0.9,0.4,1.5,1.1,1.9c0.8,0.4,1.5,0.2,2.1-0.3c0.4-0.3,0.7-0.6,1-1c0.8-1.3,1.3-2.7,1.4-4.3
				c0.2-2.2-0.8-4-2.6-4.8c-0.8-0.4-1.7-0.6-2.6-0.6c-3.1-0.1-7.6,2.8-8.1,7.4c-0.3,2.7,0.2,5.3,1.4,7.8c2.1,4.5,7.2,6.4,11.7,4.5
				c1.8-0.7,3.2-2,4.3-3.6c1.4-2.1,2.5-4.4,3.4-6.8c0.9-2.3,1.4-4.7,1.4-7.2c-0.1-5.6-2.5-8.1-6.4-9.7c-3.5-1.4-7.2-1.9-11-1.3
				c-5.8,0.8-10,4.8-11.2,10.6c-0.6,2.9-0.2,5.6,1.2,8.2c0.3,0.6,0.8,1.1,1.3,1.6c0.3,0.4,0.8,0.5,1.3,0.2c0.5-0.2,0.6-0.7,0.5-1.2
				c-0.1-0.4-0.2-0.9-0.3-1.3c-0.3-1.2-0.7-2.4-0.7-3.7c0.1-4.1,2.9-8.1,6.7-9.6c1.8-0.7,3.7-0.8,5.6-0.7c1.8,0.1,3.5,0.5,5.2,1.3
				c1.6,0.8,2.6,2,2.8,3.8c0.1,1,0.2,1.9,0.1,2.9c-0.3,3.9-2,7.2-4.1,10.4c-0.5,0.7-1.2,1.3-2,1.7c-2.7,1.5-5.6,0.4-6.6-2.5
				c-0.4-1.2-0.5-2.5-0.7-3.7c-0.4-2.6,1.5-4.1,3.1-4.8C311.8,134.4,312.2,134.3,312.7,134.6z"/>
			<g>
				<path class="st130" d="M311.5,113.4c-0.2-1.6-0.2-3.1,0.1-4.6c0.7-3.8,2.3-7.3,4.4-10.5c1.1-1.7,2.5-3.2,3.9-4.6
					c3.7-3.5,7.7-6.4,12.2-8.7c0.5-0.3,1-0.5,1.6-0.7c1-0.4,2-0.4,2.9,0.2c0.7,0.5,1.5,1,2.1,1.6c2.3,2.1,3.7,4.6,4.6,7.5
					c3,9.9,0,21.5-9.2,28.5c-0.1,0.1-0.2,0.2-0.4,0.3c-2.3-3-5.2-5.1-8.6-6.6c0.9-2,1.8-3.9,2.7-5.8c1.5-3.2,3.1-6.4,4.6-9.6
					c1-2.2,1.9-4.4,2.8-6.6c0.2-0.4,0.3-0.9,0.4-1.4c0.1-0.8-0.4-1.6-1.1-1.9c-0.7-0.3-1.5-0.1-2,0.6c-0.2,0.3-0.4,0.6-0.5,0.9
					c-1.5,3.9-3.4,7.7-5.3,11.5c-1.4,2.8-2.7,5.7-3.7,8.7c-0.3,0.9-0.6,1.7-0.9,2.7C318.5,113.9,315.1,113.5,311.5,113.4z"/>
				<path class="st130" d="M328.3,152.1c1.1-2.1,2.1-4.2,3.2-6.2c0.2,0.1,0.4,0.1,0.6,0.2c3.8,1.1,7.4,2.8,10.6,5.1
					c0.3,0.2,0.7,0.4,1,0.6c0.9,0.4,1.8,0.1,2.2-0.5c0.4-0.6,0.4-1.5-0.2-2.2c-0.3-0.4-0.7-0.7-1.1-1c-3.5-2.5-7.1-4.6-11.4-5.4
					c-0.1,0-0.1-0.1-0.2-0.1c0.9-2.5,1.8-5,2.7-7.6c0.2,0.1,0.4,0.2,0.7,0.3c6.1,2.6,10.9,6.8,14.9,12c0.3,0.4,0.6,0.9,1,1.3
					c0.4,0.6,0.5,1.1,0.1,1.7c-0.5,0.7-1,1.3-1.6,1.9c-1.5,1.4-3.4,2.3-5.4,3c-2.4,0.8-4.9,1.1-7.4,0.9c-2.9-0.2-5.5-1.3-8-2.8
					C329.4,152.9,328.8,152.5,328.3,152.1z"/>
			</g>
		</g>
		<g>
			<path class="st129" d="M94.2,127.3c0.1-2.6,1.1-5.1,2.7-7.4c1.6-2.3,3.3-4.6,4.9-6.9c0.4-0.5,0.8-1.1,1.1-1.7
				c1.5-2.4,3.6-4.4,5.9-6.1c2.7-2,5.7-3,9-3.6c2.7-0.5,5.4-0.5,8,0.1c0.6,0.1,1.2,0.3,1.8,0.6c2.8,1.3,5.5,2.6,8.3,3.9
				c3.4,1.7,5.9,4.3,7.4,7.8c1.6,3.5,2.6,7.1,3.1,10.9c0.5,3.2,0.9,6.5,0.9,9.8c0,1.5-0.2,3-0.4,4.4c-0.2,1.4-1,2.7-1.9,3.8
				c-1.6,2-3.6,3.7-5.8,5.1c-3.7,2.3-7.6,4.1-11.5,5.9c-2.5,1.1-5,2.2-7.7,2.9c-1.3,0.3-2.6,0.6-3.9,0.6c-1.8,0-3.5-0.6-5.1-1.6
				c-2-1.2-3.7-2.7-5.1-4.6c-1-1.4-1.9-2.8-2.8-4.2c-1.5-2.2-3-4.5-4.5-6.7c-0.7-1.1-1.5-2.2-2.2-3.3
				C94.5,134,93.6,131.1,94.2,127.3z M123.2,108.7c-1.1,0-2.2-0.1-3.3-0.1c-4.5,0-8.3,1.5-11.3,4.9c-2.6,2.9-4.3,6.2-5.6,9.8
				c-0.8,2.1-1.1,4.3-1.1,6.5c0.1,2.7,0.8,5.2,2.1,7.6c1.6,2.7,3.2,5.4,4.9,8.1c0.3,0.5,0.7,0.9,1,1.3c1.9,2.4,4.3,3.9,7.3,4.5
				c1,0.2,1.9,0.3,2.9,0c0.6-0.2,1.1-0.4,1.4-0.9c0.6-0.8,0.4-1.6-0.6-1.8c-0.5-0.1-1-0.2-1.4-0.3c-2.8-0.4-5.2-1.6-6.9-4
				c-0.4-0.6-0.8-1.1-1.2-1.7c-1.1-1.7-2.2-3.5-3.3-5.3c-0.5-0.8-0.9-1.6-1.4-2.5c-1.3-2.8-1.5-5.7-0.8-8.7c0.6-2.4,1.6-4.7,2.8-6.8
				c1-1.8,2.4-3.4,4-4.7c1.5-1.2,3.1-1.8,5-2c1.6-0.1,3.2-0.1,4.8,0.2c2.5,0.4,5,1.1,7.2,2.5c2.4,1.5,3.9,3.7,4.3,6.4
				c0.5,3.1,0.7,6.3,0.5,9.4c-0.1,2-0.4,4-1.2,5.9c-1,2.4-2.7,3.5-5.2,3.5c-1.7,0-3.3-0.4-4.9-0.9c-2.3-0.8-4.3-2.1-5.9-4
				c-1-1.1-1.7-2.4-2-3.9c-0.3-1.8-0.4-3.5,0.7-5.1c1.2-1.8,2.9-3,4.9-3.8c1.7-0.7,4.3,0.3,4.7,2.6c0.3,1.6,0.2,3.1-0.1,4.7
				c-0.2,0.9-0.7,1.2-1.6,1c-0.4-0.1-0.7-0.3-1.1-0.4c-0.3-0.1-0.5-0.3-0.8-0.4c-0.9-0.4-1.8-0.1-2.4,0.6c-0.5,0.7-0.5,1.6,0.2,2.4
				c0.7,0.8,1.6,1.3,2.6,1.7c3.6,1.3,7.1-0.6,7.9-4.4c0.3-1.5,0.4-3,0.2-4.5c-0.1-1.2-0.4-2.3-0.8-3.4c-0.4-1-1.1-1.9-1.9-2.5
				c-2.3-1.7-4.8-2.2-7.5-1.2c-2.9,1.1-5.3,2.8-7.2,5.3c-1.1,1.4-1.7,3-1.8,4.7c-0.3,3.4,0.6,6.4,2.8,9c3.8,4.6,8.8,7.1,14.9,7
				c3.8,0,6.8-1.8,8.5-5.2c0.8-1.5,1.2-3.1,1.6-4.7c0.4-2,0.5-4,0.4-6.1c-0.1-2.6-0.2-5.2-0.6-7.8c-0.7-4.2-2.9-7.3-6.6-9.4
				C129.4,110.1,126.4,109.2,123.2,108.7z"/>
			<path class="st130" d="M90.1,131.8c0.5,3,1.5,5.8,3.1,8.5c-0.3,0.1-0.5,0.2-0.7,0.2c-5.4,1.6-10.4,3.9-15,7.1
				c-1.6,1.1-3,2.4-4.5,3.7c-0.6,0.5-1,1.1-1.1,1.9c-0.1,1.1,0.6,1.8,1.7,1.8c0.7,0,1.2-0.2,1.8-0.7c0.5-0.4,1-0.9,1.5-1.3
				c2.7-2.2,5.7-4.1,8.9-5.7c2.9-1.4,5.9-2.7,8.9-4c0.1,0,0.2-0.1,0.4-0.1c1.9,2.5,3.5,5.3,5.2,8c-2.8,2.7-5.8,5.1-9.4,6.6
				c-2.8,1.1-5.6,2.2-8.6,2.6c-2.9,0.3-5.8,0.3-8.6-0.6c-2.2-0.8-4.2-2-5.6-3.8c-0.4-0.5-0.7-1-1-1.6c-0.6-1.1-0.6-2.1,0-3.2
				c2.1-3.8,4.6-7.1,7.6-10.2c2.6-2.7,5.3-5.1,8.5-7.1c1.9-1.1,3.8-1.9,6-2.2c0.2,0,0.4,0,0.5-0.1C89.9,131.7,90,131.8,90.1,131.8z"
				/>
		</g>
	</g>
	<g>
		<g>
			<path class="st129" d="M180.5,338.7c0.5-0.7,0.9-1.1,1.2-1.6c1.6-2.3,2.8-4.8,3.9-7.3c1.9-4,3.6-8.1,5.5-12.1
				c0.9-1.9,2-3.8,3.1-5.7c0.3-0.6,0.5-1.1,0.4-1.8c-0.5-4.3,0.1-8.5,0.8-12.7c0-0.1,0-0.2,0.1-0.4c-0.2-0.2-0.5-0.4-0.7-0.6
				c-5.4-4.4-8.6-10.2-9.8-17c-0.9-5.3,0-10.3,2.4-15.1c0.6-1.3,1.4-2.5,2.4-3.5c3.1-3.4,7-4.5,11.5-3.6c1.9,0.4,3.8,1.2,5.4,2.2
				c3.5,2.1,6.4,4.8,8.8,8.1c4.2,5.8,6.7,12.2,7.7,19.2c0.3,1.9,0.4,3.8,0.6,5.8c0.2-0.1,0.4-0.1,0.5-0.2c1.7-1.1,3.3-2.1,4.6-3.7
				c0.6-0.8,1.3-1.4,2.1-2c0.6-0.5,1.3-0.9,2-1.1c1.6-0.7,3.2-0.2,4.4,1c0.7,0.7,1.2,1.6,1.5,2.6c0.9,2.5,1.3,5,1.3,7.6
				c0,1.6,0,3.2,0,4.7c0,0.3,0,0.6,0.2,0.9c0.1-0.3,0.1-0.5,0.2-0.8c1-4.2,2.2-8.5,3.7-12.6c1-2.7,2.2-5.2,3.8-7.5
				c1-1.5,2.3-2.8,3.7-4c3-2.4,6.8-2.1,9.5-0.2c1.6,1.1,2.7,2.6,3.6,4.3c1.1,2.4,1.9,4.9,2.2,7.5c0.5,4.1,0.9,8.3,1.3,12.4
				c0.2,1.9,0.3,3.8,0.5,5.7c0,0.1,0,0.2,0.2,0.3c0.1-0.3,0.1-0.5,0.2-0.8c1.4-6.2,3-12.4,4.9-18.6c1.4-4.5,3.3-8.9,5.7-13
				c0.9-1.5,1.9-3,2.9-4.4c1-1.3,2.3-2.4,3.8-3.2c2.4-1.4,5-1.6,7.6-0.5c2.9,1.2,4.7,3.4,6,6.2c0.9,2,1.3,4,1.7,6.1
				c0.8,4.5,1.5,9.1,1.7,13.7c0.2,3.7,0.4,7.4,0.6,11.1c0.3,4.6,0.6,9.1,1.3,13.7c0.6,3.5,1.2,7.1,2.3,10.5c0.9,2.6,2.2,5.1,4,7.2
				c1.6,1.8,3.5,3,5.8,3.7c1.9,0.5,3.6,0.1,5.3-0.7c1.4-0.6,2.6-1.5,3.6-2.7c3.2-3.5,5.2-7.7,6.6-12.2c1.3-4.2,2.5-8.4,3.3-12.7
				c0.9-5.1,0.8-10.2-0.8-15.2c-0.9-2.6-2.1-5-4.1-6.9c-2.4-2.4-5.2-1.8-7.2,0.2c-2.3,2.3-3.4,5.2-3.9,8.3c-0.4,2.5-0.3,5,0.3,7.4
				c0.1,0.6,0.2,1.2,0,1.8c-0.6,1.6-2.5,2.2-3.7,1c-0.4-0.4-0.8-1-1-1.6c-1.2-3-1.5-6.1-1.2-9.2c0.2-2.8,1-5.5,2.2-8
				c1.3-2.9,3.3-5.2,6.1-6.7c2.9-1.6,5.9-1.8,8.9-0.4c3.6,1.6,6.3,4.2,8.3,7.5c3.3,5.2,4.3,11,4,17.1c-0.4,9.2-2.7,17.9-6.6,26.2
				c-1.8,3.8-4.1,7.3-7.1,10.3c-0.6,0.6-1.3,1.2-2,1.8c-4.5,3.7-9.5,4.4-15,2.7c-4.3-1.4-7.6-4.1-10.3-7.7c-2.5-3.3-4.1-7-5.3-10.8
				c-1.3-4-2-8-2.6-12.2c-0.8-6.2-0.9-12.4-1.1-18.6c-0.1-4.6-0.2-9.2-0.7-13.7c-0.3-2.6-0.6-5.1-1.5-7.6c-0.3-0.9-0.6-1.8-1.2-2.5
				c-0.7,0-1.1,0.4-1.6,0.8c-1.4,1.1-2.6,2.3-3.7,3.8c-2.4,3.2-4.2,6.8-5.5,10.5c-2.5,7-4.1,14.3-5.8,21.5c-0.7,3.1-1.5,6.2-2.4,9.3
				c-0.2,0.8-0.5,1.6-0.9,2.3c-0.3,0.6-0.7,1.2-1.1,1.6c-1.4,1.5-3.5,1.7-5.3,0.6c-0.9-0.6-1.5-1.5-2-2.4c-0.9-1.8-1.4-3.7-1.8-5.6
				c-0.9-3.8-1.3-7.7-1.6-11.6c-0.4-4.4-0.7-8.8-1.1-13.2c-0.2-2.3-0.5-4.6-1.2-6.8c-0.2-0.6-0.5-1.2-0.8-1.8
				c-0.2-0.4-0.5-0.5-0.9-0.4c-1,0.2-1.8,0.7-2.5,1.4c-1.6,1.5-2.7,3.3-3.6,5.2c-2.1,4.5-3.2,9.3-4,14.1c-0.9,5-1.6,9.9-2.4,14.9
				c-0.2,1.3-0.5,2.6-0.7,3.8c-0.1,0.3-0.2,0.6-0.3,1c-0.9,2.2-3.3,2.8-5,1.2c-0.5-0.5-0.9-1.2-1.3-1.9c-0.9-1.9-1.2-3.9-1.6-5.9
				c-0.7-4-1.1-8-1.5-12c-0.4-4-0.7-7.9-1.1-11.9c0-0.1,0-0.2-0.1-0.5c-0.2,0.1-0.4,0.2-0.6,0.4c-2.1,1.5-4.1,3-6.2,4.4
				c-0.4,0.3-0.4,0.6-0.5,1c-0.1,1.5-0.2,3-0.4,4.5c-0.6,4.6-1.6,9-3.6,13.2c-1.2,2.4-2.6,4.7-4.4,6.8c-2,2.3-4.6,3.6-7.6,3.7
				c-2.1,0.1-4-0.5-5.7-1.8c-2.3-1.7-3.9-3.9-5.2-6.4c-0.1-0.3-0.3-0.6-0.5-1c-0.3,0.7-0.5,1.2-0.7,1.8c-2.5,5.7-5.1,11.4-8,17
				c-0.9,1.7-2,3.4-3.1,5c-0.7,1-1.7,2-2.7,2.7c-2.3,1.8-5,1.7-7.3-0.2c-1.5-1.2-2.5-2.8-3.3-4.5c-1.1-2.4-1.7-4.9-2.1-7.5
				c-0.9-5.5-1.1-11.1-1-16.7c0.2-7.4,0.8-14.7,1.4-22.1c0.4-5.4,0.9-10.7,0.9-16.1c0-2.5,0-4.9-0.4-7.4c-0.2-1.1-0.6-2.2-0.9-3.2
				c-0.2-0.7-0.4-0.7-1-0.5c-0.9,0.2-1.7,0.7-2.4,1.3c-1.3,1.1-2.4,2.4-3.3,3.9c-2.6,3.9-4.4,8.2-5.8,12.6c-1.5,4.6-2.3,9.3-3.1,14
				c-0.9,5.3-1.5,10.7-1.9,16.1c-0.1,1.4-0.3,2.8-0.5,4.2c-0.1,0.6-0.4,1.2-0.7,1.6c-0.9,1.2-2.5,1.4-3.8,0.5
				c-0.7-0.5-1.3-1.2-1.5-2c-0.4-1.3-0.9-2.5-1.1-3.8c-0.9-4.8-1.7-9.7-2.6-14.5c-1-5.5-2.2-10.9-4.2-16.1c-0.4-1.1-0.9-2.3-1.5-3.3
				c-0.8-1.3-1.3-1.9-3.2-0.7c-0.6,0.4-1.2,1-1.7,1.5c-1.1,1.3-1.9,2.8-2.6,4.3c-1.8,3.9-2.9,8.1-3.8,12.3c-0.9,4.2-1.5,8.5-2,12.8
				c-0.5,4.2-1,8.4-1.4,12.6c-0.1,0.5-0.2,1.1-0.4,1.6c-0.6,1.5-2.2,2.1-3.6,1.3c-0.8-0.4-1.3-1-1.7-1.7c-0.9-1.6-1.5-3.3-1.8-5.1
				c-0.5-3-0.9-6.1-1.3-9.1c-0.6-5-1.2-10-1.8-15c-0.4-3.4-0.8-6.8-1.3-10.2c-0.4-2.7-0.9-5.5-1.8-8.1c-0.4-1.1-0.9-2.2-1.5-3.2
				c-0.7-1.3-1.9-1.8-3.5-1.6c-1.9,0.3-3.6,1.1-5.1,2.3c-1.6,1.3-2.8,2.9-3.8,4.6c-1.6,2.6-2.8,5.5-3.8,8.3c-0.6,1.5-1.1,3-1.6,4.5
				c-0.1,0.4-0.3,0.7-0.5,1.1c-0.2,0.4-0.6,0.7-1.1,0.6c-0.5-0.1-0.8-0.4-0.9-0.9c-0.1-0.6-0.2-1.1-0.1-1.7c0.1-1.8,0.5-3.5,1-5.3
				c0.9-3.7,2.2-7.2,4-10.6c1.3-2.7,3.2-5,5.3-7.1c2.2-2,4.7-3.3,7.7-3.6c2.3-0.3,4.4,0.4,6.3,1.9c1.4,1.1,2.6,2.5,3.5,4
				c1.4,2.3,2.3,4.9,3,7.5c1.1,4,1.7,8.1,2.2,12.2c0.4,3,0.7,5.9,1.1,8.9c0,0.1,0.1,0.3,0.2,0.4c0.3-1.4,0.5-2.7,0.8-4.1
				c0.9-4.2,2-8.4,3.6-12.5c1-2.5,2.3-4.9,4-7c0.9-1.1,1.9-2.2,3.1-3c3.9-2.7,8.6-2.5,12.2,0.6c1.2,1,2.1,2.3,2.8,3.6
				c1.3,2.4,2.1,5,2.8,7.6c0.5,1.8,0.9,3.7,1.3,5.5c0,0.1,0.1,0.2,0.2,0.4c0.1-0.3,0.2-0.5,0.2-0.6c1-5.5,2.2-10.9,4-16.1
				c1.1-3.1,2.5-6,4.3-8.7c1.7-2.5,3.9-4.5,6.7-5.7c1.9-0.8,3.8-1,5.8-0.6c1.3,0.3,2.4,0.9,3.4,1.8c1.3,1.3,2.2,2.8,2.8,4.4
				c0.9,2.5,1.4,5.2,1.6,7.8c0.5,4.5,0.3,9,0.2,13.6c-0.2,4.4-0.4,8.7-0.6,13.1c-0.2,4.9-0.3,9.8-0.4,14.7
				c-0.1,4.4-0.1,8.7-0.1,13.1c0,2.9,0.2,5.9,0.9,8.8c0.2,0.8,0.5,1.6,0.8,2.4C180,338,180.2,338.2,180.5,338.7z M217.2,294.3
				c0-0.5,0-0.8,0-1.2c-0.2-1.9-0.4-3.9-0.7-5.8c-1.3-7.3-4.4-13.8-9.5-19.3c-1.8-1.9-3.9-3.4-6.4-4.3c-1-0.4-2.1-0.5-3.1-0.1
				c-2.1,0.7-3.6,2.1-4.2,4.2c-0.6,2-0.6,4-0.3,6c0.6,3.6,2,6.9,4,10c0.1,0.1,0.1,0.2,0.3,0.3c0.4-0.5,0.8-0.9,1.1-1.4
				c0.8-0.9,1.7-1.8,2.9-2.3c2.7-1.2,5.4,0.3,5.7,3.2c0.2,1.4,0,2.7-0.3,4c-0.3,1.6-0.7,3.2-1.1,4.8
				C209.1,294.4,212.9,295.3,217.2,294.3z M217.4,299.2c-4.6,2-9.2,2.9-14,2.3c-0.1,0.1-0.1,0.2-0.1,0.2c-0.5,3.3-0.6,6.6-0.2,10
				c0.2,1.7,0.6,3.5,1.5,5c0.5,0.9,1.1,1.7,1.9,2.2c0.9,0.6,1.8,0.7,2.8,0.1c1.1-0.7,2-1.5,2.6-2.6c2.3-3.6,3.7-7.6,4.6-11.7
				C217,303,217.3,301.2,217.4,299.2z"/>
			<g>
				<path d="M312.2,248.8c-0.1-1.5-0.3-2.8-0.4-4.1c-0.1-5,1.6-9.2,5.1-12.7c1.6-1.6,3.5-2.8,5.7-3.2c3-0.6,5.7,0.3,8.1,2.1
					c1.9,1.5,3,3.5,3.7,5.8c1.1,3.7,0.5,7.2-1,10.5c-2.1,4.7-5.8,7.4-10.8,8.4c-0.4,0.1-0.9,0.2-1.5,0.3c0.4,0.3,0.6,0.5,0.8,0.6
					c1.4,0.9,3,1.4,4.7,1.7c2,0.4,4,0.4,6-0.1c1.1-0.3,2-0.7,3-1.4c5.5-3.7,9.5-8.6,11.9-14.8c1.8-4.6,3.1-9.3,4.2-14
					c0.9-4.1,1.6-8.2,2.2-12.3c0.5-3.5,1-6.9,1.4-10.4c0.4-3.1,0.6-6.2,0.8-9.2c0.3-4.3,0.2-8.6,0.1-12.9c0-0.1,0-0.3,0-0.6
					c-0.2,0.2-0.4,0.3-0.5,0.5c-0.7,1-1.3,2-2,3.1c-3.2,5.1-6.5,10-10.2,14.8c-1.2,1.5-2.4,3.1-4,4.3c-0.9,0.7-1.8,1.3-2.8,1.7
					c-2.7,1.3-5.3,0.8-7.7-1.1c-0.2-0.2-0.4-0.3-0.7-0.6c-0.1,0.3-0.2,0.6-0.3,0.9c-2,5.1-4,10.2-6.6,15.1c-0.9,1.6-1.9,3.2-2.9,4.8
					c-0.4,0.6-0.8,1.1-1.2,1.6c-1.6,1.8-3.7,2.2-5.9,1.3c-0.8-0.4-1.6-0.9-2.3-1.5c-2.4-2.2-3.8-5-4.5-8.2
					c-0.8-3.6-1.2-7.2-1.5-10.9c-0.5-6.5-0.3-13-0.3-19.5c0-2.5,0.1-4.9,0.1-7.4c0-1.8-0.3-3.7-0.5-5.5c-0.1-1.1-0.5-1.6-1.2-2.2
					c-0.3,0.2-0.5,0.4-0.8,0.7c-1.6,1.7-2.8,3.7-3.9,5.8c-1.6,3.2-2.6,6.7-3.5,10.1c-0.9,4-1.8,8-2.7,12c-0.3,1.1-0.6,2.2-0.9,3.2
					c-0.2,0.6-0.5,1.1-0.8,1.6c-1.1,1.4-2.8,1.8-4.4,1c-1.1-0.6-1.8-1.5-2.3-2.6c-0.8-1.6-1.2-3.4-1.5-5.1c-0.3-1.8-0.6-3.5-0.9-5.4
					c-0.3,0.3-0.3,0.6-0.4,0.9c-1.8,4.6-3.6,9.3-5.5,13.9c-0.7,1.7-1.7,3.4-2.6,5c-0.6,1.1-1.4,2-2.4,2.9c-2.8,2.4-7,1.7-8.9-0.1
					c-0.9-0.8-1.6-1.7-2.1-2.8c-0.7-1.4-1.2-2.9-1.5-4.4c0-0.2-0.1-0.5-0.2-0.7c-3.2,3.6-6.3,7.1-9.4,10.6c0.5,1.9,1,3.9,1.4,5.8
					c1.2,5.6,2.1,11.3,2.1,17c0.1,5.2-0.6,10.2-2.4,15.1c-1.2,3.2-2.9,6.1-5.4,8.5c-1.7,1.7-3.7,2.9-6,3.4c-1.6,0.3-3.3,0.2-4.9-0.3
					c-2.7-0.9-4.9-2.4-6.4-4.8c-2.6-3.8-3.5-8.1-3.1-12.7c0.5-5.3,2.5-10.1,5.3-14.6c3-4.8,6.4-9.2,10.3-13.3c0.3-0.3,0.6-0.7,0.9-1
					c0.3-0.3,0.4-0.7,0.3-1.1c-1.4-4.6-3-9.2-5.3-13.4c-0.6-1.2-1.2-2.3-1.7-3.5c-0.4-0.9-0.7-1.8-0.9-2.8c-0.3-1.4,0.1-2.7,1.1-3.7
					c0.6-0.6,1.2-1,1.8-1.5c1.6-1.3,3.4-2.6,4.9-4c2.9-2.6,5-5.8,5.9-9.6c0.5-2.1,0.5-4.3-0.2-6.4c-0.3-0.8-0.7-1.5-1.2-2.1
					c-1.2-1.2-3-1.4-4.3-0.2c-0.6,0.5-1.1,1.1-1.6,1.7c-1.2,1.7-2.2,3.5-3,5.4c-1.8,4.2-3,8.6-4.4,12.9c-0.8,2.7-1.6,5.5-2.6,8.1
					c-0.6,1.6-1.4,3.1-2.2,4.6c-0.5,0.9-1.2,1.8-2,2.6c-2.2,2.1-5.2,2-7.5,0c-1.1-1-1.8-2.3-2.3-3.6c-0.9-2.6-1.2-5.3-1.2-8.1
					c0-2.2,0.2-4.4,0.3-6.5c0-0.6,0.1-1.2,0-1.9c-0.2,0.2-0.3,0.4-0.5,0.6c-1.5,2.3-3,4.6-4.5,6.8c-1,1.5-2.1,2.9-3.2,4.3
					c-1.2,1.4-2.6,2.5-4.4,3c-2.2,0.6-4.1,0.1-5.8-1.3c-1.6-1.4-2.5-3.1-3-5.1c-0.7-2.5-0.7-5.1-0.4-7.7c0.4-3,1.1-6,2.2-8.8
					c0.9-2.1,2.1-4,3.7-5.6c1.8-1.7,3.9-2.9,6.5-3c2.3-0.1,4.4,0.7,6.3,1.9c1.2,0.7,2.2,1.7,3.1,2.7c0.2,0.3,0.5,0.5,0.8,0.9
					c0.1-0.4,0.2-0.6,0.3-0.9c0.3-1.2,0.6-2.4,0.9-3.5c0.2-0.7,0.6-1.3,0.9-2c0.2-0.4,0.6-0.8,0.9-1.1c2-1.9,4.6-1.4,5.5,1.2
					c0.3,0.7,0.4,1.5,0.5,2.2c0.2,2.4-0.1,4.8-0.4,7.3c-0.5,4.2-1.1,8.3-1.5,12.5c-0.2,2-0.3,3.9-0.3,5.9c0,1.3,0.2,2.7,0.3,4
					c0.1,0.9,0.4,1.1,1,1.7c0.5-0.4,0.9-0.9,1.2-1.5c0.7-1.4,1.3-2.7,1.9-4.1c1.6-4,2.7-8.3,4-12.4c1-3.1,2.1-6.1,3.3-9.1
					c1.1-2.7,2.6-5.2,4.7-7.3c0.9-0.9,2-1.7,3.1-2.4c4.4-2.8,10.1-1.4,12.7,3.5c1.2,2.1,1.5,4.3,1.4,6.7c-0.1,2.6-0.9,5.1-2,7.4
					c-2.2,4.9-5.4,9-9.6,12.4c-0.9,0.7-1.8,1.4-2.7,2.2c-0.3,0.3-0.6,0.5-0.9,0.8c-0.4,0.3-0.5,0.7-0.3,1.2c0.2,0.6,0.4,1.2,0.7,1.8
					c0.7,1.3,1.5,2.6,2.3,3.8c1.4,2,2.6,4.1,3.7,6.4c0,0.1,0.1,0.2,0.2,0.4c0.2-0.2,0.5-0.4,0.6-0.7c2.3-2.5,4.5-5,6.8-7.5
					c0.8-0.9,1.7-1.7,2.6-2.5c0.5-0.4,0.7-0.9,0.7-1.5c0.2-6.9,1-13.7,2.8-20.4c0.3-1,0.7-2.1,1.1-3.1c0.4-1,1.1-1.7,2-2.3
					c1.5-1,3-0.7,3.9,0.9c0.6,1,0.8,2.1,0.9,3.3c0.1,2.6-0.2,5.2-0.5,7.8c-0.4,3.9-0.9,7.7-1.2,11.6c-0.2,1.9-0.2,3.8-0.2,5.6
					c0,1.3,0.2,2.5,0.4,3.8c0.2,1.1,0.6,2.1,1.6,2.8c0.8-0.5,1.3-1,1.8-1.7c1-1.5,2-3.1,2.8-4.7c1.2-2.5,2.2-5.1,3.3-7.7
					c1.3-3.1,2.6-6.2,3.9-9.3c0.4-0.9,0.6-1.8,0.4-2.8c-0.4-3-0.5-6-0.5-9c0-1,0.2-2,0.3-3c0.2-0.9,0.6-1.8,1.3-2.5
					c1.3-1.3,2.9-1.3,4.2,0c0.7,0.7,1.1,1.5,1.3,2.4c0.3,1.7,0.7,3.3,0.9,5c0.3,2.8,0.4,5.7,0.6,8.5c0.2,3,0.4,5.9,0.8,8.9
					c0.1-0.2,0.2-0.5,0.2-0.7c1.2-4.5,2.4-9,3.7-13.4c1-3.4,2.4-6.7,4.3-9.7c1-1.5,2.1-3,3.2-4.4c0.9-1.2,2.1-2.1,3.4-2.7
					c0.7-0.4,1.4-0.7,2.2-0.8c2.2-0.5,4,0.2,5.4,1.9c1.1,1.3,1.7,2.9,2,4.6c0.3,1.8,0.5,3.7,0.5,5.5c0.3,6.2,0.2,12.3-0.1,18.5
					c-0.2,3.7-0.3,7.5-0.4,11.2c-0.1,4,0.2,7.9,1.1,11.8c0.2,0.9,0.6,1.8,0.9,2.7c0.1,0.3,0.4,0.6,0.6,1c0.4-0.3,0.7-0.4,1-0.7
					c0.6-0.8,1.3-1.5,1.8-2.4c1.9-3,3.4-6.3,4.8-9.5c1.3-2.9,2.4-5.8,3.7-8.7c0.2-0.5,0.2-1,0.1-1.6c-2-7.1-2.1-14.1,0.1-21.2
					c0.5-1.5,1.1-3,2-4.4c1.6-2.4,3.6-4.2,6.4-4.9c3.1-0.8,6-0.2,8.6,1.5c2,1.3,3.7,3,4.9,5c0.8,1.3,1.4,2.7,2.1,4
					c0.1,0.3,0.2,0.5,0.4,0.9c0.6-0.8,1.2-1.6,1.8-2.3c1.1-1.3,2.2-2.5,3.3-3.7c1.1-1.1,2.4-1.7,3.9-1.7c1.2,0,2.1,0.4,3,1.1
					c1.3,1.1,2.1,2.6,2.4,4.2c0.2,1.2,0.4,2.5,0.4,3.8c0.1,5-0.2,10.1-0.7,15.1c-0.3,3.1-0.5,6.2-0.8,9.3c-0.5,3.9-1.1,7.8-1.8,11.7
					c-1,5.7-2.3,11.3-4,16.8c-1.8,5.8-4.2,11.3-7.8,16.3c-2.5,3.5-5.3,6.6-8.9,8.8c-2.9,1.8-6.1,3.2-9.5,3.6c-2.8,0.4-5.4,0-8-1.1
					c-3.3-1.4-6-3.5-8-6.5c-0.4-0.6-0.8-0.9-1.5-1.1c-2.3-0.5-4.2-1.7-6-3.2c-1.7-1.5-3.4-3-5.1-4.6c-3.4-3.4-6.7-6.8-10.1-10.1
					c-2.2-2.1-4.7-3.9-7.4-5.2c-4.2-2-8.3-1.9-12.5-0.3c-2.5,1-4.7,2.5-6.3,4.6c-1.1,1.3-1.7,2.9-1.9,4.5c-0.6,4.6,0.7,8.7,3.3,12.4
					c1.2,1.7,2.9,3.1,5,3.4c2.7,0.4,5.1-0.3,6.9-2.4c0.2-0.2,0.4-0.5,0.7-0.8c0.8-0.8,1.8-0.9,2.5-0.3c0.7,0.6,0.9,1.6,0.3,2.5
					c-1.2,1.8-2.6,3.3-4.5,4.2c-4.2,2.1-8.5,1.9-12.6-0.3c-4.1-2.2-6.8-5.6-8.3-10c-0.6-1.8-1.1-3.6-1.1-5.5
					c-0.1-4.5,1.5-8.4,4.5-11.7c4.7-5.1,10.5-7.5,17.5-6.9c5.7,0.5,10.7,2.7,15.2,6.3c0.9,0.7,1.8,1.5,2.6,2.2
					c2.1,1.9,4.2,3.9,6.2,5.9c1.6,1.6,3.2,3.2,4.8,4.7c1.1,1,2.4,1.9,3.6,2.8C311.6,248.6,311.9,248.7,312.2,248.8z M240.1,227.6
					c-0.3,0.4-0.5,0.6-0.7,0.8c-2.5,2.8-4.8,5.7-7,8.8c-3.1,4.5-5.4,9.3-6,14.8c-0.3,2.8,0.1,5.6,1.4,8.1c1,1.9,2.4,3.4,4.5,4
					c2.1,0.6,3.9,0.1,5.3-1.5c0.9-1,1.6-2.1,2.1-3.4c1.4-3.2,2.1-6.6,2.3-10c0.3-5.8-0.1-11.6-1.1-17.4
					C240.7,230.5,240.4,229.1,240.1,227.6z M332.5,189.9c0,2.8,0.1,5,0.5,7c0.2,0.8,0.5,1.6,0.9,2.3c0.4,0.7,1,0.9,1.7,0.5
					c0.6-0.3,1.3-0.7,1.8-1.2c1.3-1.1,2.3-2.5,3.3-3.9c2.3-3.2,4.6-6.4,6.9-9.6c0.3-0.4,0.3-0.7,0.1-1.2c-0.9-2.6-2.6-4.6-4.8-6.3
					c-0.9-0.7-2-1.2-3.1-1.5c-1.6-0.4-3,0-4.2,1.2c-1.1,1.1-1.8,2.5-2.2,4C332.8,184.5,332.6,187.6,332.5,189.9z M317.1,250.2
					c0.4,0,0.7,0,1,0c1.6-0.1,3.2-0.5,4.7-1c2.4-0.8,4.1-2.4,5-4.7c0.4-0.9,0.6-1.8,0.8-2.7c0.5-2.5-0.2-4.7-1.9-6.6
					c-1.7-1.8-3.6-2-5.6-0.7c-1.4,0.9-2.5,2.1-3.3,3.5C315.4,242,315.4,246,317.1,250.2z M213,184.3c0-0.1-0.1-0.2-0.1-0.3
					c-1.3-1.8-3-3.2-5-4.3c-0.4-0.2-1-0.3-1.5-0.3c-1.8,0-3.4,0.7-4.5,2.2c-0.5,0.7-0.9,1.4-1.3,2.2c-0.8,1.7-1.3,3.6-1.6,5.5
					c-0.4,2.3-0.5,4.6-0.1,7c0.1,0.4,0.2,0.8,0.4,1.2c0.3,0.6,0.7,0.9,1.4,0.7c0.3-0.1,0.7-0.2,1-0.5c0.7-0.5,1.3-1,1.9-1.7
					c2.5-2.8,5-5.6,7.2-8.7C211.5,186.3,212.2,185.3,213,184.3z"/>
				<path d="M192.8,213.5c1.6,0,3.2-0.1,4.7-0.1c2.2,0,4.4,0.2,6.6,0.9c5.2,1.5,8.9,4.7,11.4,9.4c2.3,4.5,1.5,9.6-1.7,13.5
					c-1.2,1.5-2.7,2.7-4.4,3.6c-2.4,1.2-4.9,1.4-7.4,0.4c-1.2-0.5-2.3-1-3.3-1.6c-2.9-1.7-5.2-4.1-7.1-6.8
					c-2.3-3.3-4.1-6.8-5.6-10.5c-0.2-0.4-0.3-0.7-0.5-1.2c-0.4,0.1-0.7,0.3-1,0.4c-3.6,1.7-7,3.8-10.2,6.1
					c-4.3,3.1-8.6,6.3-12.9,9.3c-3.3,2.3-6.6,4.6-9.9,6.8c-4.6,3.1-9.5,5.6-14.6,7.7c-4.3,1.8-8.7,2.9-13.4,3.4
					c-8.9,0.9-16.5-1.8-22.4-8.6c-3.7-4.3-5.5-9.5-5.3-15.3c0.1-2.3,0.7-4.5,1.8-6.6c1-1.9,2.4-3.4,4.3-4.5c0.5-0.3,1.1-0.5,1.7-0.7
					c0.9-0.3,1.8,0.2,2.2,0.9c0.4,0.8,0.2,1.7-0.6,2.4c-0.2,0.2-0.4,0.3-0.7,0.5c-2.5,1.6-3.8,4-4.1,6.9c-0.7,6.7,1.9,12,7,16.1
					c2.5,2,5.4,3.3,8.6,3.7c2.6,0.3,5.1,0.2,7.6-0.4c5.7-1.2,11.1-3.3,16.4-6c2.8-1.4,5.5-3,8.1-4.7c5.5-3.5,10.6-7.4,15.9-11.2
					c5.2-3.7,10.5-7.1,16.2-9.9c1.1-0.5,2.2-1,3.4-1.5c-0.1-0.3-0.1-0.5-0.2-0.8c-1.8-6.1-3.1-12.4-3.9-18.7
					c-0.6-4.4-1-8.9-1.5-13.3c-0.3-2.7-0.6-5.3-1.3-7.9c-0.2-0.6-0.4-1.2-0.7-1.9c-0.6,0.2-0.9,0.5-1.3,0.8
					c-1.3,1.3-2.3,2.9-3.2,4.5c-1.4,2.8-2.3,5.8-3.1,8.9c-1.1,4.6-1.7,9.2-2.2,13.9c-0.1,0.8-0.2,1.6-0.4,2.3
					c-0.6,2.2-3.1,3-4.8,1.4c-0.7-0.7-1.2-1.5-1.3-2.4c-0.3-1.6-0.6-3.2-0.7-4.8c-0.5-4.3-0.8-8.6-1.7-12.9
					c-0.3-1.5-0.8-2.9-1.2-4.4c-0.2-0.6-0.5-1.2-1.2-1.7c-0.4,0.3-0.8,0.5-1.1,0.8c-0.6,0.6-1.1,1.3-1.6,2c-1.7,2.7-2.8,5.7-3.4,8.8
					c-0.9,4.4-1.7,8.8-2.6,13.2c-0.3,1.6-0.7,3.1-1.1,4.7c0,0.2-0.1,0.4-0.2,0.6c-0.5,1.2-1.3,2-2.6,2.1c-1.4,0.1-2.4-0.5-3.1-1.6
					c-0.7-1-0.9-2.2-1.1-3.4c-0.1-0.8-0.3-1.6-0.5-2.4c-0.1,0.3-0.2,0.6-0.2,0.9c-1.3,5.2-2.5,10.4-4.4,15.5
					c-0.5,1.4-1.1,2.8-1.9,4.1c-0.4,0.8-1.1,1.6-1.7,2.3c-1.6,1.6-3.6,2-5.8,1.2c-1.2-0.4-2.3-1.1-3-2.1c-0.7-0.9-1.4-1.9-1.9-3
					c-1.7-3.2-2.6-6.7-3.1-10.2c-0.7-4.8-0.8-9.5-0.4-14.3c0.1-0.9,0.2-1.8,0.2-2.7c0-0.3,0-0.6,0-1.1c-0.2,0.3-0.4,0.5-0.5,0.7
					c-2.7,4.6-5.7,8.9-8.8,13.2c-0.9,1.2-1.8,2.3-2.9,3.3c-2.1,1.9-4.5,2.9-7.4,2.6c-2.5-0.3-4.6-1.6-6.3-3.4c-2-2.2-3-4.8-3.5-7.7
					c-0.6-3.3-0.3-6.7,0.3-10c0.8-3.9,2-7.6,3.9-11.1c1.3-2.5,2.9-4.7,5.1-6.5c2-1.7,4.3-2.7,6.9-2.8c1.2-0.1,2.4,0.2,3.6,0.6
					c3.3,1.1,6.1,3,8.5,5.5c0.7,0.8,1.3,1.7,1.9,2.6c0.2,0.2,0.3,0.5,0.5,0.8c0.2-0.7,0.3-1.2,0.4-1.7c0.4-1.8,1.1-3.5,2-5
					c0.7-1.2,1.5-2.1,2.6-2.8c2.7-1.6,5.5-0.3,6.1,2.8c0.3,1.8,0,3.6-0.3,5.4c-0.6,3.6-1.4,7.1-2,10.6c-0.4,2.5-0.7,5.1-1,7.7
					c-0.5,4.4-0.6,8.8-0.4,13.3c0.1,2,0.3,4,1,5.9c0.3,0.8,0.7,1.7,1.2,2.4c0.6,0.9,1.4,0.9,2.1,0c0.3-0.4,0.5-0.8,0.7-1.3
					c1.3-3,2.2-6.2,3.1-9.3c1.5-5.2,2.6-10.5,3.7-15.9c0.1-0.6,0.1-1.2,0.2-1.8c0-2.6,0-5.2,0-7.8c0-2.3,0.1-4.6,0.7-6.8
					c0.2-0.7,0.4-1.5,0.7-2.1c0.2-0.5,0.5-0.9,0.8-1.3c1.2-1.5,2.9-1.4,4.1,0c0.7,0.8,1,1.7,1.2,2.7c0.3,1.8,0.6,3.5,0.8,5.3
					c0.2,2.1,0.2,4.3,0.3,6.5c0,0.2,0,0.4,0.2,0.7c0.1-0.2,0.2-0.5,0.2-0.7c0.7-2.1,1.3-4.2,2.1-6.2c0.8-2.1,1.9-3.9,3.3-5.6
					c1.5-1.8,3.4-3,5.7-3.3c2.6-0.4,4.7,0.5,6.2,2.7c1,1.5,1.4,3.2,1.9,4.9c0.2,0.9,0.4,1.9,0.6,3c0.1-0.4,0.2-0.7,0.3-0.9
					c0.8-2.3,1.5-4.6,2.4-6.9c0.8-2.1,2.1-4,3.8-5.5c1.5-1.4,3.3-2.4,5.3-2.8c1.6-0.3,2.9,0,4.2,0.9c1,0.7,1.7,1.5,2.3,2.6
					c0.7,1.2,1.1,2.5,1.5,3.8c1,3.4,1.5,6.9,2.2,10.3c1,5.6,2,11.2,3.1,16.8c0.7,3.4,1.7,6.7,2.5,10.1
					C192.6,213.1,192.7,213.3,192.8,213.5z M95.4,201.9c0,0.9,0,2.2,0.5,3.4c0.5,1.2,1.4,1.6,2.6,1.2c0.3-0.1,0.6-0.2,0.9-0.4
					c0.8-0.5,1.6-1,2.3-1.6c1.5-1.2,2.8-2.6,3.9-4.2c1.9-2.5,3.7-4.9,5.5-7.4c1.3-1.8,2.5-3.8,3.8-5.7c0.3-0.4,0.3-0.8,0-1.3
					c-0.7-1.1-1.3-2.3-2.1-3.3c-1.4-1.8-3.2-2.9-5.5-3.2c-0.5-0.1-1.1-0.1-1.6,0c-1.5,0.3-2.7,1.2-3.7,2.4c-1.1,1.3-1.9,2.7-2.7,4.2
					C97.1,191,95.6,196.1,95.4,201.9z M194.4,218.4c0.1,0.4,0.2,0.7,0.4,1c1.6,3.8,3.6,7.3,6.1,10.6c0.7,0.9,1.5,1.8,2.3,2.7
					c0.8,0.8,1.8,1.4,2.9,1.8c1.2,0.3,2.3,0.3,3.3-0.4c1.6-1.3,2.5-2.9,2.3-5.1c-0.1-1.3-0.7-2.5-1.5-3.6c-2.4-3.2-5.5-5.5-9.5-6.5
					C198.7,218.4,196.7,218,194.4,218.4z"/>
				<path d="M264.8,174.3c-2.7,0-5-2.4-5-5.3c0-3,2.4-5.4,5.5-5.4c2.6,0,5.1,2.6,5,5.4C270.3,171.8,267.7,174.3,264.8,174.3z"/>
			</g>
		</g>
		<g>
			<g>
				<g>
					<path class="st129" d="M176.5,88.3c-5.5,9.6-7.2,12.3-7.7,13.2l0.1,10.8H166l-0.1-10.6l-8.8-13.7l2.4-1.4l0.4,0.6
						c0.1,0.1,5.1,8.2,7.4,11.3c5.4-8.8,6.6-11.2,6.6-11.3l0.3-0.6l2.6,1.1L176.5,88.3z"/>
					<path class="st129" d="M196.8,91c1.6,2.2,2.5,5.1,2.5,8.3c0,3.3-0.9,6.4-2.7,8.7c-2,2.7-4.8,4.1-8.2,4.1c-3.3,0-6-1.2-7.9-3.6
						c-1.6-2-2.5-4.8-2.5-7.8c0-3.3,1-6.6,2.8-9.1c2-2.8,4.9-4.4,8.1-4.4C192.3,87.2,195,88.5,196.8,91z M183.1,93.2
						c-1.4,2-2.2,4.6-2.2,7.3c0,6.5,4,8.8,7.7,8.8c5.2,0,7.9-5,7.9-10c0-2.5-0.7-4.9-1.9-6.6c-1.4-1.9-3.4-2.9-5.8-2.9
						C186,89.9,184.2,91.7,183.1,93.2z"/>
					<path class="st129" d="M218.3,110.6l0.2,0.7l-2.7,0.9l-0.2-0.7c-0.3-1-0.6-2.4-0.8-4.1c-2,4.1-4.9,4.9-7.2,4.7
						c-7.3-0.7-7.4-15.5-6.7-24.2l0.1-0.7l2.7,0.1l0,1.3c-0.6,16.8,2,20.6,4.3,20.8c1.1,0.1,2.1-0.2,2.9-0.9
						c3.4-3.1,3.4-12.7,3.4-19.7v-1.5h2.8v0.7C216.9,99.8,217,106.7,218.3,110.6z"/>
				</g>
				<g>
					<path class="st129" d="M246.8,112h-2.6l-0.2-0.5c-0.3-1.1-0.7-2.5-0.9-3.2l-9.1-0.1l-0.1,0.4c-0.3,0.8-0.6,2-0.9,2.9l-0.2,0.5
						h-2.7l0.3-1c1.7-5.2,6.4-23.2,6.5-23.4l0.1-0.5h2.5l0.2,0.5c0.1,0.2,5.9,19.6,6.9,23.4L246.8,112z M242.5,105.6l-4.2-13.7
						c-0.2,0.7-0.4,1.6-0.7,2.7c-1,3.9-2.4,8.9-2.9,11L242.5,105.6z"/>
					<path class="st129" d="M262.9,91.1c1.3,1.9,1.4,4.4,0.2,6.7c-1.7,3.3-5.3,5.6-9.5,6.2c0.6,0.6,1.3,1.3,2.1,1.9
						c1.4,1.3,2.9,2.7,4,3.8l0.5,0.5l-2,2l-0.5-0.5c-1-1-2.5-2.4-3.9-3.7c-0.8-0.8-1.7-1.6-2.5-2.3l0,0.1c0,2,0.1,3.9,0.1,5.3v0.7
						h-2.8v-0.7c0-3-0.1-6.7-0.2-10.5c-0.1-4.3-0.2-8.7-0.2-12.7v-0.7l0.7-0.1C255.8,86.7,260.8,88,262.9,91.1z M260.6,92.9
						c-0.7-1.1-2.9-3-9.7-2.6c0,3.3,0.2,8.7,0.2,11.2c0,0,0.1,0,0.1,0c4.3,0,7.6-2.3,9-4.6C260.8,96,261.5,94.3,260.6,92.9z"/>
					<path class="st129" d="M284.7,104.4l-15.9,0.4c0.9,1.9,2.7,3.4,4.7,4c1.9,0.6,4.9,0.6,8.4-2.3l0.6-0.5l1.8,2.2l-0.6,0.5
						c-2.7,2.2-5.5,3.3-8.2,3.3c-1.1,0-2.2-0.2-3.3-0.6c-3.4-1.2-5.9-4.2-6.7-7.9c-1-4.7,0.8-10.8,4.4-14.1c2.1-2,4.5-2.7,6.8-2.1
						c4.6,1.3,7.8,7.7,8.1,16.3L284.7,104.4z M281.7,101.6c-0.4-5.7-2.1-9.7-4.8-11c-0.6-0.3-1.2-0.4-1.8-0.4
						c-1.1,0-2.2,0.4-3.3,1.2c-2.2,1.6-4.4,5.4-3.7,10.5L281.7,101.6z"/>
				</g>
			</g>
			<g>
				<g>
					<path class="st129" d="M174.3,144.4c-0.1,1.3-0.8,2.5-2.1,3.6c-1,0.8-2.3,1.3-3.7,1.3c-1,0-2-0.2-3-0.7
						c-2.4-1.2-3.7-3.6-3.3-6.2l2.9,0.3c-0.2,1.5,0.5,2.8,1.8,3.4c1.2,0.6,2.5,0.5,3.4-0.2c1.1-0.9,1.1-1.4,1.1-1.6
						c0.1-1.3-1.8-3.1-3.6-4.9c-3.1-3.1-7.1-6.9-4.7-11.8c1.2-2.4,3.3-3.7,5.7-3.3c2.6,0.4,4.7,2.7,4.9,5.5l-2.9,0.2
						c-0.2-1.7-1.4-2.8-2.5-3c-1.4-0.2-2.2,1-2.5,1.7c-1.4,2.9,0.7,5.4,4.1,8.7C172.3,139.8,174.4,141.9,174.3,144.4z"/>
					<path class="st129" d="M193.2,147.7l0.2,0.7l-2.7,0.9l-0.2-0.7c-0.3-1-0.6-2.4-0.8-4.1c-2,4.1-4.9,4.9-7.2,4.7
						c-7.3-0.7-7.4-15.5-6.7-24.2l0.1-0.7l2.7,0.1l0,1.3c-0.6,16.8,2,20.6,4.3,20.8c1.1,0.1,2.1-0.2,2.9-0.9
						c3.4-3.1,3.4-12.7,3.4-19.7v-1.5h2.8v0.7C191.9,136.9,192,143.9,193.2,147.7z"/>
					<path class="st129" d="M213.1,129.9l0.3,0.6l-0.6,0.3c-0.4,0.2-0.8,0.4-1.2,0.6l-0.7,0.3l-0.3-0.7c-0.4-1-1-1.8-1.7-2.4
						c-0.9-0.9-2-1.4-3.3-1.6c-2.9-0.3-5,0.8-6.5,3.3c-0.7,1.1-1.1,2.4-1.4,3.9c-0.3,1.5-0.3,3.1-0.1,4.7c0.1,1.5,0.5,2.9,1,4.1
						c0.5,1.2,1.1,2.1,1.8,2.6c0.7,0.5,1.4,0.8,2.2,0.7c1-0.1,2.1-0.7,3.2-1.8c0.8-0.7,1.5-1.6,2.3-2.6c0.4-0.5,0.7-1.1,1.2-1.7
						l0.4-0.6l0.6,0.3c0.4,0.2,0.8,0.4,1.2,0.6l0.7,0.4l-0.4,0.7c-0.5,0.8-0.9,1.4-1.3,2c-0.9,1.2-1.8,2.2-2.7,3.1
						c-1.6,1.5-3.2,2.3-4.8,2.4c-0.2,0-0.4,0-0.7,0c-1.3,0-2.5-0.4-3.6-1.3c-1-0.9-1.9-2.1-2.5-3.6c-0.6-1.5-1.1-3.2-1.3-5
						c-0.2-1.9-0.1-3.7,0.2-5.5c0.3-1.8,0.9-3.4,1.7-4.8c1-1.7,2.3-2.9,3.8-3.7c1.6-0.8,3.4-1.1,5.4-0.9c1.9,0.2,3.6,1,5,2.3
						C211.8,127.5,212.6,128.6,213.1,129.9z"/>
					<path class="st129" d="M231.1,136.2c0.1,4.1,0.2,8.3,0.2,12.2v0.7h-2.8v-0.7c0-1.1,0-3.5,0-4.9l-10.5,0v5.3h-2.8v-0.7
						c0-3.1-0.1-7.5-0.2-11.8c-0.1-4.2-0.2-8.6-0.2-11.7V124h2.8v0.7c0,3.3,0.1,7.5,0.2,11.1c0.1,1.8,0.1,3.5,0.1,4.9l10.5,0
						l-0.4-16.4h2.8v0.7C230.9,128.5,231,132.3,231.1,136.2z"/>
				</g>
				<g>
					<path class="st129" d="M259.6,149.2H257l-0.2-0.5c-0.3-1.1-0.7-2.5-0.9-3.2l-9.1-0.1l-0.1,0.4c-0.3,0.8-0.6,2-0.9,2.9l-0.2,0.5
						h-2.7l0.3-1c1.7-5.2,6.4-23.2,6.5-23.4l0.1-0.5h2.5l0.2,0.5c0.1,0.2,5.9,19.6,6.9,23.4L259.6,149.2z M255.3,142.7l-4.2-13.7
						c-0.2,0.7-0.4,1.6-0.7,2.7c-1,3.9-2.4,8.9-2.9,11L255.3,142.7z"/>
					<path class="st129" d="M279.1,124.2l0.4,25h-2.9l-12.9-19l0.4,18.9h-2.8l-0.4-24.7h2.4l13.3,19.1l-0.4-19.4H279.1z"/>
				</g>
			</g>
		</g>
	</g>
</g>
</svg>
