<?xml version="1.0" encoding="utf-8"?>
<!-- Generator: Adobe Illustrator 21.1.0, SVG Export Plug-In . SVG Version: 6.00 Build 0)  -->
<svg version="1.1" id="Calque_1" xmlns="http://www.w3.org/2000/svg" xmlns:xlink="http://www.w3.org/1999/xlink" x="0px" y="0px"
	 viewBox="0 0 432 432" style="enable-background:new 0 0 432 432;" xml:space="preserve">
<style type="text/css">
	.st0{fill:#1B1B1B;}
	.st1{fill:#746458;}
	.st2{fill:#C1944E;}
	.st3{fill-rule:evenodd;clip-rule:evenodd;fill:#C1944E;}
	.st4{fill:#020203;}
	.st5{fill:#92AA3C;}
	.st6{fill:#A67D52;}
	.st7{fill:#C69C6C;}
	.st8{fill:#E7E6E6;}
	.st9{fill:#B83A44;}
	.st10{fill:#78716A;}
	.st11{fill:#343434;}
	.st12{fill:#AC2F39;}
	.st13{fill:#B4B4B4;}
	.st14{fill:#BA9BC9;}
	.st15{fill:#CA9685;}
	.st16{fill:#99A5AF;}
	.st17{fill:#6B897C;}
	.st18{fill:#718AA5;}
	.st19{fill:#B28E81;}
	.st20{fill:#808181;}
	.st21{fill:#AD8963;}
	.st22{fill:#CDCCCC;}
	.st23{fill:#CC9485;}
	.st24{fill:#A192B1;}
	.st25{fill:#758971;}
	.st26{fill:#97A8B2;}
	.st27{fill:#5B6876;}
	.st28{fill:#7A8F44;}
	.st29{fill:#30354C;}
	.st30{fill:#6D798D;}
	.st31{fill:#946277;}
	.st32{fill:#4E4D4D;}
	.st33{fill:#D59985;}
	.st34{fill:#975B5D;}
	.st35{fill:#566567;}
	.st36{fill:#BBCC53;}
	.st37{fill:#A9807A;}
	.st38{fill:#676767;}
	.st39{fill:#BF8B7B;}
	.st40{fill:#743F2F;}
	.st41{fill:#C29347;}
	.st42{fill-rule:evenodd;clip-rule:evenodd;fill:#C29347;}
	.st43{fill:#BF924C;}
	.st44{fill:#D39A46;}
	.st45{fill:#476FA1;}
	.st46{fill:#BF694C;}
	.st47{fill:#934735;}
	.st48{fill:#F39A94;}
	.st49{fill:#F7BDB9;}
	.st50{fill:#2B2525;}
	.st51{fill:#DAB0B3;}
	.st52{fill:#8E6568;}
	.st53{fill:#BD684F;}
	.st54{fill:#EAAA63;}
	.st55{fill:#6D8FB0;}
	.st56{fill:#E99C4F;}
	.st57{fill:#EB8563;}
	.st58{fill:#F39149;}
	.st59{fill:#B56955;}
	.st60{fill:#B73736;}
	.st61{fill:#D8AD74;}
	.st62{fill:#C07A41;}
	.st63{fill:#F9B03D;}
	.st64{fill:#C1292E;}
	.st65{fill:#A8A1CF;}
	.st66{fill:#F8C6CC;}
	.st67{fill:#AE748E;}
	.st68{fill:#738998;}
	.st69{fill:#5B856E;}
	.st70{fill:#32353E;}
	.st71{fill:#537791;}
	.st72{fill:#3C3C3A;}
	.st73{fill:#823231;}
	.st74{fill:#C19446;}
	.st75{fill:#CDA372;}
	.st76{fill:#C26647;}
	.st77{fill:#B16F59;}
	.st78{fill:#823D26;}
	.st79{fill:#C7AA72;}
	.st80{fill:#A46B75;}
	.st81{fill:#688698;}
	.st82{fill:#C1949E;}
	.st83{fill:#7CA991;}
	.st84{fill:#758F5E;}
	.st85{fill:#908E60;}
	.st86{fill:#4C4B3D;}
	.st87{fill:#4E5E6E;}
	.st88{fill:#C1BD99;}
	.st89{fill:#DEE3B1;}
	.st90{fill:#ADA6AD;}
	.st91{fill:#90535D;}
	.st92{fill:#59493C;}
	.st93{fill:#009245;}
	.st94{fill:#3B8E5F;}
	.st95{fill:#82A0B3;}
	.st96{fill:#974B4B;}
	.st97{fill:#FFFFFF;}
	.st98{fill:#D7A564;}
	.st99{fill:#C78859;}
	.st100{fill:#76ABBC;}
	.st101{fill:#58A2B3;}
	.st102{fill:#797AA5;}
	.st103{fill:#B38F6E;}
	.st104{fill:#739AA8;}
	.st105{fill:#CD9C8C;}
</style>
<g>
	<g>
		<path class="st47" d="M257.4,274c-0.6,1.7-1.1,3.2-1.6,4.8c-2.4,7.5-5.1,14.8-8.1,22.1c-0.9,2.1-2,4.1-3.1,6.1
			c-0.4,0.8-1,1.5-1.6,2.1c-2.4,2.7-5.9,3.4-9.2,1.9c-1.8-0.8-3.2-2-4.4-3.5c-2.6-3.2-4.1-6.9-4.6-11c-0.5-3.4-0.5-6.8-0.5-10.2
			c0.1-4.3,0.4-8.7,0.9-13c0.4-4.1,0.9-8.2,1.4-12.3c0.2-1.7,0.3-3.4,0.4-5.1c0.2-2.2,0.4-4.4,0.5-6.7c0-1.5-0.2-2.9-0.3-4.4
			c0-0.2-0.1-0.5-0.2-0.7c-0.3-0.6-0.8-0.8-1.3-0.5c-0.6,0.3-1.2,0.6-1.7,1c-1.5,1.2-2.8,2.7-4,4.3c-2.4,3.1-4.2,6.4-5.7,10
			c-1.2,2.7-2.3,5.5-3.4,8.2c-0.6,1.4-1.3,2.9-2.1,4.2c-0.4,0.7-1,1.3-1.7,1.7c-1.8,1.2-4,0.8-5.7-0.8c-1.1-1-1.7-2.3-2.2-3.7
			c-0.8-2.1-1-4.4-1.1-6.7c0-1.4,0-2.8,0-4.3c-0.2,0.3-0.3,0.4-0.4,0.6c-0.8,1.7-1.7,3.4-2.5,5c-1,1.8-2.1,3.5-3.5,5
			c-1.4,1.5-3,2.7-5,3.2c-2.3,0.6-4.6,0.2-6.7-0.8c-2.1-1.1-3.8-2.6-5.2-4.5c-0.2-0.3-0.4-0.6-0.7-1c-0.2,0.5-0.3,0.7-0.4,1
			c-1.6,4.9-3.2,9.8-4.9,14.8c-0.5,1.4-1,2.7-1.7,4c-0.5,1-1.1,1.9-1.8,2.8c-2,2.4-4.8,2.8-7.5,1.3c-1.5-0.8-2.7-2-3.7-3.3
			c-2.4-3.1-3.8-6.6-4.6-10.4c-0.8-4.2-1-8.4-0.9-12.7c0-0.3,0-0.6,0-1c-0.2,0.3-0.3,0.4-0.4,0.6c-0.8,1.1-1.4,2.3-2.3,3.3
			c-0.6,0.8-1.4,1.5-2.2,2.1c-2.5,1.8-5.1,1.8-7.8,0.5c-0.7-0.4-1.4-0.8-2.2-1.3c-0.2,0.8-0.4,1.7-0.6,2.5
			c-1.2,5.2-2.2,10.5-3.8,15.7c-1.1,3.4-2.2,6.8-3.4,10.2c-0.6,1.7-1.5,3.3-2.7,4.7c-1.2,1.4-2.8,2.1-4.6,2.1c-2.6-0.1-4.8-1-6.5-3
			c-1.2-1.4-2.1-3-2.7-4.7c-1.1-2.8-1.7-5.8-2-8.9c-0.6-5.7-0.4-11.4-0.2-17.1c0.1-3.8,0.5-7.6,0.7-11.4c0.3-6.5,0.4-13.1,0-19.6
			c-0.1-1.4-0.3-2.8-0.6-4.2c-0.1-0.7-0.4-1.3-0.7-1.9c-0.4-0.7-1-0.9-1.7-0.4c-0.3,0.2-0.6,0.6-0.8,0.9c-1.3,1.7-2.2,3.6-3.1,5.5
			c-1.7,3.8-2.8,7.9-3.5,12c-0.8,4.4-1.4,8.9-2.1,13.3c-0.1,0.3-0.1,0.7-0.2,1c-0.5,2.3-2.7,3.5-4.9,2.5c-0.8-0.3-1.4-0.9-2-1.6
			c-1.2-1.4-2.1-3.1-2.5-4.9c-0.5-2.1-0.9-4.2-1.3-6.3c-0.5-2.2-1.1-4.4-1.7-6.6c-0.3-0.9-0.7-1.7-1.2-2.4c-0.6-0.9-1.3-1-2.1-0.3
			c-0.4,0.3-0.7,0.7-0.9,1.2c-1.2,2.3-1.8,4.8-2.1,7.4c-0.3,2.4-0.4,4.8-0.4,7.2c0,1.9,0,3.8-0.2,5.6c-0.2,2.1-1.7,3.4-3.6,3.5
			c-1.3,0-2.3-0.5-3.3-1.2c-1.3-1-2.3-2.3-3.2-3.7c-1.3-2-2.1-4.3-2.8-6.6c-1.4-4.7-2.4-9.5-3.2-14.3c-0.5-2.7-0.9-5.3-1.2-8
			c-0.2-1.7-0.5-3.5-0.1-5.3c0.5-2.6,2.7-4.2,5.1-3.8c1.5,0.2,2.7,1.1,3.3,2.5c0.4,0.8,0.7,1.8,0.8,2.7c0.9,6.2,2,12.4,3.4,18.5
			c0.3,1.5,0.7,2.9,1.1,4.4c0.1,0.3,0.2,0.6,0.4,0.9c0-0.3,0.1-0.6,0.1-0.9c0.5-3.6,1.1-7.2,2.4-10.6c0.5-1.3,1.1-2.5,1.7-3.7
			c0.3-0.7,0.8-1.3,1.3-1.9c2.2-2.6,5.4-3.1,8.3-1.4c1.9,1.1,3.2,2.7,4.2,4.5c1.1,2.1,1.8,4.3,2.4,6.6c0.2,0.8,0.4,1.7,0.7,2.7
			c0.1-0.3,0.2-0.4,0.3-0.6c0.7-3.9,1.5-7.7,2.6-11.5c1.2-4,2.8-7.9,5.2-11.3c1-1.4,2-2.7,3.4-3.8c1.3-1.1,2.8-1.8,4.5-1.9
			c2.8-0.1,4.9,1.2,6.6,3.4c1.5,1.9,2.2,4.2,2.5,6.5c0.6,4.1,0.6,8.2,0.5,12.3c-0.1,1.5,0,3.1-0.1,4.6c-0.1,3.1-0.3,6.3-0.5,9.4
			c-0.1,2.7-0.3,5.3-0.5,8c-0.2,3.4-0.5,6.8-0.6,10.2c-0.1,3.9-0.2,7.8-0.2,11.7c0,2.2,0.3,4.4,0.9,6.5c0.2,0.6,0.4,1.2,0.6,1.8
			c0.2,0.4,0.5,0.7,0.7,1.1c0.6-0.2,0.9-0.7,1.1-1.1c0.7-1.3,1.4-2.7,1.9-4.1c2.3-6.2,4.3-12.5,5.8-19c0.7-2.9,1.3-5.7,2-8.6
			c0.2-0.6,0-1.2-0.2-1.8c-3.5-7.5-3.5-15,0.7-22.3c1.1-1.8,2.5-3.4,4.2-4.6c3.7-2.5,7.4-2.8,11.3-0.5c1.6,1,3.2,2.1,4.6,3.5
			c0.2,0.2,0.4,0.3,0.6,0.5c0.2-0.5,0.4-1,0.6-1.4c0.4-1,1.1-1.9,1.9-2.5c2-1.4,4.4-0.9,5.7,1.1c0.6,1,0.9,2,0.8,3.1
			c-0.1,2-0.3,4.1-0.6,6.1c-0.5,3.8-1,7.5-1.3,11.3c-0.4,4.6-0.5,9.2-0.3,13.7c0.1,3.2,0.3,6.5,1.3,9.6c0.4,1.2,0.9,2.3,1.5,3.5
			c0.1,0.3,0.4,0.6,0.7,1c0.4-0.6,0.8-1,1.1-1.5c1.2-1.9,2.1-3.9,2.9-6c1.6-4.2,3.1-8.5,4.7-12.7c0.3-0.9,0.7-1.8,1.1-2.7
			c0.2-0.5,0.2-0.9,0.1-1.4c-1.2-4.4-1.6-9-1.3-13.5c0.2-3.6,0.7-7.1,2-10.5c1.1-2.8,2.6-5.3,4.7-7.4c1.2-1.2,2.6-2.1,4.2-2.6
			c1.9-0.6,3.8-0.7,5.6,0c4,1.6,6.6,4.4,7.6,8.6c0.2,0.8,0.1,1.7,0.1,2.6c0,0.1,0,0.1,0,0.2c-0.2,0.9-0.7,1.5-1.3,1.6
			c-0.6,0.1-1.1-0.4-1.4-1.3c-0.2-0.5-0.3-0.9-0.5-1.4c-0.6-1.6-1.6-2.9-3.1-3.8c-2-1.3-3.6-0.9-4.6,1.2c-0.7,1.5-1,3-1.3,4.6
			c-0.8,4.4-1,8.9-0.7,13.4c0.1,2.7,0.6,5.4,1.5,7.9c0.4,1.1,0.9,2.2,1.7,3.1c0.3,0.4,0.7,0.7,1,1c0.7,0.6,1.5,0.6,2.3,0
			c0.7-0.6,1.5-1.2,2-2c1.1-1.7,2.3-3.4,3.2-5.2c1.4-2.7,2.7-5.5,4-8.2c0.3-0.7,0.6-1.3,0.9-2c0.5-0.9,0.7-1.9,0.8-2.9
			c1.1-9.9,2.8-19.7,6-29.2c1.3-3.7,2.8-7.2,4.8-10.5c1.2-2.1,2.6-4.1,4.4-5.8c1.5-1.4,3.1-2.6,5.1-3.1c3-0.8,5.9,0.3,7.6,2.9
			c1.2,1.9,1.7,4,1.8,6.2c0.1,3.9-0.6,7.7-1.9,11.4c-3.2,9-8.4,16.6-15.4,23c-0.4,0.4-0.8,0.7-1.2,1c-0.7,0.4-1,1.1-1.1,1.9
			c-0.2,2.5-0.6,5-0.7,7.5c-0.3,3.3-0.4,6.7-0.6,10.1c0,0.2,0,0.5,0.1,0.7c0.1-0.3,0.3-0.6,0.4-0.9c2.7-5.5,5.8-10.9,9.6-15.8
			c1.4-1.8,3-3.5,4.9-5c1.2-1,2.5-1.7,4-2.3c3.7-1.4,7.5-0.1,9.7,3.2c1.1,1.7,1.7,3.6,2.1,5.6c0.5,3.1,0.7,6.3,0.5,9.5
			c-0.1,2.3-0.2,4.5-0.4,6.8c-0.3,3.5-0.7,7-1,10.5c-0.3,2.6-0.6,5.1-0.8,7.7c-0.3,3.1-0.6,6.1-0.8,9.2c-0.2,3.1-0.2,6.3-0.2,9.4
			c0,1.9,0.4,3.7,1.1,5.4c0.2,0.6,0.6,1.2,1,1.7c0.7,0.8,1.4,0.8,2-0.1c0.8-1,1.5-2.1,2.1-3.2c2-3.4,3.5-7.2,5-10.8
			c3-6.9,5.3-14.1,7.9-21.2c0.3-0.8,0.4-1.6,0.3-2.5c-0.1-1.4-0.2-2.8-0.2-4.2c0-6.2,0.6-12.4,2.3-18.3c0.3-1.1,0.8-2.1,1.3-3.1
			c0.5-1.1,1.4-2,2.5-2.5c1.7-0.8,3.6-0.3,4.7,1.2c0.6,0.9,1,1.9,0.9,3c-0.1,1.5-0.2,3-0.4,4.4c-0.7,3.8-1.3,7.7-1.5,11.6
			c-0.3,4.2-0.1,8.4,0.6,12.6c0.2,1.2,0.5,2.4,1.3,3.5c0.4-0.3,0.7-0.5,1-0.8c0.7-0.9,1.5-1.7,2.1-2.6c1.2-1.8,2.3-3.6,3.3-5.5
			c2.5-4.7,4.9-9.4,7.3-14c0.3-0.5,0.4-1,0.4-1.5c0-4.2,0.5-8.4,1.5-12.5c0.3-1.2,0.8-2.4,1.6-3.4c0.5-0.7,1.2-1.2,2-1.5
			c1.8-0.7,3.4-0.3,4.6,1.3c0.7,1,1.1,2.1,1.4,3.3c0.6,2.5,0.6,5.1,0.5,7.7c-0.1,2.7-0.3,5.5-0.5,8.2c0,0.5-0.1,0.9,0,1.4
			c0.1-0.3,0.3-0.6,0.4-0.9c2.3-5.2,4.9-10.3,8.3-14.9c1-1.4,2.2-2.8,3.3-4.1c0.9-1.1,2-2,3.3-2.6c2.3-1.1,4.6-0.7,6.4,1.1
			c1.2,1.2,2,2.7,2.5,4.4c0.9,2.8,1.1,5.7,0.9,8.7c-0.2,3.5-0.6,7-0.9,10.5c-0.2,2-0.4,4.1-0.5,6.1c-0.2,3.6-0.3,7.2-0.4,10.8
			c-0.1,1.7,0.1,3.5,0.4,5.2c0,0.2,0.1,0.4,0.2,0.8c0.4-0.5,0.7-0.8,0.9-1.2c2.5-3.9,4.4-8.2,5.7-12.7c0.1-0.3,0.1-0.7,0-1
			c-1.1-8.8,0.1-17.2,3.4-25.4c1.4-3.4,3.4-6.3,6.3-8.6c1.9-1.5,3.9-2.5,6.3-2.7c6.6-0.5,12,5.3,10.5,11.4
			c-1.3,5.3-4.1,9.5-9.1,12.1c-2.4,1.2-4.9,1.8-7.7,1.5c-0.1,0.7-0.2,1.3-0.3,1.9c-0.4,3.8-0.3,7.5,0.8,11.2c0.5,1.6,1.1,3.1,2,4.5
			c0.3,0.5,0.6,0.9,1,1.3c1.6,1.7,3.5,2.2,5.8,1.5c2.4-0.7,4.4-2.1,6.3-3.7c2.4-2,4.5-4.3,6.2-6.9c1.9-2.8,3.6-5.6,5.3-8.4
			c0.4-0.7,0.7-1.5,1.1-2.2c0.3-0.6,0.7-1.3,1.2-1.8c0.6-0.7,1.3-1,2.3-0.7c0.9,0.3,1.4,1.1,1.4,2.1c0,0.4-0.1,0.8-0.2,1.2
			c-0.5,2.2-1.4,4.4-2.5,6.4c-2.8,5-6.1,9.6-9.9,13.9c-2.5,2.8-5.4,5.1-8.9,6.6c-4,1.7-7.9,1.5-11.8-0.5c-3.2-1.7-5.5-4.1-7.2-7.2
			c-0.1-0.3-0.3-0.5-0.5-0.9c-0.2,0.4-0.3,0.7-0.4,1c-0.5,1.6-1,3.2-1.5,4.8c-0.7,2-1.6,4-2.9,5.7c-1,1.3-2.1,2.4-3.8,2.8
			c-1.5,0.4-2.9,0-4.1-0.7c-1.2-0.7-2.1-1.8-2.8-3c-1.7-2.7-2.6-5.7-3-8.9c-0.4-3.8-0.2-7.5,0.1-11.3c0.2-2.4,0.4-4.9,0.6-7.3
			c0.2-2.1,0.5-4.2,0.6-6.4c0.2-2.2,0.3-4.5,0.3-6.7c0-0.6-0.2-1.3-0.4-1.9c-0.3-0.8-0.7-0.9-1.3-0.2c-1,1.1-2,2.3-2.8,3.5
			c-3.1,4.3-5.4,9.1-7.3,14c-1,2.6-1.9,5.2-2.8,7.8c-0.4,1.1-0.8,2.1-1.3,3.1c-0.2,0.5-0.5,0.9-0.8,1.3c-1.5,1.8-3.9,2-5.7,0.5
			c-0.8-0.7-1.4-1.6-1.8-2.5c-1-2-1.5-4.1-1.9-6.3c-0.1-0.6-0.2-1.3-0.4-2c-0.1,0.3-0.3,0.5-0.4,0.8c-2.1,4.7-4.3,9.3-6.7,13.8
			c-0.7,1.2-1.3,2.4-2.1,3.6c-0.7,0.9-1.4,1.8-2.3,2.6c-2.3,2-5.1,2.1-7.7,0.5c-1.8-1.2-3.1-2.8-4.1-4.7
			C257.8,274.7,257.7,274.4,257.4,274z M137.9,251.8c0.1,1,0.1,1.9,0.2,2.9c0.1,1.5,0.4,3,1.1,4.4c0.3,0.8,0.8,1.4,1.4,2
			c0.7,0.6,1.4,0.7,2.2,0.3c0.6-0.4,1.2-0.8,1.6-1.3c0.6-0.8,1.2-1.7,1.6-2.6c1-1.8,1.6-3.8,2.2-5.8c0.6-1.8,0.8-3.6,0.7-5.5
			c-0.1-1.7-0.4-3.3-1.5-4.7c-0.9-1.2-2.1-1.7-3.6-1.3c-0.5,0.1-1,0.4-1.4,0.7c-1.4,0.9-2.4,2.2-3.1,3.7
			C138.4,246.8,137.8,249.2,137.9,251.8z M210.8,233.2c0.3-0.3,0.5-0.4,0.6-0.5c4-4.4,7.4-9.1,9.6-14.7c0.5-1.3,1-2.5,1.5-3.8
			c1.1-2.8,1.8-5.7,2-8.8c0.1-1.1,0.1-2.3-0.3-3.4c-0.5-1.5-1.7-1.8-2.7-0.7c-0.7,0.8-1.4,1.6-1.9,2.6c-0.8,1.5-1.5,3-2.2,4.6
			c-2.4,5.8-3.9,11.9-5.3,18C211.6,228.7,211.2,230.9,210.8,233.2z M333.2,249.3c1.1,0.2,2,0,2.9-0.2c5-1.1,7.9-4.4,9.3-9.2
			c0.2-0.7,0.2-1.4,0.2-2.1c-0.1-1.5-0.9-2.6-2.3-3.2c-1.3-0.6-2.7-0.4-3.8,0.5c-0.5,0.4-0.9,0.9-1.4,1.4c-1,1.2-1.7,2.7-2.3,4.1
			C334.7,243.4,333.8,246.3,333.2,249.3z"/>
		<path class="st47" d="M271,222.8c-0.1,4.1-3.7,8.1-7.7,8.5c-1,0.1-2-0.1-2.9-0.5c-4.1-1.8-5.3-5.9-4.6-9.4
			c0.4-2.1,1.4-3.9,3.3-5.2c4.7-3,10.6-0.4,11.7,5C270.9,221.7,270.9,222.2,271,222.8z"/>
	</g>
	<g>
		<path class="st11" d="M377.6,158.9c-0.4-2.8-1.1-5.5-2.3-8.1c-0.9-1.9-1.9-3.7-2.9-5.6c-1.4-2.5-3.2-4.8-5.1-6.9
			c-2.6-2.8-5.4-5.2-8.6-7.2c-3.1-2-6.5-3.5-10.1-4.3c-3.1-0.7-6.3-1-9.9-1c-1.5,0-3.4,0.1-5.3,0.3c-2.9,0.4-5.7,1.1-8.5,2
			c-3.4,1.2-6.6,3-9.7,5c-2.8,1.9-5.2,4.1-7.5,6.5c-1.5,1.5-2.6,3.3-3.6,5.2c-0.8,1.7-1.5,3.4-2.2,5.1c-1.3,3.2-2.3,6.6-2.8,10.1
			c-0.2,1.1-0.3,2.3-0.4,3.5c-0.1,2.3-0.1,4.6,0.3,6.9c0.2,1.2,0.4,2.5,0.6,3.7c0.5,2.3,1.2,4.6,2.2,6.8c1.2,2.8,2.7,5.4,4.4,7.8
			c2,2.8,4.3,5.2,7,7.4c2.8,2.3,5.8,4.2,9.2,5.7c1.7,0.8,3.5,1.5,5.3,2c1.2,0.3,2.5,0.6,3.7,0.9c0.7,0.2,1.5,0.2,2.2,0.3
			c0.8,0.1,1.6,0.2,2.3,0.2c1.1,0.1,2.1,0.1,3.2,0.1c2,0,4-0.2,6-0.5c1.4-0.2,2.7-0.5,4-0.9c2.7-0.8,5.2-1.9,7.7-3.1
			c3-1.6,5.8-3.5,8.3-5.8c2.5-2.2,4.6-4.7,6.4-7.5c1.4-2.1,2.6-4.3,3.6-6.6c1.2-2.9,2.1-6,2.6-9.1c0.2-1.4,0.3-2.9,0.4-4.4
			C378.1,164.5,378,161.7,377.6,158.9z M303.8,163.5c-0.2-0.2-0.5-0.4-0.8-0.5c-0.2-0.1-0.3-0.3-0.3-0.6c0.3-4.4,1.2-8.8,2.9-12.9
			c0.3-0.8,0.9-1.4,1.6-1.8c0.3-0.2,0.7-0.4,1-0.6c1-0.6,2.1-0.8,3.2-1c2.1-0.3,4.2-0.4,6.4-0.5c0.9,0,1.7,0,2.6,0
			c0.3,0,0.5,0.1,0.7,0.2c0.6,0.4,1.2,0.8,1.7,1.4c0.6,0.9,1.3,1.8,1.9,2.8c0.5,0.7,0.9,1.4,1.1,2.2c0.2,0.5,0.2,1,0.1,1.5
			c-0.1,1.4-0.6,2.8-1.1,4.1c-0.4,1.4-0.9,2.8-1.4,4.2c-0.7,1.8-1.7,3.3-3.2,4.6c-0.5,0.4-1.2,0.7-1.8,0.9c-1.2,0.3-2.3,0.6-3.5,1
			c-0.8,0.2-1.5,0.4-2.3,0.6c-0.5,0.1-0.9,0.1-1.3-0.2c-0.6-0.5-1.3-0.9-1.9-1.3C307.6,166.2,305.7,164.8,303.8,163.5z M336,185.5
			c-0.1,1.2-0.2,2.5-0.3,3.7c-0.1,1.4-0.8,2.6-1.9,3.5c-2.7,2.1-5.5,4.2-8.3,6.3c-0.3,0.2-0.6,0.2-0.9,0.1c-2.8-1.1-5.4-2.6-7.8-4.3
			c-2-1.4-3.7-3-5.2-4.9c-0.8-1-1.5-2-2.3-3.1c-0.2-0.2-0.2-0.5-0.1-0.7c0.8-2.9,1.5-5.8,2.2-8.7c0.2-1.1,0.6-2.1,0.9-3.1
			c0.1-0.3,0.3-0.5,0.5-0.6c1-0.4,2.1-0.7,3.2-0.9c1.4-0.3,2.8-0.6,4.2-0.8c0.4,0,0.8,0,1.2,0.1c0.6,0.2,1.1,0.4,1.7,0.6
			c0.1,0.1,0.3,0.1,0.4,0.2c2.6,1.7,5.3,3.3,7.9,5c1,0.6,2.1,1.3,3.1,1.9c0.7,0.5,1.1,1.1,1.3,1.9C336,182.6,336,184.2,336,185.5z
			 M338.1,149.7c-2,0-3.9,0-5.9,0c-1.5,0-2.7-0.6-3.5-1.8c-0.7-1.1-1.4-2.2-2.1-3.4c-0.8-1.3-1.2-2.8-1.4-4.3c0-0.2,0-0.4-0.1-0.6
			c-0.1-0.7,0-1.4,0.1-2.1c0.4-1.8,0.8-3.6,1.2-5.3c0.1-0.3,0.1-0.4,0.4-0.5c2.2-0.7,4.4-1.2,6.7-1.5c2.3-0.3,4.6-0.4,7-0.3
			c3.6,0.1,7.1,0.7,10.4,2c0.4,0.2,0.6,0.4,0.6,0.8c0.3,1.8,0.7,3.5,1,5.3c0.2,1.4,0.3,2.8,0,4.1c-0.2,0.7-0.5,1.4-1,1.9
			c-1.3,1.4-2.7,2.8-4.2,4c-0.7,0.5-1.3,1-2,1.5c-0.3,0.2-0.6,0.3-1,0.3C342.3,149.7,340.2,149.7,338.1,149.7z M366.3,186.2
			c-1.1,1.4-2.2,2.7-3.4,4c-2,2-4,4-6.2,5.8c-1.4,1.1-2.8,2-4.4,2.8c-0.2,0.1-0.4,0.2-0.7,0c-2.6-2-5.4-3.7-8.1-5.6
			c-1-0.7-1.9-1.4-2.9-2.1c-0.4-0.3-0.6-0.7-0.7-1.1c0-0.1,0-0.2,0-0.3c-0.1-2.1-0.1-4.2,0.4-6.3c0.3-1.3,1-2.4,1.9-3.3
			c0.4-0.4,0.9-0.7,1.3-1c2.4-1.8,4.8-3.5,7.3-5.1c1-0.7,2.1-1,3.3-1c1.8,0.2,3.6,0.6,5.3,1.2c1.2,0.5,2.3,1.1,3.3,1.9
			c1,0.8,1.7,1.8,2.1,3c0.5,1.2,0.8,2.5,1,3.9c0.2,0.9,0.3,1.9,0.5,2.8C366.5,185.8,366.5,186,366.3,186.2z M367.1,166
			c-0.7,0.4-1.5,0.8-2.2,1.2c-0.2,0.1-0.4,0.2-0.7,0.3c-0.8,0.4-1.6,0.5-2.4,0.1c-1.3-0.5-2.6-1-3.9-1.5c-0.8-0.3-1.3-0.8-1.8-1.5
			c-0.8-1.2-1.6-2.3-2.1-3.6c-0.5-1.2-1.1-2.5-1.7-3.7c-0.7-1.4-0.8-2.9-0.5-4.4c0.3-1.4,1-2.7,2.2-3.6c1-0.7,1.9-1.4,2.9-2.1
			c1.2-0.8,2.5-1.3,3.9-1.5c0.4-0.1,0.9,0,1.3,0.1c1.4,0.2,2.8,0.5,4.1,0.9c1.1,0.4,2.1,1,2.8,1.9c1,1.2,1.9,2.6,2.5,4
			c0.2,0.5,0.4,1.1,0.7,1.6c0.6,1.3,0.9,2.6,1.2,4c0.2,1,0.3,2,0.4,3.1c0,0.1,0,0.2,0,0.3C371.6,163.3,369.4,164.7,367.1,166z"/>
		<path class="st43" d="M109.6,170.1c0,8.7-1.4,16-4.3,21.8c-2.9,5.8-6.4,10.1-10.6,13c-4.2,2.8-8.8,4.1-13.8,3.8
			c-4.9-0.3-9.5-2.2-13.6-5.7c-4.1-3.5-7.4-8.7-10-15.4c-2.6-6.8-3.6-15.2-3.2-25.4c0.3-7.6,1.3-14,2.9-19c1.6-5,3.5-9.1,5.7-12.1
			c2.2-3.1,4.6-5.3,7.1-6.8c2.5-1.5,4.8-2.5,7-3c2.1-0.5,4.6-0.7,7.5-0.6c2.6,0,4.9,0.4,7,1.1c2.1,0.8,4,1.7,5.6,2.9
			c1.6,1.2,3,2.5,4.2,4c1.2,1.5,2.2,3,3,4.5c2,3.6,3.4,7.7,4.2,12.3H91c0-0.1,0.1-0.7,0.3-1.9c0.2-1.2,0.1-2.6-0.2-4
			c-0.3-1.5-0.9-2.9-1.9-4.2c-1-1.3-2.6-2.2-4.8-2.6c-1.8-0.3-3.3-0.2-4.7,0.1c-1.4,0.3-2.9,0.9-4.4,1.9c-1.6,1-3.1,2.6-4.5,4.8
			c-1.5,2.2-2.7,5.2-3.8,8.9c-1.1,3.7-1.7,8.5-2,14.3c-0.2,3.4-0.1,6.7,0.3,10c0.4,3.3,1.1,6.6,2.1,9.7c1.3,3.9,2.9,6.9,4.7,9
			c1.8,2.1,3.5,3.5,5.1,4.3c1.6,0.8,3.6,1.3,5.9,1.4c2-0.1,3.7-0.7,5-1.9c1.3-1.2,2.3-2.6,3.1-4.4c0.8-1.8,1.3-3.7,1.6-5.9
			c0.3-2.1,0.4-4.2,0.3-6.2c-2.2,0.3-4.7,0.6-7.4,1.1v-12.1c4.5,0.8,8.8,1.4,12.7,1.8C102.2,170,106,170.1,109.6,170.1z"/>
		<path class="st43" d="M118.6,164.5c0-9.8,1.4-18,4.2-24.6c2.8-6.6,6.2-11.5,10.4-14.8c4.2-3.3,8.7-4.9,13.5-4.9
			c4.8,0,9.3,1.6,13.5,4.9c4.2,3.3,7.7,8.2,10.4,14.8c2.8,6.6,4.2,14.8,4.2,24.6c0,3.1-0.1,6.4-0.4,9.9c-0.3,3.5-0.9,6.9-1.7,10.4
			c-0.8,3.4-2,6.7-3.5,9.8c-1.5,3.1-3.4,5.8-5.8,8.1c-2.3,2.2-4.8,3.8-7.7,4.8c-2.9,1-5.9,1.6-9,1.6c-3.1,0-6.1-0.5-9-1.6
			c-2.9-1-5.5-2.7-7.7-4.8c-2.3-2.3-4.3-4.9-5.7-8.1c-1.5-3.1-2.6-6.4-3.5-9.8c-0.8-3.4-1.4-6.9-1.7-10.4
			C118.8,170.9,118.6,167.6,118.6,164.5z M146.8,195.6c3.8-0.1,6.8-1.2,9.1-3.5c2.3-2.2,4.1-4.9,5.3-8c1.3-3.1,2.1-6.3,2.5-9.7
			c0.4-3.4,0.6-6.2,0.6-8.4c0-7.1-0.6-12.8-1.9-17.1s-2.8-7.5-4.7-9.8c-1.8-2.2-3.8-3.7-5.8-4.3c-2-0.7-3.8-1-5.3-1
			c-1.4,0-3.2,0.3-5.2,1c-2.1,0.7-4,2.1-5.8,4.4c-1.8,2.3-3.4,5.5-4.7,9.8c-1.3,4.3-1.9,10-1.8,17.2c0,1.5,0.1,3.3,0.3,5.3
			c0.2,2.1,0.5,4.2,0.9,6.4c0.5,2.2,1.1,4.3,1.9,6.4c0.8,2.1,1.8,4,3.1,5.7c1.3,1.7,2.9,3,4.8,4
			C142.1,195.1,144.3,195.6,146.8,195.6z"/>
		<path class="st43" d="M223.4,120.7c0.2,1.1,0.7,4,1.6,8.9c0.9,4.8,2.4,11.1,4.5,18.9c2.1,7.8,5,16.8,8.7,27
			c3.6,10.3,8.4,21.4,14.2,33.3h-18.5c-0.5-3.2-1-6-1.4-8.4c-0.5-2.4-0.9-4.7-1.4-6.8c-0.5-2.1-0.9-4.1-1.4-6c-0.5-1.9-1-4-1.6-6.2
			h-25.5c-0.6,2.2-1.1,4.2-1.6,6.2c-0.5,1.9-0.9,3.9-1.3,6c-0.4,2.1-0.7,4.4-1.1,6.8c-0.3,2.4-0.8,5.2-1.3,8.4h-17.7
			c3.1-6.5,6.1-13.5,9-21c2.9-7.5,5.5-15.1,7.9-22.8c2.4-7.7,4.5-15.3,6.3-22.9c1.8-7.5,3.2-14.7,4.2-21.4H223.4z M225,170.8
			c-0.8-2.8-1.7-5.5-2.6-8.3c-0.9-2.8-1.7-5.4-2.6-7.9c-0.8-2.5-1.7-4.8-2.5-6.9c-0.8-2.1-1.5-4-2.2-5.6c-0.7,1.6-1.4,3.5-2.1,5.6
			c-0.8,2.1-1.6,4.4-2.4,6.9c-0.8,2.5-1.7,5.1-2.6,7.9c-0.9,2.8-1.7,5.5-2.6,8.3H225z"/>
		<path class="st43" d="M301.7,209c-9.1-1.1-17.3-1.6-24.4-1.4c-7.1,0.2-12.6,0.5-16.5,1c2.2-14.3,3.3-28.9,3.3-43.5
			c0-14.7-1.1-29.5-3.3-44.4h17.4c-2,13.3-3.1,26.3-3.2,38.9c-0.1,12.6,0.5,25.1,2,37.5c3.8-0.2,7.7-0.5,11.8-0.9
			c4.1-0.4,8.4-1,13-1.8V209z"/>
	</g>
</g>
</svg>
