<?xml version="1.0" encoding="utf-8"?>
<!-- Generator: Adobe Illustrator 21.0.1, SVG Export Plug-In . SVG Version: 6.00 Build 0)  -->
<svg version="1.1" id="Calque_1" xmlns="http://www.w3.org/2000/svg" xmlns:xlink="http://www.w3.org/1999/xlink" x="0px" y="0px"
	 viewBox="0 0 432 432" style="enable-background:new 0 0 432 432;" xml:space="preserve">
<style type="text/css">
	.st0{fill:#C87B33;}
	.st1{fill:#DA1C5C;}
</style>
<g>
	<g>
		<path d="M163.3,143.2c-0.3,0.1-0.5,0.5-0.8,0.7c-5.9,6.1-12,11.9-18.8,17c-4.3,3.3-8.8,6.1-13.8,8.2c-0.6,0.3-1.2,0.4-1.8,0.2
			c-0.5-0.1-0.6-0.5-0.2-0.9c0.4-0.4,1-0.7,1.5-1c4.3-2.6,8.5-5.5,12.3-8.9c7.4-6.6,14.3-13.5,20.6-21.1c0.5-0.6,0.7-1.2,0.6-2
			c-0.5-7.8-0.6-15.7-0.2-23.5c0.4-7.7,1.1-15.4,3-22.8c0.6-2.4,1.5-4.7,2.9-6.7c1.2-1.8,2.6-3.2,4.7-3.8c4-1.3,8.8-0.8,11.7,4
			c1.3,2.2,2,4.5,2.3,7c0.8,6,0,11.8-1.8,17.6c-2,6.6-5.1,12.7-8.8,18.5c-0.8,1.2-1.2,2.3-1,3.8c0.3,4.7,0.6,9.3,1,14
			c0.1,1.2,0.1,2.4,0.3,3.7c0.3-0.2,0.3-0.5,0.4-0.8c1.9-5.4,4-10.7,6.9-15.6c1.4-2.3,2.9-4.5,4.8-6.5c1-1.1,2.1-2,3.3-2.9
			c4-2.7,8.2-3,12.7-1.7c4.2,1.3,7.6,3.9,10.3,7.3c2.9,3.6,4.6,7.7,5.7,12.1c1.9,7.6,2.8,15.3,2.7,23.2c0,0.3,0,0.6,0,0.9
			c0,0.3-0.1,0.6,0.3,0.6c0.4,0,0.7,0,0.8-0.5c0.1-1.1,0.2-2.1,0.3-3.2c1.1-10.2,3.2-20.2,6.9-29.7c1.7-4.5,3.8-8.9,6.7-12.9
			c0.8-1.1,1.6-2.1,2.6-2.9c2.7-2.4,5.9-3,9.4-2.2c1.5,0.3,2.6,1.1,3.6,2.3c1.7,2.1,2.7,4.5,3.3,7.1c1.2,5.4,0.9,10.7-0.6,16
			c-2,7-5.3,13.2-10.6,18.2c-2.3,2.2-4.8,4-7.6,5.5c-0.4,0.2-0.7,0.5-0.8,1c-0.6,6.5-1.2,13-1.1,19.5c0.1,3.3,0.3,6.5,1.1,9.7
			c0.5,1.9,1.1,3.8,2.2,5.5c0.9,1.4,2,2.7,3.5,3.6c1,0.6,2.1,0.8,3.2,0.5c3.1-0.6,5.7-2.3,8-4.5c2.5-2.4,4.3-5.4,5.7-8.5
			c2.5-5.3,4-10.9,4.8-16.7c0.6-4.7,0.6-9.3,0-14c-0.1-0.6-0.2-1.2-0.4-1.8c-0.2-0.7,0-0.9,0.7-1c1-0.1,1.7,0.3,2.1,1.3
			c0.4,1,0.6,2.1,0.8,3.1c0.6,4.6,1,9.2,0.5,13.9c-0.8,6.9-2.7,13.5-6.1,19.7c-1.6,3-3.7,5.6-6.3,7.7c-8.3,6.7-22.4,5.5-28.6-5.8
			c-1.8-3.2-2.7-6.7-3.2-10.3c-0.7-5.2-0.6-10.3-0.3-15.5c0-0.8,0.1-1.7,0.1-2.5c0-0.2,0-0.5-0.3-0.5c-0.3,0-0.6,0.1-0.6,0.4
			c-0.1,0.5-0.1,1.1-0.1,1.6c-0.7,8.3-2.4,16.4-5.8,24.1c-1.4,3.2-3.1,6.2-5.5,8.8c-2.6,2.8-5.7,4.9-9.5,5.5c-1.6,0.3-3.2,0.3-4.7,0
			c-2.3-0.4-4.1-1.7-5.4-3.6c-1.6-2.3-2.3-4.9-2.8-7.6c-1-6.2,0.5-11.9,3.8-17.2c1.9-3,4.3-5.7,7.2-7.8c2.7-2,5.8-3.3,9.1-4.1
			c1.1-0.2,1.1-0.2,1.1-1.3c0.3-4.7,0.1-9.5-0.2-14.2c-0.3-4.2-0.7-8.5-1.4-12.6c-0.4-2.7-1-5.3-2.1-7.8c-1.2-2.7-2.8-5.1-5.1-7
			c-2.3-1.8-3.3-1.9-5.9-0.4c-1.8,1-3.3,2.4-4.7,4c-2.5,2.9-4.5,6.1-6.2,9.5c-3.6,7-6,14.5-7.7,22.2c-0.1,0.4-0.1,0.9,0,1.3
			c0.4,4.9,0.8,9.9,1.2,14.8c0.4,5,0.8,10,1.2,15c0.2,3.2,0.4,6.5,0.3,9.7c0,0.9-0.1,1.7-0.2,2.6c-0.1,1.2-0.8,2-1.9,2.4
			c-2.1,0.7-4.2,0.7-6.3,0c-1-0.4-1.6-1.1-1.9-2c-0.7-1.8-1.1-3.6-1.4-5.5c-0.9-5-1.4-10-2-15c-0.6-5.4-1.1-10.7-1.6-16.1
			c-0.4-4.5-0.8-9-1.2-13.4c-0.2-2.8-0.4-5.5-0.6-8.3C163.5,143.4,163.5,143.3,163.3,143.2z M211.1,167.5c-3,0.6-5.6,1.8-7.9,3.6
			c-4.7,3.7-7.9,8.6-9.4,14.4c-1.1,4.3-0.9,8.5,1,12.5c0.8,1.7,1.8,3.2,3.3,4.4c1.6,1.2,1.4,1.2,2.9-0.2c1.1-1,1.8-2.2,2.6-3.5
			c1.5-2.7,2.6-5.6,3.5-8.6c1.9-6,3-12.1,3.7-18.4C210.9,170.4,211.1,169,211.1,167.5z M238.7,158.4c1.6-1.1,3-2.2,4.2-3.4
			c7-7.1,10.4-15.7,10.8-25.6c0.2-3.7-0.7-7.2-2.3-10.5c-0.5-0.9-1-1.8-1.8-2.5c-0.1,0.1-0.2,0.2-0.2,0.3c-0.3,0.5-0.5,1-0.8,1.5
			c-1.6,3.5-2.8,7.1-3.9,10.7c-2.2,7.2-3.7,14.6-5,22.1C239.3,153.3,239,155.8,238.7,158.4z M175.4,117.5c0.3-0.2,0.4-0.5,0.5-0.8
			c2.3-4.7,4.1-9.6,5.3-14.7c1-4.2,1.4-8.4,0.7-12.6c-0.3-2.1-1-4.1-2.1-5.8c-0.5-0.7-1-1.3-1.7-1.8c-0.7,0.9-1,1.9-1.4,2.9
			c-0.8,2.6-1.1,5.2-1.3,7.8c-0.4,7.9-0.4,15.9-0.2,23.8C175.2,116.7,175.2,117,175.4,117.5z"/>
		<path d="M236.7,273.1c-0.5,0.3-0.5,0.7-0.7,1.1c-1.7,4.5-3.4,8.9-5.6,13.2c-0.5,1.1-1.1,2.1-1.9,3c-0.9,1.2-2.1,1.8-3.6,1.9
			c-2.6,0.2-4.8-0.7-6.4-2.8c-1.7-2.2-2.7-4.8-3.5-7.4c-1.1-3.6-1.7-7.3-1.9-11c-0.5-7.1-0.1-14.2,0.8-21.3
			c0.8-6.4,1.7-12.8,2.7-19.2c0.4-3,1.1-6,2.2-8.9c0.6-1.7,1.8-2.4,3.5-2.4c0.4,0,0.8,0,1.2,0.1c1.6,0.2,2.4,0.9,2.9,2.5
			c0.2,0.8,0.3,1.6,0.3,2.3c0.7,8.7,0.2,17.3-0.5,26c-0.7,7.7-1.4,15.5-1.5,23.3c-0.1,4.8,0,9.5,0.8,14.2c0,0.2,0.1,0.4,0.1,0.6
			c0,0.1,0.1,0.3,0.2,0.4c0.4-0.2,0.6-0.5,0.8-0.8c1.3-1.8,2.4-3.8,3.4-5.8c3.3-6.7,5.9-13.7,8.1-20.9c0.5-1.6,0.5-3.4,0.8-5.1
			c1.3-8.7,2.5-17.5,4.5-26.1c0.2-0.9,0.5-1.7,0.8-2.6c0.2-0.8,0.8-1.3,1.6-1.5c1.1-0.3,2.2-0.3,3.3,0c0.9,0.2,1.5,0.8,1.7,1.7
			c0.3,1.3,0.5,2.5,0.6,3.8c0.4,5.3,0.6,10.7,0.3,16.1c0,0.6,0,1.1,0,1.8c0.4-0.3,0.5-0.7,0.6-1.1c7.5-15.2,16.4-29.6,27-42.8
			c2.7-3.4,5.7-6.6,8.7-9.9c1.4-1.5,3-1.6,4.8-1.2c1,0.3,1.6,1,1.7,2c0.1,0.6,0,1.2,0,1.8c-1.1,9.9-3,19.7-5.1,29.4
			c-1.8,8.3-4.2,16.4-6.4,24.5c-2,7.2-3.5,14.5-5.2,21.7c-0.3,1.3-0.6,2.5-0.9,3.8c0.4,0,0.5-0.2,0.6-0.4
			c4.6-5.5,9.5-10.7,14.4-15.9c0.5-0.5,0.7-1,0.8-1.7c1.3-12.3,5.2-23.8,10.8-34.8c2.8-5.5,5.8-11,9.3-16.2c1.6-2.3,3.3-4.6,5.4-6.6
			c1.7-1.6,3.6-2.9,5.9-3.4c1.2-0.2,2.4-0.3,3.7-0.1c1.7,0.3,2.9,1.1,3.7,2.7c0.9,1.8,1.2,3.7,1.3,5.7c0.1,5.7-1.3,11.1-3.8,16.2
			c-2.3,4.8-5.3,9.1-8.6,13.3c-3.5,4.4-7.4,8.5-11.3,12.7c-0.6,0.6-0.9,1.3-1.1,2.1c-1,5.4-1.8,10.9-1.9,16.4
			c-0.1,3.3,0,6.5,0.8,9.8c0.3,1.3,0.8,2.5,1.5,3.6c1,1.5,2.4,2.2,4.3,1.9c2.4-0.3,4.5-1.2,6.5-2.4c3.3-1.9,6.1-4.5,8.7-7.2
			c5.4-5.7,10.1-12,14.3-18.6c2.1-3.2,4.1-6.4,6.3-9.5c0.4-0.5,0.7-1,1.1-1.5c0.7-0.8,1.6-1.2,2.7-1.2c0.8,0,1.2,0.5,0.9,1.3
			c-0.1,0.3-0.3,0.6-0.4,0.9c-3.4,5.9-6.8,11.8-10.2,17.7c-4,6.9-9,12.9-15.1,18c-3.7,3-7.7,5.2-12.5,6.1c-3.2,0.6-6.4,0.6-9.6-0.1
			c-6-1.3-9.8-4.9-11.6-10.7c-0.6-1.9-1-3.9-1.1-5.9c0-0.6-0.1-1.2-0.2-1.8c-0.3-0.1-0.4,0.1-0.4,0.2c-4.4,5-8.9,9.9-12.8,15.3
			c-2,2.7-3.9,5.3-5.5,8.2c-0.3,0.6-0.8,0.9-1.4,1.1c-1.5,0.5-3,0.5-4.5-0.1c-0.9-0.3-1.4-1-1.6-1.9c-0.3-1.1-0.3-2.3-0.3-3.4
			c0-4.3,0.6-8.5,1.5-12.7c2.3-11.2,5.1-22.3,8.2-33.3c2.2-7.9,4.1-15.9,6.2-23.8c1.3-5,2.7-10,4.4-14.9c0-0.1,0.1-0.3,0-0.5
			c-0.4,0.2-0.6,0.6-0.9,0.9c-3.9,4.4-7.2,9.1-10.5,14c-7.4,11.1-14.1,22.7-19.5,35c-1.4,3.2-2.7,6.4-3.9,9.7
			c-0.4,1.2-0.6,2.4-0.8,3.7c-0.8,7.5-1.7,15.1-3.2,22.5c-0.1,0.7-0.3,1.4-0.6,2.1c-0.3,1-1,1.7-2,2c-1.9,0.6-3.9,0.6-5.8,0
			c-1.1-0.4-1.7-1.1-2-2.2c-0.4-1.5-0.6-3-0.6-4.6c-0.1-3.5,0-7,0.4-10.5C236.7,274.1,236.7,273.6,236.7,273.1z M310.1,242.6
			c0.3,0.1,0.4-0.1,0.5-0.2c3.6-3.8,7.2-7.6,10.3-11.8c3.5-4.7,6.1-9.8,7.4-15.6c0.7-2.9,1-5.9,0.5-8.9c-0.2-1.4-0.6-2.8-1.6-3.9
			c-0.4,0.2-0.6,0.6-0.8,1c-0.6,1-1.2,2.1-1.7,3.2c-2.8,6.1-5.4,12.3-8.1,18.5c-1.9,4.3-3.7,8.7-5.2,13.1
			C311,239.6,310.6,241.1,310.1,242.6z"/>
		<path d="M142.2,245.8c0.4-0.3,0.5-0.7,0.7-1c2.4-4.6,4.9-9,8-13.1c1.9-2.5,4-4.8,6.3-6.9c2.7-2.5,6.7-1.8,8.4,1.5
			c0.9,1.8,1.3,3.8,1.7,5.8c0.9,4.9,1.4,9.8,1.5,14.7c0,0.4,0,0.7,0,1.2c0.5-0.2,0.6-0.6,0.7-0.9c3.6-7.3,7.5-14.5,12.1-21.3
			c2.8-4.2,5.7-8.3,9-12.1c0.7-0.8,1.5-1.6,2.2-2.4c0.2-0.2,0.4-0.4,0.6-0.5c1.9-1.1,4.8-0.1,5.7,1.9c0.4,0.9,0.6,1.9,0.8,2.9
			c1.1,5.5,1.1,11.1,0.8,16.8c-0.5,8.7-1.7,17.4-3,26c-1,6.4-2,12.8-2.6,19.2c-0.3,3.2-0.4,6.4-0.3,9.6c0,1.3,0.5,2.4,1.2,3.4
			c0.2,0.3,0.5,0.4,0.8,0.3c0.5-0.2,1-0.3,1.5-0.3c0.4-0.1,0.7-0.1,1.1,0c0.6,0,1.2,0.2,1.5,0.9c0.2,0.7-0.2,1.1-0.7,1.5
			c-1.4,1-3,1.3-4.7,1.3c-2.5-0.1-4.7-1-6.7-2.6c-3.5-3-5.2-6.8-5.6-11.3c-0.4-4.3-0.1-8.5,0.4-12.7c0.7-7.1,2.2-14,3.4-21
			c0.8-4.6,1.5-9.2,2.3-13.7c0.6-3.6,1.2-7.2,1.8-10.8c0.3-2.1,0.6-4.2,1.1-6.4c-0.6,0.3-0.9,0.8-1.2,1.2c-2.2,2.8-4.3,5.8-6.2,8.8
			c-6.1,9.9-11.4,20.2-15.5,31c-0.3,0.8-0.5,1.7-0.6,2.6c-0.7,8.1-1.8,16.2-3.2,24.3c-0.1,0.7-0.3,1.5-0.5,2.2c-0.2,1-0.8,1.7-1.8,2
			c-1.9,0.7-3.9,0.7-5.8-0.1c-1-0.4-1.7-1.2-2.1-2.2c-0.8-2-1-4.1-1-6.1c-0.1-3.1,0.2-6.2,0.5-9.3c0.7-6.7,1.7-13.3,2.2-20
			c0.4-4.5,0.6-9,0.9-13.5c0.2-2.6,0.3-5.2,0.5-7.9c0-0.3,0.1-0.7,0-1.1c-0.4,0.1-0.7,0.4-1,0.7c-3.3,3-6,6.4-8.3,10.1
			c-2.9,4.7-5.3,9.7-7.3,14.9c-0.4,1.1-0.4,2.3-0.5,3.4c-0.6,5.4-1.1,10.9-1.7,16.3c-0.4,3.7-0.8,7.4-1.4,11.1
			c-0.3,1.6-0.6,3.2-1.1,4.7c-0.8,2.3-1.9,3.1-4.3,3.3c-1,0.1-2,0-3-0.3c-1.2-0.3-1.9-1.1-2.2-2.3c-0.4-1.5-0.6-3.1-0.6-4.7
			c-0.2-6.8,0-13.5,0.6-20.3c0.5-6.1,1.2-12.2,1.8-18.4c0.6-6.6,0.8-13.1,0.9-19.7c0-2.2,0-4.5,0.1-6.7c0-0.3,0.1-0.7-0.1-1.1
			c-0.4,0.3-0.5,0.7-0.7,1c-3.8,6.2-7.7,12.4-11.9,18.4c-2.7,3.9-5.7,7.6-9.2,10.8c-3.6,3.2-7.5,5.8-11.8,7.9
			c-1.4,0.7-2.9,1.2-4.4,1.4c-0.9,0.1-1.7,0.1-2.5-0.2c-0.4-0.2-0.9-0.3-0.7-0.9c0.1-0.5,0.9-0.9,1.3-0.6c1,0.7,1.8,0.2,2.6-0.2
			c6.1-2.9,11-7.2,14.9-12.7c2.8-4,5.3-8.2,7.8-12.4c4.3-7.4,8.6-14.8,12.9-22.2c0.1-0.2,0.3-0.5,0.4-0.7c1-2.1,2.8-3,5.1-3
			c1.1,0,2.2,0,3.3,0.4c1.3,0.4,2.2,1.2,2.7,2.5c0.6,1.5,0.9,3,1.1,4.6c1.3,10.4,2,20.8,1.5,31.2C142.3,244.4,142.2,245,142.2,245.8
			z"/>
		<path d="M222,210.9c-1.3,0-2.4-0.1-3.4-0.7c-1.1-0.6-1.3-1.2-1-2.4c0.4-1.8,1.6-2.8,3.3-3.3c1.5-0.4,3-0.4,4.4,0.1
			c1.7,0.6,2.3,2.1,1.5,3.7c-0.5,1-1.2,1.7-2.3,2C223.7,210.7,222.8,210.9,222,210.9z"/>
	</g>
	<path class="st0" d="M335.1,337.3c0.1,1.1,0.4,2.1,0.6,3c0.8,3.3,1.6,6.6,2.1,10c0.1,0.3,0.1,0.7,0.2,1c0.2,0.6,0.1,1.1,0,1.7
		c-0.3,1-1.2,1.4-2.1,0.9c-0.6-0.3-1-0.8-1.5-1.3c-2.5-2.7-5.3-5.1-8-7.7c-2.1-2-4.8-3.4-7.4-4.8c-4.1-2.1-8.2-4.1-12.6-5.3
		c-2.2-0.6-4.6-1-6.9-1.3c-2.4-0.4-4.7-0.7-7.1-0.7c-0.4,0-0.7-0.1-1.1-0.2c-0.8-0.1-1.4-0.6-1.7-1.4c-1.1-3-2.7-5.7-4-8.6
		c-0.3-0.6-0.8-1.2-1-1.8c-0.1-0.3-0.4-0.3-0.7-0.4c-1.7-0.4-3.4-0.7-5.2-1.1c-3.6-0.7-7.3-1.4-10.9-2c-2.4-0.4-4.8-0.7-7.2-1.1
		c-0.8-0.1-1.3,0-1.8,0.7c-0.3,0.5-0.8,0.9-1.2,1.3c-1.2,1.1-2.2,2.4-3.1,3.8c-0.4,0.6-0.9,1.1-1.7,0.9c-0.8-0.2-1.1-0.7-1.3-1.5
		c-0.4-2-1.1-3.8-1.8-5.7c-0.2-0.6-0.5-0.8-1.1-0.9c-2.3-0.2-4.5-0.4-6.8-0.6c-0.4,0-0.7,0.1-0.8,0.5c-0.3,0.8-0.6,1.6-1.2,2.2
		c-0.9,1.1-2.1,1.4-3.4,1c-1.2-0.4-2.2-1.1-2.7-2.4c-0.2-0.5-0.4-1-0.5-1.5c-0.1-0.4-0.2-0.6-0.6-0.6c-1.9-0.1-3.9-0.2-5.8-0.3
		c-0.4,0-0.7,0.1-1,0.5c-0.5,0.6-1,1.3-1.3,2c-0.5,1.1-1.1,2.2-1.6,3.3c-0.3,0.6-0.7,1.1-1.4,1.1c-0.8,0-1.3-0.3-1.6-1
		c-0.8-1.5-1.6-3-2.5-4.5c-0.9-1.7-0.9-1.7-2.7-1.7c-2.1,0-4.2,0-6.4,0.1c-0.5,0-0.7,0.1-0.8,0.6c-0.1,0.8-0.4,1.6-0.9,2.3
		c-1.3,2-3.6,2.2-5.2,0.4c-0.6-0.7-1.2-1.4-1.4-2.4c-0.1-0.5-0.4-0.6-0.8-0.5c-1.5,0.1-3.1,0.2-4.6,0.3c-0.7,0.1-1.4,0.2-2.1,0.2
		c-0.5,0-0.7,0.2-1,0.7c-1,1.9-1.7,3.8-2.1,5.9c-0.2,1.1-0.8,1.6-1.7,1.5c-0.5-0.1-0.9-0.3-1.2-0.8c-1.1-2-2.6-3.7-3.9-5.5
		c-0.4-0.5-0.7-0.7-1.3-0.6c-3.1,0.4-6.2,0.8-9.3,1.2c-4.7,0.7-9.4,1.5-14.1,2.4c-12.8,2.4-25.3,5.5-37.6,9.9
		c-1,0.3-1.9,0.7-2.9,1.1c-0.2,0.1-0.5,0.1-0.7,0.4c0.6,0.6,1.3,1.1,2.1,1.6c1.8,1.2,3.5,2.5,5.2,3.9c0.4,0.4,0.8,0.7,1.1,1.2
		c0.4,0.6,0.2,0.9-0.4,1.1c-0.4,0.2-0.8,0.2-1.2,0.2c-2.9,0.1-5.8-0.2-8.7-0.4c-2.2-0.2-4.5-0.4-6.7-0.5c-3.2-0.1-6.3-0.2-9.5-0.4
		c-1.9-0.1-3.8-0.2-5.6-0.6c-0.7-0.1-1.3-0.3-1.9-0.7c-0.9-0.6-1-1.3-0.3-2c0.3-0.3,0.7-0.6,1-0.9c3.8-3.3,7.9-6.3,12-9.4
		c3.3-2.6,6.7-5.1,10.3-7.4c1.1-0.7,2.2-0.9,3.5-0.8c1.6,0.2,1.8,0.7,1.9,2.4c0,0.2-0.1,0.5-0.1,0.7c-0.6,2.7-1.2,5.5-2.5,7.9
		c-0.1,0.2-0.1,0.3-0.2,0.5c0.2,0.2,0.4,0,0.6,0c11.4-4,23-6.9,34.8-9.3c5.8-1.1,11.5-2.2,17.4-3.1c3.9-0.6,7.7-1.1,11.6-1.5
		c0.6-0.1,0.9-0.3,1.1-0.8c0.8-1.6,1.3-3.3,2.1-4.9c0.2-0.4,0.4-0.8,0.6-1.1c0.6-0.8,1.6-0.9,2.4-0.3c0.4,0.3,0.7,0.8,1,1.3
		c0.9,1.5,1.7,2.9,2.7,4.3c0.3,0.3,0.5,0.5,1,0.5c2.3-0.2,4.5-0.4,6.8-0.5c0.5,0,0.7-0.2,0.8-0.8c0-1,0.4-1.9,0.9-2.8
		c0.3-0.6,0.6-1,1.1-1.4c0.8-0.6,1.6-0.7,2.6-0.3c1.7,0.7,2.6,2,3,3.8c0.3,1.2,0,1,1.3,1c2.3,0,4.6-0.1,6.9,0c0.8,0,1.2-0.3,1.5-0.9
		c0.7-1.6,1.6-3.1,2.5-4.5c0.2-0.3,0.4-0.7,0.7-1c0.7-0.8,1.8-0.8,2.5,0c0.4,0.5,0.6,1,0.9,1.6c0.7,1.5,1.6,3,2.5,4.4
		c0.2,0.3,0.4,0.6,0.9,0.6c1.8,0.1,3.6,0.2,5.4,0.3c0.7,0,0.7,0,0.8-0.7c0.2-1.2,0.7-2.3,1.6-3.2c1.9-1.9,4.3-1.6,5.7,0.7
		c0.6,1,0.8,2,0.9,3.1c0.1,0.7,0.1,0.7,0.7,0.8c2.3,0.2,4.5,0.4,6.8,0.6c0.4,0,0.7-0.1,0.9-0.4c1.4-1.9,3-3.6,4.8-5.2
		c0.1-0.1,0.2-0.2,0.3-0.2c1.3-1.2,2.6-0.9,3.2,0.8c0.6,1.6,1,3.2,1.5,4.8c0.5,1.7,0.5,1.6,2.3,1.9c2.9,0.4,5.8,0.8,8.7,1.3
		c3.6,0.6,7.2,1.3,10.7,2c1.7,0.3,3.4,0.7,5.2,1.1c0.5,0.1,1,0.1,1.5-0.2c1.1-0.5,2.1-1.2,3.1-1.9c1.3-0.8,2.5-1.6,3.8-2.3
		c2.2-1.3,4.5-1.9,7-1.7c3.5,0.3,6.9,0.8,10.2,1.5c4.7,1,9.5,2.1,14,3.9c6.4,2.5,12.4,5.8,17.8,10.1c1.6,1.2,3,2.5,4.5,3.8
		c0.8,0.7,1.5,1.5,2.1,2.3c0.3,0.4,0.5,0.8,0.6,1.3c0,0.8-0.5,1.5-1.4,1.6c-1.1,0.1-2.2,0.2-3.4,0.3c-3.1,0.2-6.2,0.3-9.4,0.1
		C336.5,337.1,335.9,337.6,335.1,337.3z M333.7,324.5c-0.1-0.2-0.4-0.3-0.6-0.4c-4.1-2.3-8.5-4.1-13-5.4c-0.6-0.2-1.2-0.4-1.5,0.5
		c-0.1,0.2-0.3,0.3-0.5,0.4c-0.6,0.5-1.1,0.9-1.7,1.4c-1.5,1.2-2.7,2.6-3.9,4.1c0.1,0.2,0.2,0.3,0.4,0.3c4.2,1.4,8.3,3,12.4,4.7
		c0.4,0.2,0.7,0.2,1-0.1c0.5-0.4,1-0.7,1.5-1c2-1.1,3.8-2.5,5.5-4C333.5,324.9,333.7,324.8,333.7,324.5z M291.9,319.4
		c0.1,0.2,0.3,0.2,0.5,0.2c2.5,0.6,5,1.3,7.6,1.9c2,0.5,4,1.1,6,1.7c0.4,0.1,0.6,0.1,0.7-0.3c0.1-0.5,0.4-0.8,0.7-1.1
		c0.4-0.4,0.7-0.7,1.1-1.1c1.2-1.2,2.1-2.6,3.1-4.1c-3.2-0.7-6.2-1.2-9.4-1.5c-2.1-0.2-3.9,0.2-5.7,1.3c-1.3,0.8-2.6,1.6-3.9,2.4
		C292.4,318.9,292.1,319.1,291.9,319.4z M330.5,332.3c1.1,0.4,1.9,1.2,3,1.2c0.3,0,0.6,0.2,0.8,0.4c0.2,0.3,0.5,0.3,0.8,0.3
		c3.8,0.1,7.6,0.1,11.4-0.2c0.1,0,0.3,0.1,0.4-0.3c-2.6-2.1-5-4.4-7.9-6.2c-0.3-0.2-0.4-0.2-0.7,0c-0.6,0.4-1.2,0.8-1.8,1.2
		c-0.7,0.6-1.5,1-2.3,1.4C333,330.9,331.8,331.5,330.5,332.3z M302.1,324.8c0,0.7,0,1.2,0.1,1.8c0.2,1.3,0.5,2.7,0.8,4
		c0.1,0.4,0.3,0.6,0.6,0.6c2.9,0.5,5.6,1.3,8.4,2.4c0.6,0.2,0.8,0.1,0.9-0.5c0-0.2,0-0.4,0-0.6c0-1.2,0-2.4,0-3.5
		c0-0.9,0-0.9-0.8-1.2c-1.8-0.5-3.5-1.1-5.3-1.6C305.2,325.7,303.7,325.3,302.1,324.8z M325.6,340.3c0-0.1,0-0.2,0-0.4
		c0-2.2,0-4.4-0.1-6.6c0-0.5-0.2-0.7-0.6-0.9c-2.3-0.8-4.5-1.7-6.8-2.5c-0.7-0.2-0.7-0.2-0.8,0.5c-0.1,1.6-0.1,3.2-0.3,4.7
		c-0.1,0.6,0.2,0.9,0.7,1.2c2.5,1.2,5.1,2.5,7.4,4C325.3,340.3,325.4,340.4,325.6,340.3z M329.2,334.2c0.1,3,0.1,5.8-0.1,8.7
		c0,0.3,0.1,0.5,0.3,0.6c1.5,1.4,2.8,2.9,4.4,4.2c0.2,0.2,0.5,0.5,0.8,0.6c0-0.2,0-0.3-0.1-0.4c-0.5-2.3-1-4.6-1.6-6.8
		c-0.4-1.5-0.8-2.9-0.8-4.5c0-0.5,0-1-0.5-1.3C330.8,335,330.1,334.6,329.2,334.2z M288.2,321.3c0.1,0.6,0.3,0.9,0.5,1.3
		c1,2,2.1,4,2.9,6.2c0.1,0.3,0.2,0.5,0.3,0.8c0.1,0.2,0.2,0.4,0.5,0.4c0.8,0,1.6,0.1,2.3,0c0.1-0.4,0-0.8-0.1-1.2
		c-0.2-0.8-0.4-1.5-0.6-2.3c-0.3-1.1-0.4-2.3-0.8-3.4c-0.1-0.3-0.2-0.5-0.6-0.6C291.3,322.1,289.9,321.7,288.2,321.3z"/>
	<path class="st1" d="M308.1,143.6c0.5-0.1,0.8-0.4,1.1-0.7c2.1-1.7,4.4-3.2,6.9-4.3c2-0.9,4.1-1.3,6.4-0.9c3.2,0.6,5.2,2.8,5.3,6.1
		c0.2,3.8-0.8,7.4-2.4,10.8c-2.3,4.8-5.5,9-9.4,12.6c-3.7,3.5-7.9,6.5-12,9.5c-1,0.7-2,1.5-3.1,2.2c-1.7,1.2-3.7,1.6-5.7,1.1
		c-1.3-0.3-2.2-0.9-2.9-2c-0.5-0.9-0.9-1.9-1.2-2.9c-1.8-6.5-3.8-12.9-5.1-19.5c-0.8-4.2-0.9-8.5,0.3-12.7c0.2-0.7,0.5-1.4,0.8-2.1
		c1.5-3.2,4-5.2,7.5-5.8c2.2-0.4,4.4-0.2,6.6,0.5c3,1,5.1,3,6.2,6C307.6,142,307.8,142.8,308.1,143.6z M299.1,175.6
		c0.2-0.1,0.4-0.1,0.5-0.2c5.3-3.3,10.2-7,14.5-11.6c2.6-2.8,4.9-5.8,6.5-9.3c1.5-3.4,2.3-7,2-10.7c-0.1-0.9-0.3-1.8-0.8-2.6
		c-0.7-1.2-1-1.3-2.2-0.6c-0.4,0.2-0.8,0.4-1.2,0.7c-4.3,3.2-8.5,6.5-11.3,11.1c-0.6,1-2.2,1.3-3.3,0.7c-0.8-0.4-0.9-1-0.4-2.4
		c0,0,0-0.1,0-0.1c0.2-0.8,1-1.4,0.9-2.2c-0.1-0.8-0.6-1.5-0.9-2.2c-0.9-2.5-2.1-4.9-4.1-6.7c-1.9-1.7-2-1.9-3.5,0.5
		c-1.1,1.9-1.4,4-1.5,6.2c-0.2,3.9,0.5,7.6,1.4,11.3c1,4.3,2.2,8.5,2.8,12.9C298.7,172,298.9,173.7,299.1,175.6z"/>
	<path class="st1" d="M99.5,164.5c0-0.5,0-1.1,0-1.6c-0.1-3.3,0.4-6.4,1.4-9.5c0.3-0.9,0.7-1.8,1.2-2.6c0.6-1,1.5-1.7,2.7-2
		c3-0.7,5.6,0,7.3,2.5c1.6,2.4,2.3,5.1,2.7,7.9c1,7.6,0.9,15.1-0.2,22.7c-0.6,4.2-1.3,8.4-2.8,12.5c-0.4,1.1-0.9,2.3-1.4,3.3
		c-1.5,2.9-4.5,3.8-7.4,2.2c-0.8-0.5-1.6-1.1-2.4-1.7c-1.8-1.5-3.4-3.1-5.1-4.7c-3-2.9-6.2-5.6-8.9-8.8c-3-3.5-5.4-7.3-6.9-11.6
		c-0.7-2-1.1-4-0.7-6c0.6-3,2.2-5.1,5.2-5.8c5.2-1.3,10-0.5,14.4,2.8C98.8,164.2,99,164.5,99.5,164.5z M107.3,152.7
		c-0.4,0.7-0.5,1.3-0.6,1.9c-0.7,3.2-1.1,6.4-1.5,9.7c-0.3,2.5-0.4,4.9-0.5,7.4c0,0.6-0.2,1.2-0.7,1.5c-1.1,0.6-2.8,0.3-3.5-0.9
		c-2-3.3-4.7-5.8-8.1-7.6c-0.9-0.5-1.9-0.8-3-0.9c-1.3-0.1-1.6,0.1-2.2,1.2c-0.6,1.3-0.8,2.6-0.7,4c0.2,1.6,0.7,3.2,1.3,4.7
		c1.7,4.1,4.2,7.8,7.2,11.1c3.5,3.8,7.1,7.6,10.5,11.5c0.1,0.1,0.2,0.4,0.6,0.3c1-1.7,1.7-3.6,2.3-5.5c2.1-7.4,3.1-15,2.9-22.7
		c-0.1-2.9-0.3-5.9-0.9-8.7C109.6,157.2,108.9,154.8,107.3,152.7z"/>
</g>
</svg>
