<?xml version="1.0" encoding="utf-8"?>
<!-- Generator: Adobe Illustrator 21.0.2, SVG Export Plug-In . SVG Version: 6.00 Build 0)  -->
<svg version="1.1" id="Layer_1" xmlns="http://www.w3.org/2000/svg" xmlns:xlink="http://www.w3.org/1999/xlink" x="0px" y="0px"
	 width="3000px" height="3000px" viewBox="0 0 3000 3000" style="enable-background:new 0 0 3000 3000;" xml:space="preserve">
<g>
	<path d="M379.47391,1194.62524c19.0661,14.68005,41.80978,22.00452,68.2142,22.00452
		c23.46909,0,47.48419-5.67432,72.06879-17.05469c24.56689-11.36377,48.22131-27.67651,70.96503-48.96106
		c12.46417-11.72437,24.92828-25.6676,37.4093-41.80981c3.58069-4.63245,7.10327-9.28699,10.59375-13.95288
		c1.68512,6.58936,3.59174,13.09778,5.90271,19.45374c23.4834,63.0946,68.57819,97.56311,135.33319,103.42542
		c2.92102,0.72205,5.86224,1.10071,8.8009,1.10071c2.92352,0,6.22284,0,9.90125,0c30.06769,0,59.03839-6.41357,86.9223-19.2561
		c27.86615-12.82312,53.91248-30.97839,78.11798-54.46228c5.1225-5.12244,6.22357-9.16187,3.30011-12.10266
		c-2.93872-2.92139-7.5296-5.50122-13.75323-7.70276c-6.24048-2.19885-13.0304-3.84863-20.35431-4.94922
		c-7.34167-1.10083-12.48108-2.01111-15.4046-2.75049c-10.28027-2.92395-20.90448-0.72241-31.90594,6.60156
		c-13.20392,8.8009-28.05756,16.14221-44.56061,22.00439c-16.50323,5.87988-35.03772,8.07886-55.56311,6.60193
		c-38.88788-4.40051-65.29321-24.92834-79.21912-61.6156c-8.08057-22.72644-10.45306-45.28271-7.15131-67.66498
		c1.91083-12.94855,4.51764-23.42279,7.78149-31.58075c2.93701-4.98352,5.70044-9.72772,8.26593-14.20154
		c4.34821-5.09509,7.43347-10.93158,9.26007-17.48297c1.67584-6.07831,1.00763-11.83191-1.96307-17.29523
		c-1.2486-3.24109-2.91418-6.23199-5.03992-8.94867c-2.76508-3.86249-6.08801-6.80634-9.93488-8.88812
		c-0.03882-0.02448-0.07159-0.05139-0.10962-0.07587c-8.08142-4.40045-16.33301-5.31122-24.75812-2.75085
		c-7.46466,2.28204-13.63611,6.70984-18.50751,13.28064c-7.19507,8.22339-13.31177,18.45569-18.35754,30.73071
		c-0.07751,0.18787-0.13654,0.38666-0.21313,0.5755c-15.44836,25.76147-30.5943,49.06036-45.44019,69.84021
		c-20.18158,28.24524-38.69843,50.44006-55.56311,66.56494c-11.00153,10.28003-22.3822,19.08337-34.10669,26.40747
		c-11.7421,7.33911-23.2955,12.83984-34.6593,16.50317c-11.38071,3.67834-21.8338,5.328-31.35681,4.95227
		c-9.54059-0.36145-17.60349-3.1123-24.20538-8.25415c-27.12732-20.52539-17.9826-78.83838,27.5047-174.93976
		c14.66568-30.80737,31.5303-62.8866,50.61328-96.27167c19.0661-33.3703,38.32013-65.82739,57.76453-97.37244
		c19.42419-31.52979,38.68066-61.42731,57.76111-89.67218c19.0661-28.22809,35.93079-53.17322,50.61328-74.81659
		c14.66309-21.62823,26.57788-38.68073,35.75708-51.16223c9.16412-12.46368,14.11639-19.06555,14.85364-19.8028
		c5.86218-7.32397,8.06366-15.4054,6.60187-24.20587c-1.47687-8.80301-5.87988-16.12701-13.20392-22.00693
		c-8.0788-5.1225-16.33038-7.15088-24.7547-6.05008c-8.43945,1.10071-15.59326,5.689-21.45551,13.75229
		c-1.47699,1.47949-6.98029,8.99139-16.50317,22.5563c-9.54059,13.57959-22.00397,31.18359-37.40942,52.81219
		c-15.40277,21.64288-32.64569,46.75909-51.711,75.36548c-19.0838,28.60883-38.508,59.05273-58.31378,91.32233
		c-19.80499,32.2868-39.24689,65.29321-58.31299,99.02197c-19.08301,33.74866-36.3082,66.75543-51.71359,99.0246
		c-11.00241,22.00482-20.90363,45.10992-29.70712,69.31543c-8.80087,24.20636-14.66309,47.68976-17.60428,70.41608
		c-2.92102,22.74414-1.81982,44.01135,3.3027,63.81421C349.4054,1163.81787,361.14749,1180.69934,379.47391,1194.62524z"/>
	<path d="M820.66949,1061.49316c27.12732,19.80554,57.21271,34.10718,90.22162,42.91064
		c8.8009,1.47937,17.60431,2.93872,26.40521,4.40039c8.06366,1.47913,16.6759,2.75085,25.85596,3.8512
		c9.164,1.10071,18.15533,2.02832,26.95624,2.75085c13.20306,0.73926,28.6059-0.36157,46.21033-3.30017
		c17.60339-2.92358,36.12024-9.35193,55.5647-19.2561c3.23267-1.64758,6.47974-3.47668,9.73267-5.38843
		c-1.89905,20.59363-0.41199,40.00525,4.55212,58.2002c5.5033,20.1842,17.43323,37.23914,35.75891,51.1626
		c19.06604,13.94312,41.4314,20.90613,67.11633,20.90613c23.46667,0,47.67297-5.67432,72.61548-17.05505
		c24.92847-11.36304,48.77246-28.41797,71.51697-51.16211c7.87573-7.875,15.23767-15.45557,22.19934-22.80896
		c12.37073,24.21802,29.68103,43.97241,52.05994,59.11755c23.828,16.14258,49.68311,25.68494,77.56702,28.60632
		c6.99768,0.57178,25.30737,2.20154,27.50635,2.20154c142.29321,0,254.88098-82.88037,337.77771-248.65778
		c3.66333-8.06366,4.21265-16.50317,1.65222-25.3067c-2.57983-8.80035-7.8927-15.02368-15.95386-18.70459
		c-8.08057-3.66077-16.5033-4.21008-25.30664-1.64972c-8.80334,2.57983-15.40295,7.89063-19.80579,15.95392
		c-40.34814,82.15784-88.01929,140.11023-143.03296,173.84119c5.86475-12.46375,10.26514-26.21655,13.203-41.2605
		c2.92444-15.02417,2.56299-31.71777-1.10022-50.0614c-5.87915-27.86658-15.59082-48.96106-29.1554-63.26526
		c-13.58203-14.3017-26.95618-25.47681-40.16003-33.55823c-20.54224-12.46417-35.58618-23.46619-45.10913-33.00641
		c-9.54321-9.52551-14.68335-22.00439-15.4054-37.4093c-0.73962-13.9234,2.56287-26.9563,9.90381-39.05951
		c7.32227-12.10309,17.60425-21.81647,30.80481-29.15558c8.06458-3.66327,17.22864-5.67389,27.50806-6.05261
		c10.2627-0.36108,19.42761,1.2915,27.50562,4.95233c8.06372,3.67798,12.44763,7.98535,14.85364,12.10266
		C1664,802,1664,803,1664.53918,805.13318c2.20154,11.7417,1.1012,21.64594-3.29932,29.70709
		c-8.80334-4.40045-17.98254-5.12286-27.50806-2.19897c-8.078,3.67798-14.13074,9.73059-18.15283,18.15283
		c-4.04236,8.44196-4.22937,16.69354-0.55188,24.75726c4.40295,13.20142,13.56445,22.00488,27.50806,26.40533
		c10.2627,3.67755,19.9762,4.039,29.1554,1.10028c9.16479-2.92352,16.67664-6.60193,22.55579-11.00189
		c15.40271-10.26532,26.21741-24.56744,32.45789-42.91064c6.22278-18.32635,6.77209-38.13177,1.64954-59.41418
		c-7.33911-30.06757-25.68237-52.07239-55.01111-66.0152c-17.60437-8.06366-36.86011-11.72437-57.76367-11.00238
		c-20.90613,0.73969-39.79871,5.87952-56.66333,15.40277c-24.2063,13.20313-43.09888,31.18573-56.66333,53.9126
		c-13.58228,22.74371-19.63232,47.31061-18.15625,73.71832c0.7229,17.60358,4.02478,32.83582,9.90466,45.66101
		c5.86218,12.8399,13.20386,24.03271,22.00403,33.55817c8.80334,9.54022,18.51416,17.9801,29.15759,25.30414
		c10.62415,7.34119,21.07727,13.94281,31.35767,19.80536c10.26184,5.87952,18.51343,12.65161,24.75476,20.3548
		c6.22278,7.70221,10.8136,18.89252,13.75232,33.55829c5.125,22.74365-2.19885,47.31055-22.00391,73.71533l-6.60205,9.90417
		c-8.07886,8.078-16.50317,14.85315-25.30652,20.35437c-8.8009,5.50122-18.34167,8.99121-28.60596,10.453
		c-3.67834,0.7373-8.44031,1.09827-14.30249,1.09827h-2.20142c-16.88159-0.72253-33.1969-6.22327-48.96033-16.50317
		c-15.78113-10.2627-27.69604-23.82764-35.75977-40.70898c-1.45996-2.92407-2.75073-5.8623-3.84937-8.80359
		c-1.10034-2.9209-2.01282-6.22314-2.75256-9.90112c-0.58972-1.77734-1.30505-3.44006-2.09021-5.03833
		c8.48071-12.55505,17.23694-26.06226,26.30579-40.62305c10.2627-16.50323,21.62817-36.11829,34.10754-58.86237
		c4.40308-8.06329,5.31299-16.31531,2.75-24.75726c-2.57727-8.42224-7.89014-14.85352-15.95142-19.2536
		c-8.08044-5.12292-16.50562-6.4115-25.30652-3.8515c-8.80261,2.57977-15.40295,7.89056-19.80505,15.95428
		c-11.74207,21.28436-22.19263,39.60828-31.35754,55.01318c-9.17834,15.40253-18.15283,29.34613-26.95544,41.81036
		c-8.8009,12.48096-17.79224,24.03223-26.95703,34.65588c-9.1792,10.64355-19.63232,21.83386-31.35681,33.55823
		c-11.00159,11.00244-22.55579,20.18408-34.65857,27.50818c-12.10266,7.33911-23.84473,13.03027-35.20776,17.05249
		c-11.38074,4.0415-21.83386,5.87952-31.35669,5.50073c-9.54077-0.36096-17.60437-3.11133-24.2063-8.25159
		c-27.12646-20.52539-17.98181-79.21655,27.50562-176.0401c0.01331-0.02869,0.02856-0.05859,0.04285-0.08771
		c0.12219-0.26447,0.2688-0.52606,0.38513-0.79108c13.82056-29.04822,29.26221-58.64948,46.33411-88.79089
		c17.22522-30.4292,35.0199-60.68811,53.36316-90.77344h111.12524c8.8009,0,16.50305-3.29926,23.1051-9.90125
		c6.60193-6.60193,9.90112-14.3042,9.90112-23.1051c0-9.52301-3.29919-17.41614-9.90112-23.65704
		c-6.60205-6.22278-14.3042-9.34937-23.1051-9.34937h-69.31543c16.86462-25.66803,32.81934-49.51251,47.85986-71.51691
		c15.02454-22.0069,28.41882-41.26044,40.16016-57.76398c11.72449-16.50323,24.2063-34.2807,37.40686-53.36115
		c5.86218-8.06378,8.25159-16.31531,7.15381-24.75726c-1.1012-8.42273-5.69116-15.57562-13.75574-21.45554
		c-7.33838-5.86227-15.4021-8.06119-24.203-6.60199c-8.80347,1.47949-16.14429,5.87991-22.00647,13.20392
		c-1.47693,1.47897-6.60193,8.25159-15.40283,20.35428c-8.80347,12.10321-19.99377,28.0575-33.55823,47.86249
		c-13.58215,19.80334-29.34558,42.90845-47.31067,69.31543c-17.98254,26.40521-36.13538,54.65216-54.46179,84.7207h-114.42786
		c-9.52295,0-17.41565,3.12659-23.65686,9.34937c-6.22034,6.24091-9.34949,14.13403-9.34949,23.65704
		c0,8.8009,3.12915,16.50317,9.34949,23.1051c6.24121,6.60199,14.13391,9.90125,23.65686,9.90125h73.71838
		c-14.6825,25.6853-29.15771,51.16254-43.46204,76.46912c-14.30164,25.3067-27.33191,50.4397-39.05969,75.3681
		c-0.75159,1.55438-1.46436,3.13873-2.2074,4.69989c-18.75696,32.21484-38.00256,55.78253-57.73755,70.66809
		c-20.90625,15.78119-40.53845,25.85553-58.86487,30.25592c11.72449-24.92792,20.1665-50.61322,25.30652-77.01801
		c5.12256-26.40698,6.2229-52.43347,3.29932-78.11841c-2.93872-30.06805-11.38062-57.57367-25.30408-82.51886
		c-13.94269-24.92834-31.90851-44.7312-53.91248-59.41425c-19.0838-12.46405-39.98914-20.52734-62.716-24.20538
		c-22.74451-3.66071-44.74854-2.56036-66.01611,3.30182c-22.00391,5.87988-41.99762,15.95178-59.96259,30.25641
		c-17.9826,14.3042-32.09644,31.73499-42.35913,52.26288c-15.4046,30.80493-22.74615,61.8031-22.00647,92.96942
		c0.72198,31.1861,9.52551,60.7049,26.40686,88.57147C771.51892,1018.22168,793.52283,1041.69031,820.66949,1061.49316z
		 M808.56677,839.2428c5.86224-12.46368,14.30176-22.72888,25.30664-30.8078c11.00238-8.06372,22.72681-13.9259,35.20868-17.60352
		c7.32141-2.20148,15.02368-3.30261,23.1051-3.30261c19.06531,0,36.66962,5.14014,52.8114,15.40533
		c13.9234,9.54028,25.30658,22.55328,34.10748,39.05902c8.80353,16.5036,14.3042,34.65686,16.50323,54.46185
		c2.20148,24.2063,0,49.33929-6.60193,75.36804c-6.60199,26.04376-17.24298,50.80109-31.90607,74.2677
		c-30.08453-3.66333-58.31299-13.56494-84.71991-29.70709c-26.40784-16.12744-46.58862-35.9303-60.51453-59.41376
		c-8.07886-12.46417-13.75317-28.77948-17.05249-48.96069C791.51172,887.84253,796.08582,864.9256,808.56677,839.2428z"/>
	<path d="M2138.22974,910.2226c27.1272,19.95923,57.21265,34.37213,90.22168,43.24213
		c8.80078,1.48956,17.60425,2.9635,26.40527,4.435c8.06372,1.48956,16.67578,2.77307,25.85742,3.88147
		c9.16333,1.10791,18.15283,2.04309,26.95728,2.77271c13.20044,0.74432,28.60498-0.36401,46.21021-3.32709
		c13.02197-2.17883,26.54419-6.30328,40.57031-12.33612c-3.26392,8.2196-6.35571,16.23102-9.22876,23.97882
		c-9.16504,24.77252-16.67676,48.6123-22.55591,71.5144c-5.12231,19.95654-9.52368,41.19641-13.20386,63.75464
		c-3.65991,22.53906-3.65991,45.63159,0,69.29614c3.68018,19.95825,11.5542,39.72449,23.65601,59.31982
		c12.10376,19.57483,29.896,32.32593,53.36182,38.25269c5.5188,1.9928,17.24609,2.21619,20.90601,2.21619
		c21.28198,0,40.3313-6.65125,57.21338-19.95618c16.86572-13.30505,30.06787-28.82922,39.61011-46.56921
		c12.46411-23.6637,20.35522-48.97534,23.65454-75.94934c3.30249-26.99341,5.31274-51.55774,6.05249-73.73279
		c0-21.43054-1.28882-42.30676-3.85181-62.64679c-2.57983-20.31976-5.69043-40.83246-9.35205-61.53607
		c11.00171,3.70752,22.36548,5.9267,34.10669,6.65381h6.60205c22.00806,0,40.88208-3.69025,56.66406-11.08881
		c15.76514-7.3783,29.51831-16.99561,41.25977-28.82623c11.72437-11.81628,22.00488-24.56689,30.80908-38.25305
		c8.79907-13.66864,16.50317-26.78314,23.10498-39.36115l4.39966-7.76196c4.39966-8.12531,5.50171-16.63171,3.29932-25.50171
		c-2.19897-8.87-7.33838-15.52118-15.40283-19.95624c-8.07983-4.435-16.3313-5.5459-24.75464-3.32709
		c-8.44214,2.21619-15.2312,7.39813-20.35352,15.52161l-4.40308,8.87262c-14.67993,25.88031-28.79541,46.39301-42.36011,61.53558
		c-13.5813,15.15759-32.45679,22.36578-56.66235,21.6214c-19.08301-1.47437-33.19678-8.12598-42.35986-19.95917
		c-9.18018-11.8158-15.5918-23.2829-19.25488-34.37201l-3.30103-16.63171c3.66162-6.65118,7.32471-13.47809,11.00317-20.51062
		c3.65991-7.01727,7.32324-14.22498,11.00171-21.62061c12.46411-22.90509,25.11694-45.8244,37.9585-68.7442
		c12.82495-22.9021,26.57813-46.93225,41.26147-72.0708l66.0144-106.44037c5.86377-8.12521,11.36377-16.63211,16.50317-25.50211
		c5.12402-8.87,10.62402-17.35919,16.50488-25.50171l1.10034-2.21619c5.86206-7.38132,7.87231-15.5242,6.05249-24.3942
		c-1.84009-8.87-6.79224-15.8848-14.85352-21.06662c-8.0813-5.1626-16.33301-7.0148-24.75806-5.5434
		c-8.43872,1.4892-15.23096,6.29022-20.35352,14.41342c0,0-12.65283,18.8508-18.15283,27.72079
		c-5.50171,8.87-11.1936,17.73999-17.05591,26.60999c-11.74121,17.74002-23.10498,35.48001-34.10669,53.22
		c-11.00317,17.73999-22.00806,35.86121-33.00977,54.33081c-14.67993,25.8808-28.7937,50.44769-42.35815,73.73059
		c-13.58301,23.2854-26.59497,46.75958-39.05908,70.409c-5.14111,8.87-9.90283,17.73999-14.3042,26.60999
		s-20.41577,39.72925-23.34619,45.6297c-16.24023,25.79663-32.84106,45.14703-49.80591,58.03754
		c-20.90454,15.90497-40.53687,26.05609-58.86328,30.49109c11.72437-25.11841,20.16479-51.00128,25.3042-77.61133
		c5.12573-26.61035,6.22437-52.84167,3.30249-78.72198c-2.94043-30.30109-11.38062-58.02148-25.30737-83.15747
		c-13.94189-25.12091-31.90771-45.08002-53.9126-59.87384c-19.08276-12.56061-39.9856-20.68616-62.71265-24.3941
		c-22.74683-3.69025-44.75098-2.57977-66.01611,3.32715c-22.00635,5.92407-42,16.0777-59.96509,30.49097
		c-17.98267,14.41333-32.09644,31.98022-42.35913,52.66602c-15.40454,31.04498-22.74365,62.28082-22.00647,93.68939
		c0.72205,31.42828,9.52551,61.17499,26.4071,89.25677C2089.0791,866.61737,2111.08569,890.26678,2138.22974,910.2226z
		 M2504.05151,1120.33325c-2.58154,21.79419-8.63086,41.57971-18.15454,59.3197c-5.14111,8.87-11.72607,16.6322-19.8042,23.28333
		c-8.06445,6.65381-16.12573,9.23364-24.20557,7.76172c-7.32471-1.48865-13.20386-6.65332-17.60522-15.52332
		c-4.39941-8.87-7.323-18.12134-8.80249-27.71875c-2.92188-17.01257-2.92188-34.75293,0-53.22009
		c2.94043-18.48462,6.60205-36.22461,11.00171-53.21997c11.00488-40.64459,28.2478-88.32159,51.71338-143.03119
		c1.46265-2.9458,2.75171-5.71649,3.85205-8.31555c1.09863-2.58234,2.37256-5.35291,3.85034-8.31653
		c5.86377,25.88287,11.00317,52.30249,15.40283,79.27649c4.40137,26.99078,6.60181,53.4129,6.60181,79.27643
		C2507.90161,1078.37512,2506.61279,1098.52185,2504.05151,1120.33325z M2126.12695,686.25348
		c5.8623-12.56018,14.30518-22.9021,25.30664-31.04498c11.00244-8.12561,22.72681-14.0321,35.20801-17.73999
		c7.32397-2.21918,15.02441-3.32709,23.10498-3.32709c19.06616,0,36.67041,5.17981,52.81226,15.5238
		c13.92603,9.61426,25.30664,22.72888,34.10767,39.36096c8.80249,16.62964,14.3042,34.92609,16.50464,54.88232
		c2.20068,24.39417,0,49.72021-6.60181,75.94928c-6.60034,26.24939-17.24121,51.19464-31.90771,74.84399
		c-30.08545-3.69055-58.31299-13.66901-84.71997-29.93707c-26.40454-16.25122-46.58862-36.20959-60.5144-59.87408
		c-8.07886-12.5603-13.75342-29.00195-17.05249-49.33942C2109.07202,735.22888,2113.646,712.13641,2126.12695,686.25348z"/>
	<path d="M1962.18787,963.44299c23.48352,63.58167,68.57739,98.31726,135.33313,104.22424
		c2.92114,0.72705,5.8623,1.11072,8.80103,1.11072c2.92358,0,6.2229,0,9.90381,0c30.06836,0,59.03589-6.46362,86.91968-19.40479
		c27.86621-12.92407,53.9126-31.21844,78.11792-54.88477c5.12256-5.16248,6.2229-9.23389,3.29932-12.19452
		c-2.93872-2.94629-7.52856-5.54547-13.75244-7.76208c-6.24048-2.21881-13.03027-3.88062-20.35425-4.98901
		c-7.34155-1.10828-12.48096-2.02826-15.40283-2.77307c-10.28198-2.94543-20.90601-0.72711-31.90771,6.65417
		c-13.20386,8.87-28.05737,16.26563-44.56055,22.17499c-16.50317,5.92371-35.03784,8.14294-55.56299,6.65125
		c-38.88818-4.435-65.29321-25.11835-79.21924-62.09039c-8.08057-22.9021-10.453-45.63141-7.15125-68.18982
		c3.30017-22.53851,8.61304-37.86932,15.95471-46.01233c4.40039-5.16199,7.51184-11.08868,9.35266-17.73987
		c1.81995-6.65381,0.91003-12.92419-2.75073-18.84839c-5.1427-11.8158-13.39429-18.4696-24.75732-19.95874
		c-11.38074-1.47186-21.09485,1.85272-29.15601,9.97791c-8.80261,8.87042-16.12744,20.51312-22.00647,34.92639
		c-5.8623,14.41553-9.90137,29.93713-12.10278,46.56885c-2.19897,16.63159-2.37256,33.81805-0.54932,51.55804
		C1952.47632,930.18182,1956.32568,947.1947,1962.18787,963.44299z"/>
	<path d="M287.78049,1620.85486l154.05301,10.47583l10.16159-149.43518c2.57642-37.89844-26.05649-70.71008-63.95529-73.28735
		c-37.89798-2.57727-70.7106,26.0564-73.28699,63.9552l-0.8291,12.19128l-16.80981-1.14282
		c-37.8989-2.5769-70.71059,26.05603-73.2887,63.95483C221.24879,1585.46545,249.88251,1618.27722,287.78049,1620.85486z"/>
	<path d="M2668.61646,2111.43164c-34.25488-16.41724-75.33252-1.95728-91.74976,32.29858l-5.28101,11.01929l-15.19385-7.28198
		c-34.25513-16.41626-75.33276-1.9563-91.75,32.29883c-16.41724,34.25537-1.95801,75.33325,32.29883,91.75073l139.24243,66.73389
		l64.73193-135.06958C2717.33252,2168.92651,2702.87158,2127.84839,2668.61646,2111.43164z"/>
	<path d="M436.8837,1763.83936l-11.93341,2.62781l-3.62277-16.45422c-8.1698-37.09766-44.86392-60.54822-81.96152-52.38
		c-37.0976,8.16895-60.54901,44.86389-52.3808,81.96143l33.2052,150.79541l146.2757-32.20923
		c37.0976-8.16907,60.54819-44.86438,52.37918-81.96155C510.67709,1779.12183,473.98129,1755.66992,436.8837,1763.83936z"/>
	<path d="M2684.52319,1490.10669c-52.36572-28.71497-118.09375-9.54358-146.80811,42.82117
		c-25.15088,45.8623-13.56641,101.97388,24.87769,134.49377c-102.19043,24.33643-204.50879,48.12903-306.92407,71.4928
		c1.56372-46.67029,2.94385-94.19531,2.94385-121.25854c0-72.26123-4.07104-130.31384,0.82886-182.97986
		c14.69531-1.22461,34.29297,3.67542,50.21484,7.34875l15.92188,3.6759c13.47339,2.44836,29.39526,1.22424,42.86548,1.22424
		c9.80005,0,20.82349-1.22424,30.62036,1.22412c3.67505,12.24939,12.26196,40.66907,26.29834,52.72339
		c4.67432,4.01575,11.5105,4.32581,16.52661,0.74341l9.01489-6.43848c-1.22656-14.69763,0-42.86621,1.22339-64.91235
		c1.2251-20.82239,2.44849-44.09302,2.44849-62.46411c0-20.16467-1.14722-36.88232-4.55884-46.81628
		c-0.20386-0.59302-0.62744-1.09363-1.18799-1.37427c-5.44165-2.72351-11.96387-2.62366-17.15283,0.55469
		c-9.97192,6.10913-15.58154,18.04431-21.19263,29.26526c-8.57349,18.37061-22.73608,28.29211-54.57983,19.71912l-18.37012-3.67297
		c-10.22314-1.13574-62.24341-32.60999-154.44995-28.68176c-10.84302,0.46216-21.63501,1.89819-32.22949,4.25134
		c-9.72949,2.16113-20.66431,3.48413-26.96729,3.48413c-17.66406,0.94153-23.27026-3.67529-44.09204,37.96851
		c-1.55029,6.203-0.24268,12.77417,3.56543,17.91016l46.65186,62.92444c2.44824,52.66602,2.44824,106.55664,2.44824,160.44727
		v82.05847c0.35303,11.65527,0.68091,32.79822,0.98315,60.74988c-79.29321,17.81165-158.63794,35.39038-238.03149,52.74744
		c13.96729-77.49878,25.1676-140.44104,25.1676-140.44104l15.92188-191.06714c9.80017-48.99011,25.72192-67.36072,46.54138-88.18311
		l6.26624-5.87415c10.2063-9.5675,12.08325-25.33643,3.86682-36.65894c-6.46472-8.90869-15.13293-8.90869-30.95251-8.90869
		c-20.8219,0-40.41956-6.1217-55.11731-12.24609c-23.72852-8.54382-40.10291-14.14331-52.54004,2.58325
		c-7.2085,9.69312-9.36877,22.26892-6.48486,33.99963c6.9895,28.4281,12.31763,60.09192,11.25854,98.14209
		c-2.34045,74.92773-20.34766,278.53882-28.34985,362.68201c-23.39905,5.08167-46.79578,10.17639-70.20166,15.22461
		c-18.29443,3.94556-36.59631,7.85657-54.89404,11.78479l-42.51831-272.11304l-4.89758-26.94397
		c-6.125-30.61951-11.02515-64.91504-4.90002-96.75867c11.02429-62.46411,17.146-64.91284,22.04602-66.13745
		c1.29785-0.64844,3.62671-1.64111,6.4408-5.70959c7.86841-11.37561,5.60254-26.87476-4.85547-35.92737
		c-7.87695-6.81836-16.36572-10.3916-24.85632-13.47791c-6.12439-2.45068-62.46326-13.4729-79.60938-12.24829h-14.69849
		c-29.96729-0.99854-81.11426-0.36865-105.60547,15.84436c-8.97205,5.93933-10.91089,18.323-4.39441,26.88501
		c6.71191,8.8186,15.45581,15.82397,23.04138,23.40967c7.34937,7.34875,15.92188,14.69763,15.92188,14.69763
		c31.84448,41.64172,50.21472,161.66895,58.78809,227.80847c7.34851,68.58582,18.37366,140.84912,29.39551,209.43494
		c1.98328,12.56055,3.96057,25.21558,5.92029,37.90637c-74.23145,15.79382-148.48486,31.48816-222.75171,47.11511
		c-0.60071-117.41711-6.76453-233.979-19.54553-293.23218l-18.37097-80.83679l-6.12341-34.29297
		c-1.83374-11.92065-5.04126-24.52783-8.0791-36.79358c-2.08984-8.4375-4.82996-16.7002-8.1886-24.71753l-32.72278-78.11377
		l-18.37109-34.29285c-15.92273-26.94666-30.61951-33.06873-40.41711-33.06873h-6.12439
		c-56.33972-7.34851-90.63513,75.93494-116.35449,148.19824c-15.922,47.76648-29.39551,96.75659-40.41724,157.99609
		c-17.14685,95.53186-29.39532,224.13257-29.39532,356.40906c0,8.27173,0.08002,16.56812,0.19708,24.87146
		c-49.27869,10.32373-98.55737,20.65344-147.82928,31.00659c-43.46118,9.13208-86.91718,18.28333-130.36908,27.45593
		l1.19971-28.21924c0-66.13696,0-116.35461,1.2251-165.34473c0-50.21521,1.22668-99.20532,1.22668-167.79321l2.4483-156.77185
		c0-6.12415,7.3493-86.9585,8.57343-99.20776v1.22461l6.75616-36.03308c0.41791-2.22681,1.17859-4.37659,2.33459-6.32483
		c4.22601-7.11755,11.49689-16.36414,17.85291-23.77905c6.75439-8.44202,14.08929-17.46411,19.19922-26.66736
		c4.18896-7.54468,2.92688-17.10522-3.13922-23.24329c-18.33307-18.55298-41.09448-14.32776-67.4989-10.10437
		c-14.69769,2.44885-28.17041,4.90015-41.6413,3.6759c-7.3493,0-13.47351-1.22705-17.14941-1.22705
		c-9.79761-1.22461-19.59515,0-37.96796,3.67554c-7.34674,2.44922-13.47095,1.22461-19.59521-1.22424
		c-2.2038-0.36707-3.85663-0.95435-5.78381-1.49829c-14.28766-4.03223-27.8302,8.36743-25.14819,22.96887
		c4.86517,26.48792,10.40051,29.02173,22.84833,35.69824c0.4837,0.2594,0.96442,0.54346,1.42529,0.84167l10.79767,6.98706
		c5.80658,3.75732,9.26288,10.24341,9.16003,17.15881c-1.05084,70.65613-1.05084,138.1604-1.05084,205.66699
		c0,151.52588,1.85944,318.84631,3.95734,472.82068c-62.40173,13.23535-124.79163,26.53027-187.16473,39.89722
		c-1.13229-0.46704-2.30508-0.90063-3.55289-1.26855c-95.49741-28.15503-190.99471-56.31104-286.4921-84.46704
		c-28.0549-8.27173-55.205,31.96582-30.2177,51.91064c53.20741,42.47119,108.19241,82.53784,165.0993,119.85132
		c-32.5439,54.73462-58.9845,112.8667-79.2858,173.29346c-9.7933,29.14941,31.4115,52.98486,51.9108,30.21851
		c65.3833-72.61377,132.1189-144.89502,185.8031-226.79956c60.25797-12.91968,120.53363-25.76123,180.81927-38.55249
		c1.64056,1.31396,2.38037,1.90625,4.02094,3.22021l2.44922,219.23511c0,13.47314,1.22668,23.27075,1.22668,30.61963
		c1.16608,16.33472,0.11041,26.00244-8.46564,49.11841c-0.8526,2.2981-2.13489,4.4187-3.72467,6.28369
		c-18.71619,21.94678-24.62628,41.76733-29.30908,61.56323c-0.09686,0.40967-0.20685,0.81567-0.33063,1.21802l-1.61261,5.24243
		c-1.96295,6.37964-0.62756,13.33447,3.57404,18.52075c10.97369,13.54639,41.51996,15.29199,43.35156,15.54126
		c16.46191,2.24316,68.83771-0.28638,76.43042-0.66919c0.46588-0.02368,0.91669-0.0603,1.37921-0.11597
		c5.04321-0.60742,48.54779-5.05469,56.9339-5.91064c0.93054-0.09497,1.85785-0.2583,2.7655-0.48438
		c18.974-4.72754,34.58008-8.20532,52.52112-7.00684c17.1485,1.22412,34.29535-2.45166,52.66559-6.12476
		c18.26465-3.84595,35.77411-7.6897,52.52911-4.4292c8.61438,1.67627,17.33948-2.2854,21.60126-9.95703l2.16608-3.89917
		c1.37421-2.47388,2.20905-5.2146,2.45239-8.03394c1.09241-12.65894,2.08624-23.02563,2.08624-37.36841
		c0-14.34204-1.16595-27.51831-3.4978-38.38892c-0.11578-0.53955-0.20544-1.08081-0.26965-1.62915
		c-1.25214-10.69336-3.6123-20.39526-4.80597-35.91919c-0.81641-23.67993-6.19336-54.6272-6.26746-55.58521
		c-0.97992-12.60962,0.14319-21.99146,0.14319-31.37354c0.84338-18.52563,1.68585-29.52417-9.0141-33.7937
		c-11.66058-4.65308-24.55194,3.22656-26.48608,15.63135c-1.24194,7.96533-1.24194,13.18555-1.24194,19.38647
		c0,7.34912-1.22406,15.92212-3.67499,29.39526c-2.44922,14.69775-7.3493,34.29297-11.02179,48.99072
		c-18.37103,74.7124-51.44232,84.51001-101.65698,84.51001c-26.94452-1.22412-29.39532-6.12427-34.29291-13.47339
		c-2.75671-5.51147-6.20044-9.64404-12.40112-14.46606c-4.61481-3.58862-7.33832-9.08154-7.55426-14.92358
		c-1.6156-43.71167-5.7666-153.21387-5.7666-225.36255c0-26.99707,1.12384-50.61841,2.29834-59.00806
		c0.09351-0.67188,0.16681-1.34644,0.19635-2.02466l0.93097-21.88599c94.30023-19.9126,188.62061-39.73071,282.94849-59.51172
		c8.87512,176.04761,44.99377,347.11353,115.35461,429.0271l17.14612,19.59741
		c19.59766,20.81982,30.61951,36.74146,55.11475,36.74146c2.85767,0,5.92383-0.3125,9.25928-0.99829
		c16.8562-3.46558,31.16565-14.5564,39.26868-29.73804c20.79089-38.95313,24.09705-49.8938,35.98218-94.19092l8.57336-33.0686
		c11.02441-48.99048,28.17041-105.32959,41.64136-155.54688c11.80444-45.06616,17.96667-139.95947,19.31299-243.49524
		c77.40015-16.27734,154.78772-32.61914,232.15076-49.07227c1.98999,13.89063,3.927,27.74829,5.73511,41.4884
		c9.79749,67.36377,20.82019,132.27612,31.84363,194.73975l25.72034,146.97388l2.44824,15.92188
		c8.57605,71.03735,25.72205,206.98633,75.93762,198.41309c23.27026-3.6731,44.09216-15.92188,58.79077-28.16821
		c9.79663-126.1521,31.84363-307.4209,53.88977-424.99951c6.68701-31.76489,23.00989-120.33228,38.81543-207.43323
		c83.56824-18.20081,167.08936-36.61816,250.54785-55.31824c1.41724,189.20398,2.12573,521.38989,2.12573,615.48706
		c-2.75513,14.69849-14.46753,25.95215-24.802,34.27686c-7.25562,5.84546-13.05566,13.354-16.41382,22.04614
		c-0.97314,2.51831-1.64966,4.76489-1.64966,6.14111c1.22412,6.12427,2.44824,11.02441,8.57275,17.14844
		c11.02246,8.57349,100.43188,19.59521,113.90527,19.59521l94.30786,4.90015c6.12158,0,22.04346,1.22412,35.51709,2.44873h-1.22339
		c6.12354,1.22461,13.47192,1.22461,18.37036,1.22461l8.57324,23.27075c5.16284,24.23633,45.31714,2.44873,45.31714,2.44873
		c6.12354-33.0686,7.34839-80.83423,7.34839-127.37646c0-25.86572,0-50.60303,3.2522-85.04858
		c0.20557-2.18115-1.37817-4.04736-3.54517-4.37817l-1.16284-0.18726c-13.36719-2.15771-27.12207,3.36157-34.43359,14.75586
		c-7.14795,11.13721-8.46729,22.78979-10.65259,34.44092c-2.29517,20.6687-24.41479,58.6897-55.11401,56.3396
		c-9.79858-1.22461-46.54224,3.67529-52.6665-6.12476c-3.67334-4.89746-15.92188-29.39282-20.81934-37.96582
		c-2.45166-13.47314-3.67603-95.53442-3.67603-180.04199c0-95.53491,0-199.64038,2.45093-231.48401
		c30.62036,1.22412,66.48462,1.36902,96.75781,6.12427c1.27734,0.20093,10.90723,2.7533,13.47192,3.67334
		c2.30493,0.82642,3.67334-1.22461,25.72021,51.44153l23.27026-13.47314v-29.39539
		c-1.22339-17.14648-2.44824-39.1925-2.44824-61.23694c-1.22681-17.14844,0-36.74365,1.22485-52.66602
		c2.44849-37.96838,2.44849-72.26123-15.92188-78.3855c-16.25049-9.07007-24.49683,25.71948-35.52051,68.58789
		c-18.37012,19.59521-74.71069,17.14648-102.8811,15.92224c-1.22412-15.92224,0-17.14685,0-26.94653v-25.71985
		c0-6.59351,0.94702-32.90955,2.16016-66.82837c108.21118-24.63123,216.30396-49.77405,324.2605-75.49011
		c-17.74854,49.23022,2.45337,105.41541,49.78247,131.37c52.36401,28.71533,118.09375,9.54395,146.81006-42.8208L2891,1603.33264
		L2684.52319,1490.10669z M1164.99695,1651.62146l15.24951-53.37451c5.4469-19.60498,34.85657-91.49841,34.85657-91.49841
		c2.17786-6.5354,16.33801,22.87634,19.60693,44.66162c2.17798,11.9801,3.26733,23.96289,6.53625,37.03442
		c5.44434,26.14246,10.89124,45.74988,14.16016,60.9989c9.80261,45.74817,14.16016,66.44409,17.42737,167.74731
		c0.98401,41.37256,2.84607,87.21375,3.19568,134.27332c-51.11035,10.72766-102.224,21.44116-153.33948,32.14661
		C1124.44165,1860.62329,1139.44348,1736.46021,1164.99695,1651.62146z M1231.44104,2317.16406
		c-7.62476,26.14063-21.78491,62.08618-31.58752,82.78247c-12.64111-0.74341-22.74463-37.01831-27.88391-59.96753
		c-2.63367-11.76196-5.99695-23.32544-10.15576-34.63843c-23.94678-65.13306-36.26929-159.14258-38.797-258.43555
		c50.85938-10.65955,101.71863-21.31982,152.57532-31.99036c-1.87622,90.60657-9.5011,182.1012-28.90161,253.2323v-1.09106
		C1241.24622,2282.30762,1235.79944,2300.82397,1231.44104,2317.16406z M1796.87634,2073.27246
		c-11.02173,41.6416-19.59509,99.20776-25.72021,151.87158l-3.67249,29.39551l-51.99756-332.77747
		c35.94177-7.71155,71.87488-15.45764,107.80151-23.23792C1816.16492,1959.12305,1807.04565,2029.21216,1796.87634,2073.27246z
		 M2630.59375,1504.72217c20.01831,0,19.98462,31.05847,0,31.05847
		C2610.57568,1535.78064,2610.60938,1504.72217,2630.59375,1504.72217z M2590.16162,1543.65857
		c16.48779-11.41809,31.99854,15.51416,15.67578,26.81812c-11.57446,8.01611-12.84009,24.2135-5.61108,35.36499
		c10.91211,16.84021-15.98779,32.3905-26.81909,15.67578C2556.48291,1595.40247,2565.22803,1560.92773,2590.16162,1543.65857z"/>
</g>
</svg>
