<?xml version="1.0" encoding="utf-8"?>
<!-- Generator: Adobe Illustrator 21.1.0, SVG Export Plug-In . SVG Version: 6.00 Build 0)  -->
<svg version="1.1" id="Calque_1" xmlns="http://www.w3.org/2000/svg" xmlns:xlink="http://www.w3.org/1999/xlink" x="0px" y="0px"
	 viewBox="0 0 432 432" style="enable-background:new 0 0 432 432;" xml:space="preserve">
<style type="text/css">
	.st0{fill:#CC9967;}
	.st1{fill:#E0809B;}
	.st2{fill:#E0A6B6;}
	.st3{fill:#1B1B1B;}
	.st4{fill:#343434;}
	.st5{fill:#53392D;}
	.st6{fill:#B27D63;}
	.st7{fill:#C285A2;}
	.st8{fill:#423128;}
	.st9{fill:#79594B;}
	.st10{fill:#676F74;}
	.st11{fill:#544842;}
	.st12{fill:#C7B29A;}
	.st13{fill:#E3BE46;}
	.st14{fill:#8B7F7F;}
	.st15{fill:#C2C1BB;}
	.st16{fill:#302926;}
	.st17{fill:#020203;}
</style>
<g>
	<path class="st4" d="M339.5,208.3c-0.9,1-4,11.1-8.8,16.9c-3.2,3.9-9,4.7-13.6,0.9c-3.6-2.9-4.8-6.6-6-9.5
		c-2.1,5.5-4.9,14.9-9.1,20.3c-4.1,5.5-11.7,7.3-18.9-0.4c-14.4-15.4-11.6-35.6-12.3-36.6c-0.3-0.1-6.5,4.6-9,7.1
		c-0.6,0.5-0.9,0.7-0.6,1.2c3,4.6,5.4,10.2,6.5,16.2c4.1,21.2-19.9,26-21.3,6.2c-0.8-11.6,7.4-18.2,6.1-20.2
		c-10.8-16.8-10.4-17.5-10.6-17.6c-0.4-0.2-11.9,14.7-12,14.8c-0.8,0.9,0.5,1.3,2.8,8.3c13,39-24.4,37.8-16.9,10.6
		c3.2-11.4,6.8-12.7,5.8-15.1c-1.7-3.8-6.4-13.1-6.8-13.5c-0.7,1-4.7,22.4-7.9,29.8c-6.1,14.4-20.4,3.2-24-12.3
		c-1.8-7.9-2.3-20,0.1-27.1c5.3-15.3,21.7-5.5,18.1,7.3c-1.2,4.3-5.5,6.5-10,7c-0.9,0.1-0.9,0.1-0.9,1c0.2,7,3.2,23.2,8.6,26.8
		c4.2,2.8,8.2-18.6,13-37.9c0.6-2.3-2-5.2-1.8-12.7c0.5-20.2,23.4-19.1,24.5,5c0.1,1.3-0.6,1.9-1.9,1.9c-3.2,0-1.6-3-4-9
		c-1.5-3.9-5.2-8.4-7-6.7c-0.9,0.8-1.5,1.8-1.9,2.9c-4.1,11,3.7,22.7,7.7,30.4c0.3,0,0.4-0.1,0.5-0.2c11.4-14.7,12.8-14.2,12.1-16.1
		c-4.6-14.7,4.7-24.3,14.4-19.5c12,6,9.7,22.9,4.4,18.6c-1.3-1.1,0.1-1.2-0.4-4.6c-0.5-3.9-2.1-7.7-5.5-9.6c-4.1-2.2-9,6.8-1.9,20
		c1.9,3.5,4.2,6.8,6.4,10.1c0.4,0.5,0.7,1.1,1.1,1.6c0.3,0.1,0.4-0.1,0.5-0.2c2.5-2.4,5.3-4.5,8.1-6.5c3.7-2.6,3.9-2.6,3.9-3.6
		c3.3-31.2,26-23,26.6-8.3c0.4,9.2-7.7,13-16,12.1c-1.6-0.2-1.9-0.5-1.9,0.3c-0.2,8.7,0.4,15.1,4.3,26.5c1.4,4.1,4.8,10.6,8.2,12.7
		c2.9,1.7,4.9-0.6,6.8-3.4c4.3-6.6,10.3-24.4,10.1-26c-2-21.6,14.6-42.7,31.4-29.6c0.3,0.2,0.4,0.5,0.8,0.6
		c0.4-1.2,1.3-11.7,3.7-22.1c0.2-0.7,0.1-0.7-0.5-0.9c-29.9-5.5-56.4-39.4-104.5-37.2c-32.9,1.5-52.7,21.6-55.1,27.5
		c-0.6,1.5-3.1,1.3-3.9-0.1c-1.8-3.5,22.4-34,68.5-31.1c45.9,3,69.9,32.7,95.8,37.4c1.4,0.3,0.1,0.1,3.5-8
		c3.3-7.8,9.4-17.4,17.9-17.6c16-0.3,16.4,28.2-11.6,29.7c-1,0.1-0.9-0.2-1.2,1c-4.4,17.9-7.9,54.8-4.3,83.3c0.1,0.9,0.1,0.9,1,1
		c16.1,2.3,21.2,12,18.5,19.4c-3.1,8.9-19.2,10-26.7-15.1c-0.4-1.2,0-1.2-1.6-1.1c-25.6,1.5-45.8,15.5-118.6,45.2
		c-0.1,0.5,33.8,20.3,57.3,15.8c0.1,0,0.3,0,0.4-0.2c-0.1-0.3-0.4-0.5-0.6-0.8c-12.9-13.3-8.7-29,2-25.9c4,1.2,5.5,3.7,5.9,3.7
		c0.5-0.4,1.1-3,4.1-4.9c10.8-7.2,18.7,16.5-2.3,28.8c0.4,0.6,8.7,6.3,22.7,6.2c1.5,0,2.9,0,4.4-0.1c2.6,0,3.5,1.8,2,2.8
		c-1.5,1-19.1,3.2-33.8-6.6c-2.7-1.8-19.5,10.1-67.1-16.2c-3.1-1.7-6.7,3-36.6,9.1c-104.4,21.2-86-68.6-12.5-40.7
		c8.1,3.1,15.8,6.9,23.3,11.2c26.6,15.3,24.4,15,26.2,14.4c54.3-19.5,88.9-44,122.5-45.7c2.7-0.1-1.4,1.1-0.9-32
		C339.5,209.2,339.5,208.8,339.5,208.3z M210.7,289.5c-0.2-0.2-21.8-13-30.4-17.5c-75.1-39.6-94.7,34.1-24.3,29.5
		C179.5,300.1,210.4,290.1,210.7,289.5z M325.5,224c4.5-3.4,13-26.6,14.7-31.4c0.3-0.8,0.2-0.4,0.6-5.7c0.1-1.6-2.1-4.6-3.7-5.8
		c-5.9-4.5-12.3,0.3-15.7,7.6C314.3,203.7,320.1,228.1,325.5,224z M285.1,303.9c0.7,0.7,0.7,0.7,1.6,0.2c15-8.3,11.4-25.1,8.7-23
		c-3.6,2.9-3.3,8.9-5.5,9.9c-1.4,0.7-4,0.1-4.1-2c0-0.2-0.1-0.4-0.1-0.6c-0.8-2.5-2.2-4.4-4.8-5.4c-1.1-0.4-1.6-0.2-2.3,0.7
		c-0.3,0.4-0.5,0.9-0.7,1.4C276,291.1,280.1,299,285.1,303.9z M355.5,153.1c4.2,0.4,16.7-3.3,18.3-13.6c1.2-7.5-4.9-12.8-12.1-0.9
		C358.8,143.5,356.4,149.7,355.5,153.1z M255.2,215.3c-16.3,26,19.1,37.3,0.3,0.3C255.4,215.5,255.3,215.4,255.2,215.3z
		 M350.8,245.6c-0.3,0.8,2.3,13.4,9.2,17.4c4.5,2.6,6.8-3,5.5-7.7C363.9,249.2,357.2,246.5,350.8,245.6z M288.9,193.5
		c6.3-2.8,5.6-11.9,0.3-15.6c-5.1-3.5-8,9.3-8.9,15.3c-0.1,0.9-0.1,1,0.8,1C283.9,194.4,286.3,194.6,288.9,193.5z M223.9,217.5
		c-0.8,0.4-7.3,14-3.6,21c4.2,8.2,11.9,4.5,4-20.1C224.2,218.1,224.2,217.8,223.9,217.5z M190.4,198.6c0,0.4,0.2,0.6,0.6,0.5
		c8.6-1.1,7.8-10.8,3.3-13.9c-0.6-0.4-0.8-0.4-1.2,0.2c-0.5,0.8-0.9,1.7-1.2,2.7C190.6,192.3,190.5,195.5,190.4,198.6z"/>
	<path class="st4" d="M122.8,209.7c0.4-0.5,3-11.6,11.3-17.3c5-3.4,10.8-2.9,15.3,0.2c3,2.1,4.3,4.6,4.7,4.8
		c0.6-0.1,9.8-14.6,15-28.5c3.1-8.5,2-13.5,6.5-12.3c5.7,1.6,1.6,7.1,0.8,46.1c0,1.4-0.3,31.3,0.1,32.7c0.3,0,4.7-1,5.6-1.5
		c2.5-1.3,5.4,1.2,3.2,2.9c-1.1,0.8-8,2.5-9.3,2.7c-2.2,0.5-4.5-0.3-5.4-2.7c-5.9-16.2-1.7-54.8-2.2-56.3
		c-0.7,0.4-2.9,7.3-11.7,20.3c-1.3,1.9,1.3,2.1,2.2,12.5c3.3,35.8-33.9,32.2-18.9,6.1c9.2-16.1,10-13.3,8.9-16.5
		c-0.8-2.3-1.8-4.9-3.5-6.6c-3-3-6.7-2.1-9.9,0.6c-5.4,4.4-8.5,12.2-9.7,19.1c-2.5,14.5,3.6,19.1-0.8,20.5c-3.3,1-4.9-2.4-6.1-5.7
		c-10.3-29.2-4.1-64,8-82.2c0.2-0.4,0-0.5-0.3-0.7c-14.4-9.7-29.7-30.4-50.3-12.8c-7.4,6.3-12.8,14-16.3,23.1
		c-1.8,4.8-1.9,9.9-1.6,11.5c0.5,2-3.4,2.2-4,0c-3-11.7,13.1-41.1,33.8-44.6c16.8-2.8,28.7,12,39.9,19.8c0.9,0.7,0.8,0.7,1.5-0.3
		c5.8-8,12.7-15.4,22.3-17.4c27-5.6,24.6,36.9-10.4,27.7c-7.6-2-6.6-3.5-7.5-1.8c-9.2,17.4-12.3,36-11.2,55.8
		C122.6,209.3,122.6,209.5,122.8,209.7z M165.5,143.1c2.2-6.2-1.5-14-10.5-11.7c-8.4,2.1-14.4,10.2-18.9,17.7
		c-0.3,0.5-0.3,0.6,0.3,0.8C147.6,155,161.4,154.6,165.5,143.1z M150.4,210.4c-4.4,6.6-13.5,18.8-8.5,24.3
		c2.9,3.2,10.5-1.8,8.9-21.4C150.8,212.4,150.8,211.4,150.4,210.4z"/>
	<path class="st4" d="M80.5,191.3c9.9-0.7,4.3,2.6,8.7-19c1.1-5.5,1-8.2,3-8.7c1.7-0.4,4.1,0.5,3.6,2.8c-1.2,5.1-2.1,20.1-2.2,22.2
		c-0.1,2.2-0.1,1.1,6.2,0.9c3.2-0.1,4.7,2.8,1.2,3.6c-2.3,0.5-4.6,0.7-6.9,0.9c-0.8,0.1-0.8,0.1-0.8,0.9c-0.3,12.2-0.3,11.1,0.8,11
		c3-0.2,5.9-0.4,8.9-0.6c3.5-0.2,4.7,2,3.1,3.1c-0.9,0.6-0.7,0.4-11,1.3c-2.2,0.2-1.9-0.1-1.8,2c0.3,6.6,1.2,16,2.3,21.5
		c0.6,3-4.4,4.1-5.7,1.3c-0.6-1.3-1-2.6-1.3-4c-3.3-20.6-1.3-20.1-3.1-19.9c-8.9,0.8-9,0.2-9,1.1c0.4,7.4,0.4,6.1,1.2,15.2
		c0.4,4.5-4.2,4-5.1,1.9c-0.3-0.8-0.6-1.5-0.7-2.4c-2-16.4-0.8-15.3-2.2-15.3c-3.7,0-10.7,0.2-10.4-2.3c0.1-1.2,1.7-1.3,2.8-1.3
		c9.4-0.2,8.3,0.2,8.3-1.4c-0.2-5.1,0-10.1,0-10.3c0.1-0.9-0.3-0.6-4.6-0.9c-9.5-0.6-8.4-3.1-6.7-3.7c1-0.3,0.8-0.2,9.6,0.1
		c2.1,0.1,1.9,0,2-0.7c0.4-5.7,1.4-19.2,3.4-24.6c0.9-2.4,4.8-1.9,4.7,1.1c-0.2,5.1-1.3,12.9-1.8,23.4c0,0.9-0.3,0.7,3.6,0.7
		C80.5,191.3,80.5,191.3,80.5,191.3z M85.9,194.9c-9.7,0.5-9.2,0.3-9.2,1.1c0,3.5-0.3,7-0.1,10.5c0.1,1.1-0.6,0.9,9.3,0.2
		c0.6,0,0.6-0.3,0.6-0.8C86.3,194.1,87.1,194.8,85.9,194.9z"/>
</g>
</svg>
