<?xml version="1.0" encoding="utf-8"?>
<!-- Generator: Adobe Illustrator 21.1.0, SVG Export Plug-In . SVG Version: 6.00 Build 0)  -->
<svg version="1.1" id="Calque_1" xmlns="http://www.w3.org/2000/svg" xmlns:xlink="http://www.w3.org/1999/xlink" x="0px" y="0px"
	 viewBox="0 0 432 432" style="enable-background:new 0 0 432 432;" xml:space="preserve">
<style type="text/css">
	.st0{fill:#191464;}
	.st1{fill:#C82933;}
	.st2{fill:#E4C877;}
	.st3{fill:#B3B3B3;}
	.st4{fill:#342E8C;}
	.st5{fill:#CCCCCC;}
	.st6{fill:#F44244;}
	.st7{fill:#E6E6E6;}
	.st8{fill:#BD0725;}
	.st9{fill:#1A1A1A;}
	.st10{fill:#DA8F92;}
	.st11{fill:#F4D497;}
	.st12{fill:#F0A762;}
	.st13{fill:#8D4C36;}
	.st14{fill:#DAA18E;}
	.st15{fill:#E0C4BA;}
	.st16{fill:#DA9D8F;}
	.st17{fill:#70796B;}
	.st18{fill:#C5907E;}
	.st19{fill:#AAC69B;}
	.st20{fill:#B098A2;}
	.st21{fill:#2F3448;}
	.st22{fill:#8D1D11;}
	.st23{fill:#1B1E55;}
	.st24{fill:#B22931;}
	.st25{fill:#6E8BC4;}
	.st26{fill:#8B8286;}
	.st27{fill:#E3A8A3;}
	.st28{fill:#D7A392;}
	.st29{fill:#8B6E68;}
	.st30{fill:#C8A093;}
	.st31{fill:#333333;}
	.st32{fill:#B8B195;}
	.st33{fill:#864C38;}
	.st34{fill:#BA9490;}
	.st35{fill:#8D5948;}
	.st36{fill:#656E6E;}
	.st37{fill:#C6A687;}
	.st38{fill:#D6AA9C;}
	.st39{fill:#A06352;}
	.st40{fill:#ECBAA9;}
</style>
<g>
	<g>
		<path class="st17" d="M216.8,163.3c0.2,0.1,0.3,0.2,0.4,0.3c1.8,1.4,2.2,3.7,0.7,5.4c-1.5,1.8-4.1,2.1-5.8,0.6
			c-2.1-1.8-1.5-5.4,1.1-6.4c0.7-0.3,1-0.6,1.1-1.4c0.6-3.4,2-6.4,4.3-9c0.1-0.1,0.2-0.3,0.4-0.6c-0.4,0.1-0.7,0.2-1,0.3
			c-1.4,0.3-2.8,0.8-4.2,1c-2.7,0.4-5.2-0.1-7.6-1.2c-1.3-0.6-2.5-1.3-3.6-2c-1.6-1-2.8-2.5-3.6-4.2c-0.1-0.3-0.3-0.6-0.7-0.7
			c-1.9-0.5-3.1-1.9-3.1-3.7c0-1.7,1.2-3.3,3-3.8c1.6-0.5,3.3,0.1,4.2,1.4c0.9,1.4,0.8,3.2-0.2,4.5c-0.2,0.3-0.5,0.5-0.8,0.8
			c0.6,1.6,1.6,2.8,3,3.7c2.5,1.7,5.2,2.6,8.2,2.5c0.1,0,0.2,0,0.5-0.1c-0.2-0.2-0.3-0.2-0.4-0.3c-1.4-0.6-2.4-1.6-3.2-2.9
			c-0.9-1.4-1.8-2.8-2.8-4.2c-0.6-1-0.4-1.9,0.6-2.4c1-0.5,2.1-0.5,3.2-0.2c1.6,0.4,2.8,1.3,3.6,2.7c0.6,0.9,1.1,1.9,1.6,2.8
			c0.9,1.6,2.3,2.3,4.2,2.1c0.5,0,1-0.2,1.5-0.4c2.7-1.2,5.4-2.3,8.3-3c3.4-0.9,6.9-1.4,10.5-1.3c0.3,0,0.6,0,0.9,0
			c0.1,0,0.1,0,0.2-0.1c-2.1-2.9-2.3-6.2-2.2-9.6c-1-0.6-2-1.3-2.3-2.5c-0.2-0.8-0.2-1.6,0.1-2.4c0.6-1.6,2.2-2.7,3.9-2.6
			c1.7,0.1,3.1,1.2,3.6,2.8c0.5,1.8-0.2,3.3-2.3,4.8c0.1,1.9,0.4,3.7,1.1,5.5c1,2.6,2.9,4.3,5.5,5.3c2.7,1.1,5.4,2,8.1,3
			c3,1.2,6.1,2,9.4,1.9c2.3-0.1,4.6-0.5,6.8-1c0.4-0.1,0.9-0.1,1.4-0.1c0.4,0,0.6,0.2,0.8,0.5c0.2,0.4,0,0.7-0.3,0.9
			c-0.4,0.3-0.8,0.6-1.3,0.9c-1.8,0.9-3.8,1.3-5.8,1.6c-3.2,0.5-6.4,0.3-9.6-0.6c-0.5-0.1-0.9-0.1-1.4,0c-0.8,0.2-1.2,0.8-1.3,1.6
			c-0.2,1.1-0.3,2.2-0.7,3.2c-0.4,1.3-1.4,2.2-2.8,2.5c-1.6,0.4-3.1,0.1-4.4-0.9c-0.8-0.6-0.9-1.2-0.5-2.1c0.3-0.6,0.6-1.3,0.9-1.9
			c1.2-2.6,1.4-2.8,3.4-4.5c-0.2-0.1-0.4-0.2-0.7-0.3c-3.2-1.2-6.4-1.9-9.8-2.1c-1.8-0.1-3.5,0.1-5.1,0.9c-0.9,0.4-1.4,1.1-1.5,2.1
			c0,0.7-0.1,1.4-0.1,2c-0.2,2.8-2.6,5.1-5.3,5.2c-0.5,0-0.9,0-1.4-0.2c-0.9-0.3-1.2-1.1-0.7-1.9c0.2-0.3,0.5-0.6,0.7-1
			c1.3-1.9,2.5-3.7,3.9-5.8c-0.4,0.1-0.5,0.1-0.6,0.2c-4.2,1.5-8,3.8-10.9,7.4c-1.5,1.8-2.5,3.9-3.1,6.1
			C216.9,162.7,216.8,163,216.8,163.3z"/>
		<path class="st17" d="M117.9,309.5c-0.2-0.2-0.3-0.3-0.5-0.5c-2.3-2.2-3.6-4.9-4.3-8c-0.3-1.7-0.7-3.4-1.4-5.1
			c-0.5-1-0.2-2,0.7-2.7c0.3-0.2,0.6-0.4,0.9-0.5c2.5-1.1,5.1-1.4,7.7-0.4c1.7,0.6,2.9,1.7,3.8,3.3c1,1.8,1.2,3.7,1.4,5.7
			c0.1,0.7,0.1,1.4,0.2,2.2c0.2,1.9,1.1,3.3,2.5,4.5c1.9,1.6,4.1,2.7,6.5,3.5c1.5,0.5,2.9,1,4.3,1.7c1.9,0.9,3.6,2.2,5,3.7
			c0.2,0.2,0.4,0.4,0.5,0.6c0.3,0.4,0.4,0.8,0.1,1.3c-0.3,0.4-0.8,0.5-1.2,0.3c-0.5-0.2-1-0.4-1.4-0.7c-2.1-1.2-4.3-2.3-6.6-2.9
			c-2.4-0.7-4.9-0.9-7.4-0.9c-1.7,0-3.3,0.4-4.9,1.1c-1.9,0.9-3.7,1.8-5.6,2.7c-2.5,1.2-5,2.1-7.8,2.4c-3.8,0.4-7.2-0.5-10.3-2.6
			c-3.4-2.3-5.8-5.4-6.8-9.5c-0.2-0.9-0.3-1.8-0.3-2.7c0-1.6,0.8-2.4,2.4-2.4c3.4-0.1,6.8-0.1,10,0.8c1.6,0.5,3.2,1.1,4.7,1.8
			c2.1,0.9,4.2,2,6.3,3c0.4,0.2,0.7,0.3,1.1,0.5C117.8,309.6,117.9,309.6,117.9,309.5z"/>
		<path class="st17" d="M288.6,268.4c-0.1,0.1-0.1,0.1-0.1,0.2c-0.7,2.3-2.7,3.1-4.9,2.1c-1.1-0.5-1.9-1.3-2.6-2.3
			c-0.7-0.9-1.4-1.8-2.2-2.8c-0.2,0.1-0.3,0.2-0.4,0.3c-1.5,1.2-3.5,1.3-5,0.2c-1-0.7-1.7-1.6-2.2-2.8c-0.2-0.5-0.4-1.1-0.6-1.6
			c-0.9-3.1-3.1-4.6-6.2-4.9c-1.4-0.1-2.8-0.2-4.2,0.1c-0.2,0-0.5,0-0.7-0.1c-0.8-0.3-0.9-1-0.2-1.5c0.3-0.2,0.5-0.4,0.8-0.5
			c1.6-0.7,3.2-1,4.9-1.1c2.2,0,4.4-0.1,6.6-0.2c1.4-0.1,2.8-0.4,4.2-0.6c1.3-0.2,2.6-0.2,3.9,0.3c1.2,0.5,2.1,1.2,2.3,2.6
			c0.1,0.3,0,0.7,0,1.1c0.3,0,0.6-0.1,1-0.1c1,0,2,0,2.9,0.2c1.4,0.3,2.3,1.1,2.6,2.5c0,0.1,0.1,0.2,0.1,0.2c1,0,2.1,0,3.1,0
			c1.9,0.1,3.6,0.6,5.2,1.8c0.3,0.3,0.7,0.5,1,0.8c1.2,1.2,1.8,2.6,1.2,4.3c-0.5,1.6-1.8,2.3-3.3,2.6c-1.6,0.4-3.1,0.1-4.7-0.3
			c-0.7-0.2-1.4-0.4-2.1-0.5C289.1,268.5,288.8,268.5,288.6,268.4z"/>
		<path class="st17" d="M127.4,159.1c0.6-0.5,1.1-1,1.7-1.4c0.8-0.6,1.5-1.3,2.4-1.8c0.8-0.5,1.7-0.6,2.6-0.3c1,0.4,1.6,1.1,1.5,2.1
			c-0.1,1.3,0.2,2.3,0.7,3.5c1.2,2.5,0.1,4.2-2.7,4.6c-0.6,0.1-1.3,0.1-2.1,0.2c0.2,0.2,0.4,0.4,0.5,0.5c0.4,0.4,0.9,0.7,1.2,1.1
			c0.7,0.8,0.8,1.7,0.3,2.7c-0.5,1-1,2-1.5,2.9c-0.2,0.3-0.3,0.6-0.5,0.9c-1.1,1.3-2.7,1.5-3.9,0.5c-0.9-0.7-1.6-1.6-2.4-2.4
			c-0.2-0.2-0.3-0.4-0.6-0.8c-0.1,0.4-0.2,0.6-0.3,0.9c-0.3,0.8-0.6,1.6-0.9,2.3c-0.9,1.7-2.4,2.4-4.2,1.9c-1.2-0.3-2.4-0.8-3.5-1.3
			c-1.1-0.5-1.7-1.7-1.4-2.9c0.2-0.8,0.6-1.7,1.1-2.4c0.6-0.9,1.3-1.7,1.9-2.6c0.2-0.2,0.4-0.5,0.7-0.9c-0.6,0.2-1,0.2-1.4,0.3
			c-0.6,0.2-1.2,0.4-1.8,0.5c-0.6,0.1-1.3,0.1-1.8-0.1c-1.6-0.5-2.2-1.6-1.7-3.2c0.3-0.9,0.3-1.7,0.1-2.5c-0.1-0.3-0.1-0.5-0.2-0.8
			c-0.2-1.2,0.4-2.3,1.5-2.8c0.8-0.4,1.6-0.5,2.4-0.3c0.6,0.1,1.3,0.3,1.9,0.4c0.6,0.2,1.2,0.4,2,0.7c-0.1-0.4-0.2-0.7-0.4-0.9
			c-0.5-1.1-0.8-2.3-0.7-3.6c0-0.4,0.1-0.9,0.3-1.3c0.4-0.9,1.3-1.2,2.3-0.9c0.3,0.1,0.5,0.2,0.7,0.3c0.9,0.7,1.8,0.7,2.8,0.3
			c0.4-0.2,0.9-0.2,1.4-0.2c1.6,0,2.7,1.1,2.6,2.8c0,0.7-0.3,1.3-0.4,2c-0.2,0.7-0.3,1.3-0.5,2C127.2,159,127.3,159,127.4,159.1z"/>
		<path class="st17" d="M200.3,82.6c-0.9,0-1.8,0.1-2.6,0c-2.6-0.2-4.7-1.3-6.2-3.6c-1-1.6-1.7-3.4-2.2-5.2c-0.6-2.1-1.1-4.3-2-6.3
			c-0.4-1,0-1.9,1.1-2.2c4.4-1,9.2-0.9,12.7,3.3c0.7,0.8,1.4,1.7,2.2,2.4c0.5,0.5,1.2,0.9,1.7,1.4c0.1,0,0.1-0.1,0.2-0.1
			c-0.1-0.7-0.2-1.5-0.2-2.2c0-0.3-0.1-0.6-0.1-0.9c0.2-1,1-1.5,1.9-1.1c0.4,0.2,0.9,0.5,1.2,0.8c0.5,0.6,1,1.3,1.5,2
			c0.6,0.9,1.2,1.9,1.9,2.8c1.1,1.4,2.4,2.6,4,3.3c1.2,0.6,2.5,1.2,3.8,1.7c2.1,0.9,3.8,2.4,5.1,4.2c0.4,0.6,0.7,1.4,1,2.1
			c0.1,0.4,0.2,0.8-0.3,1.1c-0.4,0.3-0.8,0-1.1-0.3c-0.5-0.5-1-0.9-1.5-1.4c-1.3-1.3-2.9-2.3-4.7-3c-1.4-0.5-2.9-0.7-4.4-0.2
			c-1,0.3-2,0.6-2.9,1.1c-2.5,1.3-5.2,2.2-7.9,3.1c-0.2,0.1-0.4,0.1-0.6,0.2c-1.2,0.2-1.9-0.4-1.9-1.7
			C200.2,83.6,200.2,83.1,200.3,82.6z"/>
		<path class="st17" d="M325.9,158.2c-0.7-0.2-1.5-0.3-2.2-0.5c-0.7-0.2-1-0.6-0.9-1.2c0-0.6,0.4-0.9,1.1-1.1
			c0.7-0.1,1.4-0.3,2.1-0.4c1.8-0.3,3.3-1.3,4.6-2.5c1.4-1.3,2.5-2.8,3.3-4.5c0.5-0.9,0.9-1.8,1.4-2.7c1.6-3,3.8-5.6,6.1-8.1
			c0.9-0.9,2-0.8,2.8,0.2c0.8,1.1,1.2,2.3,1.3,3.6c0.1,3.4-0.8,6.5-3,9.2c-1.7,2-3.7,3.4-6.1,4.4c-1.5,0.7-2.9,1.3-4.4,2
			C330,157.6,328,158.1,325.9,158.2z"/>
		<path class="st17" d="M123.3,138.9c0,2.4-0.7,4.6-1.7,6.7c-0.4,0.8-1,1-1.7,0.7c-2.9-1.4-5.2-3.4-6.1-6.6
			c-0.2-0.8-0.3-1.8-0.3-2.6c-0.1-1.1,0-2.2-0.2-3.3c-0.2-1-0.5-2-1-2.9c-0.3-0.6-0.8-1-1.4-1.4c-1.3-0.9-2.9-1.2-4.5-1.4
			c-2-0.2-4-0.6-5.8-1.6c-0.8-0.5-1.6-1-2.4-1.6c-0.7-0.6-1.1-1.4-1.4-2.2c-0.1-0.4-0.1-0.8,0.3-1.1c0.4-0.3,0.8-0.2,1.1,0.1
			c2.1,2.2,5,2.8,7.8,3.3c2.1,0.4,4.3,0.7,6.4,1.1c3.1,0.6,5.7,2,7.8,4.5C122.3,133.1,123.2,135.9,123.3,138.9z"/>
	</g>
	<g>
		<path class="st26" d="M353,175.6c-0.5,3.3-0.9,6.4-1.3,9.6c-0.9,6.3-1.8,12.5-2.6,18.8c-0.8,5.8-1.5,11.7-2.1,17.5
			c-0.6,6.9-0.2,13.8,1.4,20.5c0.4,1.5,0.9,3,1.4,4.4c0.3,0.8,0.7,1.5,1.2,2.1c0.6,0.8,1.3,0.9,2.2,0.4c1.5-0.9,2.9-2.1,3.7-3.6
			c0.9-1.7,1.7-3.4,2.5-5.2c1.8-4.3,3.4-8.6,4.8-13.1c0.3-0.9,0.5-1.8,0.7-2.7c0.2-0.9,0.6-1.8,1.2-2.5c1.1-1.2,2.7-0.8,3.2,0.7
			c0.3,0.8,0.3,1.7,0.1,2.5c-0.9,3.4-1.7,6.8-2.6,10.2c-0.7,2.5-1.5,5.1-2.4,7.6c-1.4,3.8-3.5,7.2-6.2,10.3
			c-1.6,1.8-3.6,3.1-6.1,3.5c-3.8,0.5-7.1-0.6-9.8-3.3c-1.6-1.6-2.9-3.4-3.9-5.4c-1.8-3.3-2.8-6.9-3.5-10.7
			c-1.1-6.5-1.8-13-1.7-19.6c0-0.3,0-0.7,0-1.2c-3.4,0.7-6.6,1.6-9.7,3c0.2,0.4,0.3,0.7,0.5,1.1c2.4,5.2,3.7,10.6,3.2,16.3
			c-0.5,6.1-2.4,11.7-6.5,16.3c-3.6,4.1-8.2,6.3-13.8,6.1c-2.8-0.1-5.2-1.2-7.4-2.8c-3.7-2.6-5.6-6.3-6-10.8c-0.5-6.5,1.7-12,5.7-17
			c1.4-1.7,3-3.2,4.7-4.6c0.3-0.2,0.5-0.4,0.9-0.7c-2.7-3.4-5.7-6.6-8.7-10c-0.2,0.5-0.4,0.9-0.6,1.3c-2.2,5.2-4.3,10.5-6.6,15.7
			c-1.9,4.3-4.2,8.4-7.1,12.2c-0.8,1.1-1.8,2.2-2.8,3c-4.1,3.4-8.8,4.2-13.8,2.3c-4.6-1.8-8.1-4.9-10.9-8.9c-3-4.1-4.8-8.7-6.2-13.6
			c-1.1-3.9-1.6-7.9-1.8-11.9c-0.4-8.2,0.2-16.4,1.6-24.5c0.1-0.6,0.2-1.2,0.4-1.8c0.1-0.5,0-0.9-0.4-1.3c-1.1-1.1-2.1-2.2-3.1-3.3
			c-2.5-2.9-4.6-6-6.3-9.4c-0.1-0.2-0.2-0.4-0.5-0.6c-0.1,0.8-0.2,1.7-0.2,2.5c-0.4,6.6-0.9,13.2-1.3,19.8
			c-0.5,6.9-0.9,13.9-1.5,20.8c-0.4,5.7-1,11.4-1.5,17.1c-0.3,3.9-0.7,7.7-1.5,11.6c-0.2,0.8-0.4,1.6-0.6,2.4
			c-1.4,4.3-4.9,6.2-9.3,5.1c-1.7-0.4-3.3-1.2-4.7-2.2c-2.1-1.5-3.8-3.3-5.1-5.5c-1.9-2.9-3.3-6.1-4.5-9.4c-1-2.6-1.8-5.2-2.7-7.8
			c-0.1-0.3-0.2-0.5-0.3-0.9c-0.2,0.4-0.4,0.7-0.5,1c-1.1,1.9-2.1,3.8-3.3,5.6c-1.5,2.2-3.6,3.2-6.3,3.2c-1.8,0-3.5-0.6-4.9-1.6
			c-3.1-2.1-5.4-4.9-7-8.4c-1.4-3.2-2.2-6.6-2.5-10.1c-0.6-6-0.2-12,0.5-17.9c0.5-4.3,1.1-8.7,2-12.9c1.4-6.3,2.9-12.7,4.9-18.9
			c0.5-1.4,0.8-2.9,1.1-4.4c0.3-1.6-0.1-2.4-1.7-2.9c-1.4-0.5-2.7-0.4-4.1,0.1c-1,0.4-2,0.9-3,1.3c-0.4,0.2-0.8,0.4-1.2,0.7
			c-2.6,1.9-5.3,3.7-8,5.6c0.1,0.4,0.2,0.7,0.3,1.1c1.6,5.8,2.7,11.7,3.4,17.7c0.8,7.5,0.9,15,0.6,22.6c-0.3,6.8-1.1,13.6-2.2,20.3
			c-0.6,3.6-1.2,7.3-2.4,10.8c-0.7,2-1.4,4-2.2,5.9c-0.4,1-1,2.1-1.6,3c-2.8,4.5-7.6,5.4-11.8,3.7c-2-0.8-3.7-2-5.2-3.5
			c-4.5-4.5-7.5-9.8-9.2-15.9c-0.6-2.1-1-4.3-1.4-6.5c-0.1,0.2-0.3,0.3-0.4,0.5c-0.7,0.8-1.4,1.7-2.2,2.5c-3.2,3.1-6.9,3.5-10.9,2.1
			c-1.5-0.5-2.8-1.4-4-2.4c-0.3-0.2-0.5-0.4-0.9-0.7c-0.3,0.9-0.6,1.8-0.9,2.6c-1.5,4.6-3,9.2-4.6,13.7c-0.5,1.5-1.2,3-1.9,4.5
			c-0.5,1-1.2,1.9-1.9,2.7c-1.8,2-4.1,2.6-6.7,1.9c-2.4-0.6-4.3-2.1-5.9-4c-3.2-3.8-5-8.3-5.7-13.2c-0.5-3.7-0.3-7.4,0.1-11
			c0.6-6.9,1.9-13.7,2.9-20.5c0.1-1,0.2-2,0.4-3c-0.9,0.2-1.4,0.6-1.9,1.1c-0.9,1-1.9,2.1-2.7,3.3c-2.4,3.5-3.9,7.4-5,11.5
			c-1.3,4.7-2.1,9.4-2.5,14.2c-0.3,3.3-0.4,6.5-0.3,9.8c0.1,2,0.2,4.1,0.2,6.1c0,0.7,0,1.4-0.2,2.1c-0.8,3.1-4,4.9-7.2,4
			c-1-0.3-1.9-0.8-2.8-1.4c-2.3-1.6-3.9-3.6-5.1-6.1c-1.3-2.8-2.2-5.8-3-8.8c-1.7-6.2-2.7-12.5-3.2-18.9c-0.6-7.4-0.7-14.9-0.4-22.3
			c0.7-14.1,3.8-27.7,10.1-40.4c2.6-5.3,5.9-10.3,10.2-14.4c2-1.9,4.2-3.7,6.7-5c2.2-1.2,4.6-1.9,7.1-2.2c3.5-0.3,6.5,0.8,9,3.2
			c2.4,2.3,3.7,5.1,4.1,8.4c0.6,4.8-0.3,9.4-2,13.9c-3.2,8.3-7.7,15.8-13.3,22.6c-2.2,2.6-4.5,5.1-6.9,7.4c-2,1.9-4.1,3.6-6.4,5
			c-0.5,0.3-0.7,0.6-0.7,1.2c-0.3,6.3-0.3,12.7,0.1,19c0.1,1.6,0.3,3.2,0.4,5c0.2-0.4,0.3-0.6,0.3-0.8c1.1-4.3,2.5-8.5,4.6-12.5
			c1.6-3.1,3.5-6,5.9-8.4c0.8-0.9,1.7-1.7,2.7-2.4c3.2-2.3,6.9-2.1,10,0.3c1.7,1.3,2.8,3,3.7,4.9c0.9,2.2,1.4,4.5,1.7,6.9
			c0.4,3.8,0.1,7.6-0.3,11.4c-0.5,5-1.2,10.1-1.7,15.1c-0.2,2.3-0.3,4.5-0.3,6.8c0,1.3,0.3,2.5,0.5,3.8c0.1,0.4,0.3,0.8,0.5,1.4
			c0.5-0.6,1-0.9,1.3-1.4c0.9-1.4,1.8-2.8,2.4-4.3c1.6-3.8,3.1-7.7,4.6-11.6c0.4-1.1,0.8-2.2,1.3-3.3c0.2-0.4,0.1-0.7-0.1-1
			c-4.1-6-5.6-12.8-5.4-20c0.2-5.6,1.7-10.8,4.9-15.4c0.6-0.8,1.3-1.6,2-2.4c3.8-4.1,8.5-5.5,14-4.2c4.8,1.2,8.6,3.9,11.6,7.8
			c0.5,0.7,1,1.5,1.6,2.3c0.2-0.2,0.4-0.4,0.7-0.5c0.4-0.3,0.8-0.6,1.3-0.9c2.8-1.6,5.9-0.9,7.8,1.8c1,1.4,1.5,3.1,1.7,4.8
			c0.4,3.1,0.2,6.1-0.1,9.2c-0.6,5.9-1.4,11.8-1.9,17.7c-0.4,4.2-0.3,8.4,0.7,12.5c0.5,2,1.2,3.9,2.6,5.5c1.2,1.3,1.7,1.4,2.7,0
			c0.8-1.1,1.4-2.3,2-3.5c1.4-3.2,2.3-6.6,3.1-10.1c1.4-5.7,2.2-11.4,2.9-17.2c0.8-6.3,1-12.7,0.8-19.1c-0.3-7.6-1.1-15.2-3-22.7
			c-0.1-0.3-0.2-0.6-0.3-1c-0.3,0.2-0.6,0.4-0.9,0.5c-1.5,0.9-3,1.8-4.6,2.6c-3.7,1.9-7.6,2.5-11.6,1.7c-7.7-1.6-10.6-8.5-9.3-14.3
			c0.9-4.1,3.2-7.3,6.8-9.3c4.5-2.6,9.1-2.3,13.5,0.6c2.3,1.5,4.1,3.6,5.4,6c0.8,1.4,1.4,2.8,2.1,4.2c0.2,0.3,0.3,0.7,0.5,1.1
			c0.4-0.2,0.8-0.4,1.1-0.6c3.1-1.7,6.2-3.4,9.4-5c2.1-1.1,4.4-1.9,6.8-2.3c4.6-0.7,9.2,1.5,11.4,5.6c1.1,2,1.7,4.3,2,6.6
			c0.5,4.3,0.2,8.5-0.4,12.8c-0.7,4.4-1.4,8.9-2.3,13.3c-1.1,5.7-2.2,11.4-3,17.1c-0.5,3.7-0.8,7.3-0.7,11c0.1,1.6,0.3,3.2,0.6,4.7
			c0.3,1.4,0.9,2.6,1.9,3.7c0.4-0.2,0.7-0.4,1.1-0.6c0.2-0.2,0.4-0.4,0.6-0.6c1.7-2.5,3.4-5.1,5.1-7.6c0.2-0.2,0.2-0.7,0.1-1
			c-1-4.7-1.8-9.4-2.1-14.2c-0.4-6.5-0.3-13,1.6-19.4c0.5-1.7,1.1-3.3,2.2-4.6c1.1-1.4,2.5-2.3,4.3-2.3c1.9,0,3.4,0.9,4.4,2.4
			c1,1.5,1.4,3.2,1.7,5c0.4,3.8,0.9,7.6,1.2,11.4c0.4,4.5,0.9,9,1.7,13.4c0.9,4.9,1.8,9.7,3.1,14.5c0.9,3.3,1.9,6.6,3.3,9.8
			c0.1,0.3,0.3,0.6,0.5,1.1c0.1-0.4,0.3-0.6,0.3-0.8c1-4.4,1.8-8.8,2.3-13.3c0.6-5.3,1.2-10.5,1.8-15.8c0.4-3.9,0.6-7.8,0.9-11.7
			c0.3-4.1,0.6-8.1,1-12.2c0.2-2.8,0.4-5.6,0.7-8.4c0.4-4,0.8-8.1,1.3-12.1c0.1-0.7,0.2-1.5,0.5-2.2c1-2.6,4-3.2,5.8-1.1
			c0.7,0.8,1.2,1.7,1.7,2.6c0.6,1.2,1.1,2.4,1.7,3.6c2,4.5,4.2,9,7,13.1c0.3,0.4,0.6,0.9,1,1.4c0.3-0.6,0.4-0.9,0.6-1.3
			c1.9-4.5,4.4-8.6,7.6-12.3c2.1-2.4,4.5-4.4,7.5-5.7c5.1-2.3,9.8-1.5,13.9,2.2c3.8,3.4,5.6,7.8,5.1,13c-0.6,6.9-4,12.4-9.4,16.6
			c-3.2,2.5-7,3.4-11,2.8c-0.1,0-0.2,0-0.4,0c-0.1,0.6-0.2,1.2-0.2,1.8c-0.2,3.7-0.6,7.4-0.6,11c-0.2,7.9,0.9,15.6,3.5,23.1
			c0.9,2.6,1.8,5.3,3.5,7.6c0.3,0.5,0.7,0.9,1.1,1.4c0.9,0.9,1.8,1.2,3,0.5c1-0.6,2-1.3,2.9-2.1c1.6-1.5,2.9-3.3,4.1-5.2
			c3.8-5.8,6.9-12,9.5-18.4c0.6-1.4,1.2-2.8,1.8-4.2c-0.6-1-1.3-1.9-1.9-2.9c-1.9-3.2-3.6-6.5-4.3-10.2c-0.8-3.9-0.5-7.7,0.8-11.5
			c1.1-3.3,2.7-6.4,5.3-8.8c3-2.8,6.6-4.1,10.7-3.7c1.4,0.1,2.7,0.6,3.9,1.2c3.9,2.1,6.2,5.3,7.2,9.6c0.6,2.4,0.8,4.9,0,7.3
			c-0.2,0.7-0.6,1.4-1.1,2c-0.8,0.9-2,0.7-2.5-0.4c-0.3-0.6-0.4-1.2-0.5-1.9c-0.3-2.1-0.7-4.1-1.7-6c-0.6-1.3-1.4-2.4-2.5-3.4
			c-0.7-0.6-1.5-1.2-2.4-1.4c-1.4-0.4-2.7,0.1-3.5,1.3c-2.5,3.9-2.5,8.7,0.3,12.4c1,1.4,2.3,2.7,3.5,3.9c5.4,5.4,10.7,10.9,15.4,17
			c0.1,0.1,0.2,0.2,0.3,0.4c4.3-1.8,8.6-3,13.1-3.9c0.6-12.7,2.5-25.1,4.9-37.6c-0.5,0-0.8,0-1.2,0c-4,0-8.1,0-12.1,0
			c-5,0-10-0.5-14.9-1.6c-3.5-0.8-6.8-2.1-9.6-4.4c-2.1-1.8-3.8-3.9-4.6-6.6c-0.8-2.6-0.7-5.2,0.1-7.7c0.7-2.2,2-3.9,3.9-5.2
			c3.2-2.2,6.8-2.8,10.7-2.4c2.1,0.2,4,0.7,5.8,1.8c0.9,0.5,1.7,1.2,2.4,2c0.4,0.4,0.7,1.1,0.9,1.7c0.2,0.7,0.1,1.3-0.5,1.8
			c-0.6,0.5-1.2,0.5-1.8,0.2c-0.4-0.2-0.8-0.4-1.2-0.6c-2.2-1.6-4.7-2.1-7.4-1.9c-1.6,0.1-3,0.6-4.2,1.5c-1.8,1.3-2.4,3-1.8,5.2
			c0.6,2,1.8,3.5,3.5,4.6c1.3,0.8,2.7,1.4,4.1,2c3.1,1.2,6.3,1.6,9.6,2.1c4.9,0.7,9.7,0.9,14.6,1.3c1.3,0.1,2.5,0.2,3.8,0.3
			c0.5,0,1,0.1,1.6,0.1c0.2-0.7,0.4-1.4,0.6-2c0.8-2.7,1.8-5.3,3.5-7.6c0.7-0.9,1.5-1.7,2.5-2.3c1.7-0.9,3.4-0.7,4.8,0.6
			c0.9,0.8,1.5,1.9,1.9,3c0.6,1.9,0.8,3.8,0.8,5.7c0,1-0.1,2.1-0.1,3.1c0,0.8-0.1,1.5-0.1,2.3c0.4,0.2,0.7,0.3,1,0.5
			c4.8,2.2,8.5,5.7,10.9,10.4c2.1,4.2,2.5,8.6,0.7,13.1c-0.4,0.9-0.9,1.9-1.5,2.7c-0.4,0.6-1,1-1.6,1.4c-0.9,0.5-1.9,0.2-2.4-0.7
			c-0.5-0.9-0.6-1.8-0.2-2.7c0.1-0.3,0.3-0.6,0.4-0.8c1.7-2.6,1.8-5.5,0.8-8.3c-1.3-4.1-4.1-7-7.8-9.1
			C353.8,175.9,353.5,175.8,353,175.6z M80.9,187.1c0.1,0,0.1,0.1,0.2,0.1c0.3-0.2,0.6-0.4,0.9-0.6c3.5-2.7,6.7-5.8,9.7-9.1
			c4.5-5,8.5-10.5,11.4-16.6c1.4-3.1,2.5-6.3,2.9-9.6c0.3-2.4,0.1-4.7-0.9-7c-0.6-1.3-1.4-2.4-2.5-3.2c-1.7-1.2-3.1-1.3-4.9-0.2
			c-0.7,0.4-1.3,0.9-1.8,1.5c-1,1.2-2.1,2.5-2.9,3.8c-2.4,3.7-4.1,7.7-5.5,11.8c-2.6,7.3-4.3,14.9-5.6,22.6
			C81.5,182.8,81.2,184.9,80.9,187.1z M143.8,196.3c-1.1-1.8-2.3-3.5-3.9-4.8c-1.2-1-2.4-1.8-3.9-2.2c-1.2-0.4-2.2-0.2-3.2,0.5
			c-1.6,1-2.3,2.5-2.8,4.2c-0.8,3.2-1.3,6.4-1.5,9.7c-0.2,3.4,0,6.7,0.5,10.1c0.3,2.5,0.9,4.9,1.9,7.3c0.3,0.7,0.7,1.3,1.1,1.8
			c0.3,0.4,0.7,0.5,1.2,0.3c0.6-0.3,1.2-0.6,1.6-1.1c1-1,2-2.2,3-3.3c0.9-1,1.4-2.1,1.3-3.4c0-0.4,0.1-0.8,0.1-1.2
			C139.9,207.9,140.9,201.9,143.8,196.3z M265.1,190c0.6,0.1,1,0.2,1.4,0.2c2.4,0.2,4.8,0.1,7-1.2c5.3-3.2,8.4-8.2,7.5-14.8
			c-0.4-2.8-1.7-5.1-4-6.7c-2.2-1.6-4.4-1.3-6.1,0.8c-0.1,0.2-0.3,0.3-0.4,0.5c-1.2,1.6-2,3.3-2.7,5.1c-1.3,3.7-1.9,7.5-2.3,11.4
			C265.4,186.8,265.2,188.4,265.1,190z M308.6,228.9c-0.2,0.1-0.3,0.1-0.4,0.2c-3.2,2.7-5.5,5.9-6.8,9.9c-0.7,2.1-0.9,4.2-0.7,6.4
			c0.2,1.8,0.8,3.4,2.3,4.6c1.7,1.3,3.4,1.3,5-0.2c0.9-0.8,1.6-1.8,2.1-2.8c1.7-3.6,2.4-7.2,1.6-11.1
			C311.1,233.3,310.1,231,308.6,228.9z M165.5,163.6c0-0.2,0-0.3,0-0.4c-1-2.5-2.2-4.9-4-6.9c-0.9-1-1.8-1.9-3-2.5
			c-1-0.6-2.1-0.7-3.3-0.5c-0.9,0.2-1.6,0.7-2,1.6c-0.6,1.3-0.8,2.6-0.4,4c0.3,1.6,0.9,3,1.7,4.4c0.5,0.9,1.2,1.4,2.2,1.5
			c1.5,0.2,2.9,0.3,4.4,0C162.6,164.6,164.1,164.1,165.5,163.6z"/>
		<g>
			<g>
				<path class="st27" d="M208.3,266.1c-0.2,0.4-0.3,0.7-0.4,1c-0.6,1.1-1,2.4-1.7,3.4c-1.8,2.6-4.8,3.1-7.5,1.4
					c-2.7-1.8-4.2-4.4-4.9-7.5c-0.4-1.6-0.4-3.1-0.2-4.7c0.1-0.6,0.2-1.2,0.5-1.7c0.7-1.4,2.3-1.5,3.2-0.3c0.4,0.6,0.7,1.3,0.9,2.1
					c0.4,1.6,0.7,3.2,1,4.8c0.3,1.5,0.9,2.8,1.8,3.9c1.1,1.3,2.2,1.4,3.3,0.1c0.8-0.9,1.4-1.9,1.8-3c0.8-2.3,1.4-4.6,1.4-7.1
					c0-1,0.4-1.8,1.3-2.2c0.9-0.4,1.8-0.2,2.5,0.4c0.7,0.5,1.1,1.3,1.4,2c0.8,2,1.2,4.2,1.3,6.3c0.1,3.3,0.4,6.7,0.1,10
					c-0.2,2.4-0.7,4.8-1.6,7.1c-0.7,1.6-1.5,3-2.8,4.2c-0.8,0.8-1.8,1.4-2.9,1.7c-1.9,0.5-3.6,0-5.1-1.3c-0.5-0.5-0.6-1.1-0.3-1.6
					c0.3-0.5,0.9-0.7,1.6-0.3c0.1,0,0.2,0.1,0.3,0.1c1.3,0.7,2.1,0.6,2.9-0.6c0.5-0.6,0.8-1.4,1.1-2.1c0.7-2,0.9-4,1.2-6.1
					c0.4-3.3,0.3-6.6,0-9.9C208.4,266.4,208.4,266.3,208.3,266.1z"/>
				<path class="st27" d="M249,282.2c-0.2,0.3-0.4,0.7-0.6,1c-1.5,2.2-3.6,3-6.2,2.2c-1.8-0.5-3.2-1.6-4.4-3.1
					c-1.8-2.3-2.8-4.9-3.5-7.8c-0.8-3.7-0.9-7.5-0.6-11.3c0.1-0.7,0.3-1.4,0.5-2c0.8-1.6,2.6-1.7,3.6-0.3c0.4,0.5,0.7,1.2,0.8,1.8
					c0.3,1.5,0.5,3,0.6,4.5c0.2,2.5,0.4,4.9,0.7,7.4c0.2,1.5,0.6,3,1.3,4.4c0.5,1.1,1.2,1.9,2.2,2.5c1.1,0.7,1.8,0.6,2.6-0.4
					c0.6-0.8,1.1-1.7,1.5-2.7c0.6-1.6,0.9-3.2,0.9-4.9c0.1-3.3,0.2-6.6,0.4-9.9c0-0.6,0.1-1.2,0.3-1.7c0.2-0.7,0.7-1.2,1.5-1.2
					c0.7,0,1.4,0.4,1.6,1.2c0.2,0.7,0.4,1.5,0.4,2.2c0.2,4.5,0.2,9,0,13.5c-0.1,1.5,0,3.1,0.1,4.6c0,0.6,0.1,1.1,0,1.7
					c0,0.7-0.4,1.2-1,1.4c-0.7,0.2-1.3-0.1-1.6-0.8C249.7,283.9,249.4,283.1,249,282.2z"/>
				<path class="st27" d="M231.6,272.6c-0.1,2.9-0.4,5.8-1.2,8.7c-0.4,1.4-1,2.7-1.9,3.9c-1.6,2-3.8,2.5-6,1.2
					c-2.2-1.2-3.7-3-4.8-5.3c-1.5-3.1-1.9-6.4-1.7-9.9c0.2-2.7,0.6-5.3,1.6-7.8c0.5-1.2,1.1-2.4,2-3.4c1.2-1.3,2.6-1.8,4.4-1.5
					c3.1,0.5,4.9,2.2,6.1,4.9c0.7,1.7,1.1,3.5,1.3,5.4C231.5,270.2,231.5,271.4,231.6,272.6z M225.5,283.3c0.8-0.7,1.3-1.4,1.7-2.6
					c1.4-4.3,1.7-8.6,1-13c-0.2-1.4-0.7-2.7-1.6-3.9c-0.9-1.1-1.9-2-3.6-1.9c-0.2,0.7-0.5,1.4-0.7,2.1c-1.2,4.3-1.1,8.6-0.3,12.9
					c0.3,1.6,0.8,3.2,1.7,4.6C224.2,282.2,224.7,282.9,225.5,283.3z"/>
			</g>
			<g>
				<path class="st27" d="M93.3,280.8c0.5-2.1,1.1-4.2,1.6-6.3c0.7-2.7,1.2-5.5,1.9-8.3c0.4-1.5,1.6-2.2,3.1-1.7
					c0.9,0.3,1.6,0.9,2,1.7c0.6,1,1.2,2,1.7,3.1c1.3,3,2.5,6,3.7,8.9c0.5,1.2,1.1,2.3,1.7,3.4c0.1,0,0.1,0,0.2,0
					c0.1-0.3,0.3-0.7,0.4-1c0.6-2.7,1.2-5.3,1.6-8c0.6-3.4,1-6.7,1.5-10.1c0-0.3,0.1-0.7,0.2-1c0.2-0.6,0.7-0.9,1.2-0.9
					c0.6,0.1,1,0.4,1,1.1c0.1,0.4,0,0.8,0,1.2c-0.1,3.9-0.7,7.8-1.4,11.7c-0.4,2.4-1,4.9-1.5,7.3c-0.2,0.8-0.5,1.6-0.8,2.3
					c-0.8,1.8-2.6,2.4-4.3,1.3c-0.7-0.4-1.3-1-1.9-1.6c-1.3-1.4-2.3-2.9-3.1-4.6c-1-2.3-2-4.6-2.9-6.9c-0.3-0.7-0.6-1.4-1.1-2.1
					c-0.2,0.8-0.4,1.5-0.6,2.3c-0.6,3-1.2,6-1.9,9c-0.2,0.9-0.4,1.7-0.8,2.6c-0.8,1.8-2.5,2.3-4,1c-0.7-0.6-1.2-1.3-1.7-2.1
					c-1-1.6-1.6-3.5-2.2-5.3c-1.1-3.6-2-7.3-2.4-11.1c-0.1-1.1-0.1-2.3-0.1-3.4c0-0.1,0-0.3,0-0.4c0.1-1,0.5-1.7,1.5-2
					c0.8-0.2,1.7,0.1,2.3,1.1c0.4,0.7,0.8,1.4,1,2.1c0.6,2.4,1.1,4.8,1.6,7.2c0.6,2.9,1.2,5.8,1.9,8.7c0,0.2,0.1,0.4,0.2,0.7
					C93.2,280.8,93.3,280.8,93.3,280.8z"/>
				<path class="st27" d="M154.4,281.9c-3.5-0.1-6.9-0.2-10.4-0.3c-0.1,0.5-0.3,1.2-0.4,1.8c-0.1,0.4-0.3,0.9-0.5,1.3
					c-0.2,0.4-0.6,0.6-1.1,0.6c-0.5,0-0.9-0.3-1-0.8c-0.1-0.5-0.2-1-0.1-1.4c0.2-1.5,0.4-3,0.6-4.5c0.6-3.2,1.2-6.5,1.9-9.7
					c0.4-1.7,1-3.4,1.6-5.1c0.4-1.1,1-2.2,1.7-3.2c1.4-2,3.5-2.3,5.5-0.9c1.1,0.7,1.9,1.8,2.5,3c0.9,1.8,1.5,3.7,2.1,5.7
					c1.2,4.6,2.1,9.2,2.9,13.8c0.1,0.3,0.2,0.6,0.2,0.9c0,0.5,0.1,1,0.1,1.4c-0.1,1-0.7,1.8-1.6,2.1c-1,0.3-1.9,0-2.5-0.8
					c-0.4-0.5-0.6-1.1-0.8-1.7C154.7,283.4,154.6,282.6,154.4,281.9z M149.2,263.6c-2.5,4.6-3.3,9.6-4.6,14.7c3,0,5.9,0,8.9,0
					C152.2,273.3,151.1,268.3,149.2,263.6z"/>
				<path class="st27" d="M131.7,280c-2.6,0.5-5.1,0.4-7.7,0.2c0.1,0.8,0.2,1.5,0.2,2.2c0,0.7,0,1.4-0.1,2c-0.1,0.7-0.6,1.2-1.4,1.4
					c-0.8,0.2-1.5-0.1-1.9-0.8c-0.4-0.6-0.7-1.2-0.8-1.9c-0.4-2.3-0.7-4.7-1-7c-0.3-2.6-0.6-5.2-0.7-7.8c-0.1-1.7-0.1-3.4-0.1-5.1
					c0-0.7,0.2-1.4,0.5-2.1c0.6-1.3,2.2-1.4,2.9-0.1c0.4,0.8,0.7,1.7,0.8,2.5c0.3,2,0.4,4,0.6,6c0.2,2.4,0.4,4.7,0.6,7.2
					c2.5,0,5,0,7.6,0c0-0.5-0.1-1-0.1-1.6c-0.2-3.6-0.5-7.2-0.7-10.8c0-0.8,0-1.6,0.1-2.4c0.2-1.4,1-2.2,2-2.3
					c1.1-0.1,2,0.7,2.3,2.1c0.3,1.4,0.5,2.8,0.6,4.2c0.2,2.5,0.3,4.9,0.5,7.4c0.2,3.2,0.4,6.3,0.6,9.5c0,0.4,0.1,0.8,0,1.2
					c-0.2,0.9-0.7,1.6-1.6,1.8c-0.9,0.2-1.7-0.1-2.2-0.9c-0.3-0.4-0.4-0.9-0.5-1.3C132.1,282.4,131.9,281.3,131.7,280z"/>
				<path class="st27" d="M164.2,262.9c-0.9-0.2-1.8-0.3-2.6-0.5c-0.5-0.1-1-0.3-1.5-0.5c-0.6-0.3-1-0.7-0.9-1.5
					c0.1-0.7,0.6-1.1,1.2-1.3c0.7-0.2,1.4-0.3,2.1-0.3c2.5,0.1,5,0.2,7.4,0.3c1.2,0.1,2.4,0.3,3.6,0.5c0.3,0,0.5,0.1,0.8,0.2
					c0.7,0.3,1,0.8,1,1.5c0,0.7-0.4,1.3-1.1,1.6c-0.4,0.1-0.7,0.2-1.1,0.2c-1.1,0-2.3,0-3.5,0c0.1,0.5,0.2,1,0.2,1.5
					c0.1,1.3,0.2,2.6,0.2,3.9c0.1,4,0.3,8.1,0.4,12.1c0,0.8,0.2,1.6,0.2,2.4c0,0.7-0.1,1.4-0.2,2c-0.2,0.9-0.8,1.5-1.8,1.7
					c-0.9,0.1-1.6-0.3-2-1.1c-0.4-0.7-0.7-1.5-0.8-2.3c-0.5-3.2-0.9-6.3-1.3-9.5c-0.2-2.4-0.3-4.9-0.4-7.3
					C164,265.3,164.1,264.1,164.2,262.9z"/>
			</g>
		</g>
		<g>
			<path class="st27" d="M184.3,99.5c1.4-0.7,2.7-1.3,4.1-1.9c0.5-0.2,0.5-0.6,0.5-1c0.2-1.4,0.4-2.7,0.7-4.1
				c0.1-0.4,0.2-0.8,0.3-1.2c0.7-1.9,2.3-2.9,4.1-2.5c1.7,0.3,2.9,1.8,3,3.7c0,1.1-0.1,2.3-0.2,3.4c-0.5,3.8-0.8,7.5-0.6,11.3
				c0.2,4,1,7.8,2.7,11.4c0.5,1.1,1.2,2.1,1.9,3.1c0.7,0.9,1.2,1,2,0.2c0.8-0.8,1.6-1.7,2.3-2.6c1.3-1.9,2.2-3.9,2.9-6
				c0.3-0.9,0.3-2,0.4-2.9c0.5-4.7,1.2-9.4,2.5-13.9c0.3-1,0.6-2,1-2.9c0.3-0.6,0.6-1.2,1.1-1.7c0.9-1,2-1.5,3.4-1.2
				c1.4,0.4,2.1,1.4,2.4,2.7c0.2,1.1,0.1,2.1-0.2,3.2c-0.5,2.6-1.2,5.2-1.6,7.9c-1,5.9-1.5,11.8-1.4,17.8c0.1,3.8,0.9,7.4,2.3,11
				c0.3,0.9,0.9,1.7,1.5,2.5c0.6,0.7,1.1,0.8,1.9,0.4c0.8-0.4,1.5-1,2-1.8c1-1.7,2-3.5,3-5.3c0.5-0.9,1-1.9,1.6-2.8
				c0.1-0.2,0.3-0.4,0.5-0.6c0.3-0.3,0.7-0.4,1-0.1c0.3,0.2,0.4,0.5,0.5,0.8c0.1,0.2,0,0.4,0,0.6c-0.8,3.7-2,7.2-4.1,10.4
				c-0.5,0.7-1,1.4-1.6,2c-2.1,2-4.5,2.4-7.2,1.5c-2-0.7-3.6-2-4.9-3.6c-1.7-2.1-2.7-4.6-3.2-7.2c-0.4-2.2-0.6-4.4-0.9-6.6
				c-0.1-0.5-0.1-1.1-0.3-1.7c-0.2,0.3-0.3,0.6-0.5,0.8c-0.6,0.9-1.2,1.9-2,2.8c-1.7,2-3.9,2.6-6.5,1.9c-3.3-0.9-5.5-3.1-7.1-6.1
				c-1.1-2-1.7-4.2-2.2-6.4c-0.9-4-1.1-8-1-12c0-0.3,0-0.7,0-1.2c-1.3,0.8-2.4,1.6-3.6,2.4c0.1,1.3,0.2,2.7,0.3,4
				c0.3,4,0.4,7.9,0.2,11.9c-0.2,3.9-0.4,7.8-1.5,11.6c-0.4,1.4-0.9,2.7-1.5,3.9c-1.9,3.7-5.6,5.3-9.7,4.2c-2.4-0.7-4.3-2-5.9-3.9
				c-2.6-3.1-4.5-6.6-5.7-10.5c-1.2-3.7-1.9-7.5-2.2-11.3c0-0.2,0-0.4-0.1-0.7c-0.9-0.1-1.6,0.1-2.5,0.4c0,0.5,0.1,1.1,0.1,1.6
				c0.4,5.5,0.1,10.9-1.8,16.2c-1.1,3.1-2.6,6-4.6,8.6c-2,2.5-4.5,4.2-7.7,4.9c-4.8,0.9-8.8-0.5-12-4.1c-3.9-4.4-4.2-9.5-2.2-14.8
				c0.9-2.3,2.3-4.2,4-6c3.3-3.3,7.2-5.6,11.6-7.1c1.4-0.5,2.8-0.9,4.3-1.4c0-0.1,0.1-0.3,0-0.4c-0.9-4.6-2.2-9-4.4-13.2
				c-1.1-2-2.3-3.8-4-5.4c-0.2-0.2-0.4-0.4-0.6-0.6c-0.1-0.1-0.2-0.1-0.3-0.2c-0.9,0.5-1.3,1.3-1.6,2.2c-0.5,1.4-0.9,2.8-1.3,4.3
				c-0.9,4-1.8,8-3.1,11.9c-0.9,2.6-2,5.1-3.8,7.2c-0.5,0.6-1.1,1.2-1.7,1.8c-4.5,3.8-9.3,2.3-12.3-0.1c-1.3-1-2.2-2.4-3-3.8
				c-1.4-2.5-2.3-5.2-2.7-8.1c-0.1-0.8-0.1-1.7,0.1-2.6c0.3-1.5,1.2-2.5,2.8-2.7c1.5-0.3,2.8,0.4,3.6,1.8c0.5,0.8,0.7,1.8,1,2.7
				c0.4,1.3,0.8,2.6,1.3,3.8c0.6,1.6,1.6,3,2.9,4.2c1.4,1.3,2.3,1.4,4,0.5c1.4-0.7,2.4-1.8,3.1-3.1c1.4-2.3,2.5-4.9,3.1-7.5
				c0.9-3.3,1.6-6.7,2.5-10c0.4-1.4,0.9-2.8,1.4-4.2c1.5-3.6,5-4.1,7.5-3.3c1.5,0.5,2.8,1.4,3.9,2.5c1.6,1.6,2.9,3.4,3.9,5.4
				c2.4,4.5,3.9,9.2,4.9,14.2c0.1,0.5,0.2,0.9,0.3,1.5c1,0,2,0,3,0c0.1-0.9,0.2-1.7,0.3-2.5c0.3-1.6,0.6-3.2,1-4.7
				c0.1-0.6,0-0.9-0.4-1.4c-3.9-3.8-6.2-8.5-6.9-13.9c-0.6-4.7,0.4-8.9,3.7-12.4c3.6-3.9,10.1-5,14.9-1.5c3.6,2.6,6.3,5.8,8.2,9.8
				c1.6,3.4,2.7,6.9,3.5,10.6c0.3,1.5,0.6,3,0.9,4.6C184.2,98.7,184.2,99,184.3,99.5z M181.7,100.4c-0.3-1.6-0.4-3.1-0.7-4.5
				c-0.8-4.3-2-8.4-3.9-12.3c-1.3-2.6-2.9-4.8-5.2-6.6c-1-0.8-2.2-1.5-3.3-2c-1.9-0.8-3.8-0.6-5.6,0.7c-1.6,1.1-2.5,2.7-2.9,4.6
				c-0.3,1.4-0.1,2.7,0,4.1c0.4,3.1,1.3,6.1,3,8.8c0.3,0.4,0.6,0.8,0.8,1.2c0.8-0.5,1.5-0.9,2.2-1.2c1.7-0.6,3.4,0.2,3.9,1.9
				c0.2,0.7,0.1,1.5,0.1,2.2c0,0.5-0.2,1-0.3,1.5C173.5,100.5,177.4,101.2,181.7,100.4z M167.3,106c-0.2,1.5-0.5,2.8-0.6,4.1
				c-0.3,5,0.8,9.9,2.6,14.5c0.8,2,1.9,3.8,3.2,5.4c0.8,1,1.7,2,2.9,2.7c1.6,1,2.6,0.8,3.6-0.8c0.3-0.4,0.5-0.8,0.7-1.3
				c0.5-1.2,1-2.4,1.3-3.6c0.8-3.3,1.1-6.6,1.3-9.9c0.2-3.6,0.1-7.2-0.1-10.8c0-0.4-0.1-0.7-0.2-1.2c-2.4,0.9-4.8,1.5-7.2,1.7
				C172.3,107.1,169.9,107,167.3,106z M148.7,115c-0.3,0.1-0.6,0.1-0.9,0.2c-1.6,0.6-3.2,1.2-4.8,1.9c-3,1.4-5.7,3.2-7.9,5.7
				c-1.4,1.6-2.5,3.3-3,5.3c-0.5,2-0.6,3.9,0.2,5.9c1.5,3.6,5.9,5.1,9.2,3.1c1.2-0.7,2.2-1.6,2.9-2.7c0.7-1.1,1.4-2.2,2-3.4
				c2.2-4.6,2.7-9.4,2.4-14.4C148.8,116,148.7,115.5,148.7,115z"/>
			<g>
				<path class="st27" d="M281.8,106.8c0.2-1.2,0.4-2.2,0.6-3.3c0.5-2.1,0.9-4.2,1.4-6.3c0.1-0.5,0.3-1.1,0.6-1.5
					c0.8-1.6,2.2-2.4,3.8-2.1c1.5,0.3,2.7,1.6,2.8,3.3c0.1,1.3-0.1,2.7-0.3,4c-0.5,3.2-1.1,6.4-1.6,9.7c-0.6,4.3-0.5,8.6-0.2,12.9
					c0.2,3.3,0.9,6.5,1.7,9.6c0.2,0.8,0.6,1.5,0.9,2.3c0.1,0.2,0.4,0.4,0.6,0.7c0.3-0.3,0.7-0.6,0.9-0.9c0.4-0.7,0.8-1.3,1.2-2
					c0.7-1.4,1.3-2.7,2-4.1c0.3-0.6,0.4-1.3,0.3-2c-1.1-8.5-0.5-17,1.3-25.4c0.5-2.4,1.3-4.6,2.5-6.8c1.2-2.2,3-3.8,5.3-4.9
					c3-1.3,5.5-0.4,6.9,2.6c0.6,1.3,0.9,2.7,1,4.1c0.2,3.9-0.6,7.6-1.8,11.3c-1.5,4.6-3.8,8.7-7.5,12c-0.3,0.3-0.5,0.6-0.5,1.1
					c0.2,3.9,0.7,7.7,1.9,11.4c0.4,1.3,1,2.5,1.8,3.6c1,1.6,1.8,1.6,3,0.2c1.6-1.9,2.7-4.2,3.7-6.4c0.1-0.2,0.1-0.5,0-0.7
					c-1-4.5-1-9.2-0.9-13.8c0.1-3.2,0.4-6.4,1.3-9.5c0.7-2.4,1.6-4.8,3.3-6.7c0.6-0.7,1.3-1.3,2-1.7c2.1-1.2,4.3-0.7,5.7,1.3
					c1,1.5,1.5,3.1,1.6,4.8c0.2,3.1-0.5,6-1.5,8.9c-1,3-2.3,5.8-4.3,8.3c-0.2,0.2-0.3,0.5-0.3,0.7c0.2,4.4,0.7,8.8,2.8,12.8
					c0.4,0.7,0.8,1.3,1.3,1.9c0.9,1.1,2.1,1.3,3.4,0.9c1-0.3,1.8-0.8,2.5-1.5c2.3-2.4,3.8-5.3,4.5-8.6c0.1-0.4,0.2-0.9,0.3-1.3
					c0.2-0.6,0.7-0.9,1.2-0.8c0.5,0.1,0.8,0.4,0.8,1c0,0.5,0,1-0.1,1.5c-0.7,4-2.1,7.7-4.8,10.8c-1.5,1.8-3.3,3-5.5,3.6
					c-1.3,0.3-2.6,0.3-3.9-0.2c-2.1-0.7-3.9-1.8-5.2-3.6c-0.8-1.1-1.5-2.3-2.2-3.5c-0.2-0.3-0.3-0.6-0.6-1c-0.2,0.4-0.3,0.7-0.4,1
					c-0.6,1.3-1.1,2.7-1.8,3.9c-0.5,1.1-1.3,1.9-2.3,2.6c-2.1,1.6-4.7,1.7-7.1,0.3c-2.6-1.5-4.4-3.8-5.6-6.5
					c-0.3-0.6-0.5-1.1-0.8-1.9c-0.2,0.4-0.3,0.6-0.4,0.9c-0.6,1.2-1.1,2.5-1.8,3.7c-0.9,1.5-2.4,2.5-4.2,2.7
					c-1.4,0.1-2.7-0.3-3.9-1.2c-1.3-1-2.3-2.2-3.2-3.5c-1.6-2.4-2.4-5.2-2.8-8c-0.8-5.6-0.8-11.2-0.3-16.8c0-0.3,0-0.5,0-0.8
					c-1.3-0.3-2.6-0.6-3.9-1c-1.2-0.5-2.4-1.2-3.6-1.9c0,0.2-0.1,0.4-0.1,0.6c0.2,4.8,0.2,9.6-0.1,14.5c-0.2,3.2-0.6,6.4-1.4,9.6
					c-0.4,1.5-0.9,2.9-1.7,4.2c-2,3.3-5.3,4.4-8.8,3c-1.4-0.5-2.7-1.4-3.8-2.5c-2.3-2.2-3.9-4.9-4.9-7.9c-1.3-3.7-1.9-7.6-2.1-11.5
					c-0.2-4.4,0-8.8,0.3-13.2c0-0.4,0.1-0.8-0.1-1.3c-0.1,0.2-0.2,0.5-0.3,0.7c-1,2.4-1.8,4.8-2.9,7.1c-0.7,1.6-1.5,3.1-2.6,4.5
					c-1.6,2.2-4,3.1-6.7,2.4c-1-0.3-1.9-0.7-2.8-1.3c-1.5-1-2.6-2.4-3.5-4c-1.1-1.9-1.6-3.9-2-6c-0.8-4.2-0.8-8.5-0.5-12.8
					c0.5-7.4,2.2-14.5,4.4-21.6c0.2-0.8,0.5-1.6,0.9-2.3c0.3-0.6,0.7-1.2,1.2-1.7c1-1,2.2-1.3,3.5-0.8c1.3,0.5,2.1,1.5,2.2,2.9
					c0.1,0.7,0,1.5-0.1,2.1c-0.7,3-1.5,6-2.2,9c-1.4,5.8-2.4,11.6-2.3,17.6c0,3.6,0.5,7.2,1.8,10.6c0.3,0.9,0.8,1.8,1.3,2.7
					c0.6,1.1,1.2,1.1,2.2,0.3c0.4-0.3,0.8-0.7,1.1-1.1c0.9-1.4,1.8-2.7,2.5-4.2c1.9-4.6,3.7-9.2,5.4-13.8c0.5-1.3,0.7-2.7,1-4
					c0.3-1.4,0.9-2.4,2.3-2.8c1.4-0.4,2.6,0.1,3.5,1.1c1.1,1.1,1.4,2.5,1.4,4c0,1.9-0.1,3.7-0.3,5.6c-0.6,5.8-1.1,11.6-1.1,17.4
					c0,3.4,0.3,6.7,1.2,10c0.6,2.3,1.5,4.5,2.6,6.6c0.6,1,1.4,2,2.2,2.8c0.8,0.8,1.4,0.7,2-0.2c0.5-0.7,0.8-1.4,1.1-2.2
					c0.8-2.1,1.2-4.2,1.4-6.4c0.5-5.2,0.4-10.5,0.3-15.7c-0.1-2.3-0.1-4.5-0.1-6.8c0-0.4,0.1-0.8,0.2-1.1c0.5-1.5,2.2-1.9,3.3-0.8
					c0.2,0.2,0.4,0.4,0.5,0.6c1.1,1.6,2.5,2.9,4,4.1C278.8,106.1,280.1,106.7,281.8,106.8z M304,115.6c0.1,0,0.2,0,0.2,0.1
					c1.5-1.7,2.7-3.5,3.6-5.6c1.4-3.1,2.4-6.3,2.8-9.7c0.2-1.6,0.3-3.3-0.2-4.9c-0.2-0.8-0.5-1.6-1.3-2c-0.6,0.1-0.9,0.6-1.1,1
					c-0.3,0.5-0.5,1.1-0.7,1.6c-2,5.4-2.8,11-3.3,16.8C304.1,113.8,304,114.7,304,115.6z M321.1,116.4c0.1,0,0.2,0,0.2,0
					c0.1-0.1,0.2-0.2,0.2-0.3c1.7-3.1,2.9-6.4,3.4-10c0.2-1.5,0.2-3-0.4-4.4c-0.3-0.7-0.7-1.4-1.5-1.7c-0.6,0.7-0.8,1.2-0.9,2.4
					c-0.4,4.2-0.7,8.4-1,12.6C321.1,115.5,321.1,116,321.1,116.4z"/>
				<path class="st27" d="M282.9,84.9c0.2-3.3,2.7-5,5.7-5c2.7-0.1,5,2.7,4.9,5.6c-0.1,2.9-2.5,5.2-5.4,5.2
					C285.3,90.5,282.9,87.8,282.9,84.9z"/>
			</g>
		</g>
		<g>
			<path class="st17" d="M285.1,296c-0.1,1.4-0.2,2.9-0.3,4.3c-0.2,4.8-0.5,9.6-0.3,14.5c0.2,3.8,0.9,7.6,2.3,11.2
				c0.3,0.9,0.7,1.7,1.2,2.5c0.9,1.4,2,1.6,3.3,0.7c1.5-1,2.6-2.3,3.4-3.9c1.4-2.8,2.8-5.6,4.1-8.4c0.1-0.2,0.2-0.5,0.4-0.7
				c0.5-0.7,1.2-1,2-0.7c0.7,0.3,1.2,1,1.1,1.8c0,0.4-0.1,0.7-0.3,1.1c-1.3,3.6-2.8,7.1-4.9,10.3c-0.8,1.2-1.7,2.3-2.7,3.3
				c-1.5,1.6-3.5,2.3-5.7,2.4c-2.5,0.2-4.6-0.8-6.4-2.6c-2.1-2-3.4-4.5-4.2-7.3c-0.3-1-0.5-1.9-0.7-3c-0.4,0.2-0.4,0.6-0.5,0.9
				c-0.9,2.1-1.6,4.2-2.6,6.3c-0.6,1.5-1.5,2.9-2.6,4c-2.2,2.4-5.1,2.8-8,1.1c-1.6-1-2.9-2.3-3.7-4.1c-1-2.4-1.5-4.9-1.8-7.4
				c-0.5-4.1-0.4-8.2-0.6-12.3c-0.1-2.4-0.3-4.7-0.7-7.1c-0.2-1.1-0.6-2.2-1.1-3.2c-0.3-0.8-0.7-0.9-1.5-0.5
				c-0.9,0.4-1.7,1.1-2.3,1.9c-1.9,2.2-3.2,4.7-4.2,7.4c-1.3,3.4-2,6.9-2.7,10.4c-0.4,2-0.8,4-1.2,6.1c-0.1,0.4-0.2,0.8-0.4,1.2
				c-0.7,1.6-2.3,2.3-3.8,1.5c-0.6-0.3-1.2-0.8-1.7-1.3c-1.8-1.8-3-4-3.8-6.4c-0.1-0.3-0.2-0.6-0.3-0.9c0,0-0.1,0-0.2-0.1
				c-0.1,0.3-0.2,0.7-0.3,1c-0.7,2.2-1.3,4.4-2.1,6.6c-0.3,1-0.8,1.9-1.4,2.8c-1.6,2.5-4,3.4-6.8,2.3c-2.5-0.9-4.4-2.7-5.6-5.1
				c-0.9-1.7-1.4-3.6-1.7-5.5c0-0.2-0.1-0.3-0.1-0.5c0,0-0.1,0-0.2-0.1c-0.2,0.5-0.4,1-0.7,1.4c-0.7,1.3-1.3,2.6-2.2,3.7
				c-0.6,0.8-1.4,1.5-2.2,2c-1.7,1.1-3.6,1.1-5.4,0.4c-2.3-0.9-4.2-2.4-5.5-4.5c-0.4-0.7-0.8-1.4-1.2-2.2c-0.1,0.2-0.2,0.4-0.3,0.6
				c-0.5,1.4-1.1,2.8-1.6,4.2c-0.6,1.5-1.5,2.9-2.6,4.1c-1.6,1.8-3.5,2.2-5.7,1.5c-1.9-0.6-3.4-1.8-4.7-3.3
				c-3.1-3.6-5.2-7.7-6.3-12.4c-0.3-1.4-0.6-2.9-0.9-4.4c-0.7,0.2-1.4,0.4-2.1,0.5c-0.4,0.1-0.4,0.5-0.5,0.8
				c-0.6,2.4-1.8,4.6-3.4,6.6c-1.8,2.2-4.1,3.5-7,3.8c-1.2,0.1-2.4,0-3.6-0.5c-0.2-0.1-0.5-0.2-0.9-0.3c0.1,0.4,0.1,0.7,0.2,1
				c0.2,1.3,0.5,2.6,0.7,4c0.1,0.4,0.1,0.9,0,1.3c-0.2,1.9-2,2.9-3.7,2.2c-0.8-0.3-1.3-0.8-1.9-1.4c-1.5-1.7-2.5-3.7-3-5.8
				c-1-4.1-2.1-8.1-2.8-12.3c-0.7-3.9-1.1-7.8-1.6-11.7c-0.2-1.3-0.1-2.6-0.1-3.9c0-0.8,0.2-1.6,0.5-2.3c1.1-2.3,3.8-2.6,5.4-0.6
				c0.5,0.7,0.9,1.5,1.1,2.3c0.4,2.2,0.7,4.4,1.1,6.6c0.2,1,0.3,2.1,0.6,3.2c0.1-0.2,0.2-0.5,0.3-0.7c0.4-1,0.8-2,1.2-3
				c0.7-1.4,1.7-2.5,2.9-3.5c1.8-1.3,3.8-1.8,6-1.2c4.7,1.2,7.2,4.4,8.3,9c0.2,0.8,0.2,1.7,0.3,2.6c0,0.3,0,0.6,0.1,1
				c0.6-0.2,1.1-0.3,1.7-0.4c-0.1-1.2-0.2-2.3-0.3-3.4c-0.4-6.8-0.2-13.5,1.6-20.1c0.6-2.5,1.7-4.8,3.4-6.8c1.2-1.3,2.6-2.4,4.1-3.2
				c3.6-1.8,6.9-0.1,8.3,2.6c1.1,2,1.5,4.1,1.5,6.4c0.1,3.2-0.6,6.2-1.5,9.2c-1.3,4.1-3.2,7.9-6.1,11.2c-0.9,1-1.8,1.9-2.8,2.7
				c-0.4,0.4-0.6,0.7-0.5,1.2c0.5,2.7,1,5.3,1.6,8c0.4,2.1,1,4.1,1.9,6c0.6,1.2,1.3,2.4,2,3.6c0.2,0.4,0.5,0.7,0.8,1
				c0.6,0.6,0.9,0.7,1.6,0.1c0.5-0.5,0.9-1,1.4-1.6c0.4-0.5,0.7-1.1,1-1.7c1-1.9,1.9-3.9,2.9-5.8c0.3-0.5,0.3-1,0.3-1.6
				c-0.4-3.6,0-7.1,1.4-10.5c1.1-2.7,2.9-4.9,5.3-6.6c3.8-2.6,8.8-2.4,12.5,0.5c0.3,0.2,0.5,0.4,0.8,0.7c0.3-0.3,0.5-0.6,0.7-0.9
				c1.6-1.7,4-1.4,5.1,0.6c0.4,0.6,0.6,1.4,0.6,2.1c0.1,1.1,0,2.1-0.1,3.2c-0.4,3.9-0.8,7.8-0.5,11.7c0.2,2.8,0.9,5.6,2,8.2
				c0.2,0.5,0.5,1,0.9,1.4c0.4,0.5,0.7,0.6,1.1,0.1c0.7-0.9,1.3-1.8,1.8-2.7c0.5-0.9,0.8-1.8,1.1-2.8c0.8-2.4,1.5-4.8,2.3-7.2
				c0.2-0.6,0.2-1.2,0.2-1.8c-0.5-3.6-1-7.2-1.3-10.8c-0.1-1.4,0-2.8,0.1-4.2c0.1-1,0.6-1.7,1.4-2.3c1.1-0.8,2.4-0.9,3.5,0
				c1,0.7,1.6,1.7,1.9,2.9c0.4,1.5,0.6,3.1,0.8,4.7c0.6,4.4,1.1,8.8,2.3,13.1c0.1,0.3,0.2,0.7,0.3,1.2c0.1-0.4,0.3-0.6,0.3-0.9
				c0.9-3.7,1.9-7.3,3.3-10.9c0.8-2,1.8-3.9,2.9-5.7c1.2-1.9,2.7-3.5,4.5-4.8c2.4-1.7,5.4-2.1,7.8-0.3c1.2,0.8,2.1,2,2.8,3.3
				c0.9,1.7,1.4,3.4,1.6,5.3c0.3,2.8,0.4,5.6,0.6,8.3c0.2,3,0.2,6,0.4,9c0.1,2,0.6,3.9,1.2,5.8c0.3,0.8,0.5,1.6,0.8,2.5
				c0.3,1,0.8,1.1,1.6,0.4c0.7-0.6,1.3-1.3,1.8-2.1c1-1.8,2-3.7,2.9-5.6c0.8-1.8,1.6-3.7,2.3-5.5c0.2-0.4,0.2-0.9,0.2-1.3
				c-0.2-5.7,0.1-11.4,0.5-17.1c0.2-3.4,0.5-6.9,0.7-10.3c0-0.5,0-0.9-0.3-1.3c-1.4-1.9-2.8-3.8-4.3-5.7c-1.1-1.5-2.5-2.8-4-3.8
				c-0.7-0.5-1.4-0.8-2.2-1.2c-2.5-1.1-4.9,1.2-5.2,3.1c-0.2,2,0.2,3.8,1.8,5.1c0.3,0.3,0.5,0.6,0.4,1c-0.1,0.4-0.4,0.7-0.9,0.8
				c-0.4,0-0.8,0-1.2-0.2c-0.4-0.2-0.9-0.6-1.2-1c-1.5-2-2.1-4.2-1.8-6.7c0.4-3.5,4.6-7.4,9.6-6c1.3,0.4,2.5,0.9,3.6,1.7
				c2.1,1.4,4,3.2,5.6,5.2c0.2,0.3,0.4,0.5,0.8,0.9c0.1-0.4,0.2-0.7,0.3-1c0.2-0.6,0.3-1.3,0.6-1.8c0.7-1.2,1.7-1.9,3.1-1.9
				c1.4,0,2.4,0.7,3,2c0.3,0.6,0.5,1.2,0.5,1.9c0,1.6,0,3.2-0.1,4.7c-0.1,1.6-0.2,3.2-0.4,4.8c-0.1,0.5,0.1,0.9,0.4,1.3
				c1.7,1.8,3.4,3.7,5.1,5.5c4.7,4.9,10.5,7.9,17,9.6c4.5,1.2,9.1,1.5,13.7,0.1c5.6-1.6,10-4.9,13.5-9.5c1.8-2.4,3.4-5,4.3-7.9
				c1.1-3.5,1.3-7.1-0.1-10.6c-0.9-2.2-2.2-4.1-4-5.5c-5.6-4.3-11.7-5.2-18.1-2.2c-3.6,1.7-5.8,4.7-6.4,8.7
				c-0.5,3.5,0.8,6.4,3.5,8.7c1.3,1.1,2.8,1.8,4.4,2.2c2.3,0.6,4.4,0,6.1-1.7c1.3-1.2,2.1-2.7,2.9-4.2c0.2-0.4,0.4-0.7,0.7-1
				c0.5-0.5,1.1-0.6,1.7-0.3c0.5,0.3,0.8,0.9,0.7,1.6c0,0.2-0.1,0.5-0.2,0.7c-0.9,1.8-1.9,3.6-3.3,5.1c-3.4,3.5-7.6,4.5-12.2,3
				c-5.4-1.8-9.1-6.9-9.3-12.6c-0.1-3.9,1.3-7.4,3.8-10.4c2.5-3,5.7-4.7,9.4-5.5c6.1-1.3,11.9-0.6,17.3,2.7
				c5.6,3.5,8.5,8.6,8.7,15.3c0.1,3.4-0.7,6.7-2.1,9.8c-3.1,6.9-7.8,12.4-14.5,16c-4.9,2.6-10.2,3.6-15.8,3.1
				c-10.4-1-19.1-5.3-26.4-12.7c-0.4-0.4-0.7-0.8-1.1-1.2C285.3,296,285.2,296,285.1,296z M204.9,313c0,4.1,0.9,6.9,2.2,9.5
				c0.2,0.4,0.5,0.7,0.7,1c0.9,1,1.7,1,2.7,0.2c0.6-0.4,1.1-1,1.5-1.6c1.1-1.7,2.1-3.5,3.2-5.3c0.1-0.2,0.2-0.5,0.2-0.8
				c-0.1-3.6,0.2-7.1,0.8-10.6c0-0.2,0-0.5-0.1-0.7c-1.3-1.2-2.7-2.3-4.7-2.4c-2.1-0.1-3.5,1.2-4.4,2.9
				C205.7,308.1,204.9,311.1,204.9,313z M183.4,304.9c0.2-0.1,0.3-0.1,0.4-0.1c0.2-0.2,0.4-0.4,0.6-0.6c2.6-2.6,4.5-5.7,5.6-9.2
				c1.1-3.3,2-6.6,1.8-10.1c-0.1-1.7-0.4-3.3-1.3-4.7c-1-1.8-2.3-1.8-3.4-0.2c-0.6,0.9-1,2-1.4,3c-1.8,5.5-2.4,11.2-2.5,17
				C183.3,301.7,183.4,303.3,183.4,304.9z M157.2,314c1.1-0.6,1.9-1.2,2.9-1.6c1.4-0.5,2.8-0.8,4.2-1.2c0.7-0.2,1.4-0.3,2.1-0.4
				c0.2-2.4,0-4.7-1.1-6.7c-0.5-1-1.2-1.8-2.1-2.3c-0.6-0.3-1.2-0.3-1.8,0c-0.9,0.5-1.5,1.2-2,2.1c-0.5,1-1,2.1-1.3,3.2
				C157.5,309.3,157.2,311.6,157.2,314z M166.1,313.7c-1.8,0.2-3.4,0.6-4.9,1.4c-0.6,0.3-1.2,0.8-1.7,1.3c-0.6,0.6-0.8,1.3-0.5,2.1
				c0.4,0.8,1.1,1.1,1.9,1.2c1.1,0.1,2.1-0.3,2.9-1.2C164.9,317.2,165.6,315.6,166.1,313.7z"/>
			<path class="st17" d="M310.1,329c0,2.6-2.5,4.5-4.9,3.7c-1.6-0.6-2.4-2.1-2.5-4.1c-0.1-1.4,0.9-2.6,2.4-3.2
				C307.6,324.5,310.1,326.4,310.1,329z"/>
		</g>
		<g>
			<path class="st26" d="M241.4,356.1c0-0.5,0-0.9,0-1.2c-0.1-3.6-0.2-7.2-0.3-10.8c0-1.3-0.1-2.7-0.1-4c0-0.7,0.3-1.2,0.9-1.3
				c0.5-0.1,1,0.3,1.1,1c0.2,1.3,0.5,2.7,0.5,4c0.2,5.1,0.4,10.3,0.5,15.4c0,1.1,0,2.3-0.3,3.4c-0.4,2-2.1,2.6-3.7,1.4
				c-0.9-0.6-1.6-1.5-2.1-2.4c-1-2-2-4-2.8-6.1c-1.1-2.8-2.1-5.7-3.1-8.5c-0.1-0.3-0.3-0.6-0.6-0.9c0,0.4,0,0.7,0,1.1
				c0.3,5.4,0.5,10.9,0.8,16.3c0,0.5,0,1,0,1.4c0,0.4-0.3,0.8-0.7,0.9c-0.5,0.1-0.9-0.1-1.1-0.5c-0.3-0.5-0.6-1.1-0.7-1.7
				c-0.4-2.3-0.8-4.7-1-7c-0.3-4.4-0.3-8.8-0.4-13.2c0-0.8,0.1-1.7,0.2-2.5c0.1-1.2,0.6-2.2,1.8-2.7c1.2-0.4,2.3-0.1,3.1,0.8
				c0.7,0.7,1.4,1.4,1.8,2.3c1,2,1.9,4,2.7,6c1.1,2.8,2.1,5.7,3.1,8.5C241.1,355.8,241.2,355.9,241.4,356.1z"/>
			<path class="st26" d="M222.1,361.6c-2.5,0.1-4.9,0.2-7.4,0.3c0,0.3-0.1,0.6-0.1,1c-0.1,0.9-0.1,1.7-0.2,2.6
				c-0.1,0.8-0.5,1.3-1.1,1.3c-0.6,0-1-0.4-1.2-1.2c-0.1-0.8-0.3-1.6-0.2-2.5c0.1-3.6,0.1-7.2,0.3-10.8c0.1-2.8,0.4-5.7,0.8-8.5
				c0.2-1.4,0.6-2.7,1-4c0.6-1.6,2.1-2.5,3.7-2.3c1,0.1,1.7,0.6,2.4,1.3c1,1.1,1.7,2.3,2.3,3.7c1.1,2.6,1.8,5.4,2.3,8.1
				c0.8,3.9,1.4,7.8,2.1,11.7c0.1,0.7,0.4,1.3,0.4,2c0.1,0.6,0.1,1.2-0.1,1.7c-0.4,1.3-1.8,1.7-2.8,0.8c-0.6-0.4-0.9-1-1.1-1.7
				C222.8,363.9,222.4,362.8,222.1,361.6z M214.8,359c2.3-0.2,4.4-0.5,6.6-0.1c-0.4-1.4-0.6-2.6-1-3.8c-1.1-3.7-2.2-7.4-3.3-11.2
				c-0.1-0.3-0.3-0.6-0.4-0.9c-0.1,0-0.2,0-0.2,0.1C215.3,348.3,215,353.6,214.8,359z"/>
			<path class="st26" d="M185.4,359.3c-2-0.2-3.9-0.3-5.8-0.5c-0.1,0.5-0.2,1-0.4,1.5c-0.3,1-0.6,1.4-1.2,1.3c-0.5,0-1-0.5-1.1-1.5
				c-0.1-1-0.3-2.1-0.2-3.1c0.3-5.3,0.8-10.6,2.2-15.7c0.2-0.8,0.5-1.7,0.9-2.4c1-1.9,2.9-2.3,4.4-0.7c0.7,0.7,1.2,1.6,1.6,2.5
				c1.1,2.3,1.7,4.8,2.1,7.3c0.5,3.5,1,6.9,1.5,10.4c0.1,0.8,0.2,1.6,0.4,2.5c0.1,0.8,0.1,1.6-0.3,2.3c-0.5,1.2-1.9,1.4-2.8,0.5
				c-0.6-0.7-0.9-1.5-1-2.3C185.6,360.7,185.5,360,185.4,359.3z M179.8,356.1c1.7,0.1,3.3,0.2,5,0.2c-0.9-4.8-1.5-9.5-2.9-14.1
				C180.4,346.7,180.1,351.3,179.8,356.1z"/>
			<path class="st26" d="M249.2,341.1c0,0.3,0,0.5,0.1,0.7c0.3,1.2,0.8,2.2,1.5,3.2c1.2,1.6,2.4,3.1,3.7,4.6
				c1.3,1.6,2.4,3.4,2.9,5.4c0.5,1.8,0.5,3.6-0.3,5.3c-0.8,1.9-2.2,3.1-4.3,3.5c-2.3,0.3-4.8-1.2-5.6-3.4c-0.1-0.2-0.1-0.4-0.1-0.6
				c0-0.5,0.1-0.9,0.6-1.1c0.5-0.2,0.9,0,1.2,0.4c0.3,0.3,0.6,0.6,1,0.9c0.6,0.4,1.2,0.6,1.8,0.2c0.7-0.4,0.8-1.1,0.7-1.8
				c-0.2-1.9-1-3.6-2.1-5.1c-0.8-1.2-1.7-2.3-2.5-3.5c-1.2-1.8-2.1-3.8-2.4-6c-0.2-1.2-0.1-2.3,0.3-3.5c0.7-1.8,2.1-2.7,4-2.2
				c1.8,0.4,3,1.5,3.6,3.3c0.1,0.4,0.2,0.9,0.1,1.3c-0.1,0.8-0.8,1.1-1.4,0.5c-0.4-0.3-0.6-0.7-1-1.1
				C250.5,341.7,250,341.2,249.2,341.1z"/>
			<path class="st26" d="M198.4,340.9c0.7,7.5,1.1,14.9,1.4,22.4c0,0.6-0.1,1.3-0.2,1.9c-0.2,0.8-0.8,1.3-1.6,1.4
				c-0.8,0.1-1.6-0.2-1.9-0.9c-0.4-0.6-0.6-1.4-0.8-2.1c-0.3-1.7-0.5-3.5-0.6-5.2c-0.3-3.5-0.6-7.1-0.7-10.6c-0.1-2.2,0-4.5,0-6.8
				c-0.4-0.1-0.8-0.1-1.2-0.3c-0.5-0.2-1.1-0.4-1.6-0.7c-0.9-0.6-0.8-1.7,0.3-2.1c0.7-0.2,1.4-0.4,2.1-0.4c2-0.1,4-0.2,6,0.2
				c0.2,0,0.4,0.1,0.6,0.1c0.7,0.2,1.1,0.7,1.1,1.3c0,0.7-0.4,1.2-1.1,1.4C199.5,340.7,199,340.7,198.4,340.9z"/>
			<path class="st26" d="M264.8,347.5c0.2-0.1,0.3-0.1,0.4-0.1c2.5-1,4.9-0.2,6.1,2.2c1.3,2.5,1.2,5.1-0.3,7.5
				c-1.2,2-3.3,2.7-5.4,1.8c-1.6-0.6-2.7-1.8-3.6-3.3c-1.2-1.9-1.6-4-1.6-6.2c0-1.8,0.2-3.6,0.7-5.4c0.4-1.4,1.1-2.7,2.1-3.7
				c0.7-0.7,1.5-1.2,2.4-1.5c1-0.3,2,0,2.8,0.6c0.4,0.3,0.6,0.7,0.5,1.3c-0.2,0.5-0.6,0.7-1,0.7c-0.2,0-0.3,0-0.5,0
				c-0.9-0.2-1.4,0.4-1.7,1.1C265.1,344,264.9,345.7,264.8,347.5z M269.4,352.9c0-1.2-0.4-2.1-1.4-2.7c-1-0.6-1.6-0.5-2.2,0.5
				c-0.4,0.7-0.2,1.3-0.2,2c0.1,1.1,0.6,2,1.4,2.7c0.6,0.5,1.1,0.5,1.5-0.2C269.2,354.5,269.4,353.7,269.4,352.9z"/>
			<path class="st26" d="M204.1,350.9c0-2.5,0.1-6.4,0.2-10.3c0-0.5,0.1-1.1,0.2-1.6c0.3-1,0.9-1.7,1.7-1.7c0.8,0,1.5,0.5,1.8,1.6
				c0.3,1.2,0.5,2.4,0.6,3.5c0.4,5.3,0.2,10.5,0.1,15.8c0,1.9,0,3.8,0,5.7c0,0.5-0.1,1.1-0.2,1.6c-0.2,1-0.9,1.6-1.8,1.6
				c-0.8,0.1-1.6-0.4-1.9-1.3c-0.2-0.6-0.4-1.3-0.4-2C204.4,360,204.3,356.1,204.1,350.9z"/>
			<path class="st26" d="M157.1,351.1c-0.1,0.6-0.2,1.2-0.3,1.8c-0.2,0.7-0.5,1-1,1c-0.5,0-0.9-0.4-1-1.1c-0.1-0.3-0.1-0.7-0.1-1
				c0.1-3.5,0.4-6.9,1.5-10.3c0.3-0.9,0.7-1.7,1.1-2.6c0.2-0.4,0.4-0.7,0.7-1c1.3-1.3,3.1-1.3,4.4,0.1c0.7,0.8,1.1,1.8,1.5,2.8
				c0.7,2.1,1,4.3,1.2,6.5c0.3,2.7,0.6,5.3,0.9,8c0,0.4,0,0.9-0.2,1.3c-0.4,1-1.7,1.3-2.5,0.6c-0.4-0.4-0.6-0.9-0.8-1.4
				c-0.3-1.1-0.4-2.2-0.6-3.3c-0.1-0.4-0.2-0.7-0.2-1.1C160.2,351.3,158.7,351.2,157.1,351.1z M159.6,340.7c-1.2,1.3-2.4,6.1-2.1,8
				c1.3,0.2,3.1,0.2,3.8,0C160.7,346,160.6,343.3,159.6,340.7z"/>
			<path class="st26" d="M166.6,344.2c0-0.9,0-2.1,0-3.4c0-0.5,0-1.1,0.1-1.6c0.2-1,1-1.8,1.9-1.9c1-0.1,2,0.4,2.3,1.4
				c0.3,0.8,0.5,1.7,0.5,2.6c0.1,2.8,0.2,5.6,0.3,8.5c0.1,2.3,0.2,4.6,0.3,6.9c0,0.7,0.3,1.1,1,1.2c0.4,0.1,0.8,0.3,1.2,0.4
				c0.5,0.2,0.8,0.5,0.8,1.1c0,0.5-0.3,0.9-0.9,1.1c-2.9,1-5.4-0.4-6-3.4c-0.4-1.9-0.6-3.9-0.8-5.8
				C166.9,349,166.8,346.7,166.6,344.2z"/>
			<path class="st26" d="M150.7,345.6c-0.6-0.1-1-0.2-1.4-0.3c-0.4-0.1-0.7-0.4-0.7-0.9c0-0.5,0.2-0.8,0.6-1c1-0.3,2-0.4,2.9,0.1
				c0.7,0.3,1.1,0.9,1.1,1.6c0.1,1.7,0,3.4-0.6,5c-0.9,2.3-2.9,3.2-5.2,2.3c-1.3-0.5-2.2-1.5-2.9-2.7c-1.5-2.8-1.7-5.8-0.4-8.8
				c0.5-1.1,1.2-1.9,2.1-2.6c1.5-1.1,3.1-1.1,4.7-0.6c0.5,0.2,0.9,0.6,1.3,1c0.3,0.3,0.3,0.7,0.1,1c-0.2,0.4-0.6,0.4-1,0.2
				c-0.3-0.1-0.6-0.3-1-0.3c-1.5-0.2-2.5,0.4-3,1.9c-0.8,2.3-0.6,4.5,0.5,6.7c0.2,0.4,0.6,0.8,0.9,1.1c0.7,0.6,1.3,0.4,1.6-0.4
				C150.7,347.9,150.7,346.8,150.7,345.6z"/>
			<path class="st26" d="M280.4,348.6c-0.6-0.1-1.1-0.2-1.5-0.3c-0.6-0.2-0.9-0.6-0.9-1.1c0-0.5,0.4-1,1-1.1
				c0.4-0.1,0.9-0.1,1.4-0.2c0.1-0.8,0.1-1.6,0.3-2.3c0.1-0.8,0.3-1.5,0.5-2.4c-0.3,0-0.5,0-0.8,0c-0.7,0-1.4,0-2.2-0.1
				c-0.4,0-0.8-0.2-1.1-0.5c-0.7-0.6-0.5-1.5,0.3-1.8c0.3-0.1,0.7-0.1,1-0.2c1.5-0.2,3.1-0.3,4.6-0.5c1-0.1,1.8,0.4,2,1.4
				c0.1,1,0.1,2-0.1,3c-0.4,2.6-0.8,5.2-0.8,7.9c0,0.3-0.1,0.6-0.1,0.9c-0.2,0.9-0.9,1.4-1.7,1.4c-0.8,0-1.5-0.6-1.6-1.5
				c-0.1-0.6-0.1-1.2-0.1-1.8C280.4,349.2,280.4,348.9,280.4,348.6z"/>
			<path class="st26" d="M273.5,341.7c0.9,0,1.7,0.8,1.6,1.7c0,1-0.8,1.7-1.7,1.7c-0.9,0-1.7-0.8-1.6-1.7
				C271.9,342.4,272.6,341.7,273.5,341.7z"/>
			<path class="st26" d="M273.9,350c-0.9-0.1-1.7-0.6-1.7-1.6c0-0.9,0.7-1.6,1.6-1.6c0.9,0,1.7,0.7,1.7,1.6
				C275.6,349.3,274.8,350,273.9,350z"/>
		</g>
	</g>
</g>
</svg>
