<?xml version="1.0" encoding="utf-8"?>
<!-- Generator: Adobe Illustrator 20.1.0, SVG Export Plug-In . SVG Version: 6.00 Build 0)  -->
<svg version="1.1" id="Calque_1" xmlns="http://www.w3.org/2000/svg" xmlns:xlink="http://www.w3.org/1999/xlink" x="0px" y="0px"
	 viewBox="0 0 432 432" style="enable-background:new 0 0 432 432;" xml:space="preserve">
<style type="text/css">
	.st0{fill:#E94B4C;}
	.st1{fill:#2D180E;}
	.st2{fill-rule:evenodd;clip-rule:evenodd;fill:#2D180E;}
	.st3{fill:#568FCC;}
	.st4{fill:#FDC544;}
	.st5{fill:#AC60A3;}
	.st6{fill:#65B769;}
	.st7{fill:#7B5E56;}
	.st8{fill:#B17314;}
	.st9{fill:#9FA448;}
	.st10{fill:#EC741E;}
	.st11{fill:#8C851E;}
	.st12{fill:#EBC618;}
	.st13{fill:#D1571A;}
	.st14{fill:#BD491C;}
	.st15{fill:#B43C18;}
	.st16{fill:#5D2715;}
	.st17{fill:#361810;}
	.st18{fill:#C9973C;}
	.st19{fill:#EC631C;}
	.st20{fill:#634E42;}
	.st21{fill:#E17B0B;}
	.st22{fill:#CB9A3E;}
</style>
<g>
	<g>
		<g>
			<path class="st15" d="M176.3,208.2c0.1-0.1,0.2-0.1,0.2-0.2c0.2-0.3,0.3-0.8,0.8-0.8c0.4,0,0.8,0.3,1.1,0.6
				c0.1,0.1,0.2,0.4,0.2,0.5c-0.1,0.7-0.1,1.5-0.2,2.2c0,0.2-0.1,0.5-0.3,0.8c0,0.1-0.2,0.2-0.4,0.4c-0.7,0.2-1.5-0.3-1.6-1.1
				c0-0.1,0-0.3,0-0.4c0.1-0.5-0.1-0.9-0.4-1.1c-0.5-0.4-1-0.6-1.6-0.6c-0.2,0-0.3,0-0.4,0c-4.6-0.2-5.6,5.4-5.8,6.8
				c-0.2,1.3-0.4,2.6-0.4,3.9c0,1-0.1,1.9-0.1,2.8c-0.1,2.4,0.2,4.7,0.9,7c0.2,0.7,0.5,1.3,0.8,1.8c0.4,0.7,1,1.3,1.8,1.5
				c0.1,0,0.4,0,0.5,0.2c1,0.3,2-0.1,2.6-0.6c1.6-1.5,3-7.1,3.2-8.2c0-0.6,0.1-1.1,0-1.6c-0.2,0-0.4-0.1-0.5-0.1c-0.4,0-0.8,0-1.1,0
				c-0.3,0-0.5,0-0.8-0.1c-0.3-0.2-0.5-0.4-0.5-0.6c0-0.3,0.3-0.4,0.5-0.5c0.1,0,0.4-0.1,0.5-0.1c1.2,0,4.8,0.2,5.1,0.3
				c0.5,0.1,0.5,0.4,0.4,0.8c0,0.1,0,0.2-0.1,0.3c-1,0.3-2-0.1-1.8,0c0,0.4,0,0.9-0.2,1.3c-0.1,0.5-0.3,2.4-0.4,2.8
				c-0.1,0.8-0.9,3.5-1.1,4.1c-0.4,1-0.9,1.9-1.5,2.7c-0.3,0.3-0.4,0.5-0.6,0.9c-0.5,0.8-3.9,2.5-6,1.3c-1.1-0.7-2.1-1.6-3-2.6
				c-0.9-1.1-1.4-2.4-1.9-3.7c-0.6-1.6-0.9-3.3-0.9-5c0-0.7,0-1.3,0-2c0.1-1.6,0.3-3.2,0.5-4.7c0.3-1.9,1.8-10.7,10.1-9.8
				c0.5,0,1,0.3,1.4,0.5L176.3,208.2z"/>
			<path class="st15" d="M183.2,232.4c0.1-1.5,0.9-10.2,1-12c0-0.8,0.1-1.7,0.2-2.6c0-0.7,0.4-4.7,0.4-5.8c0-0.8,0.2-1.6,0.2-2.4
				c0-0.2,0.1-0.5,0-0.5c-0.6,0.1-1.2,0.2-1.8,0.3c-0.2,0-0.5,0-0.8,0c-0.1,0-0.3-0.1-0.3-0.3c0-0.2,0-0.3,0.1-0.4
				c0.4-0.3,0.8-0.6,1.3-0.8c1.5-0.9,3-1.2,4.8-1.4c1.3,0,2.7,0,4.1,0.2c1.8,0.4,3,1.5,3.8,3.1l0.1,0.5c0.4,1.1,0.2,2.2-0.4,3.3
				c-0.5,0.6-1.5,2.8-4.2,3.6c0.2,0.1,0.3,0.3,0.4,0.5c0.7,0.6,1.3,1.3,1.9,2.1c0.3,0.4,0.5,0.8,0.9,1.4c0.3,0.9,0.6,1.9,1,2.9
				c0.2,0.9,0.4,3.1,0.4,4.1c0,0.3,0,0.5-0.1,0.7c-0.1,1,0,2,0.2,3c0.1,0.5,0.2,1,0.5,1.5c0.2,0.2,0.4,0.4,0.6,0.4
				c0.3,0,0.5-0.1,0.8-0.3c0.1-0.2,0.2-0.2,0.5-0.3c0.2,0.3,0.5,0.6,0.7,0.9c0.2,0.5,0.1,1-0.4,1.2c-2.3,0.9-4-0.9-4.3-1.3
				c-0.9-1.1-1.6-3.6-1.5-5.6c-0.1-1.4-0.1-3.1-0.4-4.4c-0.1-0.5-0.3-1.2-0.4-1.7c-0.3-1.3-1-2.8-1.9-3.9c-0.3-0.1-0.6-0.1-0.9-0.1
				c-1.2,0.3-0.9,0-2,0.2c-0.1,0.4-0.1,0.9-0.1,1.3c-0.1,0.8-0.1,1.6-0.2,2.5c0,0.1,0,0.3,0,0.5c0,0.6-0.5,6.1-0.4,7.6
				c0.1,0.9,0.1,1.6,0,2.5c0,0.5,0.1,0.8,0.7,1c0.1,0,0.1,0.1,0.2,0.2c0.1,0,0.2,0.1,0.1,0.3c0,0-0.1,0.4-0.2,0.4
				c-0.1,0.1-0.4,0.1-0.6,0.1c-1.2,0-2.3-0.1-3.5-0.1c-0.6,0-1-0.4-1.4-0.8c-0.1-0.2-0.1-0.5,0.2-0.5c0.3,0,0.6-0.1,1-0.3V232.4z
				 M187.5,216.6c1.6,0,2.3,0,4-1.5c0.7-0.6,1.4-1.5,1.6-2.5c0.2-0.8,0.2-1.6,0.1-2.4c0-1-0.5-1.5-1-2.1c-0.2-0.1-0.4-0.2-0.6-0.2
				c-1.3-0.1-2.6-0.2-3.9,0c-0.2,0.1-0.3,0.1-0.4,0.4c0.2,0.4,0.3,3.4,0.3,4.4c-0.1,0.7-0.1,1.2-0.1,1.8c0,0.3,0,0.7,0,1
				C187.4,215.9,187.4,216.2,187.5,216.6z"/>
			<path class="st15" d="M204.4,231.4c-0.1,1.6-0.7,2,0.2,2.3c0.4,0.1,0.5,0.3,0.4,0.7c0,0.5-1,0.8-1.4,0.6c-0.5-0.1-1-0.1-1.4-0.1
				c-0.5,0-1.1,0-1.6-0.3c-0.1-0.1-0.3-0.2-0.4-0.3c-0.2-0.1-0.1-0.4,0-0.5c0.3-0.2,0.7-0.4,1-0.5c0.1,0,0.2-0.1,0.4-0.1
				c0-0.2,0-0.5,0.1-0.6c0-1.2,0-2.4,0-3.7c0-0.7,0.1-1.5,0.2-2.3c0.3-2.2,0.6-4.4,1-6.6c0.2-0.9,0.3-1.9,0.5-2.8c0.4-2,1-4,1.9-5.8
				c0.6-1.5,1.6-2.6,2.7-3.7c0.8-0.8,1.7-1,2.7-1.1c0.7-0.1,1.3,0.1,1.7,0.7c0.4,0.4,0.8,0.8,1,1.4c0.9,1.8,1.6,3.8,1.6,5.9l0.3,5.2
				c0,1.4,0.2,2.7,0,4.1c0.1,0.8,0,1.7,0.1,2.5c0.1,0.7,0,1.4,0,2.1c0,0.5,0,1.1,0,1.6l-0.2,1.9c0,0.2,0,0.4,0,0.7l0.5,0
				c0.3,0,0.5,0.2,0.6,0.5c0,0.4-0.2,0.7-0.5,0.7c-0.1,0-0.3,0.1-0.4,0.1l-3,1c-0.4,0-0.7-0.2-1-0.4c-0.2-0.1-0.3-0.5,0-0.6
				c0.1-0.1,0.4-0.3,0.6-0.4c-0.5-1.7-0.3-3.4-0.4-5.1c0-1.2,0-2.4,0-3.7c0-0.9,0-1.9,0-2.8c0-0.5,0-1-0.1-1.5
				c0-0.2-0.3-0.4-0.5-0.4h-0.3c-1.2,0.4-2.5,0.4-3.8,0.5c-0.3,0-0.6,0.1-0.9,0.2c-0.3,0.6-0.4,1.1-0.5,1.6c-0.2,1-0.3,1.9-0.5,2.8
				c-0.1,1-0.2,1.8-0.3,2.8c0,0.6-0.1,1-0.1,1.6C204.4,230.1,204.4,230.8,204.4,231.4z M211.3,218.2c0-0.3,0-0.6,0-0.9
				c0-1.3-0.1-2.7-0.2-4c0-1.6-0.6-3.2-1.2-4.7c-0.1-0.3-0.5-0.4-0.8-0.2c-0.4,0.4-0.9,0.9-1.2,1.4c-0.4,0.6-0.8,1.4-0.9,2.2
				c-0.1,0.5-0.1,1.2-0.3,1.9c-0.1,0.6-0.2,1.1-0.3,1.7c-0.3,1.1-0.3,2.2-0.2,3.3c0,0.1,0.1,0.2,0.2,0.2c0.8-0.2,1.6-0.3,2.4-0.5
				C209.6,218.5,210.4,218.4,211.3,218.2z"/>
			<path class="st15" d="M228.9,208.5c-0.1,0-0.3,0-0.5,0c-1,0-2.1,0.1-3.2,0.3c0,0-0.1,0.1-0.2,0.1v0.2c0.3,0.5,0.2,1.2,0.3,1.7
				c0,1.6,0,3.2-0.2,4.8c-0.1,0.9-0.2,1.8-0.2,2.7c-0.1,0.4-0.1,0.8-0.1,1.2c0,0.2,0,0.4,0,0.5l-0.1,2.3l-0.2,2.5
				c-0.1,0.9-0.1,1.7-0.2,2.6c-0.1,0.4,0,0.9,0,1.4c0,0.5,0,1,0,1.5c0,0.1,0,0.2,0,0.3c0.1,0.9,0,1.8-0.1,2.7c0,0.2,0.1,0.3,0.4,0.3
				c0.2,0,0.4,0,0.7,0c0.2,0,0.4,0.1,0.4,0.3c0,0.1,0,0.3-0.2,0.4c-0.3,0.4-0.7,0.6-1.3,0.5c-0.6-0.1-1.2-0.1-1.8-0.1
				c-0.5,0-1.1,0-1.8-0.1c-0.3,0-0.6-0.2-0.9-0.5c-0.1-0.2,0-0.5,0.2-0.5c0.2,0,0.5,0,0.6-0.1c0.1,0,0.3-0.2,0.5-0.2
				c0.2,0,0.4-0.2,0.4-0.4c0-0.3,0-0.6-0.1-1c0-0.6,0-1.3,0-2c0-0.5,0-1,0-1.6c0-0.8-0.1-1.6-0.1-2.4c0-0.7,0-1.4,0.1-2.1
				c0-0.9,0.2-1.7,0.2-2.5c0-1,0.1-2,0.1-3v-0.9c0-0.5,0-1.1,0-1.6c0-0.1,0-0.3,0-0.4c-0.2-0.9,0-1.8,0-2.8c0-0.9,0.1-1.9,0.1-2.8
				c0-0.2,0-0.4,0-0.5c-0.5-0.1-1.1,0-1.5,0c-0.6,0-1.2,0-1.7,0.3c-0.2,0.3-0.2,0.7-0.3,1.1c0,0.4-0.3,0.5-0.7,0.5
				c-0.1,0-0.3-0.1-0.3-0.3c-0.1-0.5,0-1.1-0.1-1.6c0.1-0.3,0.3-0.5,0.5-0.6c0.4-0.1,0.7-0.2,1.1-0.3c0.8-0.1,1.7-0.3,2.7-0.5
				c0.4-0.1,0.8-0.1,1.2-0.2c0.7-0.1,1.5-0.1,2.2-0.2c0,0,0.2,0,0.3,0c1.2-0.1,2.4-0.2,3.5-0.2c0.3,0,0.5,0,0.8,0
				c0.3,0,0.5,0.1,0.8,0.1l0.4,0.1c0.4,0,0.6,0.3,0.6,0.6c-0.1,0.5-0.1,0.9-0.1,1.3c0,0.2-0.2,0.4-0.3,0.6c-0.2,0.2-0.5,0.2-0.7,0
				c0,0-0.1,0-0.1-0.1C229.3,209.4,229.2,209.3,228.9,208.5z"/>
			<path class="st15" d="M241,221.8c-0.4,0-0.9,0-1.4-0.1c-0.5,0-0.9-0.2-1.3-0.2c-0.2,0.1-0.3,0.4-0.3,0.6c-0.2,2-0.4,4-0.4,6.1
				c0,0.6,0,1.2,0,1.8c0,1,0.1,1.8,0.3,2.8c0.4,0,0.8,0.1,1.2,0.1c0.8,0,1.7,0,2.5,0l1.5-0.1c0.3,0,0.5-0.1,0.8-0.1
				c0.3,0,0.5-0.2,0.5-0.5l0.3-1c0.1-0.3,0.4-0.4,0.6-0.2c0.1,0,0.3,0.1,0.4,0.2c0.3,0.2,0.5,0.5,0.4,0.9l-0.1,1.5
				c-0.1,0.4-0.3,0.9-0.5,1.1c-0.1,0.2-0.3,0.2-0.5,0.3c-1,0.1-2,0.1-3,0c-0.3,0-0.6,0-1,0c-0.6,0.1-1.2,0.1-1.8,0.1
				c-1.1,0-2.2,0.2-3.2,0.1c-1,0-2-0.2-3-0.5c-0.2,0-0.3-0.1-0.5-0.2c-0.1-0.1-0.1-0.4-0.1-0.5c0-0.1,0.1-0.2,0.2-0.2h1
				c0.3,0,0.6,0.1,0.9,0c0.2-0.3-0.1-0.5-0.1-0.8v-0.8c-0.2-3,0-6.1,0.2-9.1c0.1-1.2,0.1-2.3,0.1-3.5c0.1-2.1,0.2-4.1,0.3-6.1
				c0.1-0.9,0.2-1.8,0.1-2.6c0-0.4,0.1-0.9,0.1-1.2c0-0.1-0.1-0.2-0.2-0.3c-0.2-0.1-0.4,0-0.5,0.1c-0.1,0.2-0.1,0.4-0.2,0.5
				c-0.1,0.3-0.3,0.4-0.5,0.4s-0.4,0-0.5-0.3c-0.2-0.4-0.2-0.9-0.2-1.3c0-0.2,0.2-0.4,0.5-0.5c0.6-0.1,1.1-0.2,1.7-0.3
				c0.4,0,0.7,0,1-0.1c0.6-0.1,1.3-0.1,2,0l5.5,0.1c0.3,0,0.5,0,0.9,0.1c0.4,0.1,0.7,0.2,1.1,0.2c0.4,0.1,0.6,0.5,0.7,1
				c0,0.2,0,0.4,0,0.5c-0.1,0.8-0.2,1.6-0.3,2.4c0,0.1,0,0.2-0.1,0.3c-0.2,0.6-0.7,0.6-1.3,0c-0.1-0.1-0.2-0.3-0.3-0.4
				c-0.5-0.5-0.7-1.1-0.5-1.8c0.1-0.3,0.1-0.6,0-0.9c0,0,0,0-0.1,0l-4.8-0.1c-0.3,0-0.6-0.2-0.8,0c0,0,0,0.1,0,0.1
				c0.3,2,0.3,4,0.2,5.9c-0.1,1.5-0.2,3.2-0.3,4.9v0.4c0,0.4,0.1,0.5,0.4,0.6c0.7,0.1,1.4,0,2.1-0.1c0.1,0,0.2-0.2,0.3-0.4v-0.2
				c0.1-0.5,0.4-0.8,0.9-0.6c0.4,0.1,0.6,0.3,0.7,0.6c0.1,0.3,0.2,0.6,0.3,0.9c0.1,0.6,0.1,1.2,0.1,1.8c0,0.2,0,0.4,0,0.6
				c0,0.5-0.4,0.8-0.7,0.5c-0.6-0.4-1.1-0.7-1.2-1.6C241.1,221.9,241,221.9,241,221.8z"/>
			<path class="st15" d="M253.6,209.8c-0.1,0.5,0.1,0.6,0.5,5.6c0,2,0.1,4,0,6c0,0.3,0,0.6,0,1c0,0.3,0.2,0.4,0.5,0.4
				c0.3,0,0.6,0,0.9-0.1c1-0.1,2-0.3,3-0.5c0.5,0,0.8-0.3,0.9-0.7c0.1-0.3,0.1-0.6,0.2-0.9c0-0.2,0.2-0.3,0.4-0.4
				c0.3,0,0.7,0.1,0.8,0.3c0.2,0.8,0.4,1.5,0.2,2.3c-0.1,0.2-0.3,0.5-0.5,0.5c-0.4,0.2-0.8,0.2-1.2,0.3c-0.7,0.1-1.4,0.2-2,0.3
				c-0.5,0.1-1,0.1-1.5,0.2c-0.5,0-1.1,0-1.7,0.4l-0.1,1c0,1.6-0.1,3.3-0.2,5c-0.1,1-0.1,2.1-0.4,3.1c0.2,0.5,0.7,0.4,1,0.7
				c0.1,0.2,0,0.6-0.2,0.8c-0.2,0.1-0.4,0.1-0.5,0.2c-0.4,0-3.7-0.5-4-0.5c-0.4,0-0.6-0.3-0.6-0.7c0-0.4,0.1-0.6,0.5-0.7
				c0.1,0,0.3,0,0.4-0.1c0.1,0,0.2,0,0.4-0.1l0.1-0.5c0-2,0-3.9,0-5.8c0-1,0.1-2,0.2-3c0-1.4,0.1-2.7,0.1-4c0-0.5,0.1-0.9,0.1-1.4
				c0-2,0-4.1,0.1-6.1c0-0.4,0-0.7,0-1.1c0-0.6-0.1-1.1-0.8-1.3c-0.1,0-0.2-0.1-0.3-0.2c-0.2-0.2-0.2-0.7,0-0.9
				c0.1-0.1,0.3-0.2,0.5-0.3c0.7-0.1,5.6-1.1,7.2-1.4c0.5-0.1,0.9-0.1,1.4-0.2c0.7-0.1,1.5-0.2,2.2-0.3c0.4-0.1,2.7-0.9,2.9,1.4
				c0.1,1,0.6,2,0.5,3c0,0.2,0,0.4,0,0.5c-0.1,0.1-0.2,0.3-0.4,0.4c-0.5,0.1-0.9,0-1.2-0.4c-0.3-0.3-0.5-0.7-0.6-1.2l-0.1-1.5
				c-0.1-0.4-0.4-0.6-0.8-0.5c-1.8,0.1-3.6,0.4-5.4,0.6C255,209.1,254.3,209.3,253.6,209.8z"/>
			<path class="st15" d="M282.6,206.6c1.1,0.1,2.1,0.1,1.6,1c-0.2,0.2-0.2,0.5-0.5,0.6c-0.3,0-0.5,0.5-0.5,1
				c0.1,1.1-0.4,10.4-0.5,11.5c0,0.4,0,0.8-0.1,1.2c-0.1,0.6-0.3,1.4-0.4,2c-0.2,1.7-0.9,3.3-1.5,4.9c-0.6,1.9-5.5,9.3-9.7,5.2
				c-0.9-0.8-1.5-1.8-2-3c-1-2-1.6-4.3-1.7-6.7c0-1.3,0-2.7,0-4.1c0-0.7,0-1.4,0-2.1l0.1-5.3c0-0.7,0-1.5,0-2.2c0-0.6-0.1-1-0.7-1.2
				c-0.5,0-0.6-0.4-0.8-0.8c-0.1-0.2,0-0.5,0.2-0.5c0.1,0,0.2-0.1,0.4-0.2c0.6-0.1,3-0.1,3.4-0.1c0.1,0,0.2,0,0.3,0
				c0.8,0.2,0.9,0.7,0.5,1.3l-0.2,0.4c-0.5,0.8-0.7,1.5-0.7,2.4c0.1,1.3,0.2,2.6,0.2,3.9c0.1,1.4,0.1,2.7,0,4.1
				c-0.1,1-0.1,2.1,0,3.2c0.1,1,0.1,2.1,0.1,3.2c0,1.5,0.3,3,0.7,4.3c0.9,3,4,1.7,5.7-1c1.1-1.7,1.9-5.9,2.2-7.8
				c0.5-2.4,0.5-4.7,0.5-7.1c0-0.3,0-0.5,0-0.9c0.1-1.5,0-3.4,0.1-5.5c0-0.4-0.3-0.2-0.6-0.4c-0.2-0.2-0.5-0.3-0.7-0.5
				c-0.1,0-0.2-0.2-0.1-0.3c0,0,0.2-0.2,0.3-0.2C278.6,207.1,281.9,206.6,282.6,206.6z"/>
			<path class="st15" d="M291.3,233.8c1,0,2.3-0.2,3-0.1c0.8,0,1.6-0.2,2.4-0.4c0.4-0.1,0.6-0.3,0.8-0.6c0.4-0.5,0.7-1,1-1.6
				c0-0.2,0.2-0.5,0.3-0.6c0.1-0.4,0.5-0.5,0.9-0.4c0.3,0.2,0.5,0.5,0.5,0.9c0,0.2,0,0.5,0,0.7c0.1,0.7-0.1,1.3-0.5,1.9
				c-0.6,0.6-1.2,1.2-2,1.3c-1.3,0.4-2.6,0.5-4,0.5H293c-0.4,0-0.7,0.1-1.1,0.1c-1.1,0-0.8,0.4-5.3,0.4c-0.1,0-0.2-0.2-0.3-0.3
				c0-0.2,0-0.4,0.1-0.4c0.1-0.1,0.5-0.4,0.6-0.4l0.7-0.4c0.1,0,0.3-0.3,0.2-0.4c-0.2-1-0.2-2-0.2-3c0-2.8,0.3-5.6,0.5-8.3
				c0.2-2.2,0.4-4.3,0.6-6.5c0.1-1.1,0.2-2.2,0.2-3.2c0-0.3,0-0.5,0.1-0.8c0.1-0.9,0.1-1.8,0-2.6l-0.1-0.6c-0.3-0.1-0.6-0.3-0.9-0.5
				c0,0-0.2-0.2-0.2-0.3c0-0.1,0.2-0.3,0.2-0.4c0.3-0.1,0.7-0.2,1-0.2h1.1c0.5,0,1,0,1.5,0c0.8-0.2,1.5,0.1,2.3,0
				c0.2,0,0.4,0.2,0.5,0.3c0.1,0.1,0.2,0.4,0.1,0.5c-0.2,0.2-0.3,0.5-0.6,0.5c-0.5,0-0.9,0-1.4,0.2c0,0.1-0.1,0.2-0.1,0.3
				c0,1.1-0.1,2.2-0.2,3.2c0,0.5,0,1.1,0,1.7l-0.3,3.6c-0.2,1.8-0.3,3.5-0.5,5.3l-0.1,1.1c-0.3,2-0.5,4-0.4,6.2c0,0.2,0,0.5,0,0.8
				C291.1,231.9,291.2,232.8,291.3,233.8z"/>
		</g>
		<g>
			<path class="st15" d="M191.5,96.6c0.1-0.1,0.2-0.1,0.2-0.2c0.2-0.3,0.3-0.8,0.9-0.8c0.4,0,0.9,0.3,1.2,0.7
				c0.1,0.1,0.2,0.4,0.2,0.6c-0.1,0.8-0.1,1.5-0.2,2.3c0,0.2-0.1,0.5-0.3,0.9c0,0.1-0.2,0.2-0.4,0.4c-0.8,0.2-1.6-0.3-1.7-1.1
				c0-0.1,0-0.3,0-0.4c0.1-0.5-0.1-0.9-0.4-1.2c-0.5-0.4-1-0.6-1.7-0.7c-0.2,0-0.3,0-0.4,0c-4.8-0.2-5.8,5.6-6,7.1
				c-0.2,1.3-0.4,2.7-0.4,4c0,1-0.1,1.9-0.1,2.9c-0.1,2.5,0.2,4.9,0.9,7.2c0.2,0.7,0.5,1.3,0.8,1.9c0.4,0.8,1,1.3,1.9,1.6
				c0.1,0,0.4,0,0.5,0.2c1,0.3,2.1-0.1,2.7-0.6c1.7-1.6,3.2-7.3,3.4-8.5c0-0.6,0.1-1.1,0-1.7c-0.2,0-0.4-0.1-0.6-0.1
				c-0.4,0-0.8,0-1.2,0c-0.3,0-0.6,0-0.9-0.1c-0.3-0.2-0.6-0.4-0.6-0.6c0-0.3,0.3-0.4,0.5-0.6c0.1,0,0.4-0.1,0.6-0.1
				c1.2,0,5,0.2,5.3,0.3c0.5,0.1,0.6,0.4,0.4,0.8c0,0.1,0,0.2-0.1,0.3c-1,0.3-2.1-0.1-1.8,0c0,0.4,0,0.9-0.2,1.4
				c-0.1,0.5-0.3,2.5-0.4,2.9c-0.1,0.9-0.9,3.7-1.1,4.3c-0.4,1-0.9,1.9-1.6,2.8c-0.3,0.3-0.4,0.6-0.7,0.9c-0.5,0.9-4,2.6-6.2,1.3
				c-1.2-0.8-2.2-1.7-3.2-2.7c-0.9-1.1-1.4-2.5-1.9-3.8c-0.6-1.7-0.9-3.4-0.9-5.2c0-0.7,0-1.4,0-2.1c0.1-1.7,0.3-3.3,0.6-4.9
				c0.3-2,1.8-11.1,10.5-10.2c0.6,0,1,0.3,1.5,0.5L191.5,96.6z"/>
			<path class="st15" d="M200.5,97.2h-1.2c-0.2,0-0.5,0-0.9-0.1c-0.2-0.1-0.2-0.5-0.1-0.6c0.3-0.3,0.6-0.5,1-0.5
				c0.9-0.1,1.8-0.2,2.7-0.2c0.7,0,1.4,0.1,2.2,0.2c0.2,0,0.4,0.1,0.7,0.2c0.1,0,0.2,0.1,0.3,0.2c0.2,0.2,0.1,0.7-0.2,0.8
				c-0.1,0-0.2,0.1-0.3,0.1c-0.1,0-0.3,0-0.4,0c-0.8,0-0.9,0.1-0.8,0.7c0,0.3,0,0.7,0,0.9c0,0.4,0,0.8-0.1,1.2c0,0.3,0,0.6,0,0.9
				c0,0.2,0,0.6,0,0.9c-0.1,1-0.1,2-0.1,2.9c0,0.7,0,1.4-0.1,2.1c0,1.3-0.1,2.5-0.2,3.8c0,1,0,2.1,0,3.1c0,0.8,0,1.5-0.1,2.3l0,3.8
				c0,0.5,0.1,1,0,1.5c0,0.5-0.2,0.9-0.2,1.5c0,0.1,0,0.3-0.1,0.4c0.3,0.2,0.6,0,0.9,0.1l0.3,0.2c0,0.2,0,0.3-0.1,0.4
				c-0.2,0.1-0.4,0.1-0.6,0.2c-0.4,0.1-0.8,0-1.2,0.1c-0.6,0-1.9-0.1-2.5,0c-0.4,0-0.9-0.2-1-0.5c0-0.1,0-0.3,0-0.4l0.9-0.3
				c0.3,0,0.4-0.3,0.5-0.6c0.2-0.6,0.3-1.1,0.3-1.7c0-1.1,0-2.3,0-3.4c0-1.9-0.1-3.8-0.1-5.7c0-1.5,0-3,0.1-4.5
				c0-0.6,0.1-1.2,0.1-1.8c0-1.6,0.1-3.4,0.2-5.1c0-0.6,0-1,0.1-1.5V97.2z"/>
			<path class="st15" d="M216.3,123.8c-0.5-0.1-0.9-0.3-1.4-0.7c-0.4-0.2-0.7-0.6-0.9-1.2c-0.7-1.6-1.1-3.3-1.4-5
				c-0.3-1.4-0.7-2.8-0.9-4.3c-0.1-0.7-0.3-1.4-0.5-2.1c-0.3-1.4-0.7-2.6-0.8-3.9c-0.3-1.7-0.7-3.4-0.9-5c-0.1-1-0.4-2.1-0.8-3.1
				c-0.3,0-0.6,0-0.9-0.1c-0.2,0-0.5-0.1-0.7-0.3c-0.5-0.3-0.4-0.9,0.1-1.2c0.5-0.2,1.1-0.4,1.8-0.4c0.2,0,0.5,0,0.7,0
				c0.8-0.1,1.4-0.1,2.2,0.4c0.3,0.8,0.7,1.5,0.8,2.5c0,0.7,0.3,1.3,0.4,1.9c0.4,1.5,0.6,3,0.8,4.6c0.2,1.8,0.5,3.6,0.9,5.3
				c0,0.3,0.2,0.6,0.2,0.9c0.2,1.7,0.5,3.4,0.9,5c0,0.2,0.1,0.4,0.3,0.4c0.2,0,0.2-0.3,0.3-0.5l2.7-7.8c0.4-1,0.6-2.1,0.9-3.2
				c0.9-2.6,1.6-5.1,2.7-7.6c0-0.1,0-0.2,0.1-0.4c0.2-0.3,0.1-0.6-0.2-0.9c-0.1-0.1-0.3-0.3-0.3-0.6c-0.2-0.4,0.1-0.8,0.5-0.8
				c0.9,0,1.7,0.1,2.6,0.2c0.5,0.1,1,0.3,1.5,0.6c0.2,0.1,0.2,0.5,0,0.6c-0.2,0.1-0.5,0.2-0.8,0.2c-0.3,0-0.6,0-0.9,0
				c-0.1,0.1-0.1,0.1-0.2,0.2c-0.2,0.8-1.4,5.3-1.9,6.4c-0.6,1.2-0.9,2.5-1.2,3.7c-0.3,1.1-2,5.7-2.2,6.6c-0.4,1.1-0.7,2.2-1,3.2
				c-0.2,0.9-0.6,1.6-0.9,2.4l-0.3,1.2c-0.2,0.6-0.4,1.2-0.6,1.7c0,0.2-0.1,0.3-0.2,0.4C216.5,123.6,216.5,123.7,216.3,123.8z"/>
			<path class="st15" d="M237.3,110.8c-0.4,0-0.9,0-1.4-0.1c-0.5,0-0.9-0.2-1.4-0.2c-0.2,0.1-0.3,0.4-0.3,0.7
				c-0.2,2.1-0.4,4.2-0.4,6.3c0,0.6,0,1.3,0,1.8c0,1,0.1,1.9,0.3,2.9c0.4,0,0.8,0.1,1.2,0.1c0.9,0,1.8,0,2.6,0l1.6-0.1
				c0.3,0,0.6-0.1,0.9-0.1c0.3,0,0.5-0.2,0.6-0.6l0.3-1c0.1-0.3,0.4-0.4,0.6-0.2c0.1,0,0.3,0.1,0.4,0.2c0.3,0.2,0.5,0.5,0.4,0.9
				l-0.1,1.5c-0.1,0.4-0.3,0.9-0.6,1.2c-0.1,0.2-0.3,0.2-0.6,0.3c-1,0.1-2.1,0.1-3.2,0c-0.3,0-0.7,0-1,0c-0.7,0.1-1.3,0.1-1.9,0.1
				c-1.1,0-2.3,0.2-3.4,0.1c-1,0-2.1-0.2-3.1-0.6c-0.2,0-0.3-0.1-0.5-0.2c-0.1-0.1-0.1-0.4-0.1-0.6c0-0.1,0.1-0.2,0.2-0.2h1
				c0.3,0,0.6,0.1,0.9,0c0.2-0.3-0.1-0.6-0.1-0.8v-0.8c-0.2-3.1,0-6.3,0.2-9.5c0.1-1.2,0.1-2.4,0.1-3.6c0.1-2.2,0.2-4.3,0.3-6.3
				c0.1-0.9,0.2-1.8,0.1-2.7c0-0.4,0.1-0.9,0.1-1.3c0-0.1-0.1-0.2-0.2-0.3c-0.2-0.1-0.4,0-0.5,0.1c-0.1,0.2-0.1,0.4-0.2,0.5
				c-0.1,0.3-0.3,0.4-0.5,0.4c-0.2,0-0.4,0-0.5-0.3c-0.2-0.4-0.2-0.9-0.2-1.4c0-0.2,0.2-0.4,0.5-0.6c0.6-0.1,1.2-0.2,1.8-0.3
				c0.4,0,0.7,0,1.1-0.1c0.7-0.1,1.4-0.1,2.1,0l5.7,0.1c0.3,0,0.6,0,0.9,0.1c0.4,0.1,0.8,0.2,1.2,0.2c0.4,0.1,0.7,0.5,0.7,1
				c0,0.2,0,0.4,0,0.5c-0.1,0.9-0.2,1.7-0.3,2.5c0,0.1,0,0.2-0.1,0.3c-0.2,0.6-0.8,0.6-1.3,0c-0.1-0.1-0.2-0.3-0.3-0.4
				c-0.6-0.5-0.7-1.1-0.5-1.9c0.1-0.3,0.1-0.6,0-0.9c0,0,0,0-0.1,0l-5-0.1c-0.3,0-0.6-0.2-0.8,0c0,0,0,0.1,0,0.1
				c0.3,2.1,0.3,4.1,0.2,6.2c-0.1,1.6-0.2,3.3-0.3,5.1v0.4c0,0.4,0.1,0.6,0.4,0.6c0.8,0.1,1.5,0,2.2-0.1c0.1,0,0.2-0.2,0.3-0.4v-0.2
				c0.1-0.6,0.4-0.8,0.9-0.6c0.4,0.1,0.6,0.3,0.8,0.7c0.1,0.3,0.2,0.7,0.3,0.9c0.1,0.6,0.1,1.2,0.1,1.9c0,0.2,0,0.4,0,0.6
				c0,0.5-0.4,0.9-0.8,0.5c-0.6-0.4-1.1-0.8-1.3-1.7C237.4,110.9,237.4,110.9,237.3,110.8z"/>
		</g>
		<g>
			<path class="st17" d="M157.1,125.1c0.7-0.9,0.8-1.8,0.2-2.7c-0.6-1-1.5-1.7-2.7-2.2c-1.2-0.5-2.5-0.6-3.8-0.5
				c-4.3,0.5-7.9,2.9-10.8,7.3c-0.4-0.1-0.9-0.1-1.4-0.2c-1.1-0.2-2.7-0.5-4.8-0.9c-2.7-0.5-4.7-0.8-6-1c-1.9-0.3-3.6-0.5-5.1-0.5
				c0-0.2-0.1-0.4-0.3-0.5c-0.3-0.2-0.6-0.1-0.8,0.3c0,0-0.1,0.1-0.1,0.2c-4.1,0.1-7.7,1.1-10.6,3c-2,1.4-3.1,2.8-3.1,4.3
				c0,0.7,0.2,1.3,0.7,1.8c0.5,0.5,1.1,0.8,1.9,0.9c1.6,0.2,3.5-0.4,5.6-1.8c2.2-1.5,4.3-3.9,6.2-7c1.6,0,3.4,0.2,5.5,0.5
				c1.3,0.2,3.2,0.5,5.9,1c2.1,0.4,3.7,0.7,4.8,0.9c0.3,0.1,0.6,0.1,0.9,0.2c-0.1,0.1-0.1,0.2-0.2,0.3c-2.2,3.8-4.1,9.3-5.8,16.6
				c-0.3,1.1-0.6,2.4-0.9,3.9c-0.1,0.5-0.3,1.2-0.4,1.9c-0.1,0.6-0.2,0.9-0.2,1c-0.1,0.3-0.1,0.7-0.2,0.9c-0.7,3-1.2,5.3-1.6,6.9
				c-0.5,2-1,3.6-1.6,4.8c-0.2,0.6-0.6,1.3-1.1,2.2c-0.8,1.4-1.6,2.6-2.5,3.8c-1,1.2-1.9,2.1-2.7,2.6c-2.2,1.5-4.6,1.9-7.2,1.2
				c-1.9-0.5-3.4-1.4-4.7-2.8c3.7-1.8,6.8-4.3,9.2-7.4c3-3.9,4.2-7.9,3.8-12.1c-0.3-2.5-1.2-4.2-2.6-5.2c-2.8-1.9-5.6-1.6-8.2,0.8
				c-2.4,2.1-4.1,5.2-5.2,9.2c-1.1,4.2-1.2,8-0.1,11.4c0.3,1.1,0.7,2,1.2,2.9c-3.7,1.5-6.8,1.8-9.4,0.9c-2.9-1.1-4.5-3.6-4.6-7.7
				c0-0.4-0.2-0.6-0.7-0.6c-0.4,0-0.6,0.2-0.6,0.7c0.1,4.6,1.9,7.6,5.4,8.8c2.9,1,6.5,0.7,10.6-1c1.4,1.7,3.2,2.9,5.5,3.4
				c1.4,0.3,2.8,0.4,4.2,0.2c0.1,0.1,0.2,0.2,0.4,0.1c5.8-0.5,10.2-3.4,13.2-8.8c1.2-2.2,2.3-4.9,3.2-8.1c0.6-2.1,1.3-5.2,2.2-9.3
				l0.5-2.2c0.7-3.5,1.4-6.3,2-8.3c0.7-2.6,1.5-4.9,2.4-6.8c0.6-1.2,1.3-2.4,2-3.6c0.8,0,1.7,0.1,2.4,0c3.1-0.2,5.8-0.9,8.2-2.1
				C156,126.2,156.6,125.7,157.1,125.1z M115.2,131.6c-1.8,1.2-3.4,1.8-4.7,1.6c-1-0.1-1.5-0.6-1.5-1.4c0.1-1.1,0.9-2.2,2.6-3.3
				c2.5-1.7,5.6-2.6,9.1-2.8C119,128.3,117.1,130.2,115.2,131.6z M109.4,170.3c-0.5-0.7-0.9-1.6-1.1-2.6c-1-3.1-0.9-6.7,0.1-10.7
				c1-3.9,2.6-6.8,4.7-8.7c0.7-0.6,1.4-1.1,2.2-1.3c2,1.4,3.2,3.2,3.6,5.4c0.3,2,0,4.3-1,6.9c-0.8,2.1-2,4.1-3.6,6.1
				C112.7,167.4,111,169,109.4,170.3z M146.9,127.5c-0.5,0-1,0-1.6,0c0.7-0.9,1.3-1.8,2-2.7c1.6-1.6,3.4-2.9,5.4-3.8
				c0,0,0.1,0,0.1-0.1c1.6,0.3,2.8,1,3.5,2.1c0.2,0.4,0.2,0.8-0.2,1.3c-0.4,0.5-0.8,0.9-1.5,1.2
				C152.4,126.7,149.8,127.3,146.9,127.5z"/>
			<path class="st17" d="M306.7,130.1c-0.4-0.2-0.6-0.2-0.9,0.2c-1.1,1.6-3.1,3-5.8,4.3c-1.9,0.9-4.8,2-8.6,3.1
				c-0.3,0.1-0.7,0.2-1.1,0.4c0,0-0.1,0-0.3,0.1c-0.1-0.7-0.1-1.6-0.2-2.5c0-0.1,0-0.4,0-0.7c-0.2-2.8-0.4-4.9-0.5-6.2
				c-0.1-2.2-0.1-4-0.1-5.6c0-0.1,0-0.2,0-0.3c0.7-0.4,1.3-0.9,1.8-1.3c1.3-1.1,2.1-2.2,2.4-3.2c0.4-1.3,0-2.5-1.3-3.4
				c-0.1-0.1-0.2-0.1-0.3-0.1c-0.2,0-0.4,0-0.6-0.1c-0.2,0-0.6,0-1.2,0c-0.6,0-1.1,0.1-1.7,0.3c-0.5,0.2-1.1,0.5-1.7,1
				c-0.6,0.5-1,1.1-1.4,1.9c-0.3,0.7-0.5,1.5-0.7,2.3c-0.2,0.8-0.4,1.8-0.4,3c-0.1,1.1-0.1,2.1-0.2,2.8c-0.1,0.7,0,1.9,0,3.5
				c0.1,1.6,0.1,2.6,0.2,3.2c0,0.6,0.1,1.8,0.3,3.7c0.1,0.8,0.1,1.5,0.2,2c-0.1,0.5-0.3,1.1-0.4,1.6c0,0,0,0,0,0
				c-1.8,0.6-3.3,1.3-4.5,1.9c-3.1,1.5-4.8,3.3-5.2,5.4c-0.3,1.7-0.1,3.4,0.6,5.1c0.5,1.1,1.1,2.1,1.9,3c-0.4,0.5-0.8,0.9-1.2,1.2
				c-0.2,0.2-0.4,0.2-0.6,0c-0.2-0.2-0.6-0.7-1-1.5c-0.1-0.2-0.2-0.4-0.4-0.7l-0.1-0.1c0-0.1,0-0.2-0.1-0.2c0-0.1-0.1-0.2-0.1-0.2
				c-0.1-0.1-0.1-0.1-0.1-0.2c-0.3-0.7-0.6-1.2-0.9-1.7c-0.9-1.6-1.9-2.8-3-3.6c-0.6-0.4-1.1-0.7-1.7-0.9c2.9-1.2,5-3.1,6.3-5.7
				c0.9-1.7,1.1-3.4,0.8-5c-0.4-1.6-1.3-2.8-2.9-3.6c-1.5-0.7-3.2-0.6-4.9,0.4c-1.5,0.9-3,2.3-4.5,4.4c-1.7,2.3-3.2,5-4.4,8.1
				c0.1-0.6,0.2-1.3,0.3-2.1c0.6-5.3,1.1-9.5,1.6-12.6c0.9-6.8,2-12.2,3.2-16.1c0-0.1,0-0.2,0.1-0.3c0.3,0,0.7,0,0.9,0
				c1.9,0,3.8-0.5,5.8-1.5c1.4-0.7,2.3-1.6,2.8-2.6c0.5-1,0.5-1.9,0-2.9c-0.4-0.8-1-1.5-2-1.9c-0.1-0.2-0.2-0.2-0.4-0.3
				c-3.1-0.5-5.7,0-7.8,1.5c-1.7,1.2-3.1,3-4.3,5.5c-1.1-0.3-2.1-0.5-2.8-0.6c-1.3-0.2-2.5-0.2-3.6-0.1c-2.9,0.2-6,1.3-9.2,3.4
				c-0.3,0.2-0.4,0.5-0.2,0.9c0.2,0.4,0.5,0.4,0.9,0.2c3.1-2,6-3.1,8.6-3.2c1-0.1,2.1-0.1,3.3,0.1c0.7,0.1,1.5,0.3,2.5,0.5
				c-1,2.4-1.8,5.6-2.4,9.5c-0.5,2.7-1,6.6-1.5,11.6c0,0.4-0.1,0.9-0.1,1.4l0,0.1c0,0.1-0.1,0.2-0.1,0.3c0,0.1,0,0.3,0,0.4
				c0,0.1,0,0.2,0,0.4c0,0.1,0,0.2,0,0.3c-0.1,1.1-0.2,2.1-0.3,2.8c0,0.2,0,0.4-0.1,0.6c-1.5,3.4-3.7,7.5-6.8,12.5
				c-1.7,2.8-3.3,5.1-4.7,6.9c-1.5,1.9-2.5,3-3.1,3.2c-1,0.3-1.7,0.1-2.2-0.5c-0.6-0.6-0.9-1.8-1.1-3.4c-0.2-1.5-0.2-3.4-0.1-5.8
				c0.1-1.7,0.3-4,0.6-7c0-0.2,0-0.4,0.1-0.7c0.3-3.8,0.5-6.6,0.6-8.1c0.1-2.8,0.1-4.9-0.3-6.4c-0.4-2-1.3-3-2.5-3.1
				c-1.3-0.1-3.1,0.9-5.2,2.9c-0.6,0.6-1.6,1.9-2.9,3.8c-1.3,1.9-2.5,4.1-3.7,6.4c-0.5,0.9-0.9,1.7-1.3,2.5c0.6-3.7,1.4-6.9,2.4-9.5
				c0.1-0.3,0-0.6-0.2-0.8l-0.2-0.1c-2.9-1.3-4.6-1.4-4.9-0.3c-0.1,0.1-0.2,0.2-0.3,0.4c-1.1,5.5-2,10.3-2.6,14.5
				c-0.6,1.3-1.2,2.8-2,4.3c-1.4,2.7-2.9,5.1-4.5,7.4c-1.7,2.4-3.2,4.2-4.6,5.5c-0.2,0.1-0.3,0.2-0.4,0.3c-0.4-0.6-0.7-1.5-0.8-2.5
				c-0.2-1.1-0.3-2.2-0.3-3.4c0-1.2,0.1-2.6,0.2-4.2c0.2-1.6,0.4-3.1,0.6-4.5c0.2-1.4,0.5-2.9,0.8-4.5c0.3-1.6,0.6-2.9,0.9-4.1
				c0.3-1.1,0.5-2.3,0.8-3.4c0.3-1.1,0.5-1.9,0.6-2.2c0.1-0.4,0.2-0.7,0.2-0.9c-0.7-1.2-1.9-1.8-3.7-1.8c-0.1-0.1-0.2-0.1-0.3-0.1
				c0,0-0.1,0-0.1,0c-0.3,0-0.5,0.2-0.5,0.6c0,0.6-0.2,1.5-0.4,3c-0.1,0.3-0.2,0.6-0.2,0.9c-0.3,0.8-0.7,1.9-1.2,3.2l-0.1,0.3
				c-0.3-3-1-4.9-2.3-5.7c-0.8-0.5-1.8-0.5-2.8,0c-0.9,0.4-1.8,1.1-2.7,2.1c-1.8,2.1-3.3,4.8-4.5,8.2c-0.3,1-0.6,2-0.8,3
				c-0.5,0.9-1.2,2.2-2,3.7c-2,3.8-3.6,6.7-4.8,8.8c-0.7,1.2-1.5,2.4-2.1,3.5c-2.4,4-4.4,7-6,8.9c-1.9,2.2-3.2,3.1-3.9,2.8
				c-1.6-0.7-2.4-2.3-2.4-4.8c0-1.9,0.5-4.6,1.6-8.2c0.2-0.6,0.5-1.4,0.7-2.3c0-0.1,0.1-0.5,0.3-1c0.2-0.5,0.3-0.8,0.3-0.9
				c0.2-0.7,0.4-1.3,0.6-1.8c0.4-1.3,0.7-2.4,0.9-3.4c0.6-2.4,0.6-4.1,0.1-5.2c-1.2-2.4-3-3-5.5-1.8c-1.9,0.9-3.9,2.9-6.2,5.9
				c-0.6,0.9-1.2,1.7-1.8,2.7c0.6-4,1.3-8.1,2.1-12.4c5.3-5.8,7.8-12.6,7.4-20.3c-0.1-0.6-0.3-1.3-0.6-2.1c-0.5-0.9-1-1.5-1.6-1.7
				c-0.9-0.3-1.7,0.1-2.6,1.1c-0.6,0.7-1.2,1.8-1.8,3.2c-0.7,1.7-1.4,3.8-2.1,6.5c-0.5,1.8-1,3.9-1.5,6c-0.1,0.7-0.3,1.5-0.4,2.3
				c-0.1,0.4-0.2,0.9-0.3,1.4c-0.4,2.2-0.8,4.3-1.1,6.4c-0.1,0.1-0.1,0.2-0.1,0.3c-0.6,3.1-1,6-1.4,8.7c-1,6.5-1.4,11.2-1.3,14.1
				l0,0.1c0.1,0.4,0.3,0.6,0.6,0.5l0.1,0c0.1,0,0.1,0,0.2-0.1c0.3,0.1,0.6,0.2,1,0.3c0.3,0.1,0.7,0.1,1,0.2c0.3,0,0.6,0,0.8-0.1
				c0.2-0.1,0.4-0.2,0.3-0.4c0-2.5,0.3-6.1,0.9-10.8c1-1.9,2.1-3.6,3.3-5.2c2.1-2.8,4-4.7,5.7-5.5c0.5-0.3,1-0.4,1.4-0.5
				c0,0.8-0.2,2.2-0.7,4c-0.5,1.8-1.2,3.7-1.9,5.7c-0.7,2-1.3,4.1-1.8,6.3c-0.5,2.2-0.8,4.2-0.8,6c-0.1,1.8,0.3,3.4,1.2,4.8
				c0.9,1.4,2.3,2.3,4.3,2.7c0.2,0.1,0.4,0.2,0.5,0.3c0.8,0.4,1.7,0.2,2.7-0.5c0.8-0.5,1.7-1.4,2.8-2.6c1.7-2,3.7-5,6.1-9.1
				c0.7-1.1,1.4-2.3,2.1-3.6c1.2-2.1,2.8-5.1,4.9-8.8c0.1-0.2,0.3-0.5,0.4-0.7c-0.1,1.3-0.1,2.6,0.1,3.8c0.2,1.8,0.9,3,1.9,3.4
				c1.1,0.5,2.3,0.1,3.7-1.2c0.8-0.7,2.2-2.9,4.2-6.4c1.9-3.5,3.2-6,3.8-7.5c0.1-0.3,0.2-0.5,0.3-0.8c-0.1,0.8-0.3,1.5-0.4,2.3
				c-0.3,1.6-0.5,3-0.8,4.4c-0.7,4.5-1,8.1-0.9,10.7c0.1,3.5,0.9,5.6,2.4,6.3c1.1,0.5,2.6-0.1,4.4-1.7c1.5-1.3,3-3.2,4.8-5.7
				c1.6-2.4,3.2-4.9,4.6-7.6c0.1-0.2,0.2-0.4,0.3-0.6c-0.3,2.1-0.5,4-0.6,5.6c0,0.4,0.2,0.6,0.6,0.7c0.8,0.6,1.6,0.9,2.3,1
				c0.7,0.1,1.2,0.1,1.5,0c0.3-0.1,0.5-0.2,0.7-0.4c0.2-0.1,0.3-0.3,0.3-0.5c0.3-4.6,0.6-8.1,0.9-10.6c0.8-1.9,1.8-4,3.1-6.2
				c1.2-2.2,2.4-4.3,3.6-6.2c1.2-1.9,2.2-3.1,2.7-3.7c0.4-0.4,0.9-0.8,1.2-1.1c0.2,1.2,0.2,2.8,0.1,4.9c-0.1,1.3-0.4,3.8-0.9,7.5
				c-0.1,1.1-0.3,2-0.4,2.6c-0.3,2.7-0.5,5-0.6,6.9c0,2.4,0.2,4.4,0.6,6c1.2,4.1,4,6.1,8.5,6c0.1,0,0.3,0,0.4-0.1
				c0.2,0,0.5-0.1,0.8-0.2c0.8-0.3,2.1-1.5,3.6-3.6c1.4-1.8,3-4.1,4.7-7c2.2-3.6,3.9-6.7,5.3-9.4c-0.5,3.7-0.9,6.8-1.4,9.2
				c-0.1,0.4,0.1,0.7,0.5,0.8c0,0,0.1,0,0.2,0c0.2,0,0.4,0,0.6,0c0.9,0.1,1.6,0,2.3-0.2c1.1-0.3,1.8-0.8,2.2-1.6
				c0.1-0.2,0.1-0.4,0-0.6l0.1,0c0,0,0-0.1,0-0.1c0.6-2.4,1.4-4.9,2.5-7.3c1.1-2.5,2.3-4.6,3.7-6.5c1.3-1.7,2.5-3,3.7-3.8
				c1.2,0.2,2,0.8,2.3,1.7c0.4,0.9,0.5,2.1,0.1,3.5c-0.3,1.4-1,2.8-2,4.1c-1,1.3-2.2,2.2-3.4,2.8c-0.2,0.1-0.3,0.2-0.4,0.4
				c-0.1,0.1-0.2,0.3-0.1,0.5c0,0,0,0.1,0,0.2l0,0.1c0,0.4,0.2,0.6,0.6,0.6c1.1,0,2.1,0.5,2.8,1.4c0.6,0.7,1.1,1.8,1.7,3.2
				c0,0.2,0.1,0.3,0.1,0.5c0.1,0.2,0.1,0.4,0.2,0.6c0.4,1,0.7,1.8,0.9,2.3c0.4,0.8,0.9,1.4,1.5,1.7c1.3,0.9,3.1,0.4,5.4-1.4
				c0.1-0.1,0.2-0.2,0.2-0.3c0.2-0.2,0.4-0.4,0.6-0.6c0.1,0.1,0.3,0.3,0.4,0.4c1.4,1.1,3,1.7,4.6,1.5c1.8-0.1,3.5-1.1,4.9-2.9
				c1.4-1.8,2.3-4.6,2.5-8.5c0.1-2,0-4.4-0.2-7.4c0.3-0.1,0.5-0.1,0.6-0.2c0.4-0.1,0.8-0.3,1.1-0.4c3.8-1.2,6.7-2.3,8.7-3.2
				c3-1.4,5.1-3,6.4-4.7C307.1,130.6,307,130.3,306.7,130.1z M291.7,116.1c0.5,0.5,0.7,1.1,0.5,1.8c-0.3,0.8-0.9,1.6-2,2.6
				c-0.3,0.2-0.5,0.4-0.8,0.6C289.7,118.8,290.5,117.1,291.7,116.1z M268,107c0.8-0.2,1.6-0.2,2.2,0c0.7,0.3,1.2,0.7,1.5,1.3
				c0.3,0.6,0.2,1.2,0,1.8c-0.4,0.8-1.2,1.5-2.3,2c-1.8,0.9-3.5,1.3-5.2,1.3c-0.2,0-0.3,0-0.5,0C265,109.7,266.4,107.5,268,107z
				 M164.1,123.4c0.1,0.4,0.2,0.7,0.3,1c0.3,6.6-1.5,12.5-5.6,17.7C160.9,131.8,162.7,125.6,164.1,123.4z M194.9,152
				c-1.8,3.1-3.1,5.2-3.9,6.2c-0.4-0.7-0.5-1.9-0.4-3.7c0.1-1.8,0.4-3.8,0.9-5.9c0.5-2.1,1.3-4,2.4-5.9c1.1-1.8,2.3-3,3.7-3.5
				c0.5,1.3,0.8,3.3,0.8,6C197.8,146.7,196.7,148.9,194.9,152z M276.3,151.9c-0.6-1.5-0.8-3-0.6-4.4c0.3-1.7,1.8-3.2,4.5-4.5
				c0.9-0.5,2.1-1,3.5-1.5c-0.7,2.2-1.5,4.4-2.4,6.4c-1.2,2.8-2.3,4.9-3.4,6.5C277.2,153.7,276.7,152.8,276.3,151.9z M284.7,151.5
				c-0.4,2.6-1.3,4.4-2.9,5.3c-1-0.1-1.9-0.5-2.8-1.2c-0.1-0.1-0.2-0.2-0.4-0.3c1.2-1.6,2.5-3.9,3.7-6.8c0.9-2.1,1.7-4.3,2.4-6.5
				C285.1,145.9,285,149.1,284.7,151.5z"/>
		</g>
		<g>
			<path class="st15" d="M186.7,192.8c0.1-0.2,0.2-0.3,0.3-0.5c0.6-1.7,1.2-3.3,1.8-4.9l1.8-6.2c0.1-0.2,0.3-0.7,0.4-0.9
				c0.1-0.7,0.2-2.1,0.8-2.1c1.6,0,2.1-0.4,2.7,1.2l0.2,1l2,10c0,0.4,0,0.8,0.3,1.1c0.3-0.4,0.3-0.9,0.5-1.4c0.3-1.5,0.6-3,1-4.5
				c0.4-1.3,0.7-2.7,1-4.2c0.4-1.7,0.9-3.4,1.1-5.2c0.1-0.5,0.2-0.8,0.3-1.2c0.2-0.6,0.4-1.3,0.6-2c-0.2,0-0.4-0.2-0.6-0.3
				c-0.1,0-0.4-0.2-0.6-0.5c-0.7-0.8,1.8-0.9,2.7-0.8c0.4,0,0.9,0,1.4,0.2c0.9,0.3,0.7,0.9,0.2,1.2c-0.5,0.3-1.2,0.3-1.2,0.4
				c-0.5,1.8-1.2,6.3-1.5,7.4c-0.2,0.9-0.4,1.8-0.6,2.9c0,0.2,0,0.5-0.1,0.9c-0.2,0.9-0.6,2-0.8,2.9c-0.2,0.6-0.4,1.4-0.5,2.1
				c-0.2,1.1-0.5,2.2-0.8,3.4c-0.1,0.2-0.1,0.4-0.1,0.6c-0.2,1.7-0.7,3.7-1.2,5.2c-0.1,0.4-0.2,0.8-0.4,1.3
				c-0.1,0.5-0.6,0.7-0.9,0.3c-0.3-0.3-0.9-1-1.2-2c-0.7-2-1.2-4.7-1.6-6.8c-0.3-1.6-0.7-3.9-1.8-8.4c0,0,0-0.1-0.1-0.1
				c0,0-0.1,0.1-0.1,0.2l-0.4,2.5c-0.1,0.5-0.3,1.1-0.4,1.6c-0.3,1.4-0.8,2.6-1.2,3.8c-0.4,0.9-0.6,1.8-0.9,2.7
				c-0.3,1.3-0.7,2.5-1.2,3.6c-0.4,1-0.8,2-0.9,3c0,0.2-0.1,0.3-0.2,0.5c-0.1,0.2-0.4,0.4-0.6,0.2c-0.9-0.3-1.6-0.9-1.7-2.1
				c-0.4-1.7-0.7-3.3-0.9-4.9c-0.2-1.3-0.4-2.7-0.5-4c-0.2-2.5-0.3-5.1-0.4-7.5c-0.1-1.8-0.8-7.6-0.8-8.8c0-0.4-0.1-0.5-0.6-0.7
				c-0.3-0.1-0.5-0.1-0.7-0.3c-0.2-0.1-0.4-0.4-0.3-0.7s0.2-0.4,0.5-0.4l0.6,0.1l3,0.1c0.2,0.1,0.4,0.1,0.7,0.2
				c0.3,0,0.4,0.4,0.2,0.7c0,0.2-0.2,0.5-0.3,0.6c0.1,1,0.2,1.9,0.3,2.8c0.2,0.8,0.3,1.7,0.4,2.5c0.2,1.5,0.3,3.1,0.4,4.5
				c0.1,1.3,0.1,2.4,0.3,3.6c0.1,1.6,0.3,2.9,0.3,4.5C186.4,191.8,186.5,192.2,186.7,192.8z"/>
			<path class="st15" d="M209.2,173.8H208c-0.2,0-0.5,0-0.9-0.1c-0.2-0.1-0.2-0.5-0.1-0.6c0.3-0.3,0.6-0.5,1-0.5
				c0.9-0.1,1.8-0.2,2.7-0.2c0.7,0,1.4,0.1,2.2,0.2c0.2,0,0.4,0.1,0.7,0.2c0.1,0,0.2,0.1,0.3,0.2c0.2,0.2,0.1,0.7-0.2,0.8
				c-0.1,0-0.2,0.1-0.3,0.1c-0.1,0-0.3,0-0.4,0c-0.8,0-0.9,0.1-0.8,0.7c0,0.3,0,0.7,0,0.9c0,0.4,0,0.8-0.1,1.2c0,0.3,0,0.6,0,0.9
				c0,0.2,0,0.6,0,0.9c-0.1,1-0.1,2-0.1,2.9c0,0.7,0,1.4-0.1,2.1c0,1.3-0.1,2.5-0.2,3.8c0,1,0,2.1,0,3.1c0,0.8,0,1.5-0.1,2.3l0,3.8
				c0,0.5,0.1,1,0,1.5c0,0.5-0.2,0.9-0.2,1.5c0,0.1,0,0.3-0.1,0.4c0.3,0.2,0.6,0,0.9,0.1l0.3,0.2c0,0.2,0,0.3-0.1,0.4
				c-0.2,0.1-0.4,0.1-0.6,0.2c-0.4,0.1-0.8,0-1.2,0.1c-0.6,0-1.9-0.1-2.5,0c-0.4,0-0.9-0.2-1-0.5c0-0.1,0-0.3,0-0.4l0.9-0.3
				c0.3,0,0.4-0.3,0.5-0.6c0.2-0.6,0.3-1.1,0.3-1.7c0-1.1,0-2.3,0-3.4c0-1.9-0.1-3.8-0.1-5.7c0-1.5,0-3,0.1-4.5
				c0-0.6,0.1-1.2,0.1-1.8c0-1.6,0.1-3.4,0.2-5.1c0-0.6,0-1,0.1-1.5V173.8z"/>
			<path class="st15" d="M227.8,173.5c-0.1,0-0.3,0-0.5,0c-1.1,0-2.2,0.1-3.3,0.3c0,0-0.1,0.1-0.2,0.1v0.2c0.3,0.5,0.2,1.2,0.3,1.8
				c0,1.7,0,3.4-0.2,5c-0.1,0.9-0.2,1.8-0.2,2.8c-0.1,0.4-0.1,0.8-0.1,1.2c0,0.2,0,0.4,0,0.5l-0.1,2.4l-0.2,2.6
				c-0.1,0.9-0.1,1.8-0.2,2.7c-0.1,0.4,0,0.9,0,1.4c0,0.5,0,1,0,1.5c0,0.1,0,0.2,0,0.3c0.1,0.9,0,1.8-0.1,2.8c0,0.2,0.1,0.3,0.4,0.3
				c0.2,0,0.4,0,0.7,0c0.2,0,0.4,0.1,0.4,0.3c0,0.1,0,0.3-0.2,0.4c-0.3,0.4-0.8,0.6-1.4,0.5c-0.6-0.1-1.3-0.1-1.9-0.1
				c-0.6,0-1.2,0-1.8-0.1c-0.3,0-0.7-0.2-0.9-0.6c-0.1-0.2,0-0.5,0.2-0.6c0.2,0,0.5,0,0.6-0.1c0.1,0,0.3-0.2,0.5-0.2
				c0.2,0,0.4-0.2,0.4-0.4c0-0.3,0-0.7-0.1-1c0-0.7,0-1.4,0-2c0-0.6,0-1.1,0-1.7c0-0.8-0.1-1.7-0.1-2.5c0-0.7,0-1.5,0.1-2.2
				c0-0.9,0.2-1.8,0.2-2.7c0-1.1,0.1-2.1,0.1-3.1v-0.9c0-0.6,0-1.1,0-1.7c0-0.1,0-0.3,0-0.4c-0.2-0.9,0-1.9,0-2.9
				c0-0.9,0.1-1.9,0.1-2.9c0-0.2,0-0.4,0-0.5c-0.6-0.1-1.1,0-1.6,0c-0.6,0-1.2,0-1.8,0.3c-0.2,0.3-0.2,0.8-0.3,1.1
				c0,0.4-0.3,0.6-0.8,0.5c-0.1,0-0.3-0.1-0.3-0.3c-0.1-0.5,0-1.1-0.1-1.7c0.1-0.3,0.3-0.6,0.5-0.7c0.4-0.1,0.8-0.2,1.2-0.3
				c0.9-0.1,1.8-0.3,2.8-0.5c0.4-0.1,0.8-0.1,1.2-0.2c0.7-0.1,1.5-0.1,2.3-0.2c0,0,0.2,0,0.3,0c1.2-0.1,2.5-0.2,3.7-0.2
				c0.3,0,0.6,0,0.8,0c0.3,0,0.6,0.1,0.9,0.1l0.4,0.1c0.4,0,0.7,0.3,0.7,0.7c-0.1,0.5-0.1,0.9-0.1,1.3c0,0.2-0.2,0.4-0.3,0.7
				c-0.2,0.2-0.5,0.2-0.8,0c0,0-0.1,0-0.1-0.1C228.1,174.4,228.1,174.4,227.8,173.5z"/>
			<path class="st15" d="M235,199.9c0.6,0.5,1.3,0.3,1.7,0.8c-0.3,0.4-0.6,0.8-1.2,0.8c-1.3,0-2.5-0.2-3.7-0.2c-0.2,0-0.5,0-0.6-0.3
				c0-0.2,0.2-0.4,0.5-0.5c0.3-0.1,0.7-0.1,1-0.3c0-0.2,0-0.3,0-0.5c-0.4-0.8-0.4-1.8-0.4-2.6c0-1.2,0-2.5,0-3.6
				c-0.1-2.2,0.2-4.4,0.1-6.6c0-1,0.1-3.5,0.5-7.3c0.1-1.6,0.2-3.1,0.3-4.6c0-0.2,0-0.3,0-0.5c0-0.5-0.1-0.8-0.6-1
				c-0.2-0.1-0.5-0.2-0.5-0.5c0-0.1,0.4-0.4,0.8-0.5c0.2,0,0.4-0.1,0.7-0.1c0.3,0,0.6,0,0.9,0c0.8,0.1,1.5,0.1,2.2-0.2
				c0.5-0.1,1,0,1.5,0.2c0.4,0.1,0.6,0.3,0.5,0.5c0,0.3-0.9,0.7-1.1,0.8c-0.3,0-0.8,0.2-1.1,0.2c0.1,1-0.2,2.1-0.2,3.1
				c0,0.5,0,0.9,0,1.4c0,1-0.1,3.6-0.2,4.7c0,0,0,0.1,0.1,0.2c0.1,0,0.3,0,0.5,0c0.6,0,1.3,0,2,0h0.4c2.1-0.2,2.4-0.2,4.5-0.3h0.2
				c0.7-0.1,0.9-0.3,1-0.9c0.1-1,0.4-3.5,0.4-4.4c0.1-1,0.1-2.1,0.1-3.1v-1.1c-0.4-0.3-0.8-0.6-1.2-0.9c-0.1,0,0-0.3,0.1-0.4
				c0.4,0,0.9-0.2,1.4-0.2s1.1,0,1.8,0.1c0.7,0,1.3,0.1,2,0.2c0.2,0.1,0.3,0.3,0.6,0.5c-0.2,0.1-0.2,0.3-0.4,0.4l-1,0.4
				c-0.2,0.3-0.2,0.7-0.2,1c0.1,1.5-0.1,3.1-0.2,4.5c0,0.4-0.2,2.3-0.2,2.7c0,1.3-0.2,2.6-0.4,3.9c-0.1,0.6,0.1-0.2,0,0.4
				c-0.1,1.5-0.3,2.9-0.4,4.3c0,0.5-0.1,0.9-0.1,1.3c0.1,2.4-0.2,4.6-0.2,7c0,0.3,0,0.6,0,1c0.5,0,0.9,0,1.4,0
				c0.2,0,0.3,0.1,0.6,0.1c0.1,0,0.1,0.3,0,0.4c-0.1,0-0.1,0.2-0.3,0.2c-0.4,0.1-0.8,0.2-1.2,0.3c-1,0-2.1,0.1-3.1-0.1
				c0,0-0.1,0-0.2-0.1c-0.1,0-0.3-0.1-0.4-0.3c0-0.2,0.2-0.3,0.4-0.4c0.1,0,0.2,0,0.3,0c0-0.1,0.1-0.2,0.1-0.2c-0.5-2-0.2-3.9-0.3-6
				l0.1-4.8c0-0.5,0-1,0.1-1.6c0-1.1,0-0.9,0.1-2c0-0.1,0-0.3,0-0.4c0-0.2-0.1-0.3-0.3-0.4c-0.3,0-0.6,0-0.9,0h-3.2
				c-1.3,0.1-2.6,0.1-3.8,0.3c0,0-0.1,0-0.1,0c0,0-0.1,0.1-0.1,0.2c-0.1,0.6,0.1-0.1,0,0.5c0,0.8-0.2,1.6-0.2,2.5l-0.1,2.7
				c0,0.9,0,1.8,0,2.7l0,3.5c0.1,0.8,0,1.7-0.2,2.4C235,199.4,235,199.6,235,199.9z"/>
			<path class="st15" d="M271.4,197.4c-0.1,1.7-0.7,2.1,0.2,2.4c0.4,0.1,0.5,0.3,0.4,0.7c0,0.5-1,0.9-1.5,0.7
				c-0.5-0.1-1-0.1-1.4-0.1c-0.6,0-1.1,0-1.7-0.3c-0.1-0.1-0.3-0.2-0.4-0.3c-0.2-0.1-0.1-0.4,0-0.5c0.3-0.2,0.7-0.4,1-0.5
				c0.1,0,0.2-0.1,0.4-0.1c0-0.2,0-0.5,0.1-0.7c0-1.3,0-2.5,0-3.9c0-0.8,0.1-1.5,0.2-2.4c0.3-2.3,0.6-4.6,1-6.9
				c0.2-0.9,0.3-2,0.5-2.9c0.4-2.1,1.1-4.1,1.9-6c0.6-1.6,1.7-2.7,2.8-3.9c0.8-0.8,1.8-1,2.8-1.1c0.7-0.1,1.4,0.1,1.8,0.7
				c0.4,0.4,0.8,0.9,1,1.4c0.9,1.9,1.7,3.9,1.7,6.2l0.3,5.4c0,1.5,0.2,2.8,0,4.3c0.1,0.9,0,1.8,0.1,2.7c0.1,0.8,0,1.5,0,2.2
				c0,0.6,0,1.2,0,1.7l-0.2,1.9c0,0.2,0,0.4,0,0.7l0.6,0c0.3,0,0.5,0.2,0.6,0.5c0,0.4-0.2,0.7-0.6,0.8c-0.1,0-0.3,0.1-0.4,0.1
				l-3.1,1c-0.4,0-0.8-0.2-1.1-0.4c-0.2-0.1-0.3-0.5,0-0.7c0.1-0.1,0.4-0.3,0.7-0.4c-0.6-1.8-0.3-3.6-0.4-5.3c0-1.2,0-2.5,0-3.8
				c0-0.9,0-1.9,0-2.9c0-0.5,0-1-0.1-1.6c0-0.2-0.3-0.4-0.5-0.4h-0.3c-1.3,0.4-2.7,0.4-4,0.5c-0.3,0-0.7,0.1-0.9,0.2
				c-0.3,0.6-0.4,1.1-0.5,1.7c-0.2,1-0.3,1.9-0.6,2.9c-0.1,1-0.2,1.9-0.3,2.9c0,0.6-0.1,1.1-0.1,1.7
				C271.4,196,271.4,196.7,271.4,197.4z M278.5,183.6c0-0.3,0-0.6,0-0.9c0-1.4-0.1-2.8-0.2-4.2c0-1.7-0.7-3.4-1.3-4.9
				c-0.1-0.3-0.6-0.4-0.8-0.2c-0.4,0.4-0.9,0.9-1.2,1.5c-0.4,0.6-0.9,1.5-0.9,2.3c-0.1,0.6-0.1,1.3-0.3,1.9
				c-0.1,0.6-0.2,1.2-0.3,1.8c-0.3,1.1-0.3,2.3-0.2,3.5c0,0.1,0.1,0.2,0.2,0.2c0.8-0.2,1.7-0.3,2.5-0.5
				C276.7,183.9,277.6,183.9,278.5,183.6z"/>
		</g>
		<g>
			<path class="st17" d="M279,262.1c-0.6-0.3-1-0.1-1.3,0.5c-1.6,3.1-3.8,6.6-6.6,10.5c-2.8,3.9-5.8,7.5-8.9,10.8
				c-3.2,3.4-6.1,6-8.6,7.7c-0.3,0.1-0.5,0.3-0.7,0.4c-0.5-1.1-0.7-2.5-0.8-4.2c0-1.7,0.1-3.6,0.4-5.6c0.3-2,0.7-4.2,1.4-6.7
				c0.6-2.5,1.3-4.8,2-7c0.7-2.2,1.5-4.6,2.3-7c0.9-2.5,1.7-4.6,2.3-6.3c0.7-1.8,1.4-3.5,2.1-5.2s1.2-2.9,1.4-3.4
				c0.2-0.6,0.4-1,0.6-1.4c-0.9-2-2.7-3.3-5.5-3.8c-0.1-0.1-0.3-0.2-0.5-0.3c-0.1,0-0.1,0-0.2,0c-0.5,0-0.9,0.3-1,0.8
				c-0.2,0.9-0.7,2.4-1.4,4.7c-0.2,0.5-0.4,0.9-0.6,1.4c-0.6,1.3-1.5,2.9-2.7,4.8l-0.2,0.4c0.3-4.9-0.5-8.1-2.3-9.6
				c-1.2-1-2.7-1.3-4.5-0.7c-1.5,0.4-3.1,1.3-4.9,2.7c-3.2,2.7-6.1,6.4-8.6,11c-4.5,3.8-9.6,8.3-15.3,13.3c-0.9,0.7-2,1.7-3.1,2.7
				l-0.6,0.5c-0.3,0.3-0.7,0.7-1.1,1c-0.4,0.3-0.7,0.6-0.8,0.7c-1.6,1.5-2.7,2.4-3.1,2.8c-4.5,3.7-8.4,6.1-11.8,7.1
				c-2.4-1.5-4-3.8-4.8-6.8c-0.8-3-0.9-6.4-0.3-10.1c5.4-2.7,10.2-6.4,14.3-11.1c3-3.4,4.6-6.3,4.9-8.7c0.3-3.2-1.6-5.1-5.5-5.8
				c-5.9-0.9-11.2,2-15.6,8.7c-2.2,3.3-3.9,6.9-5,10.7c-1.1,1.4-2.6,3.4-4.5,5.9c-4.1,5.5-7.4,9.9-9.8,13c-1.5,1.8-2.9,3.5-4.3,5.2
				c-4.7,5.8-8.7,10.1-11.8,12.9c-3.5,3.1-5.8,4.3-6.9,3.5c-2.4-1.6-3.2-4.3-2.6-8.2c0.5-3,2-7.3,4.5-12.8c0.5-0.9,1-2.1,1.7-3.4
				c0.1-0.2,0.3-0.7,0.7-1.5s0.6-1.3,0.7-1.3c0.5-1.1,0.9-2,1.3-2.7c0.9-2,1.7-3.8,2.2-5.2c1.5-3.7,2-6.5,1.4-8.3
				c-1.4-4.2-4.1-5.6-8.3-4.2c-3.2,1-7,3.7-11.3,8c-1.2,1.2-2.4,2.5-3.5,3.9c1.9-6.3,4-12.7,6.3-19.4c9.9-8,15.5-18.3,16.6-30.7
				c0.1-1-0.1-2.2-0.5-3.4c-0.5-1.6-1.3-2.6-2.2-3c-1.4-0.7-2.8-0.3-4.4,1.1c-1.2,1-2.4,2.6-3.6,4.8c-1.6,2.5-3.2,5.8-5,9.8
				c-1.2,2.8-2.5,5.9-3.9,9.3c-0.4,1.1-0.8,2.3-1.2,3.5c-0.3,0.6-0.5,1.3-0.8,2.1c-1.2,3.4-2.3,6.7-3.3,9.9
				c-0.1,0.1-0.2,0.3-0.2,0.4c-1.6,4.9-3,9.4-4.3,13.6c-3.1,10.1-4.9,17.6-5.4,22.3v0.1c0,0.6,0.3,0.9,0.9,1h0.1
				c0.1,0,0.2,0,0.3-0.1c0.5,0.3,1,0.5,1.5,0.7c0.5,0.2,1.1,0.4,1.6,0.5c0.5,0.1,1,0.2,1.4,0.1c0.4-0.1,0.6-0.2,0.6-0.5
				c0.5-4.1,1.9-9.8,4-17.1c2.1-2.8,4.3-5.3,6.5-7.5c4.1-4.1,7.5-6.6,10.4-7.5c0.9-0.3,1.7-0.5,2.3-0.4c-0.1,1.4-0.8,3.4-2.1,6.2
				c-1.3,2.8-2.7,5.6-4.3,8.6c-1.6,3-3,6.2-4.4,9.6c-1.3,3.4-2.2,6.6-2.8,9.5c-0.5,2.9-0.3,5.5,0.8,8c1.1,2.4,3.1,4.2,6.2,5.3
				c0.3,0.2,0.5,0.4,0.8,0.6c1.1,0.7,2.6,0.7,4.4-0.1c1.4-0.7,3.1-1.9,5.1-3.5c3.2-2.8,7.2-7.2,12-13.1c1.4-1.6,2.8-3.4,4.3-5.3
				c2.4-3.1,5.7-7.4,9.9-13c0.6-0.9,1.2-1.6,1.8-2.3c-0.2,1.5-0.4,3-0.5,4.6c-0.2,3.7,0.2,6.9,1.1,9.6c0.9,2.7,2.5,4.6,4.6,5.8
				c4.9,2.6,11.9,0.2,21-7.3c0.5-0.4,1.6-1.4,3.2-2.8c0.1-0.1,0.4-0.4,0.8-0.7c0.4-0.3,0.7-0.7,1.1-1c0.4-0.3,0.6-0.5,0.7-0.5
				c1.1-1.1,2.2-2,3-2.7c4.3-3.8,8.2-7.3,11.8-10.4c-1.9,4.5-2.9,8.8-3,12.9c-0.1,3,0.7,4.9,2.2,5.9c1.6,1,3.7,0.6,6.3-1.1
				c1.4-1,4.2-4.1,8.3-9.2c3.9-5.1,6.5-8.8,7.8-11.2c0.2-0.4,0.4-0.8,0.6-1.2c-0.4,1.2-0.8,2.4-1.1,3.5c-0.8,2.4-1.6,4.7-2.2,6.8
				c-2.2,7-3.5,12.7-4,16.9c-0.7,5.7,0,9.2,2.3,10.6c1.7,1,4.2,0.5,7.4-1.6c2.6-1.8,5.6-4.4,9-8c3.2-3.4,6.2-7.2,9.1-11.2
				c2.9-4,5.1-7.6,6.7-10.8C279.8,262.8,279.6,262.4,279,262.1z M197.6,251.8c2.8-4,5.7-6.3,8.8-6.9c1.4,0.6,2.1,1.6,1.9,3
				c-0.2,2-1.7,4.5-4.4,7.5c-3.5,4-7.6,7.3-12.3,9.9C192.8,260.4,194.8,255.9,197.6,251.8z M154.6,214.5c0.1,0.7,0.2,1.3,0.2,1.7
				c-1,10.7-5.4,19.7-13.2,27C147.4,227.2,151.7,217.6,154.6,214.5z M249.8,257.5c-1.2,2.2-3.6,5.6-7.1,10.1c-3.5,4.5-6.1,7.5-7.8,9
				c-0.4-1.1-0.3-3.2,0.3-6.1c0.6-2.9,1.6-6,2.9-9.2c1.3-3.2,3.1-6.2,5.2-8.8c2.2-2.7,4.4-4.3,6.7-4.8
				C250.5,250,250.5,253.2,249.8,257.5z"/>
			<path class="st17" d="M397.2,229.4c-0.7-3.7-2.6-6.3-5.7-8c-2.6-1.5-6.3-2.3-10.8-2.3c-3.9-0.1-8.6,0.4-14.2,1.3
				c-4.1,0.7-9.4,1.8-15.9,3.2c-1.1,0.3-2.5,0.6-4.2,1c-0.7,0.2-1.4,0.4-1.9,0.5c0.2-0.4,0.4-0.8,0.6-1.1c2.8-5.6,4.1-9.5,3.9-11.7
				c-0.1-0.8-0.3-1.4-0.8-1.9c-0.5-0.4-1.1-0.6-1.8-0.5c-1.2,0.2-2.7,1.1-4.7,2.7c-2.4,2-5.8,7.1-10.1,15.3c-0.2,0-0.4,0-0.7,0.1
				c-5.5,1.1-9.9,1.8-13.3,1.9c-3.9,0.2-6.8-0.2-8.6-1.1c-1.9-1-2.8-2.7-2.6-5.2c0-0.7-0.3-1-1-1.1c-0.7,0-1,0.3-1,1
				c-0.2,3.3,1,5.6,3.7,7c2.2,1.1,5.5,1.6,9.7,1.4c3.3-0.1,7.5-0.7,12.7-1.8c-3.9,7.6-7.4,15.6-10.5,23.8c-0.8,2.2-1.6,4.3-2.3,6.3
				c-1.7,1.2-3.6,3.8-5.7,7.9c-1.3,2.4-3.4,6.9-6.3,13.6c-0.9,2.2-1.7,3.9-2.3,5.3c-2.2,4.7-4,8.3-5.6,10.7c-1.8,3-3.4,4.7-4.7,5.1
				c-1.3,0.3-2.4-0.3-3.4-1.8c-0.8-1.2-1.5-2.8-1.9-4.9c-0.7-2.4-0.8-5.2-0.5-8.4c0.3-3.7,1.3-8.1,2.9-13.1c0.3-1,0.7-2.2,1.2-3.4
				l1.1-2.9c0.7-2.1,1-3.4,0.9-4c-0.1-0.5-0.6-1-1.4-1.5c-0.5-0.3-1.4-0.7-2.4-1.3c-0.2-0.1-0.5-0.3-0.8-0.4l-0.8-0.4
				c-0.6-0.4-1.1-0.7-1.6-0.9c-1.4-0.7-2.7-1.5-3.8-2.1c-0.6-0.3-1.2-0.7-1.7-1c1.4-4.7,1.6-8.8,0.8-12.2c-0.7-3.4-2.3-5.5-4.7-6.4
				c-1.1-0.5-2.1-0.5-3.2-0.2c-1,0.4-1.9,1.1-2.5,2.1c-0.3,0.4-0.5,0.9-0.7,1.4c-1.1,2.4-1.4,5-0.7,7.8c0.7,2.7,2.2,5.5,4.5,8.2
				c2.9,3.4,6.4,6,10.5,7.8c-1.6,2.5-2.9,5.7-4.1,9.6c-1.1,3.9-1.8,7.8-2,11.6c-0.2,5.4,0.6,9.7,2.3,13c2.2,3.9,5.7,5.8,10.5,5.8
				c0.2,0,0.4,0,0.5-0.1c0.5,0,0.9-0.1,1.4-0.2c1.8-0.5,3.8-2.5,5.9-5.9c1.6-2.5,3.4-6.2,5.7-11.1c0.6-1.3,1.4-3,2.3-5.3
				c2.9-6.6,5-11.1,6.3-13.5c0.8-1.6,1.6-2.9,2.3-4c-1.7,5.6-2.9,10.5-3.5,14.7c-0.6,3.9-0.6,7-0.1,9.4c0.5,2.8,1.8,4.7,3.9,5.5
				c1.1,0.4,2.5,0.4,4-0.1c0.3-0.1,0.8-0.3,1.5-0.6c0.2-0.1,0.4-0.1,0.5-0.2c2.2-0.9,5.3-3.1,9.3-6.6c1.2-1.1,3-2.7,5.5-5
				c2.7-2.6,4.7-4.4,6-5.6c5.1-4.6,9.6-8.1,13.5-10.6c0.5-0.4,0.6-0.9,0.3-1.4c-0.3-0.5-0.8-0.6-1.4-0.3c-3.9,2.6-8.5,6.2-13.7,10.8
				c-1.3,1.1-3.3,3-6,5.6c-2.4,2.2-4.3,3.9-5.5,5c-3.4,3-6.1,5-8,5.9c-1.8-2.4-2.1-6.8-1.1-13.2s3.3-14.3,6.8-23.5
				c1.1-3,2.4-6.1,3.6-9.2c4.6-6.1,8.6-12.3,11.9-18.4c0.9-0.2,2.2-0.5,3.6-0.8c1.6-0.4,3-0.7,4.2-1c6.4-1.5,11.7-2.6,15.7-3.2
				c5.5-0.9,10.1-1.4,13.8-1.3c8.7,0.1,13.6,3,14.6,8.6c0.1,0.7,0.5,0.9,1.2,0.8C397.1,230.4,397.3,230,397.2,229.4z M270.5,248.3
				c-0.1-0.1-0.1-0.3-0.1-0.4l0.1,0.2C270.5,248.2,270.5,248.3,270.5,248.3z M278.9,255.6c-3.4-2.4-5.5-4.7-6.2-6.9
				c-0.8-2.6-0.9-4.7-0.4-6.3c0.2-0.4,0.4-0.7,0.6-1c0.1-0.2,0.1-0.4,0.2-0.5c0.8-0.9,1.8-1.2,2.9-0.8c1.7,0.7,2.8,2.3,3.4,5
				C280.2,248,280,251.5,278.9,255.6z M336.6,234.9c1.1-2.4,2.3-4.6,3.4-6.6c0.1-0.1,0.3-0.1,0.6-0.2
				C339.3,230.3,338,232.6,336.6,234.9z M343.3,223.1c-0.5,0.8-0.9,1.7-1.4,2.6h-0.2c-0.1,0.1-0.2,0.1-0.3,0.1c1-1.8,2-3.3,2.8-4.8
				C343.9,221.7,343.6,222.4,343.3,223.1z"/>
		</g>
	</g>
	<g>
		<path class="st15" d="M175.6,306.8c-4.2-3.3-8.7,3.4-6.7,8.7c-2.2-2.1-8.5-3.9-10.6-1.3c-2.3,2.9,1.1,6.1,3.3,8.1
			c4.5,3.9,11.3,6.6,16.9,6.1c0.5,0.6,0.2-6.3,0.1-8.7C178.6,315.2,179.1,309.6,175.6,306.8z"/>
		<path class="st15" d="M258.7,307.2c4.2-3.3,8.7,3.4,6.7,8.7c2.2-2.1,8.5-3.9,10.6-1.3c2.3,2.9-1.1,6.1-3.3,8.1
			c-4.5,3.9-11.3,6.6-16.9,6.1c-0.5,0.6-0.2-6.3-0.1-8.7C255.7,315.6,255.2,310,258.7,307.2z"/>
		<path class="st15" d="M235.7,298.3c-6-3.4-16.7,5.2-19.3,10.9c-0.2-11.8-14.3-21.2-19.7-11.5c-4.6,8.2,0.9,18.5,4.1,26.9
			c1.8,4.7,6.7,18.2,7.1,16.7c11.2-3.4,21.9-13.9,27.6-24.9C238.4,311,242.3,302.1,235.7,298.3z"/>
	</g>
	<g>
		<path class="st18" d="M327.7,98.1c-1.2-0.4-2.5-0.5-3.5-0.4c-2.9,0.1-4.3,2.2-5,4.7c-0.4,1.4-0.1,3,0.3,4.5
			c0.2,0.7,1.2,2.9-0.2,2.5c-0.7-0.2-1.6-1.3-2.2-1.8c-0.9-0.7-1.3-1.1-1.7-1.4c-0.4-0.3-0.6-0.6-1-0.9c-0.3-0.3-0.7-0.7-1.3-1.2
			c-1.2-0.8-1.2-0.8-2-1.4c-0.1-0.1-0.3-0.2-0.4-0.3c-0.6-0.4-1.1-0.8-1.7-1.1c-0.3-0.2-0.6-0.3-0.9-0.5c-0.5-0.3-1-0.6-1.4-1.1
			c-0.4-0.5-0.8-1-1.2-1.6c-1.1-1.6-1.9-3.2-3.3-4.4c-2.1-1.8-4.5-3.1-7.3-3.2c-0.8,0.1-3.2,0.1-5.2,0.7c-2,0.6-3.6,1.7-2.8,3.8
			c0.2,0.4,1.7,1.8,3.2,3.2c1.5,1.4,3.1,2.8,3.8,3.3c2.3,1.5,4.3,2.2,7.8,2.1c1-0.1,2-0.3,2.9-0.4c0.5-0.1,1-0.2,1.5-0.2
			c0.5,0,0.9,0,1.4,0.1c0.3,0,0.5,0.2,0.7,0.3c0.3,0.1,0.5,0.3,0.8,0.4c0.5,0.3,1.1,0.5,1.5,0.9c1.5,1,2.9,2.2,4.2,3.3
			c1.1,1,2.2,2.1,3.1,3c0.4,0.5,0.8,0.9,1.2,1.3c0.3,0.4,0.6,0.7,0.8,1c-0.4-0.2-0.7-0.4-1.1-0.6c-0.5-0.2-1.1-0.4-2.3-0.7
			c-0.7-0.2-2.5-0.4-4.4-0.3c-1.9,0.1-4.2,0.6-6.1,1.5c0.3-0.5,0.2-1.1-0.1-1.4c-0.6-0.6-1.2-0.8-1.7-0.7c-0.5,0.1-1,0.5-1.4,0.9
			c-0.4,0.5-0.6,1-0.7,1.5c-0.1,0.5,0,1,0.3,1.2c0.1,0.1,0.2,0.2,0.4,0.2c-0.7,0.1-1.3,0.1-1.7,0.7c-0.4,0.5-0.7,0.9-0.7,1.3
			c-0.2,0.7,0.2,1,1,1.5c0.5,0.3,1,0.8,1.7,0.8c0.7-0.1,1.3-0.5,1.8-1.1c0.9-1.1,1.1-1.9,0.2-2.8c0.3-0.2,0.7-0.5,1.2-0.8
			c1.2-0.7,3.9-1.7,4.6-1.9c1-0.3,2.1-0.4,3.2-0.4c1.1,0,2.1,0.2,3.1,0.5c1,0.3,1.9,0.7,2.6,1.1c0.7,0.4,1.3,0.8,1.7,1.2
			c0.4,0.4,1.4,2.1,0.9,2.5c-0.4,0.4-1.6-0.1-2-0.1c-1.3,0-2.6-0.1-3.9,0.1c-0.5,0.1-1,0.2-1.5,0.3c-0.5,0.1-1,0.1-1.5,0.2
			c-1.3,0.2-2.8,0.6-5.5,3.2c-0.8,0.7-2,1.8-2.7,2.9c-0.7,1-1,2,0.1,2.3c1.3,0.5,3.5,0.5,5.2,0.6c2.3,0,4.4,0,6.5-0.3
			c2.1-0.4,4.2-1,6.2-2.3c0.7-0.5,1.7-1.3,2.7-1.1c1.2,0.3,1.8,2.9,2.1,4c1.2,3.6,1.5,5.5,1.7,6.6c0.3,1.2,0.4,1.6,0.5,2.4
			c0.2,0.7,0.7,2.6,0,3.1c-0.4,0.3-1.3-1-1.7-1.4c-1-0.9-2-1.6-3.2-2.1c-1.2-0.5-2.3-0.9-3.6-1.1c-2.5-0.4-5.1-0.2-7.7,0.3
			c-0.2-0.2-0.5-0.3-0.9-0.3c-0.6-0.1-1.2-0.1-1.8,0.2c-0.4,0.3-1.2,0.7-1.3,1.1c-0.2,0.5-0.1,1.2,0.1,1.6c0.3,1.1,2.4,0.8,3.9-0.3
			c0.3-0.3,0.7-0.6,0.7-0.9c4.7-1.4,7.1-0.6,8.5-0.3c1.8,0.3,3.5,1.2,5.1,2.6c1.4,1.4,2.6,3.2,2.8,5.3c0.1,0.7,0.3,3-1,2.9
			c-0.6-0.1-1-1.1-1.4-1.4c-1.4-1.5-2.4-2.3-3.1-2.7c-0.8-0.5-1.3-0.6-1.8-0.8c-0.6-0.2-1.6-0.3-2.1-0.3c-1.1,0.1-3.6,0.2-5.3,0.6
			c-0.9,0.2-1.6,0.5-1.8,0.9c-0.3,0.4-0.1,0.9,0.6,1.7c1.6,1.6,2.3,2.9,4.3,4.5l0.2,0.2c1.2,1,2.6,2.1,4.1,2.9
			c1.5,0.8,3.1,1.4,4.8,1.4c0.7,0,1.5-0.1,2,0.4c0.7,0.7,0.4,2.1,0.4,2.9c-0.1,1.3-0.1,2.7-0.2,4.1c-0.1,1.4-0.2,2.7-0.4,3.7
			c-0.7-1.1-1.5-2.3-2.3-3.3c-0.8-1-1.7-2-2.6-2.9c-1.9-1.7-3.8-2.8-5.9-3c0-0.1,0.1-0.1,0.1-0.2c0.1-0.3,0.2-0.7-0.2-0.9
			c-0.5-0.3-1.2-0.6-1.8-0.6c-0.6,0-1.2,0.1-1.7,0.2c-0.6,0.2-0.7,0.5-0.9,1c-0.1,0.3-0.2,0.6,0,0.9c0.4,0.4,1.1,0.7,1.7,0.8
			l0.1,0.1c-0.4,0.1-0.7,0.2-0.8,0.6c-0.1,0.4-0.1,0.7-0.1,1.1c0,0.3,0.3,0.5,0.5,0.7c0.3,0.2,1.3,0.3,2.2-0.4
			c0.2-0.1,0.5-0.3,0.5-0.5c0.1-0.3,0.2-0.9,0.3-1.3c1.4,0.1,2.9,0.8,4.3,1.7c1.4,0.9,2.6,2.1,3.5,3.2c0.4,0.5,1,1,1.5,1.6
			c0.5,0.6,0.9,1.2,1.1,1.9c0.1,0.5,0.2,2.3-0.5,2.5c-0.3,0.1-1-0.9-1.3-1.1c-1.9-1.4-5.4-2.2-10.6-1.4c-1.5,0.2-5.9,0.2-6.6,1.5
			c-0.6,1.1,1.7,3.3,2.6,4c0.2,0.2,1,1,1.1,1.1c1.5,1.1,0.9,0.6,2,1.3c0.5,0.3,0.6,0.4,1.4,0.6c1.9,0.6,3.9,1.1,6,1.2
			c1,0,1.9,0.1,2.8-0.2c2.1-0.5,1.3,1.9,1,3.1c-0.3,0.9-0.5,1.8-0.7,2.6c-0.3,0.8-0.5,1.6-0.8,2.4c-0.3,0.8-0.5,1.7-0.9,2.6
			c-0.3,1-0.7,2-1.2,3.3c-0.1,0.3-1.1,3.9-1.6,3.4c-0.2-0.2,0.2-2.3,0.2-2.7c0-1.8-0.1-3.6-0.7-5.3c-0.7-1.5-3.6-4.8-7.4-6.7
			c-0.2-0.8-0.1-0.6-0.5-1.1c-0.5-0.6-1.1-0.9-1.9-1.1c-0.4-0.1-0.7-0.2-1.1,0c-1.1,0.4-1,0.5-1.4,1.2c-0.1,0.2-0.3,0.4-0.4,0.7
			c-0.2,0.7-0.3,1.6,0.5,2.1c0.5,0.3,1.3,0.5,1.9,0.5c0.5,0,1.6,0,2-0.2c0.1,0,0.2-0.1,0.3-0.2c2,0.8,3.8,2,5.5,3.3
			c1.5,1.4,2,2,2.4,4.3c0.3,1.9,0.1,3.8-0.2,5.7c-0.1,0.6-0.1,2-0.6,2.4c-0.7,0.5-0.8-0.8-0.9-1.2c-0.6-1.9-1.7-3.7-2.9-5.3
			c-1.8-2.5-4.2-3.9-6.9-5.4c-0.8-0.5-3.1-2.1-4.1-1.7c-0.7,0.3-0.7,1.2-0.7,2.2c0.1,1,0.4,2.1,0.4,2.6c0.2,1.3,0.3,2.4,0.4,3.3
			c0.2,0.9,0.3,1.6,0.6,2.3c0.5,1.4,1.4,2.5,2.7,4.4c1.1,1.6,2.5,3.3,4.4,4.1c1.2,0.5,4.1,0.1,4.3,1.9c0.1,1-0.9,2.4-1.3,3.3
			l-1.6,3.2c-0.5,1.1-1.1,2.1-1.7,3.2l-0.9,1.7c-0.2,0.4-0.1,0.8,0.3,1c0.4,0.2,0.8,0.1,1-0.3c0,0,0.4-0.8,1.2-2.4
			c0.8-1.5,2-3.8,3.4-6.7c1-2,1.2-3.6,4.4-5.6c0.8-0.5,1.4-0.4,2.4-0.5c4.7-0.2,11.6-0.8,16.5-6.7c1.6-1.8,0.6-3.6-1-4.8
			c-1.6-1.2-3.8-2-5-2.2c-2-0.3-4,0.2-5.6,1.5c-0.7,0.5-1.3,1.2-1.9,1.8c-0.4,0.4-1.4,1.9-1.9,0.9c-0.2-0.4,0.1-0.8,0.2-1.2
			c1.4-2.7,2.5-4.6,3.7-5.9c1.2-1.3,2.2-2.1,3.4-2.5c2.3-0.9,4.6-0.4,7.3-0.8c0.1,0.4,0.2,0.8,0.5,1c0.5,0.4,1.5,0.7,2.1,0.5
			c1.5-0.3,3-2.6,2.2-4.1c-0.7-1.5-2-2.1-3.5-1.8c-0.5,0.1-0.7,0.2-0.9,0.8c-0.1,0.3-0.3,0.7-0.4,1c-1.3,0.5-2.5,1-3.8,1.4
			c-1.6,0.5-3,0.8-4.3,1.4c-1.3,0.7-2.5,1.7-3.8,3.4c-0.4,0.5-0.8,1.5-1.3,1.9c-0.1,0-0.1-0.9-0.1-1c0.1-0.5,0.3-1,0.5-1.4
			c1.8-5.8,1.9-6.3,2.9-12.2c0.2-1.1,0.2-2.4,0.7-3.4c0.7-1.5,2.9,0.6,4,1c1.2,0.3,3.1,0.2,5.1-0.4c2-0.6,4.2-1.7,5.8-3.3
			c1.6-1.6,2.2-3.1,1.9-4.4c-0.3-1.3-1.5-2.2-3.5-2.6c-0.7-0.2-1.3-0.2-2-0.6c-0.7-0.4-1.4-0.7-2.2-0.7c-2.9,0-5.6,1.3-7.1,2.6
			c-0.4,0.4-0.9,1.3-1.5,0.6c-0.4-0.5-0.2-1.6-0.1-2.2c0.1-0.3,0-6.1-0.2-10.6c0-0.6-0.1-1.5-0.1-2.4c0-0.9,0-1.8,0.3-2.3
			c0.6-1,3.1-0.7,4.1-0.9c1.8-0.5,3.5-1.9,4.8-3.4c0.5-0.7,0.1-0.1,0.4-0.5c0,0,0-0.1,0.1-0.1c0.6-1,1.6-3,2.2-5
			c0.3-1,0.4-2.1,0.4-3.1c0-1-0.2-1.9-0.7-2.6c-1-1.4-3.6-0.3-4.8-0.2c-2.5,0.1-4.4,1.1-6.1,3c-0.3,0.3-0.6,1-0.9,1.5
			c-0.3,0.5-0.7,0.8-1.1,0.3c-0.3-0.4-0.3-1.2-0.4-1.6c-0.4-2.4-1.2-5.4-0.3-7.4c0.5-1.2,1.5-2,2.6-2.7c1.1-0.8,2.2-1.5,3-2.7
			c0.4,0.2,1,0.3,1.4,0.3c0.7,0.1,1.2-0.1,1.6-0.7c0.7-1,0.4-2.4-0.3-3.7c-0.7-1.2-1.6-1.1-2.3-0.6c-0.3,0.2-0.4,0.3-0.5,0.5
			c-0.2-0.1-0.5-0.1-0.7-0.1c0,0,0-0.1-0.1-0.1c-0.2-0.5-0.6-0.8-0.9-1.2c-0.3-0.4-0.6-0.9-1-0.8c-0.4,0.1-1,0.5-1.3,0.8
			c-0.5,0.6-0.8,1.9-0.2,2.8c0.3,0.5,0.8,0.9,1.2,1.3c0.3,0.3,0.7,0.4,1.1,0.6c-0.6,1.4-2,2.5-3,4c-0.5,0.7-1,1.6-1.3,2.6
			c-0.3,1-0.4,2.1-0.3,3.6c0-0.7-0.3-1.4-0.7-2.1c-0.4-0.7-0.8-1.5-1.1-2.1c-0.6-1.1-1-1.9-1.5-2.7c-0.5-0.8-1-1.5-1.6-2.4
			c-1.4-1.9-0.6-3.2,0.7-4.5c1.3-1.3,3.1-2.5,3.6-4c0.2-0.5,0.5-3.9,0.5-4.4c0-0.8,0-1.7,0-2.5c0-0.7-0.2-1.3-0.6-1.8
			C328.9,98.6,328.3,98.3,327.7,98.1z"/>
		<path class="st18" d="M110.9,189.8c1.2-0.1,2.6,0.1,3.5,0.4c2.8,0.8,3.7,3,3.8,5.6c0,1.5-0.6,3-1.2,4.3c-0.4,0.7-1.8,2.6-0.3,2.5
			c0.8-0.1,1.8-0.9,2.5-1.3c1-0.5,1.5-0.8,2-1c0.4-0.2,0.7-0.4,1.2-0.7c0.4-0.2,0.8-0.5,1.6-0.9c1.3-0.6,1.3-0.6,2.2-1
			c0.2-0.1,0.3-0.1,0.5-0.2c0.6-0.2,1.2-0.5,1.9-0.7c0.3-0.1,0.7-0.1,1-0.2c0.6-0.2,1.1-0.4,1.6-0.8c0.5-0.4,1-0.8,1.5-1.3
			c1.4-1.3,2.6-2.7,4.1-3.6c2.4-1.3,5.1-2.1,7.8-1.6c0.8,0.2,3.1,0.8,4.9,1.8c1.8,1,3.1,2.4,1.9,4.4c-0.3,0.4-2,1.4-3.8,2.4
			c-1.8,1-3.7,2.1-4.4,2.4c-2.6,1-4.7,1.3-8,0.4c-1-0.3-1.9-0.7-2.8-1.1c-0.5-0.2-0.9-0.4-1.4-0.5c-0.5-0.1-0.9-0.2-1.4-0.2
			c-0.3,0-0.5,0.1-0.8,0.2c-0.3,0.1-0.6,0.2-0.9,0.2c-0.6,0.2-1.1,0.3-1.7,0.5c-1.7,0.7-3.3,1.5-4.8,2.4c-1.3,0.8-2.6,1.5-3.7,2.3
			c-0.5,0.4-1,0.7-1.4,1c-0.4,0.3-0.7,0.6-1,0.8c0.5-0.1,0.8-0.2,1.2-0.3c0.5-0.1,1.2-0.2,2.4-0.2c0.8-0.1,2.5,0.1,4.4,0.6
			c1.9,0.5,4,1.5,5.6,2.7c-0.2-0.5,0.1-1.1,0.4-1.4c0.7-0.5,1.3-0.5,1.8-0.3c0.5,0.2,0.9,0.7,1.1,1.2c0.3,0.5,0.4,1.1,0.3,1.6
			c0,0.5-0.2,1-0.5,1.1c-0.1,0.1-0.3,0.1-0.4,0.2c0.6,0.2,1.2,0.4,1.6,1.1c0.3,0.6,0.4,1.1,0.4,1.4c0,0.7-0.5,1-1.3,1.3
			c-0.5,0.2-1.1,0.6-1.8,0.4c-0.6-0.2-1.2-0.8-1.5-1.5c-0.6-1.3-0.6-2.1,0.3-2.7c-0.3-0.3-0.6-0.6-1-1c-1-1-3.4-2.5-4.1-2.9
			c-0.9-0.5-2-0.8-3-1c-1.1-0.2-2.1-0.2-3.1-0.2c-1,0-1.9,0.2-2.7,0.5c-0.8,0.2-1.5,0.5-1.9,0.8c-0.5,0.3-1.8,1.7-1.5,2.3
			c0.3,0.4,1.6,0.2,2,0.3c1.3,0.2,2.5,0.4,3.8,0.9c0.5,0.2,0.9,0.4,1.4,0.6c0.5,0.2,1,0.3,1.4,0.5c1.2,0.5,2.6,1.1,4.7,4.3
			c0.6,0.9,1.6,2.2,2,3.4c0.5,1.2,0.5,2.1-0.6,2.3c-1.4,0.2-3.5-0.2-5.2-0.6c-2.2-0.5-4.3-0.9-6.3-1.7c-2-0.8-3.9-1.9-5.6-3.6
			c-0.6-0.6-1.4-1.7-2.4-1.7c-1.3,0-2.4,2.5-2.9,3.5c-1.9,3.2-2.6,5-3.1,6.1c-0.5,1.1-0.7,1.5-1,2.2c-0.3,0.7-1.3,2.4-0.7,3.1
			c0.3,0.4,1.5-0.7,2-1c1.2-0.6,2.3-1.1,3.6-1.4c1.2-0.3,2.5-0.4,3.7-0.3c2.5,0.1,5,0.9,7.5,1.9c0.2-0.1,0.5-0.1,0.9-0.1
			c0.6,0,1.2,0.1,1.7,0.6c0.3,0.3,1,0.9,1.1,1.3c0.1,0.5-0.2,1.2-0.4,1.5c-0.6,1-2.6,0.3-3.8-1.1c-0.3-0.3-0.6-0.7-0.5-1.1
			c-4.3-2.3-6.8-2.1-8.2-2.1c-1.8-0.1-3.7,0.4-5.5,1.4c-1.7,1-3.2,2.6-3.9,4.6c-0.3,0.7-0.9,2.8,0.3,3c0.6,0.1,1.2-0.8,1.6-1.1
			c1.7-1.2,2.8-1.7,3.6-2c0.8-0.3,1.4-0.3,2-0.4c0.6-0.1,1.6,0,2.1,0.2c1.1,0.4,3.4,0.9,5,1.7c0.8,0.4,1.4,0.8,1.6,1.3
			c0.2,0.5-0.1,1-1,1.6c-1.9,1.2-2.8,2.3-5.2,3.5l-0.3,0.2c-1.4,0.8-3,1.5-4.7,1.9c-1.6,0.5-3.4,0.7-5,0.3c-0.7-0.1-1.4-0.4-2.1-0.1
			c-0.8,0.5-0.9,1.9-1,2.8c-0.2,1.3-0.5,2.7-0.6,4c-0.2,1.4-0.4,2.7-0.4,3.7c0.9-1,1.9-1.9,3-2.7c1-0.8,2-1.6,3.1-2.2
			c2.2-1.2,4.3-1.9,6.4-1.7c0-0.1-0.1-0.2-0.1-0.3c-0.1-0.3,0-0.7,0.3-0.8c0.6-0.2,1.3-0.3,1.9-0.2c0.6,0.1,1.1,0.3,1.6,0.6
			c0.5,0.3,0.6,0.6,0.7,1.1c0.1,0.3,0.1,0.6-0.2,0.8c-0.4,0.3-1.3,0.4-1.9,0.4l-0.1,0.1c0.3,0.2,0.6,0.4,0.6,0.7
			c0,0.4,0,0.7-0.2,1.1c-0.1,0.3-0.4,0.4-0.7,0.5c-0.3,0.2-1.3,0-2-0.8c-0.2-0.2-0.4-0.4-0.4-0.6c0-0.4-0.1-0.9,0-1.3
			c-1.4-0.2-3,0.2-4.6,0.8c-1.5,0.6-2.9,1.5-4.1,2.3c-0.5,0.4-1.2,0.8-1.8,1.3c-0.6,0.5-1.1,1-1.4,1.6c-0.2,0.4-0.7,2.2-0.1,2.5
			c0.3,0.1,1.2-0.6,1.5-0.8c2.1-0.9,5.7-1,10.6,0.8c1.4,0.5,5.7,1.5,6.1,2.8c0.3,1.2-2.4,2.8-3.4,3.4c-0.2,0.1-1.2,0.8-1.3,0.8
			c-1.7,0.8-1,0.4-2.2,0.9c-0.5,0.2-0.6,0.2-1.5,0.3c-2,0.2-4.1,0.3-6.1-0.1c-0.9-0.2-1.9-0.3-2.7-0.8c-2-1-1.7,1.6-1.6,2.8
			c0.1,1,0.1,1.8,0.2,2.7c0.1,0.8,0.2,1.6,0.2,2.5c0.1,0.8,0.2,1.7,0.3,2.7c0.1,1,0.3,2.1,0.4,3.4c0,0.4,0.2,4.1,0.9,3.7
			c0.3-0.2,0.3-2.3,0.4-2.7c0.3-1.7,0.8-3.5,1.8-5c1-1.4,4.6-3.9,8.6-5c0.3-0.8,0.2-0.5,0.7-0.9c0.6-0.5,1.2-0.6,2.1-0.7
			c0.4,0,0.7,0,1,0.2c1,0.6,0.8,0.7,1.1,1.5c0.1,0.2,0.2,0.5,0.2,0.7c0.1,0.7,0,1.7-0.9,2c-0.6,0.2-1.4,0.2-2,0.1
			c-0.4-0.1-1.5-0.4-1.9-0.7c-0.1-0.1-0.2-0.1-0.2-0.2c-2.2,0.3-4.1,1.1-6,2.1c-1.8,1.1-2.3,1.5-3.2,3.7c-0.7,1.8-0.9,3.7-1,5.6
			c0,0.6-0.4,2,0,2.5c0.5,0.7,0.9-0.6,1.1-0.9c1-1.8,2.5-3.3,4-4.6c2.3-2.1,4.9-2.9,7.9-3.8c0.9-0.3,3.5-1.4,4.3-0.8
			c0.6,0.5,0.5,1.4,0.2,2.3c-0.3,1-0.8,1.9-1,2.5c-0.4,1.3-0.8,2.3-1.1,3.1c-0.3,0.8-0.7,1.5-1.1,2.1c-0.8,1.2-1.9,2.2-3.6,3.8
			c-1.4,1.3-3.2,2.7-5.2,3.1c-1.3,0.3-4-0.7-4.6,1c-0.3,1,0.3,2.6,0.6,3.5l0.9,3.5c0.3,1.2,0.6,2.3,1,3.5l0.5,1.8
			c0.1,0.4-0.1,0.8-0.5,0.9c-0.4,0.1-0.8-0.1-0.9-0.5c0,0-0.2-0.9-0.7-2.6c-0.5-1.7-1.1-4.1-1.9-7.3c-0.5-2.2-0.4-3.8-3.1-6.4
			c-0.7-0.7-1.3-0.7-2.2-1c-4.5-1.2-11.2-3.2-14.7-10c-1.1-2.1,0.2-3.6,2-4.5c1.8-0.9,4.2-1.1,5.4-1.1c2.1,0.2,3.8,1.1,5.2,2.7
			c0.6,0.7,1,1.4,1.5,2.2c0.3,0.5,0.9,2.2,1.6,1.3c0.3-0.4,0.1-0.8,0-1.3c-0.7-2.9-1.5-5.1-2.3-6.6c-0.9-1.5-1.7-2.5-2.8-3.2
			c-2-1.3-4.4-1.3-7-2.3c-0.2,0.4-0.4,0.7-0.7,0.9c-0.6,0.3-1.6,0.4-2.2,0.1c-1.4-0.6-2.4-3.2-1.3-4.5c1-1.3,2.4-1.6,3.8-1
			c0.5,0.2,0.7,0.4,0.7,1c0,0.3,0.1,0.7,0.1,1.1c1.1,0.8,2.2,1.5,3.4,2.2c1.5,0.8,2.8,1.4,3.9,2.3c1.1,0.9,2.1,2.1,3,4.1
			c0.3,0.6,0.4,1.6,0.9,2.1c0.1,0.1,0.3-0.8,0.3-0.9c0-0.5-0.1-1-0.1-1.5c-0.5-6.1-0.5-6.6-0.2-12.5c0.1-1.1,0.3-2.4,0.1-3.5
			c-0.4-1.6-3-0.1-4.2,0.1c-1.2,0.1-3.1-0.5-4.9-1.5c-1.8-1-3.8-2.6-5-4.5c-1.2-1.9-1.5-3.5-0.9-4.7c0.6-1.2,1.9-1.8,3.9-1.8
			c0.8,0,1.3,0.1,2.1-0.1c0.7-0.2,1.5-0.4,2.3-0.2c2.8,0.6,5.2,2.5,6.3,4.1c0.3,0.5,0.6,1.4,1.3,0.9c0.5-0.4,0.5-1.6,0.6-2.2
			c0-0.3,1.3-5.9,2.4-10.3c0.2-0.6,0.4-1.5,0.7-2.3c0.2-0.9,0.4-1.7,0.2-2.3c-0.3-1.1-2.9-1.3-3.8-1.8c-1.6-0.9-3-2.6-3.9-4.4
			c-0.4-0.8-0.1-0.1-0.3-0.6c0,0,0-0.1,0-0.1c-0.4-1.1-0.9-3.2-1-5.4c-0.1-1.1,0-2.2,0.2-3.1c0.2-1,0.6-1.8,1.2-2.4
			c1.2-1.1,3.6,0.5,4.7,0.8c2.5,0.6,4,2,5.4,4.2c0.2,0.4,0.3,1.1,0.5,1.7c0.2,0.6,0.5,0.9,1.1,0.5c0.4-0.3,0.6-1.1,0.8-1.5
			c0.9-2.2,2.3-5,1.9-7.2c-0.3-1.3-1-2.3-1.9-3.2c-0.9-1-1.8-1.9-2.4-3.3c-0.5,0.1-1.1,0-1.5,0c-0.7-0.1-1.2-0.4-1.4-1
			c-0.4-1.2,0.1-2.4,1.1-3.5c0.9-1,1.8-0.7,2.4-0.1c0.2,0.2,0.4,0.4,0.4,0.6c0.2,0,0.5,0,0.7,0.1c0,0,0-0.1,0.1-0.1
			c0.3-0.4,0.7-0.7,1.1-1c0.4-0.3,0.7-0.7,1.2-0.5c0.4,0.1,0.9,0.7,1.1,1.1c0.4,0.7,0.3,2-0.4,2.7c-0.4,0.4-0.9,0.8-1.5,1
			c-0.4,0.2-0.8,0.3-1.2,0.4c0.3,1.5,1.4,2.9,2.1,4.6c0.3,0.8,0.6,1.7,0.7,2.8c0.1,1-0.1,2.2-0.5,3.5c0.2-0.6,0.6-1.3,1.1-1.9
			c0.5-0.6,1-1.3,1.5-1.8c0.8-0.9,1.4-1.7,2-2.3c0.7-0.7,1.3-1.3,2.1-2c1.8-1.5,1.3-3,0.3-4.6c-1-1.5-2.5-3.1-2.6-4.7
			c-0.1-0.5,0.4-3.9,0.5-4.4c0.2-0.8,0.4-1.7,0.6-2.5c0.2-0.7,0.5-1.2,1-1.6C109.7,190.1,110.2,189.9,110.9,189.8z"/>
	</g>
</g>
</svg>
