<?xml version="1.0" encoding="utf-8"?>
<!-- Generator: Adobe Illustrator 22.0.1, SVG Export Plug-In . SVG Version: 6.00 Build 0)  -->
<svg version="1.1" id="Calque_1" xmlns="http://www.w3.org/2000/svg" xmlns:xlink="http://www.w3.org/1999/xlink" x="0px" y="0px"
	 viewBox="0 0 432 432" style="enable-background:new 0 0 432 432;" xml:space="preserve">
<style type="text/css">
	.st0{fill:#940808;}
	.st1{fill:#E56B6B;}
	.st2{fill:#1A1A1A;}
	.st3{fill:#DD5151;}
	.st4{fill:#6B313C;}
	.st5{fill:#B65165;}
	.st6{fill:#EB899F;}
	.st7{fill:#9C0000;}
	.st8{fill:#4D4D4D;}
	.st9{fill:#C4924B;}
	.st10{fill:#333333;}
	.st11{fill-rule:evenodd;clip-rule:evenodd;fill:#9C0000;}
	.st12{fill:#F68484;}
	.st13{fill:#AB1F1F;}
	.st14{fill:#A45F6F;}
	.st15{fill:#DEB0B0;}
	.st16{fill:#BA3434;}
	.st17{fill:#A57B7C;}
	.st18{fill:#F2F2F2;}
	.st19{fill:#EC1C24;}
	.st20{fill:#A54550;}
	.st21{fill:#FFFFFF;}
	.st22{fill:#AE5B65;}
	.st23{fill:#F5D3D1;}
	.st24{fill:#687A6E;}
	.st25{fill:#231F20;}
	.st26{fill-rule:evenodd;clip-rule:evenodd;fill:#333333;}
	.st27{fill:#F4E6E5;}
	.st28{fill:#EFBB75;}
	.st29{fill:#D8A160;}
	.st30{fill:#EFDDCA;}
	.st31{fill:#A55B6A;}
	.st32{fill:#92A182;}
	.st33{fill:#CCCCCC;}
	.st34{fill:#944E3C;}
	.st35{fill:#C1272D;}
	.st36{fill:#C67B32;}
	.st37{fill:#72696D;}
	.st38{fill:#E3A8A4;}
	.st39{fill:#9FC8C2;}
	.st40{fill:#8B8285;}
	.st41{fill:#71796C;}
	.st42{fill-rule:evenodd;clip-rule:evenodd;fill:#E9C8C3;}
	.st43{fill:#C06666;}
	.st44{fill:#96A4A5;}
	.st45{fill:#C53C3C;}
	.st46{fill:#EA6B74;}
	.st47{fill:#406D8F;}
	.st48{fill:#77A3C0;}
	.st49{fill:#F25850;}
	.st50{fill:#253245;}
	.st51{fill:#FFAA96;}
	.st52{fill:#E0C8A4;}
	.st53{fill:#39ABA9;}
	.st54{fill:#F6DE96;}
	.st55{fill:#F1D2CD;}
	.st56{fill:#E8C3C3;}
	.st57{fill:#AB2130;}
	.st58{fill:#982A3A;}
	.st59{fill:#E19F78;}
	.st60{fill:#FEDED2;}
	.st61{fill:#FFB0A1;}
	.st62{fill:#DB3434;}
	.st63{fill:#C76B6A;}
	.st64{fill:#E05E90;}
	.st65{fill:#CE9F5C;}
	.st66{fill:#FF8D71;}
	.st67{fill:#B75041;}
	.st68{fill:#FCE4B6;}
	.st69{fill:#B24A58;}
	.st70{fill:#3C0303;}
	.st71{fill:#8B1111;}
	.st72{fill:#B02121;}
	.st73{fill:#29285B;}
	.st74{fill:#E6E6E6;}
	.st75{fill:#D59D79;}
	.st76{fill:#F0C880;}
	.st77{fill:#B3B3B3;}
	.st78{fill:#C6C6C6;}
	.st79{fill:#A6A6A6;}
	.st80{fill:#603813;}
	.st81{fill:#BC2A34;}
	.st82{fill:#999966;}
	.st83{fill:#666633;}
	.st84{fill:#CC6666;}
	.st85{fill:#663333;}
	.st86{fill-rule:evenodd;clip-rule:evenodd;fill:#FEDED2;}
	.st87{fill:#534741;}
</style>
<g>
	<g>
		<g>
			<path d="M128.7,185.5c-0.3-0.3-0.5-0.5-0.7-0.7c-2.1-1.7-4.1-3.5-6.2-5.2c-3.6-2.9-7.2-5.8-10.7-8.8c-1.9-1.6-3.7-3.3-5.1-5.4
				c-1.3-1.9-2.4-3.9-2.9-6.1c-1.5-6.2,1.8-12.3,7.9-14.3c4.4-1.5,8.8-1.4,13.2,0.3c3.9,1.6,6.4,4.5,7.4,8.6
				c0.3,1.1,0.4,2.2,0.3,3.3c0,0,0,0.1,0,0.1c-0.1,0.6-0.3,0.9-0.6,0.9c-0.4,0-0.5-0.2-0.6-0.8c-0.3-2.2-1.2-4.2-2.6-6
				c-1.7-2-3.9-3.1-6.4-3.6c-3-0.5-5.7,0-8.3,1.6c-1.5,1-2.4,2.4-2.6,4.2c-0.1,0.9,0,1.8,0.3,2.6c0.6,2.3,1.8,4.2,3.5,5.9
				c1.6,1.5,3.2,2.9,4.9,4.3c3.9,3.2,7.8,6.3,11.7,9.5c1.8,1.5,3.4,3.2,5.1,4.8c0.2,0.2,0.4,0.3,0.6,0.5c0.1-0.1,0.3-0.1,0.4-0.2
				c3.5-2,6.8-4.2,9.8-6.9c1.1-1,2-2,3-3.1c0.2-0.2,0.3-0.5,0.4-0.8c0.4-1.9,0.8-3.8,1.3-5.6c0.3-1.1,0.7-2.1,1.2-3.1
				c0.2-0.5,0.6-1,1-1.4c1.2-1.2,2.9-1,3.8,0.4c0.5,0.8,0.8,1.6,0.8,2.5c0,1.7,0,3.5,0,5.2c-0.1,2.5-0.2,5-0.4,7.5
				c-0.2,2.4-0.3,4.9-0.2,7.3c0.2,5.2,0.9,10.4,2.6,15.4c0.7,1.9,1.4,3.8,2.5,5.5c0.4,0.6,0.9,1.2,1.4,1.8c1,1,1.9,1.1,3.2,0.5
				c1.7-0.9,3.2-2,4.3-3.6c1.4-2,2.6-4.2,3.7-6.5c0.1-0.3,0.2-0.6,0-0.9c-2.5-2.8-4.2-6-5.7-9.4c-2.1-4.6-3.5-9.3-4.5-14.2
				c-0.8-3.9-1.3-7.8-1.3-11.8c0.1-4.1,1-8.1,2.8-11.8c0.7-1.4,1.6-2.7,2.8-3.8c2.9-2.7,7.6-3.2,10.8,0.7c0.5,0.6,1,1.4,1.3,2.1
				c1.4,2.9,2.2,5.9,2.3,9.1c0.1,2.3,0.3,4.6,0.3,6.9c0.1,2.5-0.2,4.9-0.5,7.3c-0.5,3.8-1,7.7-1.6,11.5c-0.3,2-0.8,4-1.3,6
				c-0.1,0.4,0,0.7,0.2,1.1c1.3,1.6,2.8,2.9,4.5,4c1.5,1,3.5,0.9,5.1-0.3c0.9-0.7,1.7-1.6,2.4-2.5c1.4-2,2.8-4,3.8-6.2
				c1-2.3,2-4.6,3-6.9c0.1-0.3,0.1-0.5,0-0.7c-2.6-5.6-3.7-11.4-3.3-17.5c0.2-2.8,0.7-5.6,1.8-8.2c0.4-0.9,0.8-1.7,1.3-2.6
				c0.4-0.6,0.9-1.1,1.4-1.6c0.8-0.7,1.8-0.8,2.8-0.5c1.1,0.3,1.9,1,2.5,2c0.9,1.7,1.5,3.5,1.6,5.5c0.1,3.2-0.2,6.4-0.9,9.5
				c-0.6,2.6-1.2,5.3-1.8,7.9c-0.1,0.3-0.1,0.6,0.1,0.8c1,1.7,2.3,3.2,3.9,4.4c1.2,0.8,2.5,1.3,3.9,1.3c0.8,0,1.5-0.1,2.1-0.6
				c0.6-0.5,1.2-1,1.8-1.5c0.2-0.2,0.4-0.4,0.6-0.7c1.7-2.1,1.7-2.1,2.1-4.8c0.6-4.2,1.7-8.3,3.3-12.2c0.9-2.2,2.1-4.3,3.7-6.1
				c1.9-2.1,4.1-3.5,6.9-4c4.4-0.7,8.1,1.5,9.6,5.7c1.1,3.2,0.8,6.4-0.8,9.4c-1.9,3.6-4.9,6-8.6,7.3c-1.5,0.5-3,0.6-4.6,0.2
				c-0.3-0.1-0.5-0.1-0.9-0.2c-0.1,0.6-0.2,1.3-0.3,1.9c-0.5,3.9-0.9,7.9-0.8,11.8c0.1,4.1,0.5,8.2,1.9,12.2
				c0.5,1.6,1.2,3.2,2.3,4.5c0.5,0.6,1,1.1,1.5,1.6c0.6,0.5,1.3,0.7,2.1,0.6c1.3-0.2,2.5-0.7,3.6-1.5c1.5-1.2,2.8-2.6,3.9-4.1
				c1.3-1.8,2.4-3.8,3.7-5.6c0.3-0.4,0.4-0.9,0.4-1.4c0.6-6.7,2.3-13.1,5.8-18.9c1.4-2.3,3.2-4.2,5.4-5.7c1.7-1.1,3.5-1.9,5.5-2.3
				c3.3-0.5,6.1,0.5,8.3,3c1.5,1.7,2.3,3.7,2.2,6c0,1.1-0.3,2.2-0.8,3.3c-2.3,5.1-6.2,8.2-11.6,9.3c-1.6,0.3-3.2,0.3-4.9,0
				c-0.1,0-0.3-0.1-0.4-0.1c0,0-0.1,0-0.2,0.1c-0.2,0.9-0.4,1.8-0.5,2.8c-0.3,2.1-0.5,4.3-0.3,6.4c0.2,1.9,0.6,3.7,1.2,5.4
				c0.6,1.5,1.6,2.8,2.7,4c1.4,1.4,3.1,1.5,4.9,1.2c1.1-0.2,2.1-0.7,3-1.3c1.3-0.8,2.4-1.7,3.4-2.7c2.2-2.1,4.2-4.3,6.1-6.6
				c2.2-2.7,4.4-5.5,6.1-8.6c0.9-1.6,1.9-3.2,2.9-4.8c0.2-0.4,0.3-0.7,0.4-1.2c0.4-2.7,0.8-5.5,1.3-8.2c0.1-0.6,0-1-0.4-1.4
				c-3.6-3.7-6.9-7.8-10-11.9c-3.4-4.5-6.9-8.9-10.9-13c-6.3-6.4-12.9-12.3-20.3-17.4c-2.4-1.6-4.7-3.3-7.2-4.9
				c-4.5-2.7-9.2-4.9-14.2-6.4c-2.7-0.8-5.5-1.4-8.3-1.6c-3-0.2-5.9,0.2-8.6,1.2c-1.3,0.5-2.4,1.2-3.5,2c-3.2,2.7-4.6,6-3.7,10.2
				c0.2,1.1,0.6,2.2,1.1,3.2c0.3,0.6,0.7,1,1.2,1.4c1.1,0.9,2.3,1.5,3.8,1.7c1.2,0.2,1.5,1,1,2.1c-0.4,0.7-1,1.2-1.8,1.2
				c-2.8,0.2-5.4-0.6-7.3-2.8c-1.6-1.8-2.4-3.9-2.9-6.2c-1-5.2,0.6-9.5,4.2-13.3c3-3.2,6.8-4.9,11.2-5.5c4.1-0.6,8.2,0,12.2,1
				c7.1,1.9,13.7,4.9,19.9,8.7c7.4,4.5,14.3,9.8,20.8,15.5c5.9,5.2,11.3,10.9,16.1,17.1c2.8,3.6,6,7.1,9,10.5
				c0.1,0.1,0.2,0.2,0.4,0.3c0.1-0.4,0.2-0.7,0.2-1c1.5-6.6,3.2-13.2,5.4-19.7c0.5-1.5,1.1-2.9,1.6-4.4c0.4-0.9,0.9-1.7,1.6-2.4
				c0.5-0.5,1.1-1,1.8-1.2c1.3-0.4,2.7,0,3.5,1.1c0.4,0.6,0.7,1.3,0.7,2c0.2,1.6-0.1,3.1-0.5,4.6c-0.9,3.2-1.8,6.4-2.7,9.6
				c-1.7,5.9-3,11.9-4.3,17.9c0,0.1,0,0.3,0,0.4c0,0.1,0.1,0.1,0.1,0.2c2.1,1.6,4.2,3.1,6.7,4.1c2.2,0.9,4.6,1.5,7,1.4
				c3.8-0.1,7.3-1.3,10.2-3.8c2.3-2,3.6-4.5,4-7.5c0.3-2-0.1-3.9-1.4-5.5c-1.1-1.4-2.6-2.3-4.4-2.5c-0.3,0-0.6-0.1-0.9-0.2
				c-0.6-0.2-0.8-0.8-0.3-1.3c0.3-0.3,0.7-0.5,1.1-0.7c1.2-0.4,2.3-0.4,3.5-0.1c2.4,0.7,4.3,2,5.6,4.1c2,3.1,2.2,6.4,1.2,9.9
				c-1,3.4-3,6.2-5.8,8.3c-3.5,2.8-7.5,4.4-12,4.7c-4.6,0.3-9-0.8-13.1-2.9c-0.7-0.4-1.5-0.8-2.2-1.3c-0.2-0.1-0.4-0.2-0.6-0.3
				c-0.2,1-0.3,2-0.4,2.9c-0.6,4.5-1,9-1.3,13.5c-0.2,3.5-0.1,7,0.3,10.5c0.3,3,1,6,2.2,8.7c0.4,0.9,0.9,1.9,1.5,2.7
				c1.6,2,3.7,2.7,6.2,2.2c1.1-0.2,2.1-0.7,3-1.2c2.4-1.5,4.5-3.4,6.1-5.7c1.4-1.9,2.7-3.9,4-5.8c0.2-0.4,0.5-0.7,0.8-1.1
				c0.1-0.2,0.3-0.3,0.5-0.4c0.4-0.2,0.8-0.2,1.1,0.1c0.3,0.3,0.4,0.6,0.3,1c-0.1,0.2-0.2,0.5-0.3,0.7c-1.1,1.8-2.2,3.7-3.4,5.5
				c-1.7,2.8-3.6,5.3-5.9,7.7c-1.6,1.7-3.4,3.1-5.6,4c-4.9,2-9.2,1-13-2.5c-2.5-2.3-4-5.3-4.9-8.5c-0.7-2.3-1-4.7-1.3-7.2
				c-0.4-3.6-0.4-7.1-0.2-10.7c0.1-1.7,0.2-3.4,0.3-5.1c0-0.2,0-0.5,0.1-0.9c-0.2,0.2-0.3,0.3-0.3,0.4c-0.9,1.4-1.7,2.9-2.6,4.3
				c-3.2,5.1-6.8,9.9-11.1,14c-1.7,1.6-3.5,2.9-5.5,3.9c-3.4,1.6-6.9,1.9-10.5,0.4c-1.7-0.7-3.1-1.8-4.2-3.3c-1.7-2.4-2.8-5-3.4-7.9
				c-0.2-0.8-0.3-1.5-0.5-2.4c-0.1,0.2-0.2,0.3-0.3,0.4c-0.2,0.3-0.4,0.7-0.6,1c-1.5,2.9-3.5,5.5-5.9,7.8c-1.1,1.1-2.3,2-3.7,2.7
				c-3.4,1.5-6.6,1.3-9.7-0.9c-1.4-1-2.4-2.3-3.3-3.7c-1.5-2.5-2.4-5.2-3.1-8c-0.9-3.4-1.2-6.9-1.4-10.4c-0.1-2.7-0.1-5.4,0.1-8
				c0-0.2,0-0.4,0-0.8c-0.2,0.2-0.3,0.3-0.4,0.5c-1,1.2-2.1,2.3-3.4,3.3c-1.6,1.2-3.3,2-5.3,2.2c-2.6,0.2-4.8-0.5-6.8-2.1
				c-0.2-0.1-0.4-0.3-0.5-0.4c0,0,0,0-0.1-0.1c-0.1,0.2-0.2,0.4-0.3,0.6c-2.1,4.6-4.6,8.9-7.6,12.9c-1,1.3-2.1,2.5-3.2,3.7
				c-2.8,2.9-6.1,3.6-9.9,2.4c-1-0.3-2-0.8-2.9-1.4c-0.2-0.1-0.4-0.2-0.6-0.4c-0.2,0.4-0.3,0.8-0.5,1.2c-0.9,2.4-2,4.7-3.3,6.8
				c-1.1,1.8-2.4,3.4-4,4.8c-2.9,2.5-6.1,2.8-9.6,1.3c-2.2-1-3.8-2.6-5.2-4.6c-2-2.8-3.3-6-4.1-9.4c-1.2-4.7-1.8-9.5-2-14.3
				c-0.1-3.5,0.1-7,0.6-10.5c0-0.1,0-0.2,0-0.4c-3.6,3.8-7.9,6.7-12.2,9.6c0.1,0.2,0.2,0.3,0.4,0.5c2.6,3.1,4.8,6.4,6.6,10.1
				c2.7,5.8,3.1,11.7,1.5,17.8c-0.7,2.8-1.9,5.5-3.5,8c-2.4,3.8-5.7,6.4-9.8,8.2c-0.8,0.3-1.5,0.6-2.3,0.9c-2,0.7-4,1-6.1,0.8
				c-2.5-0.3-5-0.7-7.4-1.8c-1.8-0.9-3.6-1.9-5.1-3.2c-3.2-2.8-5.2-6.3-5.7-10.6c-0.4-2.9,0.1-5.7,1.3-8.5c1.3-3.1,3.2-5.7,5.5-8
				c3.8-3.7,8-6.8,12.6-9.4c0.8-0.4,1.6-0.8,2.4-1.3C128.3,185.8,128.4,185.7,128.7,185.5z M130,186.8c-1.5,0.9-2.8,1.6-4.2,2.5
				c-3.6,2.2-6.9,4.8-9.8,7.8c-1.8,1.9-3.5,3.9-4.9,6.2c-1.3,2.2-2.2,4.6-2.4,7.2c-0.3,4.4,1.5,8,4.8,10.9c3,2.7,6.6,3.9,10.7,3.9
				c1.7,0,3.4-0.3,4.9-1.1c1.1-0.5,2.1-1.1,3.1-1.8c2.3-1.5,4-3.6,5-6.2c2.3-5.9,2.3-11.8,0.3-17.8c-1.1-3.2-2.9-6.1-5-8.8
				C131.7,188.7,130.9,187.8,130,186.8z M178.8,185.5c0.1-0.3,0.1-0.4,0.2-0.5c0.9-4,1.9-8,2.3-12.1c0.1-1.6,0.4-3.3,0.4-4.9
				c0.1-2.6,0.1-5.1,0-7.7c0-1.2-0.1-2.4-0.2-3.6c-0.3-2.1-0.8-4.2-1.5-6.3c-0.4-1.3-1-2.5-1.9-3.6c-0.5-0.6-1.1-1.1-1.8-1.4
				c-1.2-0.5-2.4-0.1-3.1,1c-0.2,0.3-0.4,0.7-0.5,1.1c-0.5,1.3-0.7,2.7-0.8,4c-0.2,2.3-0.1,4.6,0,6.9c0.2,4.4,0.8,8.8,1.8,13.2
				c1.1,4.5,2.5,8.9,4.6,13C178.5,184.9,178.6,185.1,178.8,185.5z M256.8,182.7c1.1,0.2,2.5,0.2,4,0c3.6-0.7,6.5-2.5,8.6-5.6
				c0.9-1.3,1.3-2.8,1.3-4.3c-0.1-1.7-1.4-3.4-2.9-3.7c-0.8-0.2-1.6-0.1-2.3,0.3c-1.5,0.7-2.7,1.8-3.7,3.2c-2.2,3-3.7,6.3-4.8,9.8
				C256.9,182.3,256.9,182.5,256.8,182.7z M229,168.4c1.2,0.3,2.3,0.5,3.4,0.2c3.8-1.1,6.5-3.4,7.8-7.3c0.4-1.2,0.4-2.3,0.1-3.5
				c-0.3-1.2-0.9-2.2-2-2.9c-0.5-0.4-1.1-0.5-1.7-0.2c-0.5,0.2-1.1,0.5-1.5,0.9c-1.5,1.1-2.4,2.7-3.2,4.3
				C230.4,162.6,229.6,165.4,229,168.4z M203.8,150.8c-0.5,0.4-0.5,0.9-0.6,1.4c-1,4-0.9,8.1-0.2,12.2c0.1,0.8,0.3,1.5,0.5,2.3
				c0.2-0.1,0.2-0.3,0.3-0.4c0.7-3.3,1-6.5,1.1-9.9c0.1-1.4-0.2-2.7-0.5-4.1C204.2,151.8,204,151.4,203.8,150.8z"/>
			<g>
				<path d="M152.6,89.5c-4,7.3-12.9,11.5-24.6,11.5v-4.4c1,0,1.9,0,2.8-0.1l-0.4-27.3c-0.7,0-1.5,0.1-2.3,0.1l-0.3-4.4
					c11.1-0.9,20,2.4,24.2,9C155.1,78.7,155.3,84.4,152.6,89.5z M148.4,76.3c-1.3-2-5-6.1-13.5-7l0.4,26.6
					c6.3-1.3,11.2-4.3,13.5-8.5C150.7,83.7,150.6,79.7,148.4,76.3z"/>
				<path d="M181,99.8l-4.4,0.2c-0.1-3.2-0.4-6.6-0.7-9.9L163.1,91c-0.3,3.1-0.4,6.2-0.4,8.9l-4.4,0c0-0.2,0-3.8,0.4-8.6l-2.2,0.1
					l-0.3-4.4l2.9-0.2c0.1-0.6,0.1-1.1,0.2-1.7c1.5-10.9,4.4-17,8.7-18.9c1.6-0.7,3.3-0.6,4.7,0.3c2,1.3,4.9,4.6,6.9,18.7
					c0,0,0,0.1,0,0.1l2.1-0.1l0.3,4.4l-1.9,0.1C180.8,95.3,181,99.6,181,99.8z M175.3,85.7c-1.1-7.8-2.8-14.2-4.8-15.5
					c-0.2-0.1-0.3-0.2-0.6,0c-3.1,1.3-5.2,8.4-6.2,16.3L175.3,85.7z"/>
				<path d="M208.5,89.5c-4,7.3-12.9,11.5-24.6,11.5v-4.4c1,0,1.9,0,2.8-0.1l-0.4-27.3c-0.7,0-1.5,0.1-2.3,0.1l-0.3-4.4
					c11.1-0.9,20,2.4,24.2,9C211.1,78.7,211.3,84.4,208.5,89.5z M204.4,76.3c-1.3-2-5-6.1-13.5-7l0.4,26.6
					c6.3-1.3,11.2-4.3,13.5-8.5C206.7,83.7,206.5,79.7,204.4,76.3z"/>
				<path d="M236.9,89.5c-4,7.3-12.9,11.5-24.6,11.5v-4.4c1,0,1.9,0,2.8-0.1l-0.4-27.3c-0.7,0-1.5,0.1-2.3,0.1l-0.3-4.4
					c11.1-0.9,20,2.4,24.2,9C239.5,78.7,239.7,84.4,236.9,89.5z M232.7,76.3c-1.3-2-5-6.1-13.5-7l0.4,26.6
					c6.3-1.3,11.2-4.3,13.5-8.5C235.1,83.7,234.9,79.7,232.7,76.3z"/>
				<path d="M263.9,69c0.4,10.7-0.7,24.4-8,28.9c-1.4,0.9-3,1.3-4.6,1.3c-1.6,0-3.2-0.4-4.8-1.3c-3.5-2-5.8-5.7-5.8-9.3h4.4
					c0,2,1.5,4.3,3.6,5.5c1,0.6,3,1.3,5,0.1c1.7-1,5.3-4.8,5.9-17.7c-2,3.6-5.2,7.2-9.8,7.2c-1.9,0-3.7-0.8-5-2.2
					c-4-4.3-3.4-13.7-3.3-14.8l2.2,0.2l2.2,0.2c0,0,0,0,0,0c-0.3,3.3,0.1,9.3,2.1,11.5c0.5,0.5,1,0.8,1.8,0.8
					c4.5,0,7.6-7.9,8.4-10.7l0.4-1.6h5.3L263.9,69z"/>
				<path d="M271.4,67l-0.8,11.4H268L267.3,67H271.4z"/>
				<path d="M279.1,75.2c-0.2,1.5,0.6,2.2,4.8,3.9c2.3,0.9,4.9,1.9,6.9,3.7c2.9,2.6,4.1,6.9,2.8,10.4c-1.3,3.5-4.8,5.5-9.6,5.5
					c0,0,0,0,0,0c-2.6,0-8.8-1.1-8.8-11.3h4.4c0,6.9,3.3,6.9,4.4,6.9c0,0,0,0,0,0c2,0,4.6-0.5,5.5-2.6c0.7-1.8,0-4.2-1.5-5.6
					c-1.5-1.3-3.6-2.1-5.7-3c-3.7-1.5-8.4-3.3-7.5-8.6c0.8-5.3,6.4-7.7,11.3-7.3c5,0.4,8.4,3.5,8.4,7.7H290c0-2.8-3.6-3.3-4.3-3.3
					C282.8,71.3,279.5,72.6,279.1,75.2z"/>
			</g>
		</g>
		<g>
			<path class="st7" d="M247,274.7c-0.6-5.5-4.2-6.1-12.6-5.6l0.6,12.6c5.1-0.2,8.9-1.2,10.7-3.1C246.8,277.5,247.2,276.3,247,274.7
				z"/>
			<path class="st7" d="M213.4,268.8c-0.2-0.1-0.3-0.2-0.7,0c-3.4,1.4-5.5,9.1-6.7,17.5l12.6-0.9C217.4,277,215.5,270.1,213.4,268.8
				z"/>
			<path class="st7" d="M278.5,223.4c-18.9-15.4-40.6-0.3-53.6,17.5c-11.5-22.2-39.9-31.9-65.6-19.5c-44.9,21.6-25.6,82-1.5,110.1
				c12.6,14.7,28.1,23.7,45.1,31.3l11.2,4.5l9.5-6.6c12-8.6,23.5-17.8,34.1-28.1C281.5,309.4,311.8,250.7,278.5,223.4z M171.9,289.5
				v9.8h-4.7v-9.6l-12.8,0.7v8.8h-4.7v-8.6l-1.5,0.1l-0.3-4.7l1.7-0.1v-20.7h4.7v20.5l12.8-0.7v-19.7h4.7v19.5l1.5-0.1l0.3,4.7
				L171.9,289.5z M196.2,300.9h-20.8v-2.4c0-0.3,0-32.1,0-32.1V264l18-0.2v4.7l-13.3,0.4V286l5.3-0.4l0.3,4.7l-5.7,0.4v5.5h16.1
				V300.9z M224.7,300.5l-4.7,0.2c-0.1-3.5-0.4-7.1-0.8-10.6l-13.7,0.9c-0.3,3.3-0.5,6.7-0.5,9.6h-4.7c0-0.2,0-4.1,0.4-9.3l-2.3,0.2
				l-0.3-4.7l3.1-0.2c0.1-0.6,0.2-1.2,0.2-1.8c1.7-11.7,4.7-18.3,9.4-20.3c1.7-0.7,3.5-0.6,5.1,0.4c2.2,1.4,5.3,4.9,7.4,20.1
				c0,0,0,0.1,0,0.1l2.2-0.2l0.3,4.7l-2,0.1C224.5,295.6,224.7,300.3,224.7,300.5z M248.7,300.5c-3.7-3.3-8.4-11.1-10.2-14.4
				c-1.1,0.1-2.1,0.2-3.2,0.2l0.6,12.3l-4.7,0.2l-0.6-12.6c-1-0.1-1.9-0.1-2.8-0.2l0.5-4.7c0.7,0.1,1.4,0.1,2.2,0.2l-0.6-12.2
				c-0.6,0-1.1,0.1-1.7,0.1l-0.2-4.7c1.4-0.1,2.8-0.2,4.2-0.3c8.2-0.6,18.5-1.3,19.7,9.7c0.3,3-0.6,5.7-2.6,7.7
				c-1.5,1.5-3.5,2.6-5.8,3.3c2.3,3.8,5.9,9.5,8.5,11.8L248.7,300.5z M267.9,269.2v31.3h-4.7v-31.2l-9.3,0.3l-0.2-4.7l23.6-0.8
				l0.2,4.7L267.9,269.2z"/>
		</g>
	</g>
	<g>
		<g>
			<g>
				<path class="st7" d="M144,108.9c4.6-2.8,8.8,1,11,5.3c3.3-4.5,9.7-5.8,14.9-2.4c8.9,5.9,2.7,18.5-3.5,24
					c-3.2,2.9-6.9,4.4-10.8,5.6l-2.6,0.7l-1.8-1.7c-2.3-2.2-4.5-4.5-6.4-7C140.3,127.5,135.8,113.9,144,108.9z"/>
			</g>
		</g>
		<g>
			<g>
				<path class="st7" d="M288.6,109.8c-2.6-1.6-5,0.6-6.2,3c-1.9-2.6-5.5-3.3-8.4-1.4c-5.1,3.4-1.5,10.5,2,13.6
					c1.8,1.6,3.9,2.5,6.1,3.2l1.5,0.4l1-1c1.3-1.2,2.5-2.6,3.6-4C290.7,120.4,293.2,112.7,288.6,109.8z"/>
			</g>
		</g>
	</g>
</g>
</svg>
