<?xml version="1.0" encoding="utf-8"?>
<!-- Generator: Adobe Illustrator 21.1.0, SVG Export Plug-In . SVG Version: 6.00 Build 0)  -->
<svg version="1.1" id="Calque_1" xmlns="http://www.w3.org/2000/svg" xmlns:xlink="http://www.w3.org/1999/xlink" x="0px" y="0px"
	 viewBox="0 0 432 432" style="enable-background:new 0 0 432 432;" xml:space="preserve">
<style type="text/css">
	.st0{fill:#E37176;}
	.st1{fill:#333333;}
	.st2{fill:#F4A57F;}
	.st3{fill:#CF8FC4;}
	.st4{fill:#CCCCCC;}
	.st5{fill:#13A1B0;}
	.st6{fill:#4D4D4D;}
	.st7{fill:#14B5A5;}
	.st8{fill:#B3B3B3;}
	.st9{fill:#F4C1C1;}
	.st10{fill:#C4DA6D;}
	.st11{fill:#DF5376;}
	.st12{fill:#6BAE3D;}
	.st13{fill:#456F01;}
	.st14{fill:#E7D3D5;}
	.st15{fill:#BA61BB;}
	.st16{fill:#ED5F7D;}
	.st17{fill:#F486A1;}
	.st18{fill:#D3B1AF;}
	.st19{fill:#808080;}
	.st20{fill:#BC4662;}
	.st21{fill:#FBC571;}
	.st22{fill:#FFFFFF;}
	.st23{fill:#ED7203;}
	.st24{fill:#E5445E;}
	.st25{fill:#5A9100;}
	.st26{fill:#1A1A1A;}
	.st27{fill:#E38BA4;}
	.st28{fill:#7FA384;}
	.st29{fill:#F58E8E;}
	.st30{fill:#F5CECE;}
	.st31{fill:#A67C52;}
	.st32{fill:#42210B;}
	.st33{fill:#EF8B07;}
	.st34{fill:#FBB03B;}
	.st35{fill:#F8982A;}
	.st36{fill:#C4B4AD;}
	.st37{fill:#936D94;}
	.st38{fill:#221F20;}
	.st39{fill:#EEAC42;}
	.st40{fill:#58595B;}
	.st41{fill:#945B79;}
	.st42{fill:#404041;}
	.st43{fill:#BA9453;}
	.st44{fill:#B36C77;}
	.st45{fill:#E07175;}
	.st46{fill:#D13F4A;}
	.st47{fill:#3E904D;}
	.st48{fill:#CD98A3;}
	.st49{fill:#C75580;}
	.st50{fill:#3C3C3B;}
	.st51{fill:#E4AEAE;}
	.st52{fill:#B16E6E;}
	.st53{fill:#DEAEB3;}
	.st54{fill:#87A37C;}
	.st55{fill:#942B28;}
	.st56{fill:#449250;}
	.st57{fill:#DD5E7C;}
</style>
<g>
	<path class="st49" d="M326.4,318.3c-0.7-3-4.8-1.7-5.2,0.4c-1.1,6.2,0.4,18.8-13.2,27.1c-1.5-7.9,6.2-33-6.6-42.3
		c-10.2-7.3-16,13.3-18.9,15.3c-2.6-11.8-2.1-16.6-8.9-20.2c-5.2-2.6-7.4,9-13.5,32.1c-3.4-20.9,2.1-27.5-5.3-30
		c-5.5-1.9-8.8,3.3-10.1,10.7c-0.8,1.1-1.5,2.1-2.4,3.1c-2.5,3.3-6.9,5.8-12.3,7c0.4-12.3-5.9-24.2-22.3-26.6
		c-12.7-1.9-26.3,13.1-15.2,25.2c-8,9.5-23.2,27.6-23.3,27.6c-3.7-4.8,6.9-33.8-7.3-43.9c-10.2-7.4-16,13.2-18.9,15.3
		c-2.6-11.9-2.1-16.8-8.9-20.3c-5.2-2.5-7.4,9.1-13.5,32.2c-3.4-21,2.1-27.6-5.3-30.1c-15.2-5.2-13.9,44,2.8,43.1
		c10.3-0.5,3.6-14.9,12.9-33.6c1.3,6.3,3.4,17,9.9,17c3.7,0,4.9-2.4,6.6-6.3c3.3-6.9,6.9-11.9,8.2-12c0.9,2.6-8.9,45.2,8.6,45.2
		c6.6,0,13.9-8.6,21.5-17.4c2.4-2.8,4.8-5.6,7.1-8.2c-1.3,16,5.4,23.8,13.1,23.8c11.8,0,21-12.3,23.4-25.5c5.9-1,10.8-3,14.6-6
		c0.6,11.4,5.1,23.1,13.3,22.7c10.3-0.5,3.6-15.1,12.9-33.6c1.3,6.3,3.4,17,9.9,17c3.7-0.1,4.9-2.5,6.6-6.3c3.3-6.9,6.9-11.9,8.2-12
		c0.9,2.6-8.9,45.2,8.6,45.2C311.7,354.1,330.2,336.8,326.4,318.3z M209.1,346.7c-2.8-1.5-3.7-9.4-1.3-20.6
		c5.7,1.2,11.1,1.6,16.1,1.5C222.3,340.1,213.2,349.2,209.1,346.7z M208.8,321.5c1.1-4,2.4-8.1,4.2-12.4c2.1-5-11.5-12.3-16.6,4.6
		c-0.3,0.8-0.5,1.6-0.7,2.4c-2-5-0.3-16.8,11-15.9c6.6,0.5,10.8,4.6,13.3,9c2.5,4.5,3.7,9.1,4,13.3
		C219.4,323,214.2,322.6,208.8,321.5z"/>
	<g>
		<path class="st42" d="M108.9,208.8c-1.9,0.9-9.9,1.1-15.6,0.8c-7.8-0.5,5.6-2.1,0.5-13.6c-1.5-3.4-4.4-5.2-8-4.9
			c-3.9,0.3-8,3-10.4,6.9c-2.6,4.2-3.9,8.4-3.9,12.9c0,9.8,7.8,13.8,16,18c8.6,4.4,17.5,8.9,17.5,20.6c0,14.3-7.9,23.7-22.2,26.6
			c-1.8,0.4-3.6,0.5-5.5,0.5c-2,0-4-0.2-6.1-0.6c-7.3-1.4-13.3-6.9-16-14.8c-2.1-6-1.6-12.2,1.1-15.3c1.8-2,4.4-2.8,7-2.2
			c2.2,0.6,3.9,2,4.3,3.8c0.4,1.5-0.2,3-1.6,4.2c-0.1,0.1-0.2,0.2-0.4,0.3c-0.8,0.7-1.8,1.5-1.8,3.4c-0.1,5.2,1,9.2,3.4,11.4
			c1.6,1.5,3.6,2.1,6,2c3.9-0.3,8-3,10.4-6.9c2.6-4.2,3.9-8.4,3.9-12.9c0-10.3-8-14.4-16.4-18.7c-8.4-4.3-17.1-8.8-17.1-19.9
			c0-14.3,7.9-23.7,22.2-26.6c3.6-0.7,7.5-0.7,11.6,0.1c5.6,1.1,10.4,4.5,13.6,9.7c2.4,3.9,3.3,6.5,3.8,8.3
			C106.8,208.2,110.7,208,108.9,208.8z"/>
		<path class="st42" d="M187.1,184.9c-3.6,1-5.1,3.2-5.7,14.9c0,2.9,0,5.7,0,8.4c-0.1,23.8,2.8,46.9-7.2,59.2
			c-10,12.4-37,12.6-47.2-0.2c-9.8-12.4-6.9-35.4-7-59c0-2.7,0-5.5,0-8.4c-0.6-11.7-2-13.9-5.7-14.9c-1.2-0.3-1.4-0.6-0.9-0.9h28.7
			c0.3,0.2,0.3,0.4-0.1,0.6c-0.2,0.1-0.5,0.2-0.8,0.3c-3.4,0.9-4.9,2.7-5.5,13.8c-0.8,15.2-2.3,52.5,4.9,64.1
			c5.4,8.7,15.3,8.1,20.3,0c7.1-11.6,5.7-48.9,4.9-64.1c-0.6-11.1-2.1-12.8-5.5-13.8c-0.4-0.1-0.6-0.2-0.8-0.3
			c-0.4-0.2-0.4-0.4-0.1-0.6h28.7C188.6,184.3,188.3,184.6,187.1,184.9z"/>
		<path class="st42" d="M214.7,257.7c0.1,8.3-0.5,16.5,5.3,18.1c1.2,0.3,1.4,0.6,0.9,0.9c-20.3,0-25.7-0.2-25.7-0.2
			c-4.6,0,3.8,0,3.8-13.6c0-68.3,1-74.6-6-76.5c-1.2-0.3-1.4-0.6-0.9-0.9c0.7-0.4,61.3-10.4,61.3,35.9
			C253.5,247.9,230.9,255.7,214.7,257.7z M237.6,221.3c0-19.1-11.7-26.1-23.3-26.1l0.4,52.2C226.1,247.2,237.6,240.2,237.6,221.3z"
			/>
		<path class="st42" d="M307.5,263.6c0.3,2.9-0.1,3.7-0.1,11.1c0,1.5-0.2,1.6-1.6,1.7c-4,0.2-42.2,0.2-45.2,0.2
			c-4.6,0,3.8,0,3.8-13.8c0-69.4,1-75.7-6-77.6c-1.2-0.3-1.5-0.8-0.9-0.9c2.4-0.4,37.1,0.3,44.6,0.1c1.6,0,1.7,0,1.8,1.7
			c0.2,5.1,0,11.8-0.1,13c-0.1,1.1-0.7,1.1-1.2,0.2c-4.1-6.7-9.5-5.5-23-5.5l0.2,50.4c4.3-0.5,8-2.1,9.2-4.2
			c0.2-0.3,0.4-0.4,0.5,0.1v14c0,0.4-0.3,0.4-0.5,0.1c-1.3-2.1-4.9-3.6-9.2-4.2l0.1,18.1c13.5,0,24,2,26.8-4.8
			C307,262.7,307.4,262.9,307.5,263.6z"/>
		<path class="st42" d="M374.2,280c-6.2,2.3-22.3-0.4-40.2-22c0,8.1-0.3,16,5.3,17.5c1.2,0.3,1.4,0.6,0.9,0.9
			c-20.3,0-25.7-0.2-25.7-0.2c-4.6,0,3.8,0,3.8-13.6c0-68.3,1-74.6-6-76.5c-1.2-0.3-1.4-0.6-0.9-0.9c0.7-0.4,61.3-10.4,61.3,35.9
			c0,20.4-13.4,29.8-26.9,33.9c6.4,9.2,14.4,17.2,22.9,17.3c1.6,0,2.6-1.6,3.8-2.5C377.9,265.6,380.8,277.5,374.2,280z M333.6,194.9
			l0.4,52.2c11.4-0.2,22.9-7.2,22.9-26.1C356.9,202,345.2,194.9,333.6,194.9z"/>
	</g>
	<g>
		<path class="st39" d="M251.6,118.2c25.8,2.7,24.9,4.2,9.2,19.7c-3.6,3.6-30.7,30.2-35.1,32.5c-19.6,10.1,22.7-42.3,22.8-42.4
			c-4.3-0.3-7.7-0.3-13.9-2.2c-15.2-4.5-11.5-4.4,28-28.2c-8.8-1.7-38.3-6.8-31.4-12.3c4.9-3.9,50.4,5.6,53.8,7.6
			c1.4,0.8,0.6,1.8,0.4,3.1C285,100.5,272.2,105.4,251.6,118.2z"/>
		<path class="st49" d="M176.3,99.1c1.6-5.4,2.5-10,8.1-15.3c13.4-12.7,41.7-8.5,33.6,38.4c-1.1,6.6-3.1,16.8-4.3,22.8
			c-0.7,3.7-5.1,2.7-4.8-0.1c1.1-12,11.8-44.6-1.7-57c-9.5-8.7-23.9,2.9-24.6,14c4.6,3.5,8.9,6.8,11,14.2
			c2.4,8.4-11.8,17.9-17.2-8.7c-16.1-4-25.8,9.6-15.1,22.7c16.3,19.9,46.7,23.5,49.9,27.4c13.3,15.8-76.2-5.2-63.6-45.7
			c3.4-10.9,16.3-15.8,27.7-12.9C175.5,99,175.9,99,176.3,99.1z M182.6,110.1c0,0.4-0.1,0.6-0.1,0.8
			C185.7,127.4,196.4,119.5,182.6,110.1z"/>
	</g>
</g>
</svg>
