<?xml version="1.0" encoding="utf-8"?>
<!-- Generator: Adobe Illustrator 21.0.1, SVG Export Plug-In . SVG Version: 6.00 Build 0)  -->
<svg version="1.1" id="Calque_1" xmlns="http://www.w3.org/2000/svg" xmlns:xlink="http://www.w3.org/1999/xlink" x="0px" y="0px"
	 viewBox="0 0 432 432" style="enable-background:new 0 0 432 432;" xml:space="preserve">
<style type="text/css">
	.st0{fill:#C77B32;}
	.st1{fill:#D4145A;}
	.st2{fill:#65C8D0;}
	.st3{fill:#999999;}
	.st4{fill:#BA9BC9;}
	.st5{fill:#808080;}
	.st6{fill:#C1272D;}
	.st7{fill:#DB648C;}
	.st8{fill:#39B54A;}
	.st9{fill:#FFA940;}
	.st10{fill:#29ABE2;}
	.st11{fill:#00A99D;}
</style>
<g>
	<g>
		<path d="M176.7,272.4c4.3,0,8.4,0.9,12.3,2.8c3.7,1.8,6.8,4.5,9.3,7.7c2,2.6,3.4,5.5,4.4,8.6c0.8,2.6,1.2,5.2,1.3,7.9
			c0.2,4.2-0.6,8.2-2.4,11.9c-2.9,6-7.4,10-13.6,12.4c-2.6,1-5.3,1.7-8.1,1.8c-0.8,0-1.7,0.2-2.5,0.3c-0.5,0-0.7,0.3-0.7,0.7
			c0,0.5,0.1,1,0.1,1.5c-0.1,4.2-0.2,8.3-0.2,12.5c0,0.6-0.1,1.1-0.5,1.5c-1.1,1.2-2.9,0.9-3.4-0.7c-0.1-0.3-0.2-0.7-0.2-1.1
			c-0.3-2.5-0.6-4.9-0.9-7.4c-0.3-2.9-0.7-5.8-1-8.6c-0.3-3.1-0.5-6.3-0.7-9.4c-0.3-4.1-0.6-8.1-0.8-12.2c-0.3-5.7-0.7-11.4-0.7-17
			c0-2.5,0-5.1,0-7.6c0-1.4,0.6-2.7,1.1-4c0.3-0.7,0.9-0.9,1.6-1.1c1.2-0.2,2.4-0.4,3.5-0.5C175.3,272.4,176,272.4,176.7,272.4z
			 M176.7,322.1c0.7-0.1,1.2-0.2,1.7-0.4c2.4-0.9,4.8-1.7,7.1-2.6c3.2-1.4,6-3.5,8.1-6.3c1-1.3,1.7-2.8,2.4-4.3
			c1.1-2.6,1.8-5.4,1.7-8.3c0-3.8-0.8-7.4-2.3-10.9c-1.3-3.1-3.3-5.8-5.9-8.1c-3-2.6-6.5-4.2-10.4-5.1c-1.9-0.4-3.9-0.7-5.9-0.6
			c-0.2,0-0.4,0.1-0.7,0.1c0,0.2,0.1,0.4,0.1,0.5c0.9,2.8,1.3,5.7,1.7,8.6c0.2,1.7,0.3,3.4,0.4,5.1c0.4,6.4,0.9,12.7,1.3,19.1
			c0.2,4.1,0.3,8.1,0.5,12.2C176.6,321.4,176.7,321.7,176.7,322.1z"/>
		<path d="M251.3,305.7c0,6.3-0.6,11.5-1.8,16.5c-0.8,3.5-2,6.9-3.7,10c-1.3,2.5-2.9,4.8-4.9,6.7c-2.9,2.8-6.3,4-10.1,3.8
			c-3-0.2-5.6-1.8-7.8-4c-1.9-1.9-3.3-4.2-4.5-6.7c-2.2-4.6-3.1-9.5-3.5-14.5c-0.3-3.8,0-7.5,0.4-11.3c0.6-5.8,2-11.5,3.9-16.9
			c1.3-3.9,3-7.6,5.5-10.9c1.6-2.1,3.3-3.8,5.6-5c1.9-1,3.8-1.2,5.8-0.8c1.3,0.3,2.3,0.9,3.3,1.7c0.9,0.7,1.8,1.4,2.6,2.1
			c1.6,1.3,2.7,3.2,3.7,5.1c1.6,3.1,2.6,6.5,3.4,9.9c0.6,2.7,1.1,5.5,1.5,8.3C251.1,302.1,251.2,304.5,251.3,305.7z M222.4,314.3
			c-0.1,4,0.3,7.9,1.3,11.7c0.7,2.9,1.8,5.6,3.4,8.1c0.8,1.3,1.8,2.4,3.1,3.1c2.6,1.4,5.1,0.9,7.4-0.7c2.2-1.5,3.8-3.7,5.1-6.1
			c2.7-4.8,4.4-9.9,5.2-15.4c0.4-2.6,0.5-5.3,0.5-8c0-2.4-0.2-4.8-0.6-7.2c-0.8-5.2-2.1-10.2-4.3-14.9c-1.3-2.9-3.1-5.3-5.3-7.4
			c-0.2-0.2-0.5-0.3-0.8-0.4c-1.3-0.4-2.4,0-3.5,0.7c-1.4,0.9-2.5,2.2-3.5,3.7c-2.1,3.2-3.4,6.8-4.5,10.5c-0.6,2.2-1.1,4.4-1.6,6.6
			C223.1,303.7,222.5,309,222.4,314.3z"/>
		<path d="M119.8,325.2c0.4,0,0.6,0,0.8,0c3.7-0.2,7.4-0.4,11.1-0.6c0.7,0,1.2,0.3,1.4,0.9c0.2,0.6-0.1,1.3-0.7,1.6
			c-0.3,0.2-0.7,0.3-1.1,0.3c-0.6,0.1-1.1,0.1-1.7,0.2c-2.9,0.3-5.8,0.7-8.7,1c-0.2,0-0.4,0.1-0.6,0.1c-0.4,0.1-0.5,0.3-0.5,0.6
			c-0.1,2.2-0.2,4.4-0.3,6.6c-0.1,1.1-0.1,2.2-0.2,3.2c0,0.6-0.2,1.2-0.6,1.7c-1.1,1.3-2.9,1.2-3.8-0.3c-0.3-0.5-0.5-1.1-0.6-1.7
			c-0.6-3.7-1.1-7.4-1.3-11.2c-0.2-3.1-0.4-6.2-0.5-9.3c-0.1-3.2-0.1-6.5-0.2-9.7c-0.1-2.4-0.1-4.7-0.2-7.1
			c-0.1-3.8-0.2-7.6-0.3-11.4c0-2.5,0-5,0.2-7.5c0.1-1.4,0.4-2.9,1-4.2c0.9-2,2.4-3.1,4.5-3.3c1.8-0.1,3.6-0.2,5.5-0.3
			c4.5-0.2,8.9-0.7,13.3-1.3c2.9-0.4,5.7-0.8,8.6-1.1c0.8-0.1,1.5-0.1,2.3,0c0.8,0.1,1.4,0.5,1.6,1.3c0.2,0.8-0.1,1.4-0.7,1.9
			c-0.4,0.3-0.9,0.5-1.3,0.7c-1.5,0.6-3,0.9-4.6,1c-2.9,0.3-5.8,0.6-8.7,0.8c-4.2,0.4-8.5,0.8-12.7,1.2c-0.5,0-0.9,0.1-1.3,0.2
			c-0.6,0.1-0.7,0.2-0.7,0.9c0,1.5,0,3,0.1,4.5c0.2,3.6,0.4,7.3,0.5,10.9c0.1,4,0.3,8.1,0.3,12.1c0.1,4.5,0,9.1,0,13.6
			C119.8,322.8,119.8,323.9,119.8,325.2z"/>
		<path d="M270.5,342.7c-1.7-0.1-3.2-0.7-4.4-1.8c-1.9-1.7-3.3-3.9-4.4-6.3c-1.4-2.9-2.4-6-3.2-9.1c-0.8-3.4-1.5-6.8-1.9-10.3
			c-0.1-1.3-0.4-2.7-0.5-4c-0.4-4.8-0.9-9.7-1.2-14.5c-0.3-5.2-0.6-10.5-0.8-15.8c-0.1-1.3,0-2.6,0.2-3.9c0.1-0.9,0.4-1.7,0.8-2.5
			c0.9-1.6,2.7-1.8,3.9-0.5c0.8,0.9,1.2,2.1,1.4,3.3c0.3,1.5,0.5,3.1,0.7,4.7c0.3,2.7,0.5,5.4,0.7,8.1c0.5,6.5,1,13,1.6,19.5
			c0.4,4.2,1.1,8.2,1.8,12.3c0.8,4.2,1.7,8.4,3,12.4c0.3,1,0.8,2,1.3,3c0.1,0.3,0.3,0.6,0.5,0.8c0.4,0.5,0.7,0.6,1.2,0.2
			c0.5-0.3,1-0.7,1.3-1.2c1.3-1.6,2.4-3.5,3.2-5.5c0.8-2.1,1.7-4.2,2.3-6.4c0.8-2.5,1.4-5.1,1.9-7.7c0.9-4.7,1.7-9.5,2.5-14.2
			c0.4-2.8,0.7-5.6,1-8.4c0.4-2.9,0.8-5.8,1.1-8.7c0.4-3.6,0.8-7.2,1.2-10.8c0.1-0.5,0.1-1,0.2-1.6c0-0.3,0.1-0.6,0.3-0.8
			c0.3-0.6,0.7-0.8,1.2-0.7c0.4,0.1,0.8,0.7,0.7,1.3c-0.1,1.6-0.2,3.2-0.4,4.8c-0.4,4.6-0.7,9.3-1.1,13.9c-0.4,5-1,9.9-1.8,14.8
			c-0.5,3.1-1,6.1-1.5,9.2c-0.4,2.1-0.9,4.1-1.3,6.1c-0.8,3.5-1.9,6.9-3.2,10.2c-1.1,2.7-2.3,5.3-4.1,7.4c-1.1,1.3-2.3,2.3-3.9,2.5
			C270.8,342.7,270.6,342.7,270.5,342.7z"/>
		<path d="M307.9,276.8c0.1,0.4,0.1,0.7,0.2,1c0.5,2.2,0.6,4.5,0.7,6.7c0.1,3.4,0.1,6.9,0.1,10.3c0,4.6-0.2,9.3-0.2,13.9
			c-0.1,2.8-0.1,5.6-0.2,8.4c-0.2,3.9-0.2,7.7-1,11.5c-0.5,2.5-0.7,5.1-1,7.7c-0.1,0.9-0.2,1.8-0.3,2.7c-0.1,0.7-0.5,1.3-1.1,1.6
			c-1.2,0.7-2.6,0.2-2.9-1.1c-0.1-0.4-0.2-0.9-0.2-1.3c-0.1-2.1-0.2-4.2-0.3-6.3c0-0.9-0.1-1.7-0.2-2.5c-0.5-2.9-0.4-5.8-0.4-8.7
			c0-1.6,0.1-3.1,0.1-4.7c0.1-4.7,0.2-9.4,0.3-14.1c0.2-5.8,0.3-11.6,0.5-17.4c0.1-2.3,0.4-4.6,0.7-6.9c0-0.1,0-0.3,0-0.5
			c-0.2,0-0.4-0.1-0.6-0.1c-1.6,0.1-3.3,0.2-4.9,0.2c-0.9,0-1.8-0.1-2.7-0.3c-1-0.3-1.5-1.3-1-2.1c0.2-0.4,0.5-0.7,0.9-0.9
			c0.6-0.3,1.3-0.5,2-0.6c2.3-0.2,4.6-0.5,6.9-0.6c4.8-0.2,9.7-0.2,14.5-0.3c0.5,0,1,0,1.4,0.1c0.8,0.1,1.3,0.7,1.4,1.4
			c0,0.7-0.4,1.4-1.2,1.7c-0.4,0.1-0.9,0.2-1.3,0.2c-2.9,0.3-5.7,0.5-8.6,0.8C308.7,276.7,308.3,276.7,307.9,276.8z"/>
		<path d="M162.9,305.8c0.1,4.7,0.3,9.4,0.4,14.1c0.1,4,0.1,8,0,12c-0.1,2.8-0.3,5.6-0.5,8.4c0,0.6-0.2,1.3-0.6,1.8
			c-1,1.2-2.9,0.8-3.5-0.7c-0.2-0.6-0.3-1.3-0.4-2c-0.4-3.7-1.2-7.3-1.4-10.9c-0.1-1.9-0.3-3.8-0.4-5.6c-0.2-3.1-0.3-6.2-0.4-9.3
			c-0.1-3-0.1-6.1-0.1-9.1c0-1.4,0.1-2.7,0.1-4.1c0-1.1,0-2.2-0.1-3.3c-0.3-3.3-0.4-6.5-0.3-9.8c0-2.8,0-5.6,0.1-8.4
			c0-1.3,0.2-2.7,0.4-4c0.1-0.6,0.4-1.3,0.8-1.7c0.4-0.3,0.8-0.7,1.3-0.6c0.9,0.1,1.8-0.4,2.6,0.3c0.6,0.6,1,1.4,1.2,2.2
			c0.2,1.1,0.4,2.2,0.5,3.3c0.3,4.4,0.6,8.9,0.5,13.3c0,1.7-0.2,3.3-0.3,4.9c-0.1,3.1-0.1,6.1-0.1,9.2
			C162.8,305.8,162.8,305.8,162.9,305.8z"/>
		<path d="M137.2,308c0-2.9,0-5.8,0-8.7c0-3.3,0.1-6.5,0.3-9.8c0.1-1.9,0.2-3.8,0.7-5.6c0.2-0.8,0.5-1.7,0.9-2.4
			c0.8-1.5,2.5-1.4,3.2,0.2c0.2,0.5,0.4,1,0.5,1.6c0.3,2.8,0.7,5.7,0.9,8.5c0.2,2.4,0.2,4.8,0.3,7.1c0.1,2.5,0.2,5.1,0.2,7.6
			c0,3.7,0.1,7.5,0.1,11.2c-0.1,4.7-0.2,9.5-0.4,14.2c-0.1,1.9-0.1,3.8-0.2,5.7c0,1,0,1,0.8,1.1c1.4,0.2,2.8,0.4,4.2,0.4
			c1.8,0,3.7-0.1,5.5-0.1c0.5,0,0.9,0.2,1.1,0.7c0.2,0.5,0.2,0.9-0.1,1.4c-0.4,0.6-1,0.8-1.6,0.9c-0.6,0.1-1.2,0.1-1.8,0.1
			c-2.3,0.2-4.7,0.4-7,0.6c-0.8,0-1.5-0.1-2.3-0.2c-1.8-0.4-3-1.6-3.4-3.6c-0.4-1.5-0.6-3.1-0.8-4.7c-0.6-5.8-0.8-11.7-1-17.6
			C137.3,313.7,137.2,310.9,137.2,308C137.1,308,137.2,308,137.2,308z"/>
	</g>
	<g>
		<path d="M202.8,128.7c-1.1,0.1-2.2,0.3-3.3,0.4c-2.7,0.2-5.3-0.4-7.5-2c-2-1.5-2.5-4.5-1.1-6.8c1.3-2,3.5-2.8,5.9-2.1
			c2.1,0.6,3.7,1.9,5.1,3.4c1,1.1,1.9,2.3,2.5,3.7c0.1,0.1,0.2,0.2,0.3,0.4c1.5-0.4,2.9-0.9,4.1-1.8c0.2-0.2,0.5-0.3,0.7-0.5
			c1.9-1.5,4.2-1,5.6,0.6c0.6,0.7,1,1.4,1.3,2.3c0.8,2.1,1.2,4.3,1.6,6.5c0.3,1.6,0.6,3.2,0.9,4.9c0.4-0.3,0.4-0.7,0.5-1
			c0.9-2.7,2.2-5.2,3.7-7.6c1.6-2.5,3.3-4.9,5.6-6.8c1.3-1.1,2.7-2,4.4-2.3c2.5-0.5,4.5,0.4,6.1,2.2c1.2,1.3,1.9,3,2.4,4.8
			c0.8,3,0.9,6,0.8,9c-0.3,4.1-0.6,8.1-1,12.2c-0.2,1.9-0.5,3.8-0.7,5.7c-0.1,1,0,2,0,3.1c0.3-0.2,0.5-0.2,0.6-0.3
			c0.5-0.5,1-1.1,1.5-1.7c2.3-2.8,4.4-5.8,6.4-8.8c0.5-0.7,1-1.4,1.6-2c0.3-0.4,0.8-0.5,1.2-0.4c0.4,0.1,0.6,0.5,0.6,0.8
			c0,0.3-0.1,0.6-0.2,0.9c-2.8,4.6-5.7,9.1-9,13.4c-0.4,0.5-0.7,0.9-1.2,1.4c-2,2.1-4.6,1.8-6.2-0.6c-0.8-1.2-1.3-2.5-1.6-3.9
			c-0.5-2.3-0.7-4.6-0.5-6.9c0.1-1.4,0.2-2.9,0.3-4.3c0.2-2.4,0.5-4.9,0.7-7.3c0.3-3.4,0.4-6.8-0.2-10.2c-0.1-0.5-0.2-1.1-0.4-1.6
			c-0.4-1.1-1.2-1.5-2.3-1.2c-0.7,0.2-1.4,0.5-2,0.8c-1.7,1-3,2.5-4.1,4c-1.7,2.3-2.9,4.9-3.9,7.5c-0.8,2.2-1.4,4.5-1.7,6.9
			c-0.1,0.6,0,1.3,0,1.9c0.2,1.8,0.4,3.7,0.6,5.5c0.1,0.8-0.1,1.5-0.4,2.2c-0.6,1.3-2.3,1.7-3.3,1.2c-0.9-0.4-1.5-1-1.9-1.9
			c-0.7-1.6-1.4-3.2-1.9-4.8c-1-3.4-1.5-6.9-2.1-10.4c-0.5-2.9-1-5.9-1.4-8.8c0-0.3-0.1-0.5-0.2-0.9c-1.3-0.1-2.6,0.4-3.9,0.6
			c0,0.3,0.1,0.6,0.1,0.8c1.3,4.7,1.2,9.4,0,14.2c-0.7,2.5-1.7,4.9-3.2,7c-1.3,1.9-2.9,3.5-5,4.6c-4,2.1-7.8,1.5-11.5-0.8
			c-1.3-0.8-2.6-1.8-3.5-3.1c-0.8-1.1-1.6-2.2-2.2-3.3c-1.7-3.4-2.4-7.1-2.6-10.9c-0.1-1.9,0-3.8,0.4-5.7c0.3-1.6,0.8-3.1,1.9-4.4
			c0.4-0.6,1-1,1.6-1.4c0.8-0.5,1.8-0.6,2.7-0.2c0.8,0.3,1.2,0.9,1.2,1.8c0,0.4,0,0.7-0.1,1.1c-1,3.5-1,7-0.5,10.5
			c0.4,2.7,1.1,5.2,2.2,7.7c1,2,2.2,3.8,4.2,4.9c2.3,1.3,4.5,1.2,6.6-0.4c1.7-1.2,2.8-2.8,3.6-4.7c2.1-4.4,2.7-9,2-13.7
			c-0.1-0.8-0.3-1.7-0.5-2.5C203,129.1,202.9,128.9,202.8,128.7z M201.8,126.3c0-0.2,0-0.2,0-0.3c-0.9-1.8-2.3-3.3-4.1-4.3
			c-0.6-0.4-1.4-0.5-2.1-0.7c-0.9-0.2-1.7,0.4-2,1.3c-0.2,0.9,0,1.6,0.6,2.3c0.3,0.3,0.7,0.7,1.1,0.9
			C197.3,126.6,199.5,126.7,201.8,126.3z"/>
		<path d="M143,125.3c0.2-0.6,0.4-1.3,0.5-1.9c0.8-3.5,1.9-7,3.3-10.3c1.5-3.5,3.2-6.8,5.3-10c0.8-1.2,1.6-2.3,2.7-3.3
			c2.5-2,5.2-1.7,7.3-0.3c1.7,1.2,2.9,2.7,3.9,4.4c0.7,1.2,1.3,2.4,1.8,3.6c1.7,3.6,2.9,7.5,3.9,11.4c0.7,3,1.1,6.1,1.5,9.2
			c0.5,4.5,0.4,9,0,13.5c-0.4,3.8-1.3,7.5-3,10.9c-1.6,3.1-3.9,5.4-7.1,6.7c-1.8,0.7-3.6,0.9-5.4,0.4c-2.4-0.6-4.2-2.1-5.4-4.2
			c-1-1.8-1.2-3.7-1.3-5.7c0-0.9,0-1.8,0-2.6c0-0.7,0.3-1.3,0.9-1.7c0.9-0.6,2.1-0.1,2.2,1c0,0.2,0,0.3,0,0.5
			c-0.1,1.5-0.1,2.9,0.2,4.3c0.2,0.9,0.4,1.8,0.8,2.6c1.4,2.6,4.2,3.3,6.7,1.6c1-0.7,1.7-1.6,2.3-2.6c0.9-1.6,1.4-3.3,1.8-5
			c0.7-3.1,0.8-6.3,0.7-9.4c-0.1-2.4-0.2-4.9-0.4-7.3c-0.4-3.7-1-7.4-1.8-11c-0.6-2.5-1.3-5-2.3-7.3c-1-2.5-2.2-5-3.4-7.5
			c-0.3-0.5-0.6-1-1-1.5c-0.3-0.4-0.7-0.5-1.1-0.3c-0.5,0.3-0.9,0.5-1.3,0.9c-1.6,1.4-2.7,3.2-3.7,5.1c-2.1,4-3.7,8.2-4.9,12.5
			c-1.2,4.2-2,8.5-2.5,12.8c-0.3,2.3,0,4.7,0.1,7c0.1,3.4,0.3,6.9,0.4,10.3c0,1-0.1,1.9-0.1,2.9c0,0.4-0.1,0.7-0.3,1.1
			c-0.3,0.8-0.9,1.1-1.7,1.2c-0.8,0-1.3-0.3-1.7-0.9c-0.1-0.2-0.2-0.5-0.3-0.7c-0.8-2.3-1.4-4.6-1.8-6.9c-0.4-2-0.8-4-1.1-6
			c-0.5-3.2-1-6.4-1.4-9.6c-0.4-2.8-0.7-5.6-1-8.5c-0.3-3.3-0.4-6.5-0.5-9.8c-0.1-1.4,0.1-2.8,0.5-4.2c0.2-0.7,0.6-1.4,1.2-1.8
			c1.1-0.7,2.3-0.5,3.2,0.5c0.6,0.6,0.9,1.2,1.1,2c0.6,1.7,0.9,3.5,1.1,5.3c0.3,2.8,0.6,5.5,0.9,8.3c0,0.2,0.1,0.4,0.1,0.6
			C142.9,125.3,142.9,125.3,143,125.3z"/>
		<path d="M274.8,126.5c0.6,0.1,1,0.1,1.5,0.2c1,0,1.9,0,2.9,0.1c0.3,0,0.6,0,0.8,0.1c0.6,0.2,0.9,0.6,0.9,1.1c0,0.5-0.4,1-0.9,1.2
			c-0.4,0.1-0.8,0.2-1.2,0.2c-1.1,0.1-2.3,0.1-3.4,0.1c-0.7,0-0.8,0.1-0.8,0.8c-0.3,6.3-0.5,12.6-0.1,18.8c0.2,3.3,0.5,6.7,1.2,10
			c0.2,0.9,0.5,1.8,0.9,2.7c0.5,1,1,1.1,2,0.6c1.6-0.9,2.9-2.1,4.2-3.4c4.1-4.1,7.7-8.6,11.4-13.1c0.4-0.6,0.8-1.2,1.3-1.7
			c0.6-0.6,1.5-0.4,1.7,0.5c0.1,0.3-0.1,0.7-0.2,0.9c-0.7,1-1.3,2-2.1,2.9c-2.5,3.1-5,6.2-7.5,9.3c-1.5,1.8-3,3.5-4.5,5.2
			c-0.8,0.8-1.7,1.6-2.7,2.2c-2.6,1.7-5.5,1.2-7.5-1.2c-1.3-1.6-2.2-3.5-2.8-5.5c-0.8-2.4-1.3-4.8-1.7-7.3c-0.5-3.1-0.8-6.1-1-9.2
			c-0.2-2.9-0.1-5.9-0.2-8.8c0-0.9,0-1.8,0-2.7c0-0.7-0.1-0.7-0.7-0.8c-1.2,0-2.4,0-3.6-0.1c-0.7,0-1.4-0.1-2.1-0.2
			c-0.3,0-0.6-0.1-0.8-0.2c-0.6-0.3-0.9-0.7-0.9-1.2c0-0.6,0.4-1.1,1.1-1.2c0.6-0.1,1.2-0.2,1.8-0.3c1.3-0.1,2.7-0.1,4-0.1
			c0.1,0,0.1,0,0.2,0c1.2,0,1.2-0.1,1.3-1.2c0.1-2.7,0.3-5.4,0.5-8.2c0.1-2.9,0.2-5.7,0.4-8.6c0.2-3.2,0.5-6.4,0.8-9.6
			c0.2-2.2,0.5-4.4,1.1-6.6c0.2-0.7,0.5-1.3,0.8-1.9c0.2-0.4,0.5-0.7,0.9-0.9c0.7-0.5,1.5-0.3,2,0.4c0.3,0.4,0.5,0.8,0.6,1.3
			c0.8,2.9,1,5.8,1,8.8c0,2.9,0,5.9,0,8.8c-0.1,2.8-0.2,5.5-0.3,8.3c-0.1,2.8-0.2,5.7-0.4,8.5C274.8,125.9,274.8,126.2,274.8,126.5z
			"/>
		<path d="M253,115.8c0,0.5,0,0.8-0.1,1.1c-0.1,0.5-0.5,0.9-1,1c-0.5,0-0.9-0.2-1.1-0.8c-0.1-0.1-0.1-0.3-0.1-0.4
			c-0.7-3.1-1.3-6.2-2-9.3c-0.1-0.3-0.1-0.6-0.1-0.8c0-0.6,0.3-1.1,0.8-1.3c0.4-0.2,1,0,1.3,0.5c0.5,0.8,1,1.6,1.2,2.5
			C252.5,110.8,252.8,113.4,253,115.8z"/>
	</g>
	<path class="st0" d="M271,244.8c-0.4-0.6-0.7-1.2-1.2-1.7c-1.7-2.4-3.7-4.5-5.6-6.7c-2.6-3.1-5.3-6.1-7.9-9.1
		c-1.1-1.3-2.3-2.5-3.5-3.6c-1.1-1-2.2-1.9-3.5-2.4c-1.7-0.7-3.4-0.4-4.9,0.5c-1.5,0.9-2.9,1.9-4.4,2.9c-0.6,0.4-1.2,0.9-1.9,1.5
		c-0.3-0.3-0.5-0.5-0.7-0.7c-2.2-2.5-4.5-4.9-6.7-7.4c-1.8-2-3.7-3.9-5.6-5.9c-0.1-0.2-0.3-0.3-0.4-0.5c0.2-0.2,0.4-0.4,0.6-0.6
		l0.1-0.1c0.7-0.7,1.9-0.7,2.7,0c0.8,0.7,2,0.7,2.7,0c6.4-6.5,33.6-34.2,35.8-37.2c2.5-3.3-3.1-8.9-8.6-9.3
		c-4.9-0.3-31.5,29.8-37.5,36.7c-0.7,0.8-0.6,2,0.1,2.7l0.9,0.9c-0.1,0.1-0.1,0.1-0.2,0.2c-0.5,0.6-1.1,1.2-1.6,1.7
		c-1.8-1.8-3.6-3.7-5.4-5.5l-0.1-0.1c-0.7-0.7-0.7-1.9,0-2.7c0.7-0.8,0.7-2,0-2.7c-6.5-6.4-34.2-33.6-37.2-35.8
		c-3.3-2.5-8.9,3.1-9.3,8.6c-0.3,4.9,29.8,31.5,36.7,37.5c0.8,0.7,2,0.6,2.7-0.1l0.9-0.9c0.1,0.1,0.1,0.1,0.2,0.2
		c1.5,1.4,2.9,2.7,4.4,4c0.9,0.8,1.8,1.7,2.7,2.5c-2.5,2.7-5.1,5.3-7.7,7.9c-3.6,3.5-7.2,6.8-11,10.1c-0.1,0.1-0.3,0.2-0.5,0.4
		c-0.1-0.1-0.2-0.2-0.3-0.3c-0.4-0.5-0.7-0.9-1.2-1.4c-1.8-1.8-3.5-3.8-5.4-5.5c-1.2-1.2-2.7-1.4-4.3-0.8c-0.4,0.1-0.8,0.3-1.2,0.6
		c-1.2,0.7-2.3,1.7-3.4,2.6c-1.6,1.4-3.2,2.8-4.8,4.2c-2,1.7-4,3.3-5.9,4.9c-1.6,1.3-3.1,2.7-4.6,4c-2.3,2-4.5,4.2-6.7,6.3
		c-0.4,0.3-0.5,0.8-0.5,1.2c0,1,0.4,1.9,1,2.7c0.6,0.7,1.1,1.4,1.7,2c1,1.3,2,2.6,3.2,3.7c2.2,2.2,4.5,4.3,6.7,6.4
		c1.7,1.6,3.5,3.2,5.3,4.8c0.8,0.7,1.6,1.3,2.5,1.9c1.1,0.7,2.2,0.9,3.4,0.1c0.6-0.4,1.2-0.7,1.7-1.2c2.4-1.7,4.5-3.7,6.7-5.6
		c3.1-2.6,6.1-5.3,9.1-7.9c1.3-1.1,2.5-2.3,3.6-3.5c1-1.1,1.9-2.2,2.4-3.5c0.7-1.7,0.4-3.4-0.5-4.9c-0.9-1.5-1.9-2.9-2.9-4.4
		c-0.4-0.6-0.9-1.2-1.5-1.9c0.3-0.3,0.5-0.5,0.7-0.7c2.5-2.2,4.9-4.5,7.4-6.7c2-1.8,3.9-3.7,5.9-5.6c1.2-1.1,2.4-2.3,3.6-3.4
		c0.8-0.7,1.5-1.5,2.2-2.2c0.9,0.9,1.8,1.8,2.7,2.7c3.5,3.6,6.8,7.2,10.1,11c0.1,0.1,0.2,0.3,0.4,0.5c-0.1,0.1-0.2,0.2-0.3,0.3
		c-0.5,0.4-0.9,0.7-1.4,1.2c-1.8,1.8-3.8,3.5-5.5,5.4c-1.2,1.2-1.4,2.7-0.8,4.3c0.1,0.4,0.3,0.8,0.6,1.2c0.7,1.2,1.7,2.3,2.6,3.4
		c1.4,1.6,2.8,3.2,4.2,4.8c1.7,2,3.3,4,4.9,5.9c1.3,1.6,2.7,3.1,4,4.6c2,2.3,4.2,4.5,6.3,6.7c0.3,0.4,0.8,0.5,1.2,0.5
		c1,0,1.9-0.4,2.7-1c0.7-0.6,1.4-1.1,2-1.7c1.3-1,2.6-2,3.7-3.2c2.2-2.2,4.3-4.5,6.4-6.7c1.6-1.7,3.2-3.5,4.8-5.3
		c0.7-0.8,1.3-1.6,1.9-2.5C271.5,247.2,271.7,246,271,244.8z M170,250.1c-0.4,0.3-0.8,0.5-1.3,0.7c-0.2,0.1-0.5,0.2-0.8,0.2
		c-0.6,0-1.1-0.4-1.1-1c0-0.3,0-0.6,0.1-0.8c0.4-1,0.9-1.7,1.5-2.3c1.9-2.3,4.2-4.3,6.5-6.2c2-1.7,4-3.3,6-4.9
		c1.3-1,2.6-2.1,3.9-3.1c0.4-0.3,0.8-0.5,1.2-0.7c0.6-0.3,1.1-0.2,1.4,0.2c0.4,0.4,0.4,1,0,1.6c-0.2,0.4-0.5,0.7-0.8,1.1
		c-0.6,0.8-1.1,1.6-1.7,2.4c-0.5,0.6-1,1.2-1.5,1.8c-0.3,0.3-0.7,0.5-1,0.8c-0.9,0.9-1.8,1.8-2.6,2.6c-1.8,1.8-3.7,3.5-5.8,5
		C172.7,248.2,171.3,249.2,170,250.1z M174.6,256c-0.3,0.2-0.6,0.3-0.9,0.4c-0.5,0.1-1,0.1-1.3-0.3c-0.4-0.4-0.4-0.9-0.2-1.6
		c0.2-0.3,0.5-0.8,0.9-1.2c1.2-1.5,2.5-2.8,3.9-4c2.7-2.4,5.4-4.9,8.1-7.3c1.6-1.5,3.3-2.9,4.9-4.3c0.3-0.3,0.6-0.6,1-0.9
		c0.5-0.4,1-0.4,1.5-0.1c0.5,0.4,0.7,1,0.4,1.6c-0.2,0.5-0.6,0.9-0.9,1.4c-2.1,2.8-4.5,5.2-7,7.6c-2.5,2.4-5,4.6-7.6,6.8
		C176.5,254.7,175.6,255.4,174.6,256z M196.5,244.5c-0.1,0.1-0.3,0.4-0.5,0.7c-1.6,2.2-3.4,4.2-5.4,6c-2.1,2-4.2,4-6.3,5.9
		c-1.3,1.2-2.7,2.3-4.2,3.2c-0.3,0.2-0.6,0.4-1,0.5c-0.5,0.2-1.1,0.1-1.4-0.3c-0.4-0.4-0.3-0.9-0.1-1.4c0.4-0.8,1-1.5,1.7-2.2
		c1.7-1.5,3.3-3.1,5-4.6c1.7-1.5,3.3-3.1,5-4.7c1.3-1.2,2.5-2.4,4-3.4c0.4-0.3,0.8-0.6,1.2-0.9c0.2-0.1,0.4-0.3,0.5-0.4
		c0.5-0.3,0.9-0.2,1.3,0.1C196.6,243.4,196.8,243.9,196.5,244.5z M253.3,259.6c-0.3,0-0.6,0-0.8-0.1c-1-0.4-1.7-0.9-2.3-1.5
		c-2.3-1.9-4.3-4.2-6.2-6.5c-1.7-2-3.3-4-4.9-6c-1-1.3-2.1-2.6-3.1-3.9c-0.3-0.4-0.5-0.8-0.7-1.2c-0.3-0.6-0.2-1.1,0.2-1.4
		c0.4-0.4,1-0.4,1.6,0c0.4,0.2,0.7,0.5,1.1,0.8c0.8,0.6,1.6,1.1,2.4,1.7c0.6,0.5,1.2,1,1.8,1.5c0.3,0.3,0.5,0.7,0.8,1
		c0.9,0.9,1.8,1.8,2.7,2.6c1.8,1.8,3.5,3.7,5,5.8c1,1.3,1.9,2.6,2.8,4c0.3,0.4,0.5,0.8,0.7,1.3c0.1,0.2,0.2,0.5,0.2,0.8
		C254.4,259.2,254,259.6,253.3,259.6z M259.6,254.1c-0.4,0.4-0.9,0.4-1.6,0.2c-0.3-0.2-0.8-0.5-1.2-0.9c-1.5-1.2-2.8-2.5-4-3.9
		c-2.4-2.7-4.9-5.4-7.3-8.1c-1.5-1.6-2.9-3.3-4.3-4.9c-0.3-0.3-0.6-0.6-0.9-1c-0.4-0.5-0.4-1-0.1-1.5c0.4-0.5,1-0.7,1.6-0.4
		c0.5,0.2,0.9,0.6,1.4,0.9c2.8,2.1,5.2,4.5,7.6,7c2.4,2.5,4.6,5,6.8,7.6c0.7,0.9,1.4,1.9,2.1,2.9c0.2,0.3,0.3,0.6,0.4,0.9
		C260,253.2,260,253.7,259.6,254.1z M264,248.7c-0.4,0.4-0.9,0.3-1.4,0.1c-0.8-0.4-1.5-1-2.2-1.7c-1.5-1.7-3.1-3.3-4.6-5
		c-1.5-1.7-3.1-3.3-4.7-5c-1.2-1.3-2.4-2.5-3.4-4c-0.3-0.4-0.6-0.8-0.9-1.2c-0.1-0.2-0.3-0.4-0.4-0.5c-0.3-0.5-0.2-0.9,0.1-1.3
		c0.3-0.4,0.8-0.5,1.5-0.3c0.1,0.1,0.4,0.3,0.7,0.5c2.2,1.6,4.2,3.4,6,5.4c2,2.1,4,4.2,5.9,6.3c1.2,1.3,2.3,2.7,3.2,4.2
		c0.2,0.3,0.4,0.6,0.5,1C264.5,247.8,264.4,248.4,264,248.7z"/>
</g>
</svg>
