<?xml version="1.0" encoding="utf-8"?>
<!-- Generator: Adobe Illustrator 21.0.1, SVG Export Plug-In . SVG Version: 6.00 Build 0)  -->
<svg version="1.1" id="Calque_1" xmlns="http://www.w3.org/2000/svg" xmlns:xlink="http://www.w3.org/1999/xlink" x="0px" y="0px"
	 viewBox="0 0 432 432" style="enable-background:new 0 0 432 432;" xml:space="preserve">
<style type="text/css">
	.st0{fill:#C77B32;}
	.st1{fill:#65C8D0;}
	.st2{fill:#838BC5;}
	.st3{fill:#404041;}
	.st4{fill:#D87985;}
</style>
<g>
	<g>
		<path d="M279.4,231.1c0,1.2,0.1,2.4,0,3.6c-0.3,5.6-2.1,10.7-5,15.5c-1.8,2.9-3.9,5.4-6.6,7.5c-5.3,4.2-12.6,3.9-17.6-0.7
			c-2-1.9-3.6-4.1-4.9-6.5c-0.1-0.2-0.2-0.4-0.4-0.6c0-0.1-0.1-0.1-0.3-0.2c-0.2,0.4-0.3,0.8-0.5,1.2c-0.8,1.8-1.5,3.7-2.3,5.5
			c-0.7,1.4-1.5,2.7-2.5,4c-0.9,1.2-2.1,2-3.7,2.2c-1.3,0.2-2.5-0.2-3.4-1.2c-0.7-0.7-1.4-1.6-1.9-2.5c-1.5-2.7-2.5-5.5-3.2-8.5
			c-0.4-1.7-0.8-3.3-1.2-5c-0.1-0.2-0.2-0.4-0.3-0.8c-0.5,0.8-0.8,1.5-1.2,2.1c-1.7,3.5-3.4,7-5.2,10.4c-0.8,1.5-1.6,3-2.9,4.1
			c-2,1.8-4.1,1.7-6.1-0.1c-1.8-1.6-2.9-3.6-3.8-5.7c-0.6-1.5-1.1-3-1.6-4.5c-0.1-0.3-0.2-0.5-0.4-1c-0.3,0.4-0.5,0.6-0.7,0.9
			c-1.6,2.5-3.1,4.9-4.7,7.4c-1.5,2.2-3.3,4.1-5.5,5.6c-3.6,2.3-7.9,2-11.1-0.8c-2.2-1.9-3.8-4.3-5.2-6.9c-1.7-3.2-2.7-6.6-3.3-10.1
			c-0.1-0.6-0.2-1.2-0.3-1.7c-0.8-0.3-0.9,0.1-1,0.7c-0.3,1.6-0.5,3.3-1,4.9c-1.4,5.2-4.3,9.2-9.1,11.6c-3.8,1.9-7.7,2-11.6,0.3
			c-1.8-0.8-3.3-2.1-4.1-4c-1-2.7-0.2-5.1,1.5-7.3c1.4-1.7,3.2-2.9,5-4c2.8-1.6,5.8-2.7,8.9-3.5c0.9-0.2,1-0.2,1-1.2
			c0-4.1-0.4-8.1-2.1-12c-0.2-0.5-0.5-1-0.8-1.5c-0.9-1.4-2.1-1.9-3.7-1.4c-1.2,0.4-2.3,0.9-3.4,1.5c-3,1.7-5.4,4-7.4,6.7
			c-2.5,3.3-4.2,7-5.1,11c-0.3,1.2-0.5,2.3-0.3,3.6c0.1,0.9,0.1,1.8,0.1,2.6c0,1.2-0.6,2.1-1.7,2.5c-1.1,0.4-2.2,0.2-2.9-0.8
			c-1-1.3-1.9-2.7-2.6-4.1c-1.1-2.4-2-4.9-3-7.3c-0.1-0.3-0.2-0.7-0.4-1.1c-0.2,0.1-0.4,0.2-0.5,0.3c-1.8,1.9-3.6,3.9-4.9,6.2
			c-0.2,0.4-0.4,0.9-0.6,1.3c-0.4,0.9-1.1,1.2-1.9,1c-0.7-0.2-1.2-1.1-1-1.9c0.2-0.8,0.5-1.6,1-2.3c1.2-1.8,2.5-3.5,3.9-5.2
			c0.8-1,1.7-1.9,2.5-2.9c0.4-0.4,0.5-0.8,0.4-1.4c-0.8-3.8-1.2-7.7-1.3-11.5c-0.2-4.7,0.2-9.3,1.4-13.8c1.1-4.2,2.9-8.1,5.9-11.4
			c1.4-1.5,3-2.8,5-3.7c4.4-2,9.1,0,10.7,4.5c1.2,3.3,1.3,6.7,0.6,10c-1.4,6.8-4.6,12.7-9.1,17.9c-1,1.2-2.1,2.3-3.1,3.5
			c-0.3,0.4-0.6,0.7-0.5,1.3c0.3,2.1,0.6,4.2,0.9,6.3c0,0.1,0.1,0.3,0.3,0.5c0.3-0.5,0.6-0.9,0.8-1.3c3.5-6.3,8.3-11.4,14.4-15.3
			c2.9-1.9,6-2.2,9.3-0.7c2.2,1,3.8,2.6,5.1,4.6c1.2,1.9,2.1,4,2.7,6.2c0.6,2.2,1,4.4,1,6.7c0,0.2,0.1,0.4,0.1,0.7
			c0.6,0.1,0.5-0.3,0.5-0.6c0.1-1.4,0.1-2.8,0.2-4.2c0.3-3.1,0.7-6.2,2.1-9.1c1.2-2.5,2.7-4.7,5.1-6.2c3.5-2.1,7.9-1.4,10.5,1.8
			c5.3,6.3,2.3,14.6-4,17.7c-0.9,0.4-1.8,0.8-2.8,1.1c-0.3,0.1-0.7,0.3-1,0.4c0,0.8,0,1.6,0,2.4c0.1,4,0.4,8,1.4,11.9
			c0.3,1,0.6,2.1,1.1,3c0.9,1.9,2.6,2.6,4.6,1.9c1.7-0.6,3.2-1.6,4.3-2.9c1.5-1.8,2.9-3.7,4.2-5.6c1.2-1.8,2.3-3.6,3.5-5.5
			c0.7-1.1,0.9-2.2,0.7-3.5c-0.5-3.1-1-6.2-1.2-9.3c-0.4-5.6-0.7-11.2-1-16.9c0-0.4-0.1-0.8-0.1-1.3c-0.5,0-1,0-1.5,0
			c-1.8,0.2-3.5,0.4-5.2,0.5c-0.6,0.1-1.3,0-1.9-0.1c-0.9-0.1-1.4-0.8-1.4-1.5c0-0.8,0.5-1.4,1.3-1.6c1.6-0.3,3.2-0.5,4.7-0.7
			c1-0.1,2.1-0.2,3.1-0.4c0.9-0.1,0.9-0.2,1-1.1c0.2-1.6,0.2-3.3,0.5-4.9c0.2-1.2,0.6-2.4,1.1-3.5c0.5-1.1,1.3-1.8,2.6-1.7
			c1.3,0.1,2.1,0.8,2.5,1.9c0.5,1.5,0.8,3.1,1.1,4.7c0.2,0.9,0.2,1.7,0.4,2.6c0.1,0.8,0.3,0.9,1,0.8c4.3-0.5,8.5-1,12.8-1.5
			c1.1-0.1,1.1-0.2,1.3-1.3c0.2-1.7,0.4-3.3,0.7-5c0.2-1.1,0.7-2.2,1.1-3.3c0.2-0.4,0.5-0.9,0.8-1.2c1.4-1.6,3.6-1.3,4.4,0.6
			c0.8,1.8,1.1,3.8,1.3,5.8c0.1,1,0.2,2,0.4,3.1c0.4,0,0.8,0,1.2,0c2.9-0.2,5.9-0.5,8.8-0.7c0.3,0,0.6,0,0.8,0
			c0.9,0.1,1.5,0.7,1.6,1.5c0.1,1-0.4,1.8-1.3,2c-0.7,0.2-1.4,0.2-2.1,0.3c-2.4,0.2-4.7,0.4-7.1,0.5c-0.3,0-0.6,0-0.8,0.1
			c-0.6,0.1-0.9,0.4-0.9,1c0,0.7,0,1.4,0,2c0.2,6.3,0.5,12.6,0.6,18.9c0.2,6,0.3,12,0.9,18c0.1,1.4,0.3,2.9,0.5,4.3
			c0.1,0.5,0.3,1,0.4,1.6c0.7-0.4,1.1-0.9,1.4-1.5c0.8-1.7,1.7-3.5,2.5-5.2c0.9-2.1,1.8-4.2,2.8-6.2c0.5-1,0.6-2,0.3-3.1
			c-0.8-4-1-8-0.3-12c0.5-2.9,1.7-5.5,3.6-7.7c1.7-2,3.9-3.2,6.6-3.2c1.6,0,2.9,0.6,4.1,1.5c4.5,3.7,5,9.5,2.6,13.8
			c-1.3,2.3-3.4,3.8-5.9,4.7c-0.4,0.2-0.8,0.3-1.4,0.5c0.5,1.5,0.9,3,1.4,4.4c0.8,2.1,1.7,4.2,3,6c0.6,0.8,1.2,1.6,1.9,2.3
			c1.9,1.9,4.4,2.3,6.8,1.1c2.3-1.2,4.2-2.8,5.6-4.9c3.5-5.2,5.5-10.9,5.5-17.2c0-0.3,0-0.6,0-0.8c-0.2-2.2-0.2-2.2-2.2-3.1
			c-2.7-1.2-5.4-2.3-7.9-4.1c-1.3-0.9-2.6-1.8-3.3-3.2c-1.5-3.1,0.6-6.7,4-6.9c2.3-0.1,4.3,0.6,6.1,2.1c2.9,2.4,4.7,5.5,5.7,9.1
			c0.2,0.8,0.6,1.3,1.4,1.6c2.9,1.2,5.6,2.7,8.1,4.7c3.3,2.7,4.9,6.2,5.3,10.4c0.5,4.4-0.1,8.8-0.2,13.2c0,1.6,0,3.3,0.1,4.9
			c0.1,1.5,0.9,1.9,2.3,1.3c1.2-0.5,2.1-1.4,3-2.4c3.5-4.1,6.8-8.4,9.4-13.3c0.2-0.4,0.6-0.8,1-1c1.3-0.6,2.5,0.4,2.2,1.8
			c-0.2,0.9-0.5,1.9-0.9,2.7c-1,1.8-2.2,3.6-3.3,5.4c-1.2,1.8-2.5,3.6-3.7,5.4c-1.6,2.3-3.5,4.3-6,5.8c-4,2.5-8.6,1.3-11-2.7
			c-1.8-3.1-2.3-6.5-2.3-9.9c0-3.6,0.4-7.2,0.6-10.8c0.1-1.2,0.1-2.4,0-3.6c-0.1-2-0.9-3.7-2.3-5.1c-0.8-0.8-1.7-1.5-2.6-2.2
			C279.6,231,279.5,231.1,279.4,231.1z M214,258.9c0.4-0.5,0.8-0.8,1-1.1c0.5-0.8,1-1.5,1.4-2.4c2.6-5,5.2-10,7.8-15
			c0.4-0.8,0.5-1.7,0.4-2.7c-0.3-2.1-0.5-4.1-0.7-6.2c-0.3-5.5-0.3-11-0.1-16.5c0.1-1.2-0.1-1.3-1.3-1.2c-3.6,0.4-7.2,0.8-10.8,1.2
			c-0.6,0.1-1.2,0.2-1.9,0.3c0,0.5,0,0.9,0,1.3c0.2,2.3,0.3,4.5,0.5,6.8c0.3,3.9,0.6,7.8,0.9,11.7c0.6,6.5,1.2,13,1.8,19.5
			C213.1,255.9,213.4,257.4,214,258.9z M137.6,228c0.5-0.4,0.7-0.6,0.9-0.8c2.8-3.2,5.3-6.5,7-10.4c1.4-3.1,2.4-6.2,2.4-9.7
			c0-1.7-0.2-3.4-0.9-4.9c-1.1-2.4-3.1-2.8-5-1.1c-1.2,1-1.9,2.3-2.5,3.7c-1.2,3-1.9,6.2-2.2,9.4c-0.2,2.8-0.2,5.6-0.1,8.4
			C137.2,224.4,137.4,226.1,137.6,228z M162.8,245.7c-0.4,0.1-0.8,0.2-1.2,0.3c-1.9,0.7-3.7,1.4-5.6,2.1c-1.5,0.6-2.9,1.5-4,2.6
			c-0.8,0.8-1.6,1.7-2.2,2.7c-0.6,1-0.8,2.2,0,3.3c0.6,0.9,1.4,1.5,2.5,1.7c3,0.7,5.8-0.4,7.7-3.1c1.8-2.7,2.5-5.8,2.9-8.9
			C162.9,246.1,162.8,246,162.8,245.7z M183.4,239c0.4-0.2,0.7-0.2,1-0.4c1.9-1,3.4-2.4,4.4-4.3c1.4-2.4,0.4-5.6-0.7-6.9
			c-0.2-0.2-0.3-0.4-0.5-0.5c-0.9-0.6-1.7-0.5-2.2,0.4c-0.5,0.8-0.9,1.7-1.1,2.6c-0.7,2.5-0.8,5.1-0.9,7.7
			C183.3,238.1,183.4,238.5,183.4,239z M251.3,235.8c0.3,0,0.5,0,0.7,0c3.5-1,5.4-3.4,5-7.3c-0.2-1.7-1.1-2.9-2.6-3.7
			c-0.8-0.4-1.3-0.4-1.8,0.3c-0.5,0.7-0.9,1.6-1.2,2.4c-0.6,1.7-0.5,3.5-0.4,5.2C251,233.8,251.2,234.8,251.3,235.8z M274.6,224.1
			c-0.6-1.9-2.4-4.5-3.7-5.5c-0.9-0.7-2-1.2-3.2-1.3c-0.7-0.1-1.3,0-1.7,0.6c-0.4,0.7,0.1,1.2,0.5,1.7c0.1,0.2,0.3,0.3,0.4,0.4
			C269.1,222,271.7,223,274.6,224.1z"/>
		<path d="M253.1,335.6c3.9,4.7,8.6,8.7,12.8,13.1c0.3-0.2,0.6-0.3,0.8-0.4c2.6-1.8,5.5-3,8.6-3.6c1-0.2,2.1-0.3,3.1-0.2
			c2.2,0.3,4.3,0.7,6.5,1c0.3,0.1,0.6,0.2,0.9,0.3c0.7,0.4,0.9,1.2,0.6,2c-0.3,0.7-0.8,1-1.7,0.8c-2.8-0.7-5.7-0.7-8.6-0.4
			c-2.9,0.3-5.5,1.4-8,3c0.4,0.5,0.7,0.9,0.9,1.3c2.2,3.3,3.8,6.8,4.1,10.7c0.1,2.6-0.2,5.2-1.9,7.4c-1.8,2.2-4,3.5-6.9,3.3
			c-1.4-0.1-2.5-0.8-3.5-1.7c-2-1.8-2.8-4.1-3.3-6.7c-0.6-3.3-0.1-6.4,1.4-9.3c0.2-0.3,0.3-0.6,0.5-1c-4.2-4-8.4-8-12.7-12.1
			c-2,2.2-4.1,4.4-6.2,6.6c0.3,0.4,0.5,0.7,0.7,0.9c2.1,2.2,3.8,4.7,4.8,7.5c1,2.7,1.4,5.6,0.7,8.5c-0.7,3.1-2.6,5.3-5.4,6.7
			c-2.8,1.3-5.1,0.7-7.3-1.4c-2.7-2.6-3.4-5.9-3.2-9.4c0.1-2.1,0.7-4.1,1.6-6c0.2-0.5,0.3-0.9-0.2-1.4c-2.5-2.3-4.9-4.6-7.4-6.8
			c-0.1,0-0.1,0-0.3-0.1c-0.8,1.4-1.5,2.8-2.3,4.1c-3.1,5.2-7,9.6-12.3,12.7c-3.7,2.2-7.6,3.7-11.9,4c-3.1,0.2-5.8-1-8.2-2.9
			c-2.9-2.3-4.9-5.4-6.4-8.7c-0.2-0.3-0.3-0.7-0.6-1.2c-0.3,0.4-0.4,0.6-0.5,0.8c-1.7,4-3.7,7.8-6.3,11.3c-1.1,1.5-2.4,2.8-3.9,3.9
			c-1.4,1-2.8,1.2-4.4,0.8c-1.5-0.4-2.8-1-3.9-2c-2.4-2-4.1-4.5-5.4-7.4c-0.5-1.1-1-2.2-1.5-3.4c-0.2,0.2-0.5,0.3-0.6,0.5
			c-2.6,3-5.2,6-7.7,9c-0.6,0.7-1.4,0.9-2.1,0.5c-0.7-0.5-0.9-1.4-0.4-2.2c0.6-0.9,1.3-1.8,2-2.7c2.2-2.8,4.5-5.5,6.8-8.3
			c0.6-0.7,0.8-1.4,0.6-2.3c-1-4.4-1.5-8.9-1.5-13.4c0-5,0.6-9.9,2.4-14.6c0.8-2.1,1.8-4.1,3.2-5.9c1-1.2,2.1-2.3,3.7-2.7
			c2.3-0.6,4.2,0.2,5.6,2c1.3,1.7,1.9,3.7,2.1,5.8c0.6,4.5-0.3,8.8-1.8,12.9c-0.7,2.1-1.6,4.1-2.5,6.1c-0.6,1.4-1.4,2.8-2.2,4.1
			c-0.3,0.5-0.5,1-0.3,1.6c1.1,4.9,2,9.9,3.6,14.7c0.3,0.9,0.7,1.9,1.2,2.7c0.7,1.2,1.3,1.4,2.4,0.5c0.9-0.7,1.7-1.6,2.4-2.5
			c2.9-4.2,5.1-8.8,7.3-13.5c0.4-0.9,0.3-1.8,0.2-2.7c-1-5.3-1.1-10.7,0.4-15.9c0.8-2.8,2-5.3,4-7.4c3.6-3.9,7.3-4.2,11.6-2.1
			c3.2,1.6,5.6,4.3,6.5,7.8c1.3,4.8-0.1,8-3.6,10.5c-2.3,1.7-5,2.7-7.7,3.4c-0.3,0.1-0.5,0.1-0.8,0.2c-0.1,0-0.1,0.1-0.3,0.2
			c0,0.3,0,0.6,0.1,0.9c0.9,4.1,2.2,8,4.1,11.7c1.7,3.3,4.4,4.9,8.1,4.5c1.1-0.1,2.3-0.4,3.4-0.8c1.7-0.6,3.2-1.5,4.7-2.7
			c3.3-2.7,5.9-6,7.9-9.7c0.8-1.4,1.4-3,2.1-4.4c0.3-0.6,0.2-1-0.3-1.5c-1.2-1-2.4-2.1-3.4-3.2c-1.6-1.6-3.2-3.3-4.6-5.1
			c-2.4-3-3.2-6.5-2.1-10.3c0.4-1.5,1.1-2.8,2.3-3.8c1.9-1.6,4.2-1.8,6.4-0.6c1.3,0.7,2.3,1.7,3.2,2.8c2.7,3.6,4.2,7.7,4,12.2
			c-0.1,1.7,0.5,2.5,1.8,3.4c2.7,1.9,5.3,4,7.9,6c0.5,0.4,1,0.8,1.6,1.2c2.3-2.3,4.5-4.6,6.7-6.9c-0.3-0.4-0.5-0.7-0.7-1
			c-2.1-2.9-3.7-6.1-4.2-9.7c-0.4-2.8-0.2-5.5,1.1-8.1c0.3-0.6,0.6-1.2,1.1-1.7c2.6-3.4,5.8-4,9.5-1.9c3.4,1.9,5.2,6,4.4,10.1
			c-0.4,2.2-1.1,4.3-2.3,6.1C253.4,334.9,253.3,335.2,253.1,335.6z M190.3,343.1c2.8-0.3,5.3-0.8,7.6-2.4c0.9-0.6,1.7-1.4,2.1-2.4
			c1-2.5,0.5-4.8-0.9-6.9c-1.1-1.6-2.6-2.7-4.6-3c-1.3-0.2-2.4,0.3-3,1.5c-0.4,0.7-0.7,1.4-0.9,2.2
			C189.7,335.7,189.9,339.3,190.3,343.1z M163.2,344.3c0.2-0.4,0.5-0.7,0.6-1.1c1.3-2.9,2.4-5.8,3.2-8.9c0.6-2.3,0.9-4.5,0.7-6.9
			c-0.2-1.6-0.5-3.1-1.5-4.4c-0.7-1-1.4-1-1.9,0.1c-0.6,1.3-1,2.6-1.4,4c-0.6,2.6-0.7,5.3-0.7,8
			C162.3,338.1,162.5,341.2,163.2,344.3z M250.9,332.9c0.5-1.1,0.9-1.9,1.3-2.8c0.5-1.4,0.8-2.9,0.5-4.5c-0.4-1.6-1.4-2.8-2.8-3.5
			c-1.1-0.5-1.8-0.2-2.1,1c-0.1,0.5-0.2,1.1-0.2,1.7C247.7,327.8,249.2,330.2,250.9,332.9z M222.7,336.3c0.1-0.2,0.1-0.2,0.1-0.2
			c0-0.1,0-0.2,0-0.4c-0.2-3.2-1.5-5.9-3.4-8.4c-0.4-0.5-1-1-1.5-1.3c-0.8-0.5-1.3-0.3-1.7,0.6c-0.7,1.6-0.3,3.1,0.6,4.4
			C218.3,333.2,220.3,334.9,222.7,336.3z M235,358.5c-1.3,2.3-1.3,6.9,0.7,9.2c0.3,0.4,0.8,0.7,1.1,1c1.2-1,1.6-1.8,1.6-3.2
			C238.4,362.6,237.1,360.4,235,358.5z M262.3,358.9c-0.8,1.9-1,3.9-0.4,5.8c0.3,1.1,0.9,2.1,1.7,2.9c0.7,0.7,1.3,0.6,1.6-0.3
			c0.2-0.8,0.4-1.7,0.3-2.5C265.3,362.4,263.8,360.7,262.3,358.9z"/>
		<g>
			<path d="M216.7,190.3c-1.2,0.1-2.4,0.3-3.6,0.4c-3.7,0.2-7.4,0.5-11.1,0.7c-0.6,0-1.1,0.1-1.7,0.2c-0.7,0-0.9,0.4-1,1
				c-0.2,1.3-0.5,2.5-0.7,3.8c-0.1,0.4-0.3,0.8-0.5,1.2c-0.4,0.7-1,1-1.7,1c-0.8,0-1.5-0.4-1.8-1.2c-0.2-0.5-0.3-1.1-0.3-1.6
				c0.1-2.3,0.2-4.6,0.4-6.9c0.4-3.6,0.7-7.2,1.3-10.7c0.8-4.9,1.7-9.8,2.8-14.6c0.7-3.3,1.7-6.5,2.7-9.6c0.6-1.8,1.4-3.6,2.6-5.1
				c2-2.5,5-3,7.6-1.1c1,0.7,1.8,1.7,2.5,2.6c1.9,2.6,3.1,5.5,4,8.5c1.2,3.8,2.3,7.7,3.1,11.6c1.2,5.5,2.2,11,3.2,16.6
				c0.3,1.8,0.5,3.5,0.6,5.3c0.1,1.8,0.1,3.6,0,5.4c-0.1,1.6-1.2,2.6-2.7,2.6c-1,0-1.9-0.4-2.4-1.3c-0.2-0.3-0.4-0.7-0.5-1
				c-0.8-2.5-1.7-4.9-2.5-7.4C217,190.6,216.9,190.5,216.7,190.3z M216.1,186.9c-0.1-0.5-0.1-0.9-0.2-1.2c-0.6-3-1.3-6-1.9-9
				c-0.9-4.5-1.8-9-3.2-13.3c-0.9-2.8-1.9-5.6-2.8-8.4c-0.1-0.3-0.3-0.7-0.5-1c-0.1,0-0.2,0-0.3,0c-1.6,3.6-2.5,7.4-3.4,11.2
				c-0.9,3.8-1.6,7.6-2.3,11.4c-0.6,3.8-1.3,7.7-1.6,11.7C205.4,187.4,210.6,186.9,216.1,186.9z"/>
			<path d="M229.3,165.9c-1.2,0.2-2.1,0.4-3,0.6c-0.6,0.1-1.3,0.2-1.9,0.2c-0.8,0-1.4-0.6-1.5-1.2c-0.1-0.7,0.3-1.3,1.1-1.5
				c1-0.2,2.1-0.3,3.2-0.4c0.6-0.1,1.3-0.1,2-0.2c0-0.5,0.1-0.9,0.1-1.4c0.1-3.6,0.1-7.1,0.2-10.7c0-0.8,0.1-1.6,0.3-2.3
				c0.3-1.1,0.9-2.1,2.3-2.3c1.4-0.3,2.5,0.2,3.3,1.3c0.7,0.9,1,1.9,1.2,3c0.8,3.4,0.9,6.8,1.2,10.2c0,0.3,0.1,0.6,0.1,1.1
				c1.2-0.2,2.2-0.3,3.3-0.5c0.6-0.1,1.1-0.2,1.7-0.2c0.7,0,1.2,0.3,1.4,0.8c0.2,0.7-0.2,1.2-1,1.4c-1.1,0.3-2.3,0.4-3.4,0.6
				c-0.5,0.1-1.1,0.2-1.7,0.3c0,1-0.1,2,0,2.9c0.2,3.5,0.5,7.1,0.8,10.6c0.5,4.7,1,9.3,1.5,13.9c0.1,0.9,0.2,1.9,0.9,2.7
				c1.1-0.4,1.7-1.1,2.4-1.8c3-3.3,5.9-6.6,8.8-9.9c0.6-0.7,1.2-1.4,1.8-2.1c0.6-0.6,1.3-0.8,1.9-0.4c0.6,0.4,0.8,1.1,0.3,1.9
				c-1,1.3-2,2.6-3.1,3.8c-2.7,3.2-5.4,6.4-8.2,9.5c-0.7,0.8-1.5,1.4-2.4,2c-1.8,1.1-3.6,0.9-5.3-0.4c-1.6-1.2-2.6-2.9-3.4-4.6
				c-1.5-3.1-2.3-6.4-3-9.6c-1-4.7-1.5-9.5-1.8-14.2C229.3,168,229.3,167.1,229.3,165.9z"/>
			<path d="M168.5,152.3c3.1,10.1,3.6,20.4,4,30.9c0.9,0,1.6,0,2.3,0c1.3-0.1,2.6-0.2,3.8-0.2c0.4,0,0.9,0.1,1.3,0.3
				c0.5,0.3,0.8,1,0.6,1.6c-0.2,0.6-0.7,1-1.4,1.1c-2,0.1-3.9,0.3-5.8,0.4c-0.2,0-0.5,0.1-0.7,0.2c-0.1,0.3-0.1,0.5-0.1,0.7
				c0,1.9-0.1,3.8-0.1,5.8c0,0.4,0.1,0.7,0.1,1.1c0.2,0.9,0.7,1.5,1.6,1.5c1.2,0.1,2.5,0.3,3.7,0.1c3.9-0.5,7.8-1.1,11.6-1.6
				c0.3,0,0.6-0.1,0.8-0.1c0.7,0,1.2,0.3,1.2,0.9c0.1,0.6-0.2,1.2-0.7,1.5c-0.4,0.2-0.9,0.3-1.4,0.4c-4.5,0.8-9,1.5-13.5,1.8
				c-1.1,0.1-2.2,0-3.3-0.2c-1.9-0.3-3.1-1.5-4.1-3c-1.4-2.2-2.3-4.7-3.1-7.3c-1.8-6.1-2.6-12.4-3.2-18.8c-0.2-2.9-0.6-5.7-0.8-8.6
				c-0.2-2.9-0.5-5.7,0.2-8.6c0,0,0-0.1,0-0.1c-0.2-1.9,0.8-2.7,2.4-3.1c1.5-0.3,2.9-0.8,4.4-1c3.6-0.5,7.1-0.9,10.7-1.3
				c0.5-0.1,1-0.1,1.4,0c0.7,0.1,1.2,0.4,1.4,1.1c0.2,0.7,0,1.3-0.5,1.7c-0.4,0.3-0.9,0.5-1.4,0.6c-3.4,0.7-6.8,1.3-10.2,2
				C169.4,152.1,169,152.2,168.5,152.3z"/>
		</g>
		<g>
			<path d="M201.4,299.5c-0.3-4.3-0.6-8.7-0.8-13c-0.2-3.8-0.5-7.7-0.7-11.5c-0.1-1.4,0-2.7,0.1-4.1c0-0.6,0.3-1.2,0.8-1.5
				c1-0.6,2.2,0,2.4,1.3c0.2,1.8,0.4,3.7,0.5,5.5c0.2,2.7,0.3,5.3,0.5,8c0.2,2.6,0.4,5.1,0.6,7.7c0.3,4.6,1,9.1,1.9,13.6
				c0.3,1.6,0.5,3.2,0.6,4.7c0.1,1.1-0.3,2.1-1.3,2.8c-1.2,0.9-2.7,1-3.9,0.1c-0.6-0.4-1.2-1-1.6-1.6c-1.6-2.3-3.2-4.6-4.7-6.9
				c-2.2-3.3-4.3-6.7-6.5-10c-2.6-3.8-5.2-7.5-7.9-11.2c-0.3-0.4-0.6-0.8-0.9-1.2c-0.1,0-0.2,0.1-0.3,0.1c0,0.5,0,1,0.1,1.5
				c0.9,5.5,1.3,11.1,1.6,16.7c0.2,3.3,0.2,6.7,0.3,10.1c0,0.6,0,1.3-0.1,1.9c-0.2,1.4-1.2,2.3-2.5,2.4c-1.1,0.1-2.2-0.6-2.8-1.7
				c-0.1-0.2-0.2-0.4-0.3-0.7c-0.8-3.6-2.2-7.1-2.6-10.8c-0.8-8-1.6-15.9-2.3-23.9c-0.2-2.7-0.1-5.4-0.1-8.1c0-0.5,0.1-1,0.2-1.4
				c0.5-1.7,2-2.4,3.7-1.6c0.4,0.2,0.8,0.5,1.1,0.9c1.6,1.6,3.2,3.2,4.7,4.9c4,4.4,7.6,9.2,11,14.1c2.9,4.2,5.8,8.4,8.7,12.7
				c0.1,0.1,0.2,0.2,0.3,0.3C201.3,299.6,201.3,299.6,201.4,299.5z"/>
			<path d="M209,288.1c-0.1-4.3,0.6-8.4,2-12.5c0.8-2.2,1.9-4.4,3.5-6.2c0.9-1.1,2-1.9,3.4-2.5c2.7-1.2,5.3,0,6.7,1.4
				c2,2,3.7,4.2,5.1,6.7c1.5,2.8,2.4,5.7,3.2,8.7c1.1,4.8,1.7,9.6,1,14.4c-0.5,4.3-1.4,8.4-3.4,12.3c-0.5,0.9-1.1,1.8-1.8,2.5
				c-1.7,1.8-3.9,2.4-6.3,1.8c-2.2-0.5-3.9-1.6-5.5-3.1c-2.9-2.7-4.7-6.1-5.8-9.8C209.7,297.4,209.1,292.8,209,288.1z M218.1,289.1
				c-0.1,3.8,0.5,8,1.4,12.2c0.5,2.3,1.2,4.4,2.5,6.4c0.7,1,1.4,2.1,2.6,2.7c0.6,0.3,1.1,0.3,1.5-0.2c0.5-0.6,1.1-1.2,1.4-1.8
				c2.5-5.2,3.6-10.6,3.1-16.3c-0.6-6.1-2.3-11.9-5.4-17.3c-0.4-0.8-0.8-1.4-1.8-1.7c-1.2-0.4-1.5-0.4-2.1,0.7
				c-0.7,1.2-1.2,2.5-1.7,3.8C218.4,281.2,218.1,284.9,218.1,289.1z"/>
			<path d="M239.5,284.8c-1.1,0-2,0-2.9,0c-0.6,0-1.2-0.1-1.8-0.2c-0.9-0.2-1.3-0.9-1.1-1.6c0.1-0.7,0.8-1.3,1.7-1.3
				c0.8,0,1.6,0.1,2.4,0.1c0.5,0,1,0,1.5-0.1c0-1.6,0-3,0-4.4c0-2.4-0.2-4.9,0.3-7.3c0.1-0.7,0.4-1.5,0.7-2.2
				c0.9-1.7,3.2-1.9,4.4-0.3c0.5,0.7,0.9,1.5,1.1,2.4c0.5,2.2,1,4.5,1.4,6.7c0.3,1.5,0.5,3.1,0.7,4.7c0.4,0,0.7,0.1,1,0.1
				c1.4,0,2.7-0.1,4.1-0.1c0.4,0,0.9,0,1.3,0c0.7,0.1,1.3,0.7,1.3,1.4c0,0.7-0.5,1.1-1.3,1.2c-1.4,0.1-2.8,0.2-4.2,0.3
				c-2,0.1-1.9,0.1-1.8,1.9c0.3,4.9,0.6,9.7,1,14.6c0.2,3.2,0.6,6.4,0.9,9.6c0,0.2,0.1,0.5,0.2,0.8c1-0.6,1.5-1.5,2.1-2.3
				c1.6-2.3,3.2-4.6,4.8-6.9c0.2-0.3,0.4-0.6,0.6-0.8c0.6-0.6,1.3-0.8,2-0.4c0.7,0.3,0.9,1,0.5,1.8c-0.8,1.4-1.5,2.8-2.4,4.1
				c-1.4,2-2.9,3.9-4.3,5.9c-0.4,0.6-0.9,1.1-1.5,1.6c-1.6,1.4-3.7,1.4-5.4,0.1c-1-0.8-1.8-1.9-2.3-3c-1.5-3-2.2-6.3-2.8-9.5
				c-0.9-5.1-1.4-10.3-1.9-15.5C239.7,285.7,239.6,285.3,239.5,284.8z"/>
		</g>
	</g>
	<g>
		<path class="st0" d="M219.2,80.4c0.3,0.1,0.5,0.1,0.8,0.1c4.8,0.3,8.6,2.5,11.6,6.1c3.9,4.6,5.8,10,6,16c0.1,2,0.1,4.1-0.2,6.1
			c-0.6,4.5-2.3,8.7-4.7,12.6c-3,5-6.9,9.4-11.5,13.1c-3,2.3-6.2,4.3-9.9,5.3c-4.7,1.3-9.4,1.8-14.2,1c-3.4-0.5-6.7-1.1-9.9-2.3
			c-4.2-1.6-8.1-3.8-11.5-6.8c-2.9-2.6-5.1-5.7-6.8-9.2c-3.4-6.8-4.4-14.1-3.5-21.6c0.7-6.1,3.2-11.5,7.9-15.6
			c4.3-3.8,9.4-5.2,15-4.6c2.5,0.3,5,0.8,7.3,1.9c0.6,0.3,1.2,0.6,1.8,0.9c0.2,0.1,0.5,0.2,0.8,0.4c0.1-1.6,0.1-3,0.2-4.4
			c0.4-4.8,1.4-9.4,3.5-13.7c1.2-2.5,3-4.6,5.1-6.5c0.7-0.7,1.4-0.7,2.1-0.2c0.5,0.5,0.6,1.3,0.1,2.1c-0.5,0.7-1.1,1.3-1.6,1.9
			c-2.5,3-4.2,6.3-4.7,10.2c-0.2,2-0.5,4-0.8,6.1c0,0.3,0,0.5,0.2,0.9c0.4-0.7,0.8-1.3,1.1-2c1.5-2.9,3.5-5.5,5.5-8
			c2.5-3,5.2-5.8,8.3-8.1c4.1-3,8.7-4.4,13.7-4.3c1.6,0,2.4,0.9,2.4,2.5c-0.1,2-0.7,3.9-1.5,5.8c-2.6,5.6-6.4,10.2-11.7,13.5
			c-0.2,0.1-0.5,0.3-0.7,0.5C219.4,80.1,219.4,80.1,219.2,80.4z M202.5,136.1c6.7,0.1,11.3-1.1,15.7-4.4c5.9-4.4,10.5-9.8,13.4-16.6
			c2.4-5.4,3.2-11,1.6-16.8c-1.2-4.4-3.5-8-6.9-11c-1.5-1.3-3.3-2.1-5.3-2.3c-3.2-0.3-6.4,0.2-9.5,1c-3.4,0.9-6.5,2.7-9.5,4.4
			c-1.3,0.7-1.9,0.6-2.7-0.6c-0.4-0.6-0.9-1.1-1.5-1.5c-3.2-2.2-6.9-3.3-10.8-3.5c-1.1-0.1-2.3-0.1-3.3,0.2
			c-4.1,0.9-7.3,3.2-9.6,6.7c-2.7,4.2-3.5,9-3.1,13.9c0.3,3.5,1.1,6.9,2.3,10.3c1.6,4.3,4,8.2,7.5,11.3c3.8,3.3,8,5.8,12.9,7.2
			C197,135.3,200.3,136.2,202.5,136.1z M229.5,61.2c-0.4,0-0.7,0-0.9,0c-4.2,0.6-8.1,1.9-11.4,4.7c-3.1,2.6-5.6,5.5-8,8.7
			c-0.7,1-1.4,2.1-2.1,3.1c0.3,0.1,0.4,0,0.6-0.1c2.5-2,4.9-3.9,7.4-5.9c1-0.8,2.1-1.6,3.2-2.4c0.4-0.3,1-0.5,1.4-0.5
			c0.4,0.1,0.8,0.5,1,0.9c0.3,0.5-0.1,1-0.5,1.3c-1.5,1.2-3.1,2.4-4.6,3.6c-2.2,1.8-4.3,3.7-6.4,5.6c-0.3,0.3-0.5,0.6-0.8,0.9
			c0.6,0,0.9-0.2,1.3-0.4c3.1-1.4,6.1-3.2,8.9-5.2c1.5-1,2.8-2.2,4.1-3.5c2.5-2.4,4.2-5.3,5.7-8.4C228.7,63.1,229.1,62.2,229.5,61.2
			z"/>
		<path class="st0" d="M225.8,98.3c0,0.8-0.3,1.3-1,1.6c-0.7,0.3-1.3,0.1-1.7-0.4c-0.4-0.4-0.7-0.9-0.9-1.4
			c-0.9-2.1-2.5-3.5-4.6-4.3c-0.5-0.2-0.9-0.5-1.3-0.8c-0.6-0.5-0.7-1-0.5-1.7c0.3-0.7,0.8-1.1,1.5-1.1c1.2,0,2.2,0.4,3.2,0.9
			c2.9,1.4,4.4,3.9,5.2,6.9C225.8,98.1,225.8,98.3,225.8,98.3z"/>
	</g>
	<g>
		<path class="st0" d="M273.6,299.2c-2.9-0.1-5.2-0.4-7.5-0.9c-0.8-0.2-1.5-0.5-2.3-0.9c-1.2-0.6-1.3-2.2-0.3-3
			c2.2-1.9,4.7-3,7.4-3.8c1.5-0.4,2.9-0.7,4.4-1c1.5-0.2,2.9,0,4.2,0.6c0.9,0.4,1.6,1.1,2.1,2c0.7,1.4,0.5,2.7-0.7,4.1
			c-1.2,1.4-2.9,2.2-4.7,2.5C275.3,299.1,274.2,299.2,273.6,299.2z"/>
		<path class="st0" d="M272.3,277.8c0,1.4-0.4,2.9-1,4.2c-0.8,1.9-2.1,3.6-3.6,5.1c-1.1,1-2.1,2-3.4,2.8c-0.8,0.5-1.2,0.5-2-0.1
			c-0.4-0.3-0.5-0.7-0.5-1.2c0-0.6,0-1.2,0.1-1.7c0.4-2,0.9-4.1,1.4-6.1c0.7-2.5,2.1-4.6,4-6.4c0.2-0.1,0.3-0.3,0.5-0.4
			c1.6-1.2,3.1-0.3,3.8,0.9C272.1,275.8,272.3,276.8,272.3,277.8z"/>
		<path class="st0" d="M276.3,310.5c-0.1,1.5-0.7,2.7-2,3.5c-0.9,0.5-1.9,0.6-2.9,0.1c-1-0.5-1.8-1.2-2.6-2c-2-2.1-3.3-4.5-4.5-7.1
			c-0.1-0.3-0.3-0.7-0.4-1c-0.3-0.6-0.1-1.1,0.5-1.3c0.3-0.1,0.6-0.2,1-0.2c0.9,0,1.8,0.1,2.6,0.2c2.3,0.5,4.5,1.3,6.1,3.1
			c1,1.1,1.6,2.3,2,3.8C276.3,309.8,276.3,310.2,276.3,310.5z"/>
	</g>
	<g>
		<path class="st0" d="M156.9,290.8c2.5,0.1,4.9,0.4,7.1,0.9c0.8,0.2,1.6,0.5,2.4,0.9c1.1,0.6,1.2,2.1,0.2,3c-2.2,1.9-4.7,3-7.4,3.8
			c-1.5,0.4-3,0.7-4.4,1c-1.5,0.2-2.9,0-4.2-0.6c-0.9-0.4-1.6-1-2.1-1.9c-0.8-1.5-0.5-2.8,0.6-4.2c1-1.2,2.4-1.9,3.9-2.3
			C154.4,290.9,155.8,290.9,156.9,290.8z"/>
		<path class="st0" d="M157.9,312.4c0-1.4,0.4-2.8,0.9-4.1c0.9-2,2.1-3.8,3.7-5.3c1.1-1,2.1-2,3.4-2.8c0.5-0.3,0.9-0.6,1.5-0.3
			c0.7,0.4,1.1,0.9,1,1.7c-0.1,1-0.2,2.1-0.4,3.1c-0.4,2-0.8,4.1-1.6,6c-0.8,1.9-2,3.6-3.5,5c-0.2,0.1-0.3,0.3-0.5,0.4
			c-1.7,1.2-3.1,0.3-3.8-0.9C158.2,314.3,157.9,313.4,157.9,312.4z"/>
		<path class="st0" d="M164.6,287.6c-0.6,0-1.2-0.1-1.8-0.2c-2.6-0.4-4.9-1.2-6.8-3.2c-1-1.1-1.7-2.4-2-3.8c-0.4-1.8,0.4-3.5,2-4.4
			c0.9-0.5,1.9-0.5,2.8-0.1c1,0.5,1.8,1.2,2.6,2c2,2.1,3.4,4.5,4.5,7.1c0.1,0.3,0.3,0.6,0.4,0.9c0.3,0.6,0.1,1.1-0.6,1.4
			C165.3,287.5,164.9,287.6,164.6,287.6C164.6,287.6,164.6,287.6,164.6,287.6z"/>
	</g>
</g>
</svg>
