<?xml version="1.0" encoding="utf-8"?>
<!-- Generator: Adobe Illustrator 21.1.0, SVG Export Plug-In . SVG Version: 6.00 Build 0)  -->
<svg version="1.1" id="Calque_1" xmlns="http://www.w3.org/2000/svg" xmlns:xlink="http://www.w3.org/1999/xlink" x="0px" y="0px"
	 viewBox="0 0 432 432" style="enable-background:new 0 0 432 432;" xml:space="preserve">
<style type="text/css">
	.st0{fill:#E03B13;}
	.st1{fill:#652A19;}
	.st2{fill:#007F7B;}
	.st3{fill:#D07314;}
	.st4{fill:#BA3E18;}
	.st5{fill:#DE9801;}
	.st6{fill:#C17116;}
	.st7{fill:#6D4923;}
	.st8{fill:#7C1621;}
	.st9{fill:#EBA300;}
	.st10{fill:#A7192C;}
</style>
<g>
	<g>
		<g>
			<g>
				<g>
					<path class="st1" d="M124.1,244.9c-0.3,1.4-1.3,2.2-2.6,2.2c-1.3,0-2.3-0.7-2.5-2.2c-0.2-1.6-0.6-3.2-1.4-4.6
						c-1.7-2.9-3.4-2.9-4.9,0c-1.2,2.2-1.8,4.6-2.1,7.1c-0.3,2.6-0.5,5.3-0.4,8c0.3,4.3,0.7,8.5,0.9,12.8c0.1,1.4,0.6,2.1,2.1,1.9
						c0.8-0.1,1.7-0.1,2.6-0.1c2.1,0,3.2,0.8,3.4,2.3c0.2,1.6-0.7,2.5-2.8,2.9c-0.9,0.2-1.9,0.3-2.8,0.3c-1.2,0-1.6,0.5-1.5,1.7
						c0.6,5.1,1,10.2,1.6,15.3c0.5,4.5,1.1,9.1,1.6,13.6c0,0.1,0,0.2,0,0.3c0.2,2.4-0.6,3.8-2.3,3.9c-1.6,0.1-2.7-1.1-3-3.4
						c-1.7-12.3-2.9-24.6-4-36.9c-0.6-5.9-1.2-11.7-1.1-17.6c0-3.9,0.4-7.8,1.7-11.5c0.6-1.9,1.5-3.7,2.8-5.3
						c3.1-3.7,7.8-3.9,11.2-0.3c2,2,3,4.6,3.6,7.3C124.3,243.3,124.2,244.1,124.1,244.9z"/>
					<path class="st1" d="M151,265.3c-1.7,0-2.9-1.3-2.9-3.5c0-5.1-0.4-10.3-1.7-15.3c-0.4-1.5-0.9-3.1-2-4.4
						c-1.7,0.9-2.4,2.3-3.2,3.7c-3.3,5.3-4.8,11.3-6.2,17.4c-2.4,9.8-2.2,19.8-1.4,29.8c0.3,4.5,0.9,8.9,1.5,13.3
						c0.4,2.6-0.3,3.8-2,4c-1.8,0.2-2.7-0.7-3.3-3.1c-1-4-1.1-8.1-1.5-12.2c-1-11.1-0.9-22.2-0.3-33.3c0.4-6.7,0.8-13.5,1.9-20.2
						c0.1-0.6,0.1-1.1,0.3-1.7c0.5-1.3,1.7-2.1,2.8-2c1.3,0.2,2.3,1.2,2.2,2.9c0,1.5-0.3,3-0.4,4.5c0.1,0.1,0.3,0.2,0.4,0.2
						c0.7-1.2,1.4-2.4,2.2-3.6c0.9-1.4,2-2.8,3.4-3.8c3.3-2.4,6.6-1.8,8.7,1.7c1.8,3,2.7,6.3,3.2,9.7c0.5,4,0.8,8.1,1.1,12.2
						C153.9,263.9,152.8,265.3,151,265.3z"/>
					<path class="st1" d="M181.4,292c-0.5,4.9-1.1,9.9-3.5,14.3c-2.7,5-8.1,5.4-11.7,1c-2.6-3.1-4.2-6.8-5.2-10.7
						c-3.3-12.3-4.9-24.8-3.5-37.6c0.4-3.7,1.3-7.3,2.9-10.7c1.1-2.3,2.6-4.2,4.8-5.5c3.1-1.8,5.9-1.6,8.7,0.6
						c2.8,2.2,4.3,5.3,5.2,8.7c0.9,3.1,1.2,6.4,1.1,9.6c-0.2,3.8-1.7,5.3-5.5,5.5c-1.7,0.1-3.4,0-5.1,0c0,0,0,0,0,0.1
						c-1.7,0-3.4,0-5.1,0c-2,0-2.1,0.1-2,2.1c0.1,6.5,0.8,12.9,2.1,19.2c0.7,3.5,1.6,7,3,10.4c0.7,1.7,1.5,3.3,2.7,4.7
						c1.2,1.5,2.1,1.4,3-0.3c0.6-1.1,1-2.2,1.3-3.5c0.6-2.8,1.2-5.6,1.5-8.4c0.2-1.9,1-2.8,2.6-2.8C180.3,289,181.6,290.2,181.4,292
						z M162.7,260.8c-0.1,1,0.3,1.4,1.2,1.4c1.4,0,2.8,0,4.3,0c0,0,0,0,0-0.1c1.7,0,3.4,0,5.1,0c0.9,0,1.4-0.4,1.4-1.4
						c0-4-0.4-8-2.7-11.4c-1.8-2.7-4-2.7-5.9-0.1c-0.3,0.4-0.5,0.8-0.7,1.2C163.8,253.7,163.2,257.2,162.7,260.8z"/>
					<path class="st1" d="M205.9,254.6c-0.1,1.4-1.2,2.3-2.4,2.4c-1.3,0-2.5-1-2.6-2.5c-0.1-1.9-0.3-3.8-0.7-5.6
						c-0.4-1.7-1-3.3-2.3-4.5c-1.4-1.3-2.8-1.2-3.8,0.5c-1.5,2.3-1.8,5-1.8,7.7c0.1,3,0.7,5.8,1.9,8.6c1.4,3.5,3,7,4.5,10.5
						c3.1,7,5.2,14.3,5.9,21.9c0.5,4.7,0,9.1-3,13c-1.6,2.1-3.5,3.7-6.3,4c-3.5,0.3-6-1.4-7.9-4.1c-2-3-2.3-6.6-2.7-10.1
						c-0.2-1.3,0.7-2.2,2-2.3c1.3-0.2,2.5,0.2,3.1,1.5c0.5,1,0.6,2.2,0.7,3.3c0.1,1.6,0.5,3.2,1.4,4.6c1.5,2.3,3.2,2.5,5.1,0.5
						c1.7-1.8,2.6-4.5,2.5-6.9c-0.3-8.6-2.5-15.9-5.6-23.1c-1.6-3.7-3.2-7.3-4.7-11c-1.8-4.4-2.5-9-2-13.7c0.3-2.8,1.1-5.4,2.7-7.7
						c2.9-4,7.8-4.5,11.4-1.2C205.5,244.1,206.2,249.2,205.9,254.6z"/>
					<path class="st1" d="M234.6,306.9c0,2-1.1,3.4-2.6,3.4c-1.6,0.1-2.8-1.2-2.8-3.3c-0.1-2.7,0-5.3-0.1-8c0-2.7-0.6-5.3-1.3-7.8
						c-0.3-1-0.7-2-1.2-2.9c-0.8-1.3-1.5-1.5-2.8-0.7c-1.7,1-2.9,2.5-3.8,4.2c-2.2,4.1-3.4,8.5-3.5,13.1c0,1,0.1,1.9-0.1,2.8
						c-0.2,1.4-1,2.3-2.3,2.5c-1.2,0.2-2.3-0.6-2.8-1.9c-0.2-0.5-0.3-1.1-0.3-1.7c-0.4-8.2-1.4-16.3-1.3-24.5
						c0.2-12.2-0.5-24.3-0.2-36.5c0.1-2.5,0.2-4.9,0.2-7.4c0-1.1,0.2-2.3,0.5-3.4c0.5-1.3,1.6-1.9,2.9-1.7c1.3,0.2,1.9,1.1,2.1,2.3
						c0.1,0.4,0,0.8,0,1.1c-0.9,8.8-0.5,17.7-0.5,26.5c0,7.4,0.2,14.8,0.3,22.2c0,0.9-0.2,1.9,0.5,3c1.5-2,2.9-3.7,4.7-5
						c4.3-3,8.5-2.1,11,2.5c1.7,2.9,2.3,6.2,2.8,9.5C234.7,299.3,234.6,303.1,234.6,306.9z"/>
				</g>
				<g>
					<path class="st1" d="M275.9,270.7c-0.6,8.7-1,17.9-2.8,26.9c-0.6,2.8-1.3,5.6-2.8,8c-3.6,5.9-9.3,6.9-13.2-0.1
						c-3.9-6.9-5.8-14.4-6.6-22.3c-1.1-10.8-0.1-21.5,2.7-31.9c0.6-2.1,1.3-4.2,2.3-6.1c0.6-1.2,1.2-2.4,2-3.5
						c4.1-5.9,9.5-5.7,13.4,0.4c2.7,4.3,4,9,4.6,14C276,260.8,276,265.6,275.9,270.7z M270.6,267.9c0-5-0.2-10.5-1.3-15.9
						c-0.6-2.8-1.9-5.2-3.3-7.5c-1.3-2.2-2.3-2.2-3.8-0.2c-0.4,0.5-0.8,1.1-1.1,1.7c-1.3,2.3-2.2,4.6-2.8,7.1
						c-2.7,10.5-3.6,21.1-2.1,31.9c0.8,5.9,2.3,11.6,5.1,16.8c0.5,0.8,1,1.6,1.5,2.4c0.5,0.7,1,0.7,1.6,0.2c0.9-0.8,1.5-1.7,1.9-2.8
						c0.8-1.9,1.4-3.9,1.7-6C269.7,286.7,270.2,277.6,270.6,267.9z"/>
					<path class="st1" d="M304,248.7c-0.2,5.3-0.4,10.7-0.6,16c-0.5,9.3-0.4,18.7-1.6,27.9c-0.5,3.7-1.1,7.3-2.3,10.9
						c-0.7,1.9-1.5,3.7-3,5.1c-2.6,2.4-5.9,2.4-8.4-0.1c-2.2-2.3-3.5-5.2-4.5-8.2c-1.4-4.6-2.2-9.2-2.8-14
						c-1.8-14.9-1.9-29.8-0.9-44.7c0-0.5,0-1,0.1-1.4c0.3-1.6,1.3-2.4,2.7-2.4c1.4,0,2.4,0.9,2.4,2.6c0.1,1.5,0,3-0.1,4.6
						c-1,15.4-0.6,30.8,1.9,46.1c0.4,2.5,1.1,5,1.7,7.5c0.4,1.5,1,2.9,1.8,4.2c0.5,0.8,0.8,2,1.9,2c1.2,0,1.5-1.4,1.9-2.3
						c1.5-3.9,2.1-8.1,2.5-12.3c0.9-8.7,1-17.5,1.4-26.2c0.2-6.5,0.4-12.9,0.6-19.4c0-1.4,0.1-2.9,0.3-4.3c0.2-1.6,1.3-2.5,2.7-2.4
						c1.4,0.1,2.4,1,2.4,2.6C304.2,243.2,304.1,245.9,304,248.7z"/>
					<path class="st1" d="M327.2,255.7c0,1.7-1.3,2.7-3.5,2.8c-3.3,0.1-3.2,0.1-3.3,3.4c-0.2,7-0.6,14.1-0.4,21.1
						c0.2,7.6,0.7,15.2,2.7,22.6c0.1,0.5,0.2,0.9,0.3,1.4c0.2,1.8-0.5,3-2,3.3c-1.5,0.3-2.9-0.6-3.3-2.4c-0.6-3-1.3-5.9-1.7-8.9
						c-1.2-8-1.4-16.1-1.2-24.2c0.1-4.8,0.1-9.5,0.4-14.3c0.1-2.1,0-2.1-2-2.1c-1,0-1.9,0.1-2.9,0c-1.6-0.1-2.5-0.8-2.7-2.1
						c-0.2-1.3,0.7-2.7,2.1-3c1.2-0.3,2.5-0.3,3.7-0.2c1.4,0.1,2-0.4,2.1-1.9c0.2-4.5,0.5-8.9,0.8-13.4c0.1-1,0.1-2.1,0.3-3.1
						c0.4-1.6,1.8-2.6,3.1-2.4c1.4,0.2,2.2,1.4,2.1,3.2c-0.3,4.8-0.6,9.7-0.9,14.5c0,0.1,0,0.2,0,0.3c-0.1,2.9-0.1,2.9,2.7,2.8
						C326.1,253.2,327.2,253.9,327.2,255.7z"/>
				</g>
			</g>
			<g>
				<g>
					<path class="st3" d="M141.8,342.3c-0.4,5.5-0.6,11.2-1.8,16.8c-0.4,1.8-0.8,3.5-1.8,5c-2.2,3.7-5.8,4.3-8.3-0.1
						s-3.7-9.1-4.1-14c-0.7-6.8-0.1-13.5,1.7-20c0.4-1.3,0.8-2.6,1.4-3.8c0.4-0.7,0.8-1.5,1.2-2.2c2.6-3.7,6-3.6,8.4,0.3
						c1.7,2.7,2.5,5.6,2.9,8.8C141.9,336.2,141.9,339.1,141.8,342.3z M138.5,340.6c0-3.1-0.1-6.6-0.8-10c-0.4-1.7-1.2-3.2-2.1-4.7
						c-0.8-1.4-1.4-1.4-2.4-0.1c-0.3,0.3-0.5,0.7-0.7,1c-0.8,1.4-1.4,2.9-1.8,4.5c-1.7,6.6-2.3,13.2-1.3,20
						c0.5,3.7,1.4,7.2,3.2,10.5c0.3,0.5,0.6,1,0.9,1.5c0.3,0.4,0.6,0.5,1,0.1c0.5-0.5,0.9-1.1,1.2-1.8c0.5-1.2,0.9-2.5,1.1-3.8
						C137.9,352.3,138.2,346.6,138.5,340.6z"/>
					<path class="st3" d="M156,326.2c-0.2,0.9-0.8,1.4-1.6,1.4c-0.8,0-1.4-0.4-1.6-1.4c-0.2-1-0.3-2-0.9-2.9c-1.1-1.8-2.1-1.8-3.1,0
						c-0.8,1.4-1.1,2.9-1.3,4.4c-0.2,1.7-0.3,3.3-0.2,5c0.2,2.7,0.4,5.3,0.6,8c0.1,0.9,0.4,1.3,1.3,1.2c0.5-0.1,1.1-0.1,1.6-0.1
						c1.3,0,2,0.5,2.1,1.4c0.1,1-0.4,1.6-1.7,1.8c-0.6,0.1-1.2,0.2-1.8,0.2c-0.8,0-1,0.3-0.9,1.1c0.4,3.2,0.6,6.4,1,9.6
						c0.3,2.8,0.7,5.7,1,8.5c0,0.1,0,0.1,0,0.2c0.1,1.5-0.4,2.4-1.4,2.5c-1,0.1-1.7-0.7-1.9-2.2c-1-7.7-1.8-15.4-2.5-23.1
						c-0.3-3.7-0.7-7.4-0.7-11.1c0-2.5,0.3-4.9,1.1-7.2c0.4-1.2,0.9-2.3,1.7-3.3c1.9-2.3,4.9-2.4,7-0.2c1.2,1.3,1.9,2.9,2.3,4.6
						C156.1,325.2,156.1,325.7,156,326.2z"/>
					<path class="st3" d="M184.6,332.9c0,1.1-0.8,1.7-2.2,1.8c-2.1,0.1-2,0.1-2.1,2.1c-0.1,4.4-0.4,8.8-0.2,13.2
						c0.2,4.8,0.5,9.5,1.7,14.2c0.1,0.3,0.1,0.6,0.2,0.9c0.1,1.1-0.3,1.9-1.2,2.1c-0.9,0.2-1.8-0.4-2.1-1.5
						c-0.4-1.9-0.8-3.7-1.1-5.6c-0.8-5-0.9-10.1-0.8-15.1c0-3,0-6,0.2-8.9c0.1-1.3,0-1.3-1.2-1.3c-0.6,0-1.2,0-1.8,0
						c-1-0.1-1.5-0.5-1.7-1.3c-0.1-0.8,0.4-1.7,1.3-1.9c0.7-0.2,1.5-0.2,2.3-0.1c0.9,0,1.3-0.3,1.3-1.2c0.1-2.8,0.3-5.6,0.5-8.4
						c0-0.7,0.1-1.3,0.2-2c0.2-1,1.1-1.6,1.9-1.5c0.9,0.1,1.4,0.8,1.3,2c-0.2,3-0.4,6.1-0.5,9.1c0,0.1,0,0.1,0,0.2
						c0,1.8,0,1.8,1.7,1.8C183.9,331.4,184.6,331.8,184.6,332.9z"/>
					<path class="st3" d="M202.5,365c0,1.3-0.7,2.1-1.7,2.1c-1,0-1.7-0.8-1.8-2c-0.1-1.7,0-3.3-0.1-5c0-1.7-0.4-3.3-0.8-4.9
						c-0.2-0.6-0.4-1.2-0.8-1.8c-0.5-0.8-1-0.9-1.8-0.4c-1,0.6-1.8,1.6-2.4,2.6c-1.4,2.6-2.1,5.3-2.2,8.2c0,0.6,0,1.2,0,1.8
						c-0.1,0.9-0.6,1.4-1.5,1.6c-0.8,0.1-1.4-0.4-1.8-1.2c-0.1-0.3-0.2-0.7-0.2-1c-0.3-5.1-0.9-10.2-0.8-15.3
						c0.1-7.6-0.3-15.2-0.1-22.9c0-1.5,0.1-3.1,0.1-4.6c0-0.7,0.1-1.4,0.3-2.1c0.3-0.8,1-1.2,1.8-1.1c0.8,0.1,1.2,0.7,1.3,1.5
						c0,0.2,0,0.5,0,0.7c-0.6,5.5-0.3,11.1-0.3,16.6c0,4.6,0.1,9.3,0.2,13.9c0,0.6-0.1,1.2,0.3,1.9c1-1.2,1.8-2.3,2.9-3.1
						c2.7-1.9,5.3-1.3,6.9,1.6c1,1.8,1.5,3.9,1.8,6C202.6,360.3,202.5,362.6,202.5,365z"/>
					<path class="st3" d="M219.9,355.7c-0.3,3.1-0.7,6.2-2.2,9c-1.7,3.1-5.1,3.4-7.3,0.7c-1.6-2-2.6-4.3-3.3-6.7
						c-2.1-7.7-3-15.5-2.2-23.5c0.2-2.3,0.8-4.6,1.8-6.7c0.7-1.4,1.6-2.6,3-3.4c2-1.1,3.7-1,5.5,0.4c1.8,1.4,2.7,3.3,3.2,5.4
						c0.5,2,0.8,4,0.7,6c-0.1,2.4-1.1,3.3-3.4,3.5c-1.1,0.1-2.1,0-3.2,0c0,0,0,0,0,0c-1.1,0-2.1,0-3.2,0c-1.3,0-1.3,0-1.3,1.3
						c0.1,4.1,0.5,8.1,1.3,12.1c0.5,2.2,1,4.4,1.9,6.5c0.5,1,1,2.1,1.7,2.9c0.8,0.9,1.3,0.9,1.9-0.2c0.4-0.7,0.6-1.4,0.8-2.2
						c0.4-1.7,0.8-3.5,1-5.3c0.1-1.2,0.7-1.7,1.6-1.7C219.2,353.8,220,354.6,219.9,355.7z M208.1,336.2c-0.1,0.6,0.2,0.9,0.8,0.8
						c0.9,0,1.8,0,2.7,0c0,0,0,0,0,0c1.1,0,2.1,0,3.2,0c0.5,0,0.9-0.3,0.9-0.9c0-2.5-0.2-5-1.7-7.2c-1.1-1.7-2.5-1.7-3.7,0
						c-0.2,0.2-0.3,0.5-0.5,0.8C208.8,331.7,208.4,333.9,208.1,336.2z"/>
				</g>
				<g>
					<path class="st3" d="M252.5,342.3c-0.4,5.5-0.6,11.2-1.8,16.8c-0.4,1.8-0.8,3.5-1.8,5c-2.2,3.7-5.8,4.3-8.3-0.1
						c-2.4-4.4-3.7-9.1-4.1-14c-0.7-6.8-0.1-13.5,1.7-20c0.4-1.3,0.8-2.6,1.4-3.8c0.4-0.7,0.8-1.5,1.2-2.2c2.6-3.7,6-3.6,8.4,0.3
						c1.7,2.7,2.5,5.6,2.9,8.8C252.6,336.2,252.6,339.1,252.5,342.3z M249.2,340.6c0-3.1-0.1-6.6-0.8-10c-0.4-1.7-1.2-3.2-2.1-4.7
						c-0.8-1.4-1.4-1.4-2.4-0.1c-0.3,0.3-0.5,0.7-0.7,1c-0.8,1.4-1.4,2.9-1.8,4.5c-1.7,6.6-2.3,13.2-1.3,20
						c0.5,3.7,1.4,7.2,3.2,10.5c0.3,0.5,0.6,1,0.9,1.5c0.3,0.4,0.6,0.5,1,0.1c0.5-0.5,0.9-1.1,1.2-1.8c0.5-1.2,0.9-2.5,1.1-3.8
						C248.6,352.3,248.9,346.6,249.2,340.6z"/>
					<path class="st3" d="M270.8,321.3c-0.4,2.2-0.9,4.4-1.4,6.6c-1.7,8.4-3,16.9-3.7,25.4c-0.3,3.7-0.6,7.5-1,11.2
						c-0.1,0.5-0.1,1-0.3,1.4c-0.3,0.7-0.8,1.2-1.6,1.2c-0.7,0-1.3-0.4-1.6-1c-0.2-0.5-0.4-1.1-0.5-1.7c-1.6-7.9-2.7-16-3.6-24
						c-0.6-5.5-1.5-11-2.3-16.4c-0.1-0.7-0.2-1.4-0.2-2.1c0-1,0.6-1.7,1.4-1.8c0.9-0.1,1.6,0.4,1.8,1.6c0.5,2.9,1,5.9,1.4,8.8
						c0.9,6.6,1.7,13.2,2.6,19.8c0.1,0.8,0.3,1.6,0.4,2.4c0.7-4.4,1.1-8.7,1.7-13c0.9-6.1,2.2-12.2,3.4-18.3
						c0.1-0.4,0.2-0.8,0.4-1.2c0.4-1,1.3-1.4,2.1-1.2C270.6,319.4,271,320.2,270.8,321.3z"/>
					<path class="st3" d="M288.3,355.7c-0.3,3.1-0.7,6.2-2.2,9c-1.7,3.1-5.1,3.4-7.3,0.7c-1.6-2-2.6-4.3-3.3-6.7
						c-2.1-7.7-3-15.5-2.2-23.5c0.2-2.3,0.8-4.6,1.8-6.7c0.7-1.4,1.6-2.6,3-3.4c2-1.1,3.7-1,5.5,0.4c1.8,1.4,2.7,3.3,3.2,5.4
						c0.5,2,0.8,4,0.7,6c-0.1,2.4-1.1,3.3-3.4,3.5c-1.1,0.1-2.1,0-3.2,0c0,0,0,0,0,0c-1.1,0-2.1,0-3.2,0c-1.3,0-1.3,0-1.3,1.3
						c0.1,4.1,0.5,8.1,1.3,12.1c0.5,2.2,1,4.4,1.9,6.5c0.5,1,0.9,2.1,1.7,2.9c0.8,0.9,1.3,0.9,1.9-0.2c0.4-0.7,0.6-1.4,0.8-2.2
						c0.4-1.7,0.8-3.5,1-5.3c0.1-1.2,0.7-1.7,1.6-1.7C287.6,353.8,288.4,354.6,288.3,355.7z M276.5,336.2c-0.1,0.6,0.2,0.9,0.8,0.8
						c0.9,0,1.8,0,2.7,0c0,0,0,0,0,0c1.1,0,2.1,0,3.2,0c0.5,0,0.9-0.3,0.9-0.9c0-2.5-0.2-5-1.7-7.2c-1.1-1.7-2.5-1.7-3.7,0
						c-0.2,0.2-0.3,0.5-0.5,0.8C277.2,331.7,276.8,333.9,276.5,336.2z"/>
					<path class="st3" d="M306.4,364.8c0,0.4,0,0.7-0.1,1.1c-0.1,0.6-0.5,1.1-1.1,1.2c-0.7,0.1-1.3,0-1.8-0.6
						c-0.4-0.5-0.6-1-0.6-1.7c0.1-5.1-0.2-10.2-0.3-15.4c-0.1-5.8-0.3-11.7-0.9-17.5c-0.2-2-0.6-4-1.3-5.9c-0.5-1.1-1-1.4-1.9-0.6
						c-2.4,1.9-4.4,4.1-4.6,7.5c-0.4,10.1-0.2,20.3,1.2,30.3c0.1,0.7,0.2,1.4,0.2,2.1c0,1-0.5,1.5-1.3,1.6c-0.9,0.1-1.6-0.3-1.9-1.2
						c-0.1-0.3-0.1-0.7-0.2-1.1c-1.4-10.1-1.9-20.2-1.4-30.3c0.2-4.5,0.4-8.9,0.8-13.4c0-0.4,0.1-0.8,0.2-1.2c0.3-1,1-1.4,1.9-1.2
						c0.8,0.1,1.3,0.7,1.3,1.7c0,0.4-0.1,0.7-0.1,1.1c0,0.8-0.2,1.7-0.1,2.8c0.8-0.6,1.5-1.1,2.1-1.6c2.9-1.8,5.3-1.1,6.6,2
						c1.2,2.8,1.6,5.8,1.8,8.9C306,344,305.9,354.4,306.4,364.8z"/>
				</g>
			</g>
			<g>
				<path class="st1" d="M106.7,342.1c-7,9.1,7.5,18,11.5,7.2C120.8,342,110.6,337,106.7,342.1z"/>
				<path class="st1" d="M324.4,339.8c-3.7-3.4-14.9,1.6-10.8,9.9C319.1,361,333.1,347.8,324.4,339.8z"/>
			</g>
		</g>
	</g>
	<g>
		<g>
			<path class="st1" d="M289,196.4c-3.7,8.7-16.4,8.8-20.3,0.5c-4.4,8.6-18.2,8.5-21-0.8c-2.9,4.9-7.4,10.1-13.2,6.9
				c-3.4-1.9-5-5.2-6.8-8.3c-1.3,5.7-5.3,10.3-11.8,10.3c-6.4-0.1-10.5-4.6-11.8-10.3c-1.9,3.1-3.4,6.4-6.8,8.3
				c-5.9,3.2-10.4-2.2-13.3-7.1c-3,9.7-16.6,10-20.9,1c-4,8.2-16.6,8.1-20.3-0.6c-1.4,2-3.4,3.6-5.6,4.4c0.1,0.1,0.1,0.3,0.1,0.5
				c0,4,0.3,8,1.1,11.9c0.6,2.9,1.5,7.9,3.8,9.3c2.9,1.8,8,1.7,11.3,2c29.8,3,60.2,2.6,90,1.8c12.7-0.3,25.5-0.6,38.1-2.2
				c2.3-0.3,6.3-0.3,8.3-1.9c2.3-1.8,3.3-8.2,3.7-11.3c0.5-3.2,0.7-6.4,0.7-9.6c0-0.2,0-0.3,0.1-0.5
				C292.4,200,290.4,198.4,289,196.4z"/>
			<path class="st3" d="M295.6,189.1c-0.6,0.5-1.4,0.3-1.8-0.3c-0.1-0.1-0.1-0.1-0.2-0.2c-7.2-12.1-17-22.2-29-29.6
				c-42.2-25.8-100.8-13.4-126.3,29.6c-0.1,0.1-0.1,0.2-0.2,0.2c-0.4,0.5-1.2,0.8-1.8,0.3c-6-4.9-11.8,6.1-4.5,9.2
				c4.7,2,8.9-1,10.3-5.6c0.4-1.4,2.2-1,2.3,0.3c1.3,10.5,16.6,10.1,17.5-0.3c0.1-1.2,2.1-1.7,2.3-0.3c1.6,11.3,17.5,12.1,18,0
				c0-1.1,1.7-1.7,2.2-0.6c2.8,5.6,7.9,13.8,14.1,7.2c2.3-2.4,3.3-5.5,5.3-8.1c0.7-0.9,2.2-0.7,2.2,0.6c0.2,5.7,3.5,11.2,9.8,11.2
				c6.4,0.1,9.6-5.5,9.8-11.2c0-1.3,1.5-1.5,2.2-0.6c2,2.6,3,5.7,5.3,8.1c6.2,6.5,11.3-1.7,14.1-7.2c0.5-1.1,2.2-0.5,2.2,0.6
				c-0.1,5.1,3.5,8.6,8.6,8.7c5.4,0.1,8.7-3.7,9.4-8.7c0.2-1.4,2.2-0.9,2.3,0.3c0.9,10.5,16.2,10.8,17.5,0.3
				c0.2-1.3,1.9-1.7,2.3-0.3c1.4,4.6,5.6,7.5,10.3,5.6C307.5,195.2,301.6,184.3,295.6,189.1z M200.8,154.2
				c-1.3,4.8-5,20.1-12.8,16.1c-9.4-6.1,7.3-14.5,11.9-16.7C200.4,153.3,200.9,153.7,200.8,154.2z M216,172.7
				c-9.8-0.6-2.7-16-0.5-20.6c0.2-0.4,0.8-0.4,1,0C218.6,156.7,225.8,172.2,216,172.7z M243.9,170.3c-7.8,4-11.5-11.3-12.8-16.1
				c-0.1-0.5,0.4-0.9,0.9-0.7C236.6,155.8,253.3,164.3,243.9,170.3z"/>
		</g>
		<g>
			<g>
				<path class="st6" d="M154.3,162.1c3.4-6,9.6-13.5,9-20.8c-0.6-6.5-6.7-9.4-10.9-13.5c-12.6-12.4,17.1-28.7,2.2-40.8
					c-1.6-1.3-3.9,1-2.3,2.3c7.1,5.7,0.4,14.6-3,20.3c-3,5.1-5.3,11.4-2.1,16.9c2.7,4.7,8,6.8,11.2,11c5.2,6.9-3.3,16.9-6.8,23
					C150.5,162.2,153.3,163.9,154.3,162.1L154.3,162.1z"/>
			</g>
			<g>
				<path class="st6" d="M188.3,145.7c3.5-4.4,8-10.6,6.7-16.5c-1.2-5.5-6.5-8.3-9.4-12.7c-4.7-7.1,2.7-13.8,5.2-20.2
					c2.4-6.4,1.8-13.3-1-19.4c-0.9-1.9-3.7-0.3-2.8,1.6c3.6,7.9,1.9,15.2-2.3,22.5c-2.3,4-4.8,8.4-3.7,13.1c0.9,4.1,4.3,7,7.1,9.9
					c2.4,2.5,4.5,5.1,3.8,8.9c-0.7,3.8-3.4,7.5-5.8,10.5C184.7,145.1,187,147.4,188.3,145.7L188.3,145.7z"/>
			</g>
			<g>
				<path class="st6" d="M219.1,136.5c-6.2-7-2.2-14,2.7-20.1c3.2-4.1,5.5-8.7,6.5-13.9c0.9-5,0.6-10.2-1.4-15
					c-2.1-5.1-11.5-14.5-4.6-19.6c1.7-1.2,0-4.1-1.6-2.8c-4.5,3.3-4.7,9-2.4,13.8c1.9,3.9,4.8,7.1,6.2,11.3
					c1.4,4.1,1.4,8.6,0.4,12.7c-0.9,3.7-2.5,7.3-4.8,10.4c-2.2,3-4.9,5.6-6.3,9c-2.4,5.7-0.9,12,3.1,16.5
					C218.2,140.4,220.5,138,219.1,136.5L219.1,136.5z"/>
			</g>
			<g>
				<path class="st6" d="M248.4,141.9c-1.5-6.8,0.7-12.4,4.9-17.6c2.5-3.2,4.9-6.3,4.9-10.5c0-5.3-3.1-9.9-4.2-14.9
					c-1.4-6.3-0.1-12.6,3.1-18.1c1.1-1.8-1.8-3.5-2.8-1.6c-2.7,4.6-4.2,9.8-4.1,15.2c0.2,6.1,3.4,11.1,4.5,17
					c1.4,7.2-4.9,10.8-7.7,16.5c-2.3,4.7-2.7,9.9-1.6,15C245.7,144.8,248.9,144,248.4,141.9L248.4,141.9z"/>
			</g>
			<g>
				<path class="st6" d="M277.8,159.1c2.8-3.7,2.4-8.2,0.7-12.3c-2.6-6.4-5.3-11.1-3.8-18.3c2.4-11.5,10.8-20.7,11.7-32.7
					c0.2-2.1-3.1-2.1-3.3,0c-0.8,11.6-9.1,20.7-11.5,31.9c-1,4.5-1,9.1,0.7,13.4c2,5.2,6.8,11,2.7,16.4
					C273.7,159.1,276.6,160.7,277.8,159.1L277.8,159.1z"/>
			</g>
		</g>
	</g>
</g>
</svg>
