<?xml version="1.0" encoding="iso-8859-1"?>
<!-- Generator: Adobe Illustrator 19.0.0, SVG Export Plug-In . SVG Version: 6.00 Build 0)  -->
<svg version="1.1" id="Capa_1" xmlns="http://www.w3.org/2000/svg" xmlns:xlink="http://www.w3.org/1999/xlink" x="0px" y="0px"
	 viewBox="0 0 512.011 512.011" style="enable-background:new 0 0 512.011 512.011;" xml:space="preserve">
<g>
	<g>
		<g>
			<path d="M208.005,224h-21.333v42.667c0,5.891,4.776,10.667,10.667,10.667h42.667V256h-32V224z"/>
			<path d="M318.096,471.243c-19.079-15.369-42.927-23.59-67.424-23.243c-24.497-0.348-48.345,7.873-67.424,23.243
				c-15.482,12.903-35.093,19.799-55.243,19.424c-20.15,0.375-39.761-6.521-55.243-19.424C53.684,455.873,29.835,447.652,5.339,448
				v21.333c20.15-0.375,39.761,6.521,55.243,19.424c19.079,15.369,42.927,23.59,67.424,23.243
				c24.497,0.348,48.345-7.873,67.424-23.243c15.482-12.903,35.093-19.799,55.243-19.424c20.15-0.375,39.761,6.521,55.243,19.424
				c19.079,15.369,42.927,23.59,67.424,23.243c24.497,0.348,48.345-7.873,67.424-23.243c15.482-12.903,35.093-19.799,55.243-19.424
				V448c-24.497-0.348-48.345,7.873-67.424,23.243C396.306,497.142,350.371,497.142,318.096,471.243z"/>
			<path d="M413.635,342.38c3.805-10.448,6.285-21.531,7.247-33.046h0.457c5.891,0,10.667-4.776,10.667-10.667v-64v-53.333
				c0-76.583-62.083-138.667-138.667-138.667S154.672,104.75,154.672,181.333v21.333h-21.333v-192
				C133.339,4.776,128.563,0,122.672,0H80.005c-5.891,0-10.667,4.776-10.667,10.667v319.281c-18.468-13.672-40.945-20.942-64-20.615
				v21.333c20.15-0.375,39.761,6.521,55.243,19.424c3.71,2.581,7.432,5.147,11.339,7.593c6.92,21.438,27.017,36.955,50.752,36.983
				h85.999c23.323,20.627,53.432,32.049,84.667,32c44.082-0.048,82.948-22.354,105.969-56.283
				c15.078-3.718,29.223-10.617,41.455-20.293c15.482-12.903,35.093-19.799,55.243-19.424v-21.333
				c-24.497-0.349-48.346,7.872-67.424,23.243C423.93,336.364,418.917,339.639,413.635,342.38z M410.672,288h-65.067
				c-4.262-20.988-20.665-37.392-41.654-41.654c-28.866-5.862-57.018,12.787-62.88,41.654h-65.067v-42.667v-10.667
				c0.035-29.441,23.893-53.298,53.333-53.333h128c29.441,0.035,53.298,23.893,53.333,53.333V288z M112.005,74.667H90.672V64h21.333
				V74.667z M133.339,288h21.333v10.667c0,5.891,4.776,10.667,10.667,10.667h0.438c0.593,7.203,1.794,14.34,3.596,21.333h-25.367
				c-5.891,0-10.667-4.776-10.667-10.667V288z M293.339,64c64.801,0,117.333,52.532,117.333,117.333v1.149
				c-8.83-9.023-19.924-15.809-32.366-19.456c-3.91-43.523-40.437-77.644-84.967-77.694v21.333
				c31.695,0.032,57.984,23.083,63.088,53.333H229.339c-20.901,0.024-39.782,8.635-53.333,22.483v-1.149
				C176.005,116.532,228.537,64,293.339,64z M154.672,224v10.667v10.667v21.333h-21.333V224H154.672z M112.005,21.333v21.333H90.672
				V21.333H112.005z M90.672,341.333V96h21.333v224c0,17.673,14.327,32,32,32h128v21.333H122.672
				C104.999,373.333,90.672,359.006,90.672,341.333z M314.672,352v21.333h-21.333V352H314.672z M370.929,371.849
				c-32.764,34.732-83.318,42.603-124.118,22.817h78.527c5.891,0,10.667-4.776,10.667-10.667v-42.667
				c0-5.891-4.776-10.667-10.667-10.667H191.554c-2.182-6.946-3.64-14.095-4.358-21.333h63.476c5.891,0,10.667-4.776,10.667-10.667
				c0-17.673,14.327-32,32-32c17.673,0,32,14.327,32,32c0,5.891,4.776,10.667,10.667,10.667h63.459
				C397.119,332.65,387.146,354.659,370.929,371.849z"/>
			<path d="M474.672,0c-17.673,0-32,14.327-32,32s14.327,32,32,32s32-14.327,32-32S492.345,0,474.672,0z M474.672,42.667
				c-5.891,0-10.667-4.776-10.667-10.667s4.776-10.667,10.667-10.667c5.891,0,10.667,4.776,10.667,10.667
				S480.563,42.667,474.672,42.667z"/>
			<circle cx="442.672" cy="96" r="21.333"/>
		</g>
	</g>
</g>
<g>
</g>
<g>
</g>
<g>
</g>
<g>
</g>
<g>
</g>
<g>
</g>
<g>
</g>
<g>
</g>
<g>
</g>
<g>
</g>
<g>
</g>
<g>
</g>
<g>
</g>
<g>
</g>
<g>
</g>
</svg>
