<?xml version="1.0" encoding="iso-8859-1"?>
<!-- Generator: Adobe Illustrator 19.0.0, SVG Export Plug-In . SVG Version: 6.00 Build 0)  -->
<svg version="1.1" id="Capa_1" xmlns="http://www.w3.org/2000/svg" xmlns:xlink="http://www.w3.org/1999/xlink" x="0px" y="0px"
	 viewBox="0 0 512.073 512.073" style="enable-background:new 0 0 512.073 512.073;" xml:space="preserve">
<g>
	<g>
		<path d="M207.236,388.497l-8-16c-0.852-1.685-2.267-3.018-4-3.768l-53.112-22.976l-4.277-13.256
			c13.836-11.186,22.189-29.741,22.189-52.424v-16v-48c0-2.122-0.844-4.156-2.344-5.656c-14.943-12.642-34.101-19.192-53.656-18.344
			c-19.555-0.848-38.712,5.702-53.656,18.344c-1.5,1.5-2.344,3.534-2.344,5.656v48v16c0,22.673,8.345,41.221,22.169,52.409
			l-4.281,13.271l-53.048,22.976c-1.733,0.75-3.148,2.083-4,3.768l-8,16c-0.554,1.111-0.841,2.335-0.84,3.576v120h16V393.961
			l5.848-11.712l48.165-20.851l25.987,25.987v44.688h16v-44.688l25.985-25.985l48.167,20.849l5.848,11.712v118.112h16v-120
			C208.05,390.835,207.776,389.611,207.236,388.497z M64.036,219.801c11.729-8.102,25.754-12.214,40-11.728
			c14.247-0.486,28.271,3.626,40,11.728v35.117c-4-1.052-8-3.053-8-6.845c0-4.418-3.582-8-8-8h-48c-4.418,0-8,3.582-8,8
			c0,3.792-4,5.792-8,6.845V219.801z M104.036,372.76l-22.699-22.699l3.044-9.462c6.013,2.262,12.604,3.474,19.655,3.474
			c7.046,0,13.633-1.211,19.643-3.469l3.053,9.46L104.036,372.76z M104.036,328.073c-29.52,0-40-25.856-40-48v-8.752
			c9.621-0.918,18.116-6.662,22.552-15.248h34.896c4.436,8.586,12.931,14.33,22.552,15.248v8.752
			C144.036,302.217,133.556,328.073,104.036,328.073z"/>
	</g>
</g>
<g>
	<g>
		<rect x="40.04" y="464.07" width="16" height="48"/>
	</g>
</g>
<g>
	<g>
		<rect x="152.04" y="464.07" width="16" height="48"/>
	</g>
</g>
<g>
	<g>
		<path d="M511.236,196.497l-8-16c-0.852-1.685-2.267-3.018-4-3.768l-53.112-22.976l-4.276-13.256
			c13.836-11.186,22.188-29.741,22.188-52.424v-16v-48c0-2.122-0.844-4.156-2.344-5.656c-14.943-12.642-34.1-19.191-53.656-18.344
			c-19.555-0.848-38.712,5.702-53.656,18.344c-1.5,1.5-2.344,3.534-2.344,5.656v48v16c0,22.663,8.337,41.205,22.15,52.394
			l-4.286,13.286l-53.064,22.976c-1.733,0.75-3.148,2.083-4,3.768l-8,16c-0.54,1.114-0.814,2.338-0.8,3.576v120h16V201.961
			l5.84-11.712l48.173-20.851l25.987,25.987v44.688h16v-44.688l25.985-25.985l48.167,20.849l5.848,11.712v118.112h16v-120
			C512.05,198.835,511.776,197.611,511.236,196.497z M368.036,27.801c11.729-8.102,25.754-12.214,40-11.728
			c14.247-0.486,28.271,3.626,40,11.728v35.117c-4-1.052-8-3.053-8-6.845c0-4.418-3.582-8-8-8h-48c-4.418,0-8,3.582-8,8
			c0,3.792-4,5.792-8,6.845V27.801z M408.036,180.76l-22.702-22.702l3.034-9.463c6.017,2.264,12.612,3.478,19.668,3.478
			c7.046,0,13.633-1.211,19.643-3.469l3.053,9.46L408.036,180.76z M408.036,136.073c-29.52,0-40-25.856-40-48v-8.752
			c9.621-0.918,18.116-6.662,22.552-15.248h34.896c4.436,8.586,12.931,14.33,22.552,15.248v8.752
			C448.036,110.217,437.556,136.073,408.036,136.073z"/>
	</g>
</g>
<g>
	<g>
		<rect x="344.04" y="272.07" width="16" height="48"/>
	</g>
</g>
<g>
	<g>
		<rect x="456.04" y="272.07" width="16" height="48"/>
	</g>
</g>
<g>
	<g>
		<path d="M128.036,64.073h184v-16h-184c-0.606-0.018-1.213-0.018-1.819,0c-17.171,0.502-30.684,14.829-30.181,32v52.688
			l-26.344-26.344L58.38,117.729l40,40c1.5,1.5,3.535,2.344,5.656,2.344c2.122,0,4.156-0.844,5.656-2.344l40-40l-11.312-11.312
			l-26.344,26.344V80.073c-0.042-0.65-0.042-1.302,0-1.951C112.575,69.824,119.738,63.534,128.036,64.073z"/>
	</g>
</g>
<g>
	<g>
		<path d="M490.38,405.729l11.312-11.312l-40-40c-3.124-3.123-8.188-3.123-11.312,0l-40,40l11.312,11.312l26.344-26.344v52.688
			c0.042,0.65,0.042,1.302,0,1.951c-0.539,8.298-7.702,14.588-16,14.049h-184v16h184c0.606,0.018,1.213,0.018,1.819,0
			c17.171-0.502,30.684-14.829,30.181-32v-52.688L490.38,405.729z"/>
	</g>
</g>
<g>
	<g>
		<rect x="184.04" y="88.07" width="128" height="16"/>
	</g>
</g>
<g>
	<g>
		<rect x="248.04" y="408.07" width="128" height="16"/>
	</g>
</g>
<g>
	<g>
		<rect x="248.04" y="376.07" width="16" height="16"/>
	</g>
</g>
<g>
	<g>
		<rect x="280.04" y="376.07" width="16" height="16"/>
	</g>
</g>
<g>
	<g>
		<rect x="296.04" y="120.07" width="16" height="16"/>
	</g>
</g>
<g>
	<g>
		<rect x="264.04" y="120.07" width="16" height="16"/>
	</g>
</g>
<g>
</g>
<g>
</g>
<g>
</g>
<g>
</g>
<g>
</g>
<g>
</g>
<g>
</g>
<g>
</g>
<g>
</g>
<g>
</g>
<g>
</g>
<g>
</g>
<g>
</g>
<g>
</g>
<g>
</g>
</svg>
