<?xml version="1.0" encoding="iso-8859-1"?>
<!-- Generator: Adobe Illustrator 19.0.0, SVG Export Plug-In . SVG Version: 6.00 Build 0)  -->
<svg version="1.1" id="Capa_1" xmlns="http://www.w3.org/2000/svg" xmlns:xlink="http://www.w3.org/1999/xlink" x="0px" y="0px"
	 viewBox="0 0 400.718 400.718" style="enable-background:new 0 0 400.718 400.718;" xml:space="preserve">
<g>
	<rect x="118.073" y="23.249" style="fill:#4DCFE0;" width="31.347" height="282.122"/>
	<rect x="251.82" y="95.347" style="fill:#4DCFE0;" width="31.347" height="282.122"/>
</g>
<path style="fill:#1185E0;" d="M15.673,393.143c-2.612,0-5.224-0.522-7.837-2.09C3.135,388.441,0,383.216,0,377.469V95.347
	c0-5.224,2.612-10.449,7.314-13.584L125.388,9.665c4.702-3.135,10.449-3.135,15.673-0.522l125.91,67.918L377.208,9.665
	c4.702-3.135,10.971-3.135,15.673-0.522s7.837,7.837,7.837,13.584v282.122c0,5.224-2.612,10.449-7.314,13.584l-117.551,72.62
	c-4.702,3.135-10.449,3.135-15.673,0.522l-125.91-67.918L24.033,391.053C21.42,392.62,18.286,393.143,15.673,393.143z
	 M133.747,289.698c2.612,0,5.224,0.522,7.314,2.09l125.91,67.918l102.922-62.694V51.461l-94.041,57.469
	c-4.702,3.135-10.449,3.135-15.673,0.522l-125.91-67.918L31.347,104.229V349.78l94.041-57.469
	C128,290.22,131.135,289.698,133.747,289.698z"/>
<g>
</g>
<g>
</g>
<g>
</g>
<g>
</g>
<g>
</g>
<g>
</g>
<g>
</g>
<g>
</g>
<g>
</g>
<g>
</g>
<g>
</g>
<g>
</g>
<g>
</g>
<g>
</g>
<g>
</g>
</svg>
