<?xml version="1.0" encoding="iso-8859-1"?>
<!-- Generator: Adobe Illustrator 19.0.0, SVG Export Plug-In . SVG Version: 6.00 Build 0)  -->
<svg version="1.1" id="Capa_1" xmlns="http://www.w3.org/2000/svg" xmlns:xlink="http://www.w3.org/1999/xlink" x="0px" y="0px"
	 viewBox="0 0 512 512" style="enable-background:new 0 0 512 512;" xml:space="preserve">
<g>
	<g>
		<circle cx="211" cy="181" r="15"/>
	</g>
</g>
<g>
	<g>
		<circle cx="301" cy="181" r="15"/>
	</g>
</g>
<g>
	<g>
		<path d="M442.708,272.583l-59.98-29.99c11.424-30.974,11.413-66.717-2.491-99.37l16.703,5.568
			c12.529,4.175,23.957-8.78,18.284-20.684C376.996,47.891,317.473,0,256,0S135.004,47.891,96.776,128.108
			c-5.682,11.922,5.773,24.851,18.284,20.684l16.703-5.568c-13.256,31.13-14.488,66.844-2.491,99.37l-59.98,29.99
			C64.21,275.125,61,280.318,61,286c0,143.42,89.535,226,195,226c105.451,0,195-82.568,195-226
			C451,280.318,447.79,275.125,442.708,272.583z M256,30c41.219,0,82.285,28.639,113.999,78.188
			c-9.838-3.279-38.569-12.856-49.256-16.418c-3.773-1.259-7.892-0.966-11.451,0.813L256,119.229l-53.292-26.646
			c-3.514-1.757-7.63-2.087-11.451-0.813c-10.686,3.562-39.355,13.118-49.256,16.418C173.715,58.639,214.781,30,256,30z M256,211
			c-8.284,0-15,6.716-15,15v20.729l-45,22.5l-25.911-12.956c-27.457-38.955-25.034-91.295,5.472-127.65l19.288-6.428l54.443,27.222
			c4.223,2.111,9.193,2.111,13.416,0l54.443-27.222l19.287,6.429c30.511,36.36,32.926,88.7,5.472,127.65L316,269.229l-45-22.5V226
			C271,217.716,264.284,211,256,211z M256,482c-96.09,0-161.48-74.658-164.862-186.798L136,272.771l17.453,8.726
			c0.031,0.015,0.062,0.031,0.093,0.046l35.747,17.874c4.223,2.111,9.193,2.111,13.416,0L256,272.771l53.292,26.646
			c4.223,2.111,9.193,2.111,13.416,0l35.749-17.875c0.029-0.014,0.058-0.029,0.087-0.044L376,272.771l44.862,22.431
			C417.48,407.342,352.09,482,256,482z"/>
	</g>
</g>
<g>
</g>
<g>
</g>
<g>
</g>
<g>
</g>
<g>
</g>
<g>
</g>
<g>
</g>
<g>
</g>
<g>
</g>
<g>
</g>
<g>
</g>
<g>
</g>
<g>
</g>
<g>
</g>
<g>
</g>
</svg>
