<?xml version="1.0" encoding="iso-8859-1"?>
<!-- Generator: Adobe Illustrator 19.0.0, SVG Export Plug-In . SVG Version: 6.00 Build 0)  -->
<svg version="1.1" id="Capa_1" xmlns="http://www.w3.org/2000/svg" xmlns:xlink="http://www.w3.org/1999/xlink" x="0px" y="0px"
	 viewBox="0 0 512.002 512.002" style="enable-background:new 0 0 512.002 512.002;" xml:space="preserve">
<g>
	<g>
		<g>
			<path d="M480.001,192h-53.333v-55.989h-0.391c0.256-2.4,0.391-4.892,0.391-7.477c0-28.267-16.917-46.987-41.451-44.267
				c-9.838-6.503-21.425-9.852-33.216-9.6c-6.597-0.286-13.12,1.484-18.667,5.067c-2.049,1.607-4.756,2.106-7.243,1.333
				c-1.986-0.975-4.022-1.83-6.091-2.586V64c0-38.283-30.005-64-74.667-64H74.667C33.45,0.047,0.048,33.449,0.001,74.667v123.595
				v158.144v102.261C0.036,488.107,23.894,511.965,53.334,512h192h128c29.182,0.225,53.04-23.213,53.333-52.395v-54.272h10.667
				c41.218-0.047,74.62-33.449,74.667-74.667V224C512.001,206.327,497.674,192,480.001,192z M213.334,181.069
				c9.394,8.038,21.658,13.028,36.32,14.419c13.856,1.024,27.453-4.144,37.131-14.112c6.755,15.299,21.826,25.241,38.549,25.429
				c5.494,0.014,10.934-1.074,16-3.2v26.389c-0.309,17.997,14.004,32.849,32,33.205c17.996-0.356,32.309-15.209,32-33.205v164.672
				v32h-192V181.069z M345.27,97.387c2.045-1.151,4.397-1.636,6.731-1.387c7.677-0.425,15.262,1.838,21.451,6.4
				c2.62,3.294,6.932,4.74,11.008,3.691c1.589-0.438,3.227-0.675,4.875-0.704c14.848,0,16,17.717,16,23.147
				c0,9.365-2.133,20.907-12.533,22.699c-5.089,0.904-8.797,5.327-8.8,10.496v68.267c0.085,0.778,0.085,1.563,0,2.34
				c-0.646,5.891-5.946,10.143-11.837,9.496c-5.891-0.646-10.143-5.946-9.496-11.837v-48.992c0-5.891-4.776-10.667-10.667-10.667
				c-3.647,0.029-7.027,1.92-8.96,5.013c-3.723,6.211-10.392,10.055-17.632,10.165c-12.266-0.537-21.797-10.878-21.333-23.147
				c0.01-3.005,0.567-5.983,1.643-8.789c0.103-0.272,0.196-0.548,0.276-0.828c1.636-5.659-1.625-11.573-7.284-13.21
				c-0.723-0.185-1.435-0.409-2.133-0.672c-0.661-0.27-1.347-0.473-2.048-0.607c-5.788-1.099-11.37,2.702-12.47,8.489
				c-2.795,14.741-14.891,29.088-30.325,27.541c-31.712-3.04-38.4-26.848-38.4-45.867c8.028-13.199,21.884-21.763,37.28-23.04
				c2.742,0,5.471,0.384,8.107,1.141c11.137,3.169,23.118,0.142,31.413-7.936c2.343-2.045,5.449-2.988,8.533-2.592
				c6.109,0.002,12.14,1.369,17.653,4C325.711,104.552,336.847,103.546,345.27,97.387z M21.334,205.803
				c6.972-2.087,14.212-3.144,21.49-3.136c41.237,0.043,74.631,33.508,74.588,74.745S83.905,352.043,42.667,352
				c-7.226,0.002-14.414-1.054-21.333-3.136V205.803z M21.334,458.667v-32h149.333v-21.333H21.334v-34.432
				c6.984,1.599,14.136,2.435,21.333,2.432c12.398,0.011,24.681-2.38,36.17-7.04c49.131-19.929,72.804-75.914,52.875-125.045
				c-17.967-44.295-65.241-67.891-110.378-57.504V160h160v-21.333h-160v-21.333h160V96h-160V74.667
				c0.035-29.441,23.893-53.298,53.333-53.333h170.667c25.781,0,53.333,11.211,53.333,42.667v10.667
				c-8.564-0.378-16.922,2.696-23.2,8.533c-2.811,2.852-6.96,3.933-10.805,2.816c-4.551-1.302-9.261-1.962-13.995-1.963
				c-27.733,0-58.667,26.197-58.667,43.947v331.605c0.117,11.652,3.999,22.382,10.469,31.061H53.334
				C35.661,490.667,21.334,476.34,21.334,458.667z M373.334,490.667h-128c-17.403,0.232-31.714-13.659-32-31.061V448h192v11.605
				C405.048,477.007,390.737,490.898,373.334,490.667z M490.667,330.667c-0.035,29.441-23.893,53.298-53.333,53.333h-10.667V213.333
				h53.333c5.891,0,10.667,4.776,10.667,10.667V330.667z"/>
			<rect x="234.667" y="245.333" width="21.333" height="128"/>
			<rect x="298.667" y="245.333" width="21.333" height="128"/>
			<rect x="362.667" y="288" width="21.333" height="85.333"/>
			<rect x="53.334" y="42.667" width="21.333" height="21.333"/>
			<rect x="96.001" y="42.667" width="64" height="21.333"/>
		</g>
	</g>
</g>
<g>
</g>
<g>
</g>
<g>
</g>
<g>
</g>
<g>
</g>
<g>
</g>
<g>
</g>
<g>
</g>
<g>
</g>
<g>
</g>
<g>
</g>
<g>
</g>
<g>
</g>
<g>
</g>
<g>
</g>
</svg>
