<?xml version="1.0" encoding="iso-8859-1"?>
<!-- Generator: Adobe Illustrator 19.0.0, SVG Export Plug-In . SVG Version: 6.00 Build 0)  -->
<svg version="1.1" id="Capa_1" xmlns="http://www.w3.org/2000/svg" xmlns:xlink="http://www.w3.org/1999/xlink" x="0px" y="0px"
	 viewBox="0 0 511.89 511.89" style="enable-background:new 0 0 511.89 511.89;" xml:space="preserve">
<g>
	<g>
		<g>
			<path d="M433.854,257.788c-11.024,8.846-23.643,14.666-36.766,17.469l-64.414-64.414c19.199-0.213,37.563-7.956,51.1-21.61
				c28.692-28.871,28.692-75.491,0-104.363c-0.035-0.035-0.071-0.071-0.106-0.106c-28.772-28.713-75.373-28.666-104.086,0.106
				c-14.47,14.552-21.636,33.618-21.517,52.647l-7.977-7.996c-12.227-12.302-12.227-32.167,0-44.469l37.12-37.205
				c4.157-4.164,4.157-10.908,0-15.072l-29.696-29.76c-4.232-4.02-10.872-4.02-15.104,0l-59.381,59.531
				c-28.705,28.87-28.705,75.503,0,104.373l7.328,7.349l-59.296,59.445c-1.51,1.514-2.463,3.37-2.874,5.318l-41.623,24.982
				c-2.955-1.889-5.808-3.959-8.527-6.225c-19.081-15.365-42.928-23.586-67.424-23.243v21.333
				c20.15-0.375,39.761,6.521,55.243,19.424c19.079,15.369,42.927,23.59,67.424,23.243c24.497,0.348,48.345-7.873,67.424-23.243
				c15.482-12.903,35.093-19.799,55.243-19.424c20.15-0.375,39.761,6.521,55.243,19.424c19.079,15.369,42.927,23.59,67.424,23.243
				c24.497,0.348,48.345-7.873,67.424-23.243c15.482-12.903,35.093-19.799,55.243-19.424v-21.333
				C476.782,234.203,452.935,242.423,433.854,257.788z M331.678,84.572c13.888-0.031,27.21,5.501,36.992,15.36
				c15.094,15.183,19.015,37.268,11.79,56.05l-67.705-67.871C318.732,85.789,325.139,84.557,331.678,84.572z M294.553,100.073
				l74.017,74.198c-20.433,20.361-53.502,20.321-73.884-0.098C274.316,153.682,274.275,120.619,294.553,100.073z M110.546,274.5
				l28.882-17.336l17.14,17.18c-7.536,2.023-15.369,3.015-23.29,2.868C125.553,277.356,117.91,276.422,110.546,274.5z
				 M188.521,257.788c-3.398,2.832-7.004,5.356-10.761,7.595l-24.076-24.139l59.296-59.445c4.157-4.164,4.157-10.908,0-15.072
				l-14.848-14.869c-20.416-20.536-20.416-53.704,0-74.24l51.829-51.968l14.688,14.667l-29.611,29.675
				c-20.51,20.638-20.51,53.964,0,74.603l74.24,74.421c4.044,4.065,4.044,10.633,0,14.699l-9.693,9.658
				c-13.656-5.978-28.522-9.038-43.64-8.826C231.449,234.203,207.602,242.423,188.521,257.788z M318.771,254.313l5.558-5.57
				c2.825-2.844,4.993-6.092,6.522-9.553l37.404,37.404c-16.006-1.885-31.603-8.147-44.886-18.806
				C321.868,256.58,320.329,255.432,318.771,254.313z"/>
			<path d="M323.369,364.455c-19.079-15.369-42.927-23.59-67.424-23.243c-24.497-0.348-48.345,7.873-67.424,23.243
				c-15.482,12.903-35.093,19.799-55.243,19.424c-20.15,0.375-39.761-6.521-55.243-19.424
				c-19.079-15.369-42.927-23.59-67.424-23.243v21.333c20.15-0.375,39.761,6.521,55.243,19.424
				c19.079,15.369,42.927,23.59,67.424,23.243c24.497,0.348,48.345-7.873,67.424-23.243c15.482-12.903,35.093-19.799,55.243-19.424
				c20.15-0.375,39.761,6.521,55.243,19.424c19.079,15.369,42.927,23.59,67.424,23.243c24.497,0.348,48.345-7.873,67.424-23.243
				c15.482-12.903,35.093-19.799,55.243-19.424v-21.333c-24.497-0.348-48.345,7.873-67.424,23.243
				C401.579,390.354,355.644,390.354,323.369,364.455z"/>
			<path d="M323.369,471.122c-19.079-15.369-42.927-23.59-67.424-23.243c-24.497-0.348-48.345,7.873-67.424,23.243
				c-15.482,12.903-35.093,19.799-55.243,19.424c-20.15,0.375-39.761-6.521-55.243-19.424
				c-19.079-15.369-42.927-23.59-67.424-23.243v21.333c20.15-0.375,39.761,6.521,55.243,19.424
				c19.079,15.369,42.927,23.59,67.424,23.243c24.497,0.348,48.345-7.873,67.424-23.243c15.482-12.903,35.093-19.799,55.243-19.424
				c20.15-0.375,39.761,6.521,55.243,19.424c19.079,15.369,42.927,23.59,67.424,23.243c24.497,0.348,48.345-7.873,67.424-23.243
				c15.482-12.903,35.093-19.799,55.243-19.424v-21.333c-24.497-0.348-48.345,7.873-67.424,23.243
				C401.579,497.021,355.644,497.021,323.369,471.122z"/>
			<rect x="31.945" y="95.879" width="21.333" height="21.333"/>
			<rect x="53.278" y="117.212" width="21.333" height="21.333"/>
			<rect x="458.612" y="159.879" width="21.333" height="21.333"/>
			<rect x="437.278" y="138.546" width="21.333" height="21.333"/>
			<rect x="394.612" y="31.879" width="21.333" height="21.333"/>
			<rect x="127.945" y="31.879" width="21.333" height="21.333"/>
		</g>
	</g>
</g>
<g>
</g>
<g>
</g>
<g>
</g>
<g>
</g>
<g>
</g>
<g>
</g>
<g>
</g>
<g>
</g>
<g>
</g>
<g>
</g>
<g>
</g>
<g>
</g>
<g>
</g>
<g>
</g>
<g>
</g>
</svg>
