<?xml version="1.0" encoding="iso-8859-1"?>
<!-- Generator: Adobe Illustrator 19.0.0, SVG Export Plug-In . SVG Version: 6.00 Build 0)  -->
<svg version="1.1" id="Capa_1" xmlns="http://www.w3.org/2000/svg" xmlns:xlink="http://www.w3.org/1999/xlink" x="0px" y="0px"
	 viewBox="0 0 512 512" style="enable-background:new 0 0 512 512;" xml:space="preserve">
<g>
	<g>
		<g>
			<rect x="96" y="277.333" width="21.333" height="21.333"/>
			<rect x="149.333" y="277.333" width="21.333" height="21.333"/>
			<rect x="202.667" y="277.333" width="21.333" height="21.333"/>
			<rect x="256" y="277.333" width="21.333" height="21.333"/>
			<path d="M501.333,106.667h-10.667V85.333c0-17.673-14.327-32-32-32H309.333c-17.673,0-32,14.327-32,32v21.333h-10.667
				c-5.891,0-10.667,4.776-10.667,10.667V160c0,5.891,4.776,10.667,10.667,10.667h11.325l4.703,68.822
				C256.939,229.397,226.291,224,192,224c-85.73,0-148.71,33.705-169.292,90.289C9.203,321.452,0,335.648,0,352
				c0,13.958,6.704,26.349,17.066,34.133c-4.018,5.348-6.399,11.996-6.399,19.2c0.035,29.441,23.893,53.298,53.333,53.333h245.333
				H320h138.667c5.596,0.015,10.253-4.297,10.667-9.877l20.602-278.123h11.398c5.891,0,10.667-4.776,10.667-10.667v-42.667
				C512,111.442,507.224,106.667,501.333,106.667z M298.667,85.333c0-5.891,4.776-10.667,10.667-10.667h149.333
				c5.891,0,10.667,4.776,10.667,10.667v21.333H298.667V85.333z M277.333,128h213.333v21.333H480H288h-10.667V128z M303.065,224
				h102.269v170.667h-33.828c-1.092-3.089-2.64-5.962-4.571-8.533C377.296,378.349,384,365.958,384,352
				c0-16.352-9.203-30.549-22.708-37.711c-9.84-27.053-29.37-48.877-56.447-64.287L303.065,224z M192,245.333
				c69.557,0,121.899,23.637,143.755,64H48.245C70.101,268.971,122.443,245.333,192,245.333z M42.667,330.667h10.667V352h21.333
				v-21.333H96V352h21.333v-21.333h21.333V352H160v-21.333h21.333V352h21.333v-21.333H224V352h21.333v-21.333h21.333V352H288
				v-21.333h21.333V352h21.333v-21.333h10.667c11.782,0,21.333,9.551,21.333,21.333s-9.551,21.333-21.333,21.333H42.667
				c-11.782,0-21.333-9.551-21.333-21.333S30.885,330.667,42.667,330.667z M309.333,437.333H64c-17.673,0-32-14.327-32-32
				c0-5.891,4.776-10.667,10.667-10.667h298.667c5.891,0,10.667,4.776,10.667,10.667c0,17.673-14.327,32-32,32H309.333z
				 M448.757,437.333h-86.123c4.664-6.202,8.01-13.451,9.618-21.333H416c5.891,0,10.667-4.776,10.667-10.667v-192
				c0-5.891-4.776-10.667-10.667-10.667H301.604l-2.191-32h169.099L448.757,437.333z"/>
		</g>
	</g>
</g>
<g>
</g>
<g>
</g>
<g>
</g>
<g>
</g>
<g>
</g>
<g>
</g>
<g>
</g>
<g>
</g>
<g>
</g>
<g>
</g>
<g>
</g>
<g>
</g>
<g>
</g>
<g>
</g>
<g>
</g>
</svg>
