<?xml version="1.0" encoding="iso-8859-1"?>
<!-- Generator: Adobe Illustrator 19.0.0, SVG Export Plug-In . SVG Version: 6.00 Build 0)  -->
<svg version="1.1" id="Capa_1" xmlns="http://www.w3.org/2000/svg" xmlns:xlink="http://www.w3.org/1999/xlink" x="0px" y="0px"
	 viewBox="0 0 512 512" style="enable-background:new 0 0 512 512;" xml:space="preserve">
<g>
	<g>
		<path d="M436,331h-60c-42.367,0-80.231,19.623-105,50.252v-91.603c16.927-31.694,46.247-54.432,81.187-62.947
			C362.659,235.608,376.208,241,391,241c33.084,0,60-26.916,60-60s-26.916-60-60-60s-60,26.916-60,60
			c0,6.86,1.173,13.448,3.302,19.593c-24.168,7.741-45.797,21.124-63.302,38.908v-91.01c34.192-6.968,60-37.271,60-73.491
			c0-41.355-33.645-75-75-75c-41.355,0-75,33.645-75,75c0,36.219,25.808,66.522,60,73.491v52.761
			C216.231,170.623,178.367,151,136,151H76c-8.284,0-15,6.716-15,15c0,74.439,60.561,135,135,135h45v118.501
			c-17.505-17.785-39.135-31.167-63.302-38.908C179.827,374.448,181,367.86,181,361c0-33.084-26.916-60-60-60s-60,26.916-60,60
			s26.916,60,60,60c14.792,0,28.342-5.392,38.813-14.299c34.94,8.515,64.26,31.253,81.187,62.947V497c0,8.284,6.716,15,15,15
			s15-6.716,15-15v-16h45c74.439,0,135-60.561,135-135C451,337.716,444.284,331,436,331z M391,151c16.542,0,30,13.458,30,30
			s-13.458,30-30,30c-16.501,0-30-13.441-30-30C361,164.458,374.458,151,391,151z M157.68,238.48L206.459,271H196
			c-52.805,0-96.631-39.183-103.932-90H136c47.045,0,86.963,31.101,100.274,73.822l-61.954-41.303
			c-6.891-4.595-16.205-2.733-20.801,4.16C148.924,224.572,150.787,233.885,157.68,238.48z M121,391c-16.542,0-30-13.458-30-30
			s13.458-30,30-30s30,13.458,30,30C151,377.498,137.557,391,121,391z M256,120c-24.813,0-45-20.187-45-45s20.187-45,45-45
			s45,20.187,45,45S280.813,120,256,120z M316,451h-10.459l48.779-32.519c6.893-4.595,8.756-13.908,4.161-20.801
			c-4.595-6.893-13.909-8.756-20.801-4.16l-61.954,41.303C289.037,392.101,328.955,360.8,376,360.8h43.932
			C412.631,411.617,368.805,451,316,451z"/>
	</g>
</g>
<g>
</g>
<g>
</g>
<g>
</g>
<g>
</g>
<g>
</g>
<g>
</g>
<g>
</g>
<g>
</g>
<g>
</g>
<g>
</g>
<g>
</g>
<g>
</g>
<g>
</g>
<g>
</g>
<g>
</g>
</svg>
