<?xml version="1.0" encoding="utf-8"?>
<!-- Generator: Adobe Illustrator 20.1.0, SVG Export Plug-In . SVG Version: 6.00 Build 0)  -->
<svg version="1.1" id="Calque_1" xmlns="http://www.w3.org/2000/svg" xmlns:xlink="http://www.w3.org/1999/xlink" x="0px" y="0px"
	 viewBox="0 0 432 432" style="enable-background:new 0 0 432 432;" xml:space="preserve">
<style type="text/css">
	.st0{fill:#2E2823;}
	.st1{fill:#B89A61;}
	.st2{fill:#E7D0A8;}
	.st3{fill:#5B4C44;}
	.st4{fill:#BA3A17;}
	.st5{fill:#F39200;}
	.st6{fill:#634E42;}
	.st7{fill:none;}
	.st8{fill:#F7A826;}
	.st9{fill:#010202;}
	.st10{fill:#FFFFFF;}
</style>
<g>
	<g>
		<path d="M103.8,128.4c-0.4-0.1-0.7-0.4-1.1-0.3c-1.2-0.1-2.3-0.4-3.3-0.3c-1.4,0-2.8,0.2-4.1,0.4c-0.6,0-1.1,0.3-1.6,0.8
			c-0.2,0.2-0.1,0.8,0.1,0.9c0.5,0.1,0.9,0.3,1.3,0.2H97v2.2c-0.1,0.7-0.2,1.4-0.2,2.3c-0.2,2.5-0.3,5.3-0.4,7.7
			c0,1-0.1,1.9-0.1,2.8c-0.1,2.3-0.1,4.7-0.1,6.9c-0.1,2.9,0.1,5.8,0.1,8.6c0,1.7-0.1,3.5,0,5.2c0,0.9-0.1,1.7-0.4,2.6
			c-0.1,0.4-0.4,0.9-0.8,0.9l-1.4,0.4c-0.1,0.1-0.1,0.4,0,0.6c0.2,0.5,0.9,0.8,1.5,0.8c0.9-0.1,2.9,0.1,3.8,0.1
			c0.6-0.1,1.3,0,1.9-0.2c0.3-0.1,0.6-0.1,0.9-0.3c0.1-0.2,0.3-0.4,0.2-0.6l-0.5-0.4c-0.4-0.1-0.9,0.1-1.4-0.1
			c0.1-0.1,0.2-0.4,0.1-0.6c0.1-0.9,0.3-1.6,0.4-2.3s0-1.5-0.1-2.2l-0.1-5.8c0.1-1.2,0.1-2.4,0.1-3.5c0.1-1.5,0-3.2,0-4.7
			c0.1-1.9,0.2-3.8,0.3-5.8c0.1-1,0.1-2.1,0.1-3.2c0-1.4,0-2.9,0.2-4.5c0.1-0.5,0.1-1,0.1-1.4c0.1-0.5,0-0.9,0.1-1.4
			c0.1-0.6,0.1-1.2,0.1-1.9c-0.1-0.4-0.1-0.9,0-1.4c-0.1-0.9,0.1-1,1.2-1.1c0.2,0,0.4,0.1,0.6,0.1c0.1,0,0.4-0.2,0.5-0.2
			c0.4-0.1,0.6-0.9,0.3-1.2C104.1,128.6,103.9,128.4,103.8,128.4z"/>
		<path d="M109.8,129.3l-0.3-0.6C109.8,129.6,109.8,129.6,109.8,129.3z"/>
		<path d="M111.4,127.5c-0.2-0.2-0.5-0.2-0.6-0.1c-0.5,0.1-0.9,0.9-1,1.6v0.3c0.4,0.6,0.9,1.6,1.2,1.7c0.1,0.4,0,0.7,0.1,0.9
			c0.1,0.3,0.1,0.5,0.4,0.4c0.1,0.1,0.2,0.1,0.3-0.1c0.3-0.4,0.4-0.9,0.7-1.5C112.9,129.5,112.4,128.1,111.4,127.5z"/>
		<path d="M154.2,127.3c-0.4-0.5-0.9-0.7-1.5-0.8c-0.3,0.1-0.6,0.1-0.9,0.1c-1.2,0.2-4.5,0.1-5.6-0.1c-2.2-0.2-3.1,1.5-4.8,5
			c-0.6,1.2-5.9,15-7,18.6c-0.2,0.6-0.5,1.4-0.9,1.9c-0.4-0.1-0.4-0.4-0.6-0.7c-0.4-0.8-0.7-1.7-1.1-2.6c-0.9-2.1-1.7-4.2-2.7-6.2
			c-0.5-1.2-0.9-2.4-1.3-3.6c-0.4-1.5-1-2.9-1.4-4.7c-0.4-1.6-1-3.2-1-4.9c0-1-0.9-2-1.9-2.1c-1.4-0.1-2.9-0.1-4.3,0.1
			c-0.8,0.1-1.7,0.5-2.4,0.5c-1.4,0-1.9,2.7-1.1,2.7c0.9,0.2,1.7,0.3,2.7,0.1l0.8-0.4c0.4,0.1,0.6,0.1,0.6,0.5c0.1,0.3,0,0.6,0,0.9
			c0,2.9-0.1,5.8-0.2,8.8c-0.1,2.4-0.2,5-0.3,7.3l0.2,9.4c0.1,1.1,0.1,2.1,0.1,3.1c0.1,1.2,0.1,2.2,0.1,3.2c0,1.7,0,3.2,0.2,4.9
			c-0.2,0.1-0.4,0.4-0.6,0.5c-0.2,0.1-0.4,0.2-0.6,0.2c-0.2,0.1-0.5,0.1-0.6,0.3c-0.3,0.1-0.5,0.5-0.4,0.8c0.1,0.3,0.4,0.5,0.6,0.5
			l1.2-0.1c1.6-0.4,3-0.9,4.7-0.5c0.9,0.1,1.7-0.4,2.5-0.6c0.4-0.1,0.7-0.7,0.6-1.1c0-0.4-0.4-0.9-0.8-0.9c-0.2,0-0.4,0-0.6-0.1
			c-0.4-0.1-0.7-0.1-1.2-0.2c-0.4,0-0.6-0.3-0.7-0.6c-0.1-0.3-0.1-0.6-0.1-1c0.3-0.9,0.1-1.8,0.1-2.7c-0.1-1.4,0-2.8,0.1-4.2
			c0-0.8,0-1.6,0.1-2.3c0-1.6-0.1-3.2-0.1-4.8c0-2.6-0.1-5,0.1-7.6c0-0.5-0.2-1,0.1-1.4c0.6,0.1,0.6,0.4,0.8,0.8
			c0.8,2.3,1.7,4.5,2.4,6.8c0.8,2.3,1.6,4.5,2.4,6.8c0.4,1.2,1.3,1.7,2.4,2.2c0.3,0.1,0.6,0.1,0.8-0.1c0.3-0.1,0.4-0.4,0.6-0.6
			l1.3-2.7c0.4-0.8,0.6-1.7,0.9-2.6c0.3-0.9,0.5-1.9,0.9-2.7c1.4-3.2,7-17.3,7.4-18.3c0.1-0.1,0.3-0.3,0.4-0.4
			c0.1-0.2,0.4-0.4,0.5-0.1l0.2,1.1c-0.1,0.9-0.1,1.8-0.1,2.8c-0.1,3.8-0.2,7.6-0.4,11.2c-0.1,2.7-0.2,5.3-0.4,7.8
			c-0.2,3-0.4,6-0.5,9.1c-0.1,1-0.1,1.9-0.1,2.9c-0.1,0.5-0.1,1,0,1.7c0.2,0.6,0.1,1-0.6,1.3l-1.1,0.6c-0.2,0.1-0.3,0.4-0.1,0.6
			c0.3,0.4,0.6,0.6,0.9,0.6c0.9-0.4,1.9-0.4,2.8-0.6c0.9-0.2,1.7-0.4,2.5-0.3c2.4,0.6,3.7-1.4,2.2-2.1c-0.3-0.1-0.7-0.1-1.1-0.3
			c-0.4,0-0.6-0.2-0.9-0.3c-0.1-0.1-0.1-0.3-0.1-0.4c-0.1-1.3,0.4-12.6,0.4-14l0.4-8.2c0-1.2,0-2.4,0-3.5c0-1.4-0.1-2.7,0.1-4.2
			c0.1-1.4,0.1-2.8,0.1-4.2c0-0.9-0.1-1.6,0-2.4c0-0.4,0.1-0.7,0.7-0.8c0.2-0.1,0.4-0.1,0.7-0.1c0.6-0.1,1.4-0.2,2.1-0.2
			c0.6-0.1,1.2-0.4,1.7-0.7c0.3-0.2,0.4-0.8,0.1-1.1C154.7,127.7,154.4,127.5,154.2,127.3z"/>
		<path d="M197.5,147.6c-1.2-0.9-2.3-1.7-3.8-2.2c-0.8-0.2-1.6-0.6-2.4-1.2c-0.5-0.8-1.2-1.5-1.9-2.3c-0.1-0.2-0.3-0.4-0.3-0.6
			c-0.2-0.6-0.7-1.5-0.9-2.2c-0.4-1.4-0.3-2.9,0.4-4.5c0.4-1.4,3.4-4.1,6.5-3.7c0.4,0.1,0.8,0.4,1,0.4l1.5,1.6
			c0.6,0.6,1.2,3.2,1.4,3.3c1.2,0.2,1.7,0.2,2.4-0.7l-0.8-2.4c0,0-0.1-0.1-0.1-0.2c-0.4-0.9-1-1.6-1.4-2.1
			c-4.6-4.8-8.7-4.7-12.7-0.8c-0.4,0.4-0.8,0.8-1.1,1.1c-1.1,0.7-1.7,3.7-1.7,4.2c-0.3,2.2-1.5,5.7,3.9,10.5
			c0.5,0.4,1.4,0.7,1.9,1.2c0.5,0.4,1,0.6,1.4,0.9c1.2,0.9,2.4,1.8,3.5,2.8c0.4,0.3,0.7,0.7,0.9,1.2c0.9,1.2,1.2,2.4,1.7,4
			c0.3,0.9,0.3,1.9,0.3,2.9c-0.1,1.7-0.7,3.4-1,5c-0.4,1.8-1.2,3.3-2.2,4.7c-0.4,0.6-0.9,1.1-1.4,1.7c-0.4,0.4-0.8,0.5-1.4,0.4
			c-0.7-0.2-1.4-0.4-2.2-0.9c-2.2-1.6-3.6-6.1-3.5-9.9c0-0.3,0.3-0.5,0.4-0.7c0.3-0.7,0.2-1.1-0.6-1.4c-0.2,0-0.5-0.1-0.8-0.1
			c-0.9,0.1-2.1,0.2-3.2,0.4c-0.1,0-0.6,0.2-0.9,0.4c-0.2,0.1-0.2,0.8,0,0.9c0.1,0.1,0.4,0.2,0.7,0.3c0.1,0.1,0.6,0.3,0.9,0.3
			c0,0.3,0,0.5-0.1,0.6c-0.1,0.7-0.1,1.3-0.1,2c0.1,0.5,0,1.2,0,1.9c0,0.2-0.1,0.5,0.1,0.6c0.2,1.9,1.2,4.2,2.8,5.4
			c3.3,2.7,7.8,2.9,10.7,1.3c2-0.9,3.5-2.5,4.6-4.3c0.6-0.9,1-2.2,1.4-3.3c0.6-2.1,0.8-4.1,0.8-6.3c0-1.6-0.3-3.1-0.9-4.5
			C200.6,151.1,199.5,149.2,197.5,147.6z"/>
		<path d="M231.1,139.5c0-0.2,0-0.8-0.1-1.2c-0.3-1.4-0.8-2.9-1.4-4.1c-0.9-1.9-2-3.5-3.2-4.8c-3.7-4.3-10.6-2.2-13.5,1.4
			c-0.8,1-1.4,2.1-2,3.1c-1.2,1.7-2,3.4-2.6,5.5c-0.4,1.1-0.7,2.3-1,3.4l-0.2,1.2c-0.6,3.9-0.9,7.8-0.6,11.6c0.1,2,0.6,4,1.4,5.8
			c0.5,0.9,0.9,1.7,1.3,2.3c1.5,2.3,3,4.4,5.1,6c1.1,0.8,2.2,1.4,3.4,1.9c0.3,0.1,0.7,0.1,1,0.1c0.8-0.1,1.5-0.2,2.2-0.6
			c3.5-1.9,6.2-6.2,6.4-6.9c1.5-4.8,1.8-5.7,2.1-6.7c0.4-2.2,0.7-4.6,1.2-6.8c0.4-2.7,0.4-5.5,0.5-8.1
			C231.2,141.6,231.1,140.6,231.1,139.5z M226.4,145.6v0.9c0,2.5-0.1,5.2-0.6,7.6c-0.2,1.2-0.6,2.4-0.8,3.5c-0.4,1.7-0.9,3.3-1.4,5
			c-0.4,1.1-0.9,2.2-1.4,3.4c-0.4,0.9-1.1,1.8-1.9,2.3c-0.7,0.6-1.7,1-2.6,1c-0.6,0-1-0.4-1.3-0.9c-0.7-1.3-1.5-2.4-1.9-3.9
			c-0.3-0.9-0.4-1.8-0.6-2.7c-0.4-1.6-0.5-3.2-0.6-4.9c-0.1-0.4-0.1-0.9,0-1.4c0.1-1.5,0.2-2.9,0.1-4.5c-0.1-0.8,0-1.7,0.1-2.4
			c0-0.5,0.1-1.1,0.1-1.5c0-2.3,0.4-4.5,0.9-6.7c0.3-1.1,0.5-2.4,0.7-3.6c0.2-1.2,0.6-2.4,0.9-3.7c0.2-0.9,0.9-1.4,1.4-2.2l0.3-0.2
			c3.2-3.5,7,0.5,8.1,7.3c0.3,1.5,0.3,3.2,0.5,4.7C226.4,143.6,226.4,144.6,226.4,145.6z"/>
	</g>
	<g>
		<path d="M118.3,214.2c-0.7,0-1.1,0.3-1.1,0.9c0,2.2,5.3,5.3,5.3,14.2c0,8.5-5.5,15.7-15.3,15.7c-14.9,0-23.8-12.7-23.8-34
			c0-17.7,7.7-26.7,14.9-26.7c5.9,0,6.9,5.1,6.9,10.4c0,7.4,4.3,10.9,9.9,10.9c4.3,0,9.5-3,9.5-11.3c0-8.8-7.8-14.6-18-14.6
			c-9.2,0-17.3,2.8-24.9,12.2c-5.1,6.1-9.2,16.6-9.2,27.1c0,22,12,35.4,29.2,35.4c14.9,0,25.8-8.8,25.8-24.6
			C127.5,220,121,214.2,118.3,214.2z"/>
		<path d="M221.4,242.1c-1.6,0-5.3,0.9-9.2,0.9c-3.8,0-6.6-1.5-7.7-9.6c-2.2-15.1-2.8-32.7-3.6-40.1c-0.3-2.7-0.4-4.3-1.4-4.3
			c-1.6,0-5.7,4.1-10.5,6.1c-5.9,2.4-11.5,2.7-14.6,2.8c-1.5,0.3-2.6,0.5-2.6,1.9c0,1.1,0.9,1.6,2.2,1.6c2.4,0,5.1-0.7,7.7-0.7
			c8.4,0,8.4,8,8.4,15.5c0,12.2-2.3,32.4-15.8,32.4c-12.4,0-15.5-13.4-19.7-36.5c-0.9-5-1.8-10.8-3-18.2c-0.5-3.2-0.9-3.6-1.5-3.6
			c-1.6,0-3.5,5.7-10.5,10.3c-4.2,2.8-8.1,4.3-10.8,5.1c-2.2,0.7-3.8,0.9-3.8,2.6c0,1.4,1.1,1.8,1.9,1.8c2.4,0,6.2-1.9,9-1.9
			c2.8,0,5.1,1.6,6.2,8.2c1.1,6.2,1.6,19.7,5.7,30c3.5,9.3,10.4,14.6,19.9,14.6c17.6,0,22.6-18.5,24.6-32.8c0.9,5.4,1.9,12.6,3,17.7
			c0.5,2.6,1.5,3.2,3.4,3.2c1.9,0,5.4-1.1,10.1-1.8c5.8-0.8,10.3-1.2,12.7-1.8c1.6-0.4,2-1.2,2-2C223.4,242.7,223,242.1,221.4,242.1
			z"/>
		<path d="M265.1,235.7c-3.9,0-6.3,2.7-6.3,6.2c0,5.5,6.2,6.3,6.2,11.2c0,3.9-2.7,8.4-9.7,8.4c-9,0-15.8-8.1-15.8-26.9
			c0-13.4,4.2-29.9,7.2-35.9c0.9-1.9,2.4-3.9,4.9-5.1c3.5-1.8,8.5-2,10.9-2c1.6,0,2.7-0.5,2.7-1.8c0-1.2-0.9-1.8-2.8-1.8
			c-3.2,0-7.3,0.8-9.5,0.8c-1.8,0-2.2-1.4-2.2-2.7c0-5.9,3.9-17.2,3.9-21.9c0-2.4-0.7-4.1-2.7-4.1c-2.2,0-3.9,2-5.7,7.4
			c-4.1,12.4-7.3,19.6-19.7,22.6c-3.1,0.7-6.8,1.4-8.8,2c-1.2,0.4-1.8,1.1-1.8,1.8c0,0.9,0.8,1.4,2.4,1.4c3.6,0,8.4-0.4,10.1-0.4
			c1.5,0,2.4,0.1,2.4,1.8c0,4.5-6.3,20.3-6.3,38c0,7.6,1.8,15.3,5.5,21.1c4.2,6.2,11.5,10.1,20.3,10.1c15.5,0,21.6-11.3,21.6-21.6
			C272,238.1,268.5,235.7,265.1,235.7z"/>
		<path d="M322.8,226.3c-0.8,0-1.2,0.5-1.2,1.4c0,0.7,0.4,1.9,0.9,3.2c0.8,2.2,1.1,4.7,1.1,7c0,7.7-4.2,14.6-13.5,14.6
			c-13.4,0-19.7-12.6-20.4-26.3c2.3,0.8,6.8,1.5,11.1,1.5c9,0,27.6-4.3,27.6-23.6c0-14.7-12-19.2-21.3-19.2
			c-14.2,0-33.1,12.2-33.1,39.3c0,20,11.5,34.3,31.6,34.3c13.9,0,22.7-7.6,22.7-20.4c0-3.5-1.2-7.3-2.4-9.3
			C324.8,227.1,323.6,226.3,322.8,226.3z M305.9,188.8c5.3,0,10.4,3.4,10.4,14.2c0,12-7.3,20-17.6,20c-4.5,0-7-0.5-9.3-1.2
			C289.4,196,299.2,188.8,305.9,188.8z"/>
	</g>
	<g>
		<path d="M98.3,309.7c-0.4-0.1-0.7-0.4-1.1-0.3c-1.2-0.1-2.3-0.4-3.3-0.3c-1.4,0-2.8,0.2-4.1,0.4c-0.6,0-1.1,0.3-1.6,0.8
			c-0.2,0.2-0.1,0.8,0.1,0.9c0.5,0.1,0.9,0.3,1.3,0.2h1.9v2.2c-0.1,0.7-0.2,1.4-0.2,2.3c-0.2,2.5-0.3,5.3-0.4,7.7
			c0,1-0.1,1.9-0.1,2.8c-0.1,2.3-0.1,4.7-0.1,6.9c-0.1,2.9,0.1,5.8,0.1,8.6c0,1.7-0.1,3.5,0,5.2c0,0.9-0.1,1.7-0.4,2.6
			c-0.1,0.4-0.4,0.9-0.8,0.9l-1.4,0.4c-0.1,0.1-0.1,0.4,0,0.6c0.2,0.5,0.9,0.8,1.5,0.8c0.9-0.1,2.9,0.1,3.8,0.1
			c0.6-0.1,1.3,0,1.9-0.2c0.3-0.1,0.6-0.1,0.9-0.3c0.1-0.2,0.3-0.4,0.2-0.6l-0.5-0.4c-0.4-0.1-0.9,0.1-1.4-0.1
			c0.1-0.1,0.2-0.4,0.1-0.6c0.1-0.9,0.3-1.6,0.4-2.3c0.1-0.7,0-1.5-0.1-2.2l-0.1-5.8c0.1-1.2,0.1-2.4,0.1-3.5c0.1-1.5,0-3.2,0-4.7
			c0.1-1.9,0.2-3.8,0.3-5.8c0.1-1,0.1-2.1,0.1-3.2c0-1.4,0-2.9,0.2-4.5c0.1-0.5,0.1-1,0.1-1.4c0.1-0.5,0-0.9,0.1-1.4
			c0.1-0.6,0.1-1.2,0.1-1.9c-0.1-0.4-0.1-0.9,0-1.4c-0.1-0.9,0.1-1,1.2-1.1c0.2,0,0.4,0.1,0.6,0.1c0.1,0,0.4-0.2,0.5-0.2
			c0.4-0.1,0.6-0.9,0.3-1.2C98.7,309.9,98.5,309.7,98.3,309.7z"/>
		<path d="M122.5,309.3l-0.6-0.2c-0.4-0.1-0.9-0.2-1.3-0.2c-0.4,0-0.8-0.1-1.2-0.1c-1.9,0.1-3.7,0.2-5.6,0.4c-0.1,0-0.4,0.1-0.4,0.1
			c-1.2,0.1-2.4,0.1-3.5,0.3c-0.6,0.1-1.3,0.1-1.9,0.4c-1.5,0.3-2.9,0.5-4.2,0.7c-0.6,0.1-1.2,0.2-1.8,0.4c-0.4,0.1-0.6,0.6-0.8,1
			c0.1,0.8,0,1.7,0.1,2.5c0,0.3,0.3,0.4,0.5,0.5c0.6,0.1,1.2-0.1,1.2-0.7c0.1-0.6,0.1-1.2,0.4-1.7c0.8-0.4,1.7-0.4,2.7-0.4
			c0.7,0,1.6-0.1,2.4,0.1c0.1,0.2,0.1,0.5,0.1,0.8c-0.1,1.4-0.3,3-0.2,4.4c0,1.5-0.3,2.9,0,4.4c0,0.1,0,0.4-0.1,0.6
			c0,0.8-0.1,1.7-0.1,2.5v1.4c-0.1,1.5-0.1,3.1-0.2,4.7c-0.1,1.4-0.4,2.7-0.4,4c-0.1,1.2-0.2,2.3-0.1,3.4c0,1.3,0.1,2.6,0.1,3.8
			c0.1,0.9,0.1,1.7,0.1,2.5c-0.1,1-0.1,2.1,0,3.1c0.2,0.5,0.1,1,0.1,1.5c0,0.4-0.3,0.6-0.6,0.6c-0.3,0-0.6,0.2-0.8,0.3
			c-0.2,0.1-0.6,0.1-0.9,0.1c-0.4,0.1-0.6,0.5-0.4,0.9c0.4,0.5,0.9,0.8,1.4,0.9c1,0.1,1.9,0.3,2.8,0.2c0.9,0,1.9-0.1,2.9,0.1
			c0.9,0.1,1.7-0.1,2.1-0.8c0.2-0.2,0.3-0.4,0.3-0.6c-0.1-0.3-0.4-0.4-0.6-0.5c-0.4,0-0.7,0.1-1.1,0.1c-0.4,0-0.6-0.2-0.6-0.5
			c0.2-1.4,0.4-2.8,0.1-4.2c0-0.1,0.1-0.3,0.1-0.5c0.1-0.8,0.1-1.6,0.1-2.3c0.1-0.8-0.1-1.5,0.1-2.2c0.1-1.4,0.1-2.7,0.4-4.1l0.3-4
			l0.2-3.7c0.1-0.2,0.1-0.5,0.1-0.8c0-0.6,0-1.3,0.1-1.9c0.1-1.4,0.2-2.8,0.4-4.2c0.2-2.5,0.4-5,0.3-7.6c-0.1-0.9-0.1-1.9-0.5-2.7
			v-0.4c0.1-0.1,0.2-0.2,0.3-0.2c1.7-0.2,3.4-0.4,5-0.4c0.3-0.1,0.5,0,0.7,0c0.4,1.3,0.5,1.4,1.6,2.2c0.1,0.1,0.1,0.2,0.2,0.2
			c0.4,0.3,0.9,0.3,1.2-0.1c0.2-0.4,0.4-0.7,0.5-1c0-0.6,0.1-1.3,0.2-2C123.5,309.8,123.1,309.4,122.5,309.3z"/>
		<path d="M129.7,308.8c-0.2-0.2-0.5-0.2-0.6-0.1c-0.5,0.1-0.9,0.9-1,1.6v0.3c0.4,0.6,0.9,1.6,1.2,1.7c0.1,0.4,0,0.7,0.1,0.9
			c0.1,0.3,0.1,0.5,0.4,0.4c0.1,0.1,0.2,0.1,0.3-0.1c0.3-0.4,0.4-0.9,0.7-1.5C131.2,310.8,130.7,309.4,129.7,308.8z"/>
		<path d="M128.1,310.6l-0.3-0.6C128.1,310.9,128.1,310.9,128.1,310.6z"/>
		<path d="M150.3,328.9c-1.2-0.9-2.3-1.7-3.8-2.2c-0.8-0.2-1.6-0.6-2.4-1.2c-0.5-0.8-1.2-1.5-1.9-2.3c-0.1-0.2-0.3-0.4-0.3-0.6
			c-0.2-0.6-0.7-1.5-0.9-2.2c-0.4-1.4-0.3-2.9,0.4-4.5c0.4-1.4,3.4-4.1,6.5-3.7c0.4,0.1,0.8,0.4,1,0.4l1.5,1.6
			c0.6,0.6,1.2,3.2,1.4,3.3c1.2,0.2,1.7,0.2,2.4-0.7l-0.8-2.4c0,0-0.1-0.1-0.1-0.2c-0.4-0.9-1-1.6-1.4-2.1
			c-4.6-4.8-8.7-4.7-12.7-0.8c-0.4,0.4-0.8,0.8-1.1,1.1c-1.1,0.7-1.7,3.7-1.7,4.2c-0.3,2.2-1.5,5.7,3.9,10.5
			c0.5,0.4,1.4,0.7,1.9,1.2c0.5,0.4,1,0.6,1.4,0.9c1.2,0.9,2.4,1.8,3.5,2.8c0.4,0.3,0.7,0.7,0.9,1.2c0.9,1.2,1.2,2.4,1.7,4
			c0.3,0.9,0.3,1.9,0.3,2.9c-0.1,1.7-0.7,3.4-1,5c-0.4,1.8-1.2,3.3-2.2,4.7c-0.4,0.6-0.9,1.1-1.4,1.7c-0.4,0.4-0.8,0.5-1.4,0.4
			c-0.7-0.2-1.4-0.4-2.2-0.9c-2.2-1.6-3.6-6.1-3.5-9.9c0-0.3,0.3-0.5,0.4-0.7c0.3-0.7,0.2-1.1-0.6-1.4c-0.2,0-0.5-0.1-0.8-0.1
			c-0.9,0.1-2.1,0.2-3.2,0.4c-0.1,0-0.6,0.2-0.9,0.4c-0.2,0.1-0.2,0.8,0,0.9c0.1,0.1,0.4,0.2,0.7,0.3c0.1,0.1,0.6,0.3,0.9,0.3
			c0,0.3,0,0.5-0.1,0.6c-0.1,0.7-0.1,1.3-0.1,2c0.1,0.5,0,1.2,0,1.9c0,0.2-0.1,0.5,0.1,0.6c0.2,1.9,1.2,4.2,2.8,5.4
			c3.3,2.7,7.8,2.9,10.7,1.3c2-0.9,3.5-2.5,4.6-4.3c0.6-0.9,1-2.2,1.4-3.3c0.6-2.1,0.8-4.1,0.8-6.3c0-1.6-0.3-3.1-0.9-4.5
			C153.5,332.4,152.3,330.5,150.3,328.9z"/>
		<path d="M198.1,328.9c-1.2-0.9-2.3-1.7-3.8-2.2c-0.8-0.2-1.6-0.6-2.4-1.2c-0.5-0.8-1.2-1.5-1.9-2.3c-0.1-0.2-0.3-0.4-0.3-0.6
			c-0.2-0.6-0.7-1.5-0.9-2.2c-0.4-1.4-0.3-2.9,0.4-4.5c0.4-1.4,3.4-4.1,6.5-3.7c0.4,0.1,0.8,0.4,1,0.4l1.5,1.6
			c0.6,0.6,1.2,3.2,1.4,3.3c1.2,0.2,1.7,0.2,2.4-0.7l-0.8-2.4c0,0-0.1-0.1-0.1-0.2c-0.4-0.9-1-1.6-1.4-2.1
			c-4.6-4.8-8.7-4.7-12.7-0.8c-0.4,0.4-0.8,0.8-1.1,1.1c-1.1,0.7-1.7,3.7-1.7,4.2c-0.3,2.2-1.5,5.7,3.9,10.5
			c0.5,0.4,1.4,0.7,1.9,1.2c0.5,0.4,1,0.6,1.4,0.9c1.2,0.9,2.4,1.8,3.5,2.8c0.4,0.3,0.7,0.7,0.9,1.2c0.9,1.2,1.2,2.4,1.7,4
			c0.3,0.9,0.3,1.9,0.3,2.9c-0.1,1.7-0.7,3.4-1,5c-0.4,1.8-1.2,3.3-2.2,4.7c-0.4,0.6-0.9,1.1-1.4,1.7c-0.4,0.4-0.8,0.5-1.4,0.4
			c-0.7-0.2-1.4-0.4-2.2-0.9c-2.2-1.6-3.6-6.1-3.5-9.9c0-0.3,0.3-0.5,0.4-0.7c0.3-0.7,0.2-1.1-0.6-1.4c-0.2,0-0.5-0.1-0.8-0.1
			c-0.9,0.1-2.1,0.2-3.2,0.4c-0.1,0-0.6,0.2-0.9,0.4c-0.2,0.1-0.2,0.8,0,0.9c0.1,0.1,0.4,0.2,0.7,0.3c0.1,0.1,0.6,0.3,0.9,0.3
			c0,0.3,0,0.5-0.1,0.6c-0.1,0.7-0.1,1.3-0.1,2c0.1,0.5,0,1.2,0,1.9c0,0.2-0.1,0.5,0.1,0.6c0.2,1.9,1.2,4.2,2.8,5.4
			c3.3,2.7,7.8,2.9,10.7,1.3c2-0.9,3.5-2.5,4.6-4.3c0.6-0.9,1-2.2,1.4-3.3c0.6-2.1,0.8-4.1,0.8-6.3c0-1.6-0.3-3.1-0.9-4.5
			C201.2,332.4,200.1,330.5,198.1,328.9z"/>
		<path d="M225.5,343.5c-0.4,0.3-0.6,0.6-0.9,1.1c-0.6,1.2-1.4,2.2-2.3,2.9c-0.4,0.4-0.7,0.6-1.1,1.1c-0.9,1.3-2.4,1.9-4,2.4
			c-0.7,0.3-1.4,0.2-2-0.5c-0.8-0.7-1.6-1.6-2.2-2.7c-0.8-1.3-1.2-2.9-1.7-4.3c-0.5-1.7-0.8-3.4-1-5c-0.3-2.7-0.4-5.5,0.1-8.1
			c0.1-1.2,0.2-2.2,0.3-3.4c0.1-1.7,0.2-3.5,0.5-5.2c1.2-5.5,2.3-12.2,5.3-11.9c0.9,0.1,1.8,0.5,4,1.6c0.3,0.4,0.4,0.8,0.6,1.1
			c0.1,0.1,0.4,0.1,0.6,0.1c0.2-0.1,0.4-0.2,0.5-0.4c0.1-1,0.1-1.8-0.7-2.4c-0.9-0.8-1.7-1.7-3-1.7c-0.1,0-0.4-0.1-0.6-0.1
			c-2.3-0.6-4.5,0.3-6.6,1.3c-0.2,0.1-0.5,0.4-0.7,0.6c-1.4,1.3-2.5,2.9-3,4.8c-0.4,1.7-0.8,3.2-1.3,4.6c-0.9,3.5-1.3,7-1.4,10.4
			c-0.1,2.9,0,6,0.4,8.7c0.4,4,1.4,7.8,3.5,11.2c0.7,1.2,1.5,2.2,2.7,2.9c2.1,1.5,4.6,1.7,7,1.7c0.2-0.1,0.6-0.2,0.9-0.3
			c1.7-0.7,3.2-1.6,4.5-2.9c1.3-1.7,2.4-3.2,2.7-5.1c0.3-1.2,0-2.1-0.6-3.1C225.8,343.2,225.5,343.4,225.5,343.5z"/>
		<path d="M252.7,349l-0.9,0.1c0.1-0.4,0.1-0.7,0.1-1.1l0.4-2.9c0-0.8,0.1-1.7,0.1-2.6c-0.1-1.1,0.1-2.2-0.1-3.3
			c-0.2-1.3,0.1-2.7-0.1-4c0.3-2.2,0-4.2-0.1-6.5l-0.4-8.3c0-3.4-1.2-6.5-2.6-9.4c-0.4-0.9-1-1.6-1.6-2.2c-0.6-0.9-1.7-1.2-2.7-1.1
			c-1.5,0.1-3,0.5-4.2,1.7c-1.8,1.7-3.4,3.5-4.3,5.9c-1.3,2.9-2.3,6-2.9,9.1c-0.3,1.4-0.5,3.1-0.8,4.5c-0.6,3.5-1.1,7-1.5,10.4
			c-0.1,1.3-0.3,2.4-0.3,3.6c0,2.1,0,4,0.1,5.9c-0.1,0.3-0.1,0.6-0.1,1c-0.3,0.1-0.5,0.1-0.6,0.2c-0.5,0.2-1.1,0.4-1.6,0.8
			c-0.2,0.1-0.3,0.6,0,0.8c0.1,0.2,0.4,0.4,0.6,0.5c0.9,0.4,1.7,0.4,2.6,0.5c0.6,0.1,1.4,0,2.2,0.2c0.6,0.3,2.2-0.2,2.2-1
			c0.1-0.6-0.1-0.9-0.6-1.1c-1.4-0.4-0.5-1.2-0.3-3.7c0-1,0-2,0.1-3c0.1-0.9,0.2-1.6,0.2-2.5c0.1-1.6,0.3-2.9,0.4-4.5
			c0.4-1.5,0.6-2.9,0.9-4.5c0.1-0.9,0.2-1.7,0.7-2.6c0.4-0.1,0.9-0.2,1.4-0.3c2-0.1,4.1-0.1,6-0.7h0.4c0.4-0.1,0.8,0.2,0.8,0.6
			c0.1,0.8,0.1,1.7,0.1,2.4c0,1.4,0.1,3,0.1,4.4c0.1,2,0.1,4,0.1,5.8c0.1,2.7-0.2,5.4,0.6,8.1c-0.4,0.1-0.8,0.4-1,0.6
			c-0.4,0.3-0.4,0.9,0,1c0.5,0.3,1.1,0.6,1.7,0.6l4.7-1.5c0.1,0,0.4-0.1,0.6-0.1c0.6-0.1,0.9-0.6,0.9-1.2
			C253.5,349.3,253.2,349,252.7,349z M245.8,326.4c-1.4,0.4-2.7,0.4-4,0.6c-1.3,0.2-2.6,0.4-3.8,0.7c-0.1-0.1-0.3-0.1-0.3-0.4
			c-0.1-1.7-0.1-3.5,0.4-5.3c0.2-0.9,0.4-1.8,0.5-2.7c0.2-1,0.2-2.1,0.4-2.9c0.1-1.2,0.8-2.5,1.4-3.5c0.5-0.8,1.2-1.6,1.9-2.2
			c0.4-0.4,1-0.2,1.2,0.3c0.9,2.4,1.9,4.9,1.9,7.5c0.1,2.1,0.3,4.3,0.4,6.4C245.9,325.4,245.8,325.9,245.8,326.4z"/>
		<path d="M282.7,350.2c-0.4,0.1-0.6,0.1-0.7,0.4c-0.5,0.3-0.8,0.4-1.2,0.4c-0.3,0.1-0.6-0.3-0.9-0.6c-0.4-0.8-0.6-1.4-0.7-2.3
			c-0.3-1.5-0.5-3.2-0.3-4.7c0.1-0.4,0.1-0.7,0.1-1.2c0-1.6-0.3-5.1-0.6-6.5c-0.5-1.6-1-3.1-1.5-4.5c-0.5-0.9-0.9-1.7-1.4-2.2
			c-0.9-1.3-1.9-2.4-2.9-3.4c-0.2-0.3-0.4-0.5-0.6-0.7c4.3-1.4,5.9-4.7,6.7-5.8c1-1.7,1.3-3.4,0.6-5.2l-0.2-0.9
			c-1.2-2.5-3.2-4.3-6-4.9c-2.2-0.3-4.5-0.4-6.5-0.4c-2.8,0.2-5.3,0.8-7.6,2.2c-0.7,0.3-1.4,0.8-2,1.2c-0.2,0.1-0.3,0.3-0.2,0.6
			c-0.1,0.2,0.3,0.4,0.4,0.4c0.4,0,0.9,0.1,1.3,0c1-0.2,1.9-0.4,2.9-0.5c0.2,0.1,0.1,0.5,0.1,0.9c0,1.2-0.3,2.5-0.3,3.8
			c0,1.7-0.6,8-0.6,9.1c-0.1,1.4-0.3,2.9-0.3,4.2c-0.1,2.8-1.4,16.6-1.5,19v1.3c-0.7,0.3-1.2,0.4-1.7,0.5s-0.6,0.4-0.4,0.8
			c0.6,0.6,1.3,1.2,2.2,1.2c1.9-0.1,3.7,0.1,5.6,0.1c0.3-0.1,0.7-0.1,0.9-0.2c0.1-0.1,0.2-0.6,0.3-0.6c0.1-0.2,0-0.4-0.2-0.4
			c-0.1-0.1-0.1-0.3-0.3-0.4c-0.9-0.2-1.2-0.8-1.1-1.5c0.1-1.4,0.1-2.6-0.1-4c-0.2-2.4,0.6-11,0.6-11.9c0.1-0.2,0.1-0.6,0.1-0.7
			c0.2-1.4,0.2-2.8,0.4-4c0-0.7,0-1.4,0.2-2.1c1.8-0.4,1.4,0.1,3.2-0.4c0.4,0.1,0.9,0,1.4,0.2c1.4,1.8,2.4,4.1,2.9,6.2
			c0.1,0.9,0.4,1.9,0.6,2.7c0.4,1.9,0.4,4.7,0.6,6.9c-0.1,3.2,1,7.2,2.4,8.9c0.4,0.6,3.1,3.5,6.8,2.1c0.7-0.3,0.9-1.2,0.6-1.9
			C283.4,351.2,283,350.7,282.7,350.2z M265.5,323.8c-0.1-0.6-0.1-1.2-0.1-1.9c0-0.5,0.1-1.1,0.1-1.6c0-0.9,0-1.7,0.1-2.8
			c0-1.5-0.1-6.3-0.5-6.9c0.1-0.4,0.3-0.4,0.6-0.6c1.9-0.4,4-0.2,6.1-0.1c0.3,0,0.6,0.1,0.9,0.4c0.9,0.9,1.6,1.9,1.7,3.4
			c0.1,1.2,0.1,2.5-0.1,3.7c-0.4,1.4-1.4,2.9-2.6,3.9C269.1,323.8,268,323.8,265.5,323.8z"/>
		<path d="M312.7,310.8c-0.1-0.1-0.2-0.3-0.4-0.4l-2-0.9c-0.3-0.1-0.5-0.1-0.8-0.1c-0.6,0-1.2-0.1-1.7-0.1c-1.2,0-2.5,0.1-3.6,0.7
			c-0.3,0.2-0.6,0.4-0.8,0.7c-0.4,0.4-0.1,1,0.4,1.2c0.2,0.1,0.5,0.1,0.9,0.2c-0.1,0.4-0.1,0.6-0.1,0.9c-0.4,1.6-0.9,3.2-1.2,4.7
			c-0.2,0.7-0.4,1.5-0.5,2.2l-2.2,8.3c-0.1,0.5-0.1,1-0.7,1.4c-0.1-0.1-0.4-0.4-0.5-0.6c-1.2-2-2.2-4.2-3.2-6.4
			c-0.4-0.9-0.8-1.9-1.2-2.8l-0.9-2.2c-0.3-0.6-0.7-1.3-0.9-2c-0.3-1-0.8-1.9-0.9-3.1c0.4-0.1,0.7-0.2,1.1-0.2
			c0.5-0.1,0.7-0.5,0.9-0.9c0.1-0.4-0.1-0.6-0.4-0.8c-0.2-0.1-0.4-0.4-0.6-0.5c-0.3-0.1-0.5-0.3-0.8-0.3c-1.7-0.1-3.2,0-4.9,0.5
			c-0.4,0.1-0.9,0.3-1.3,0.5c-0.2,0.1-0.4,0.4-0.6,0.6c-0.4,0.4-0.2,0.9,0.3,0.9c0.6,0.1,1.2,0.1,1.7,0.1c0.4,0.5,0.6,1,0.9,1.4
			c0.9,0.9,1.2,2.1,1.7,3.2c0.4,1,0.9,2.1,1.2,3.2c1,2.8,2.4,5.4,3.9,8c1.1,1.9,2.2,3.8,3,5.8c0.3,0.6,0.3,1.1,0.1,1.7
			c-0.7,2-1.4,4.1-2.2,6.1c-0.8,2.3-1.9,4.4-3,6.5c-0.7,1.3-1.7,2.2-2.9,3.1c-1.1,0.8-1.7,0.6-1.9-0.7c-0.1-0.7-1-3.2-2.1-3.2
			c-0.5,0-0.5,0.4-0.7,0.7c-0.1,0.1-0.1,0.3-0.1,0.4c-0.5,1.5,0.1,3,1.4,3.9c1.4,0.9,3,1.2,4.7,1.5c1.1,0.2,2,0,2.9-0.6l3.1-2
			c0.1-0.1,0.3-0.3,0.4-0.4c1.2-1.1,2.1-2.4,2.8-3.9c1.2-2.4,2.4-5,3.3-7.6c0.3-0.9,0.6-1.7,1-2.5c0.7-1.5,1.2-3.1,1.7-4.7
			c1.1-3.4,2.3-8,2.8-14.7c0.2-1.2,0.4-2.5,0.6-3.7c0.1-0.5,0.1-1.1,0.1-1.6c0-0.6,0.4-1.2,1.2-1.1c0.3,0,0.6-0.1,0.9-0.1
			C312.8,311.5,312.9,311,312.7,310.8z"/>
	</g>
	<g>
		
			<ellipse transform="matrix(0.1363 -0.9907 0.9907 0.1363 159.6982 408.855)" class="st7" cx="314.3" cy="112.8" rx="12.2" ry="11.8"/>
		
			<ellipse transform="matrix(0.1363 -0.9907 0.9907 0.1363 140.6046 379.8969)" class="st7" cx="288.2" cy="109.3" rx="12.2" ry="11.8"/>
		<path class="st8" d="M350.6,116.6c-2.4,3-4.9,5.9-8.1,7.8c-0.2,0.1-0.3,0.2-0.4,0.3c-0.1-0.4-0.2-0.9-0.3-1.3
			c-0.8-4.1-1.6-8.1-2.5-12.2c1.3,0.5,2.9,0.5,4.2,1.1c-3.5-3.7-7-7.5-10.6-11.2c1.8-1,3.6-1.9,5.5-2.9c-5.3-2.1-10.6-4.2-15.9-6.2
			c2.2-1.8,4.3-3.5,6.5-5.3c-4.5,0.6-9.1,1.2-13.6,1.8c1.1-3.7,2.3-7.3,3.4-11c-5.2,3.1-11.9,9.1-17.7,10.2
			c-7,1.3-17.1-1.9-24.3-2.7c2.6,1.1,5.1,2.2,7.7,3.4c-7.8,2.1-15.6,4.2-23.4,6.2c2.6,0.3,5.2,0.6,7.8,0.9
			c-5.1,4.8-10.3,9.6-15.4,14.3c2.3-0.7,4.5-1.4,6.8-2.1c-0.9,1.8-1.7,3.5-2.6,5.3c-3.2-1.9-6.4-4.2-6.9-8.2
			c-0.3-2.5-9.7,0.4-9.2,3.8c0.7,5.2,5.6,7.9,9.7,10.4c0.9,0.5,1.8,1,2.7,1.5c-1.2,2.5-2.5,5.1-3.8,7.6c2.5-1.3,5.1-2.5,7.6-3.8
			c-1.3,5.8-2.6,11.7-3.9,17.5c2.1-2,4.2-3.9,6.2-5.9c0.5,5.3,0.9,10.6,1.4,15.9c1.2-2.4,2.4-4.8,3.6-7.2c2.6,4.3,5.1,8.6,7.7,12.9
			c-1,4-2,8.1-3.2,12c-1.8,5.8,8,6.3,9.6,0.9c1.2-3.7,2.1-7.5,3-11.3c1.1,1.6,2.2,3.2,3.3,4.8c0.7-2.9,1.4-5.8,2.1-8.7
			c1.7,5.1,3.4,10.2,5.2,15.3c1.7-4.1,3.4-8.2,5.1-12.4c0.7,2.3,1.3,4.5,2,6.8c2.1-2.6,4.1-5.3,6.2-7.9c0.3,1.8,0.7,3.6,1,5.5
			c0.7-0.5,1.3-0.9,2-1.4c0.3,5.1,0.8,10.3,2.3,15.3c1.6,5.5,10.8,1.8,9.2-3.7c-1.3-4.4-1.7-9-1.9-13.5c3.6-3.2,7-6.6,10.5-9.9
			c-0.2,2-0.4,4-0.7,6c2.5-5.4,5-10.9,7.5-16.3c0.3,2.2,0.6,4.4,0.9,6.6c0.6-4.4,1.3-8.8,2-13.3c2.8,0,5.6-0.3,8.3-1.1
			c5.4-1.7,9.1-5.6,12.5-10C360.2,120.3,352,114.8,350.6,116.6z M276.5,107.7c0.9-6.7,6.9-11.4,13.3-10.5c6.4,0.9,10.9,7,10,13.7
			c-0.9,6.7-6.9,11.3-13.3,10.5C280.1,120.5,275.6,114.4,276.5,107.7z M299.2,143.3c-1.3-0.9-2-3.1-2.3-4.5
			c-0.8,1.7-2.4,4.5-3.8,3.6c-1.4-1-2.2-3.7-2.5-5.1c-0.7,1.1-3.2,4.6-4.7,3.4c-1.5-1.2-1.9-4.3-1.9-5.2c2.1,0.5,4.3,1.1,6.6,1.6
			c0,0,0.1,0,0.1,0c2,0.4,4,0.8,6.1,1.2c0.1,0,0.2,0,0.3,0.1c2.1,0.3,4.2,0.6,6.2,0.8C302.6,140.7,300.7,144.4,299.2,143.3z
			 M305.6,143.4c-1.2-1-1.9-3.3-2.1-4.3c2.2,0.2,4.3,0.3,6.3,0.2C309.2,140.4,306.9,144.5,305.6,143.4z M312.7,124.9
			c-6.4-0.9-10.9-7-10-13.7c0.9-6.7,6.9-11.3,13.3-10.5c6.4,0.9,10.9,7,10,13.7C325.1,121.1,319.1,125.8,312.7,124.9z"/>
		<g>
			<path class="st9" d="M287,136.3c0.1,0,0.1,0,0.2,0.1C287.2,136.4,287.1,136.3,287,136.3z"/>
			<path class="st9" d="M290.6,137.2c0,0-0.1,0-0.1,0c0,0,0,0,0,0C290.6,137.1,290.6,137.2,290.6,137.2z"/>
			<path class="st9" d="M309.8,139.4c-0.6,1.1-2.9,5.1-4.2,4.1c-1.2-1-1.9-3.3-2.1-4.3c-0.1,0-0.1,0-0.2,0l0,0
				c-0.7,1.6-2.5,5.3-4.1,4.2c-1.3-0.9-2-3.1-2.3-4.5c-0.8,1.7-2.4,4.5-3.8,3.6c-1.4-1-2.2-3.7-2.5-5.1c-0.7,1.1-3.2,4.6-4.7,3.4
				c-1.5-1.2-1.9-4.3-1.9-5.2c0,0,0,0,0,0c-7.2-1.9-12.4-3.8-12.4-3.8c6.2,12.3,18.8,19.2,29.4,20.4c10.6,1.2,17.6-7.5,20.1-16
				C318.5,138.3,314.5,139.2,309.8,139.4z"/>
		</g>
		
			<ellipse transform="matrix(0.1363 -0.9907 0.9907 0.1363 139.448 385.2955)" class="st9" cx="290.7" cy="112.7" rx="5.4" ry="6.1"/>
		
			<ellipse transform="matrix(0.1363 -0.9907 0.9907 0.1363 143.0047 388.7855)" class="st10" cx="294.5" cy="112.4" rx="1.2" ry="1.4"/>
		
			<ellipse transform="matrix(0.1363 -0.9907 0.9907 0.1363 153.9821 407.3021)" class="st9" cx="310.6" cy="115.3" rx="5.4" ry="6.1"/>
		
			<ellipse transform="matrix(0.1363 -0.9907 0.9907 0.1363 157.5536 410.7995)" class="st10" cx="314.4" cy="115" rx="1.2" ry="1.4"/>
	</g>
	<path class="st8" d="M261,281.3c0,0,0.1-0.2,0.4-0.7c0.3-0.5,0.8-0.9,1.4-1.3c0.6-0.4,1.4-0.6,2.3-0.6c0.9,0,1.9,0.3,2.9,1.2
		c0.7,0.5,1.1,1,1,1.5c0,0.5-0.2,0.9-0.6,1.2c-0.4,0.4-0.9,0.7-1.7,1.1c-0.3,0.3-0.5,0.7-0.7,1.1c-0.2,0.3-0.3,0.7-0.4,1
		c-0.1,0.4,0,0.7,0.2,1.1c0.3,0.6,0.8,1.2,1.3,1.7c0.5,0.5,0.8,1,1,1.4c0.1,0.4,0,0.8-0.4,1.2c-0.4,0.4-1.4,0.7-2.9,1
		c-0.9,0.2-1.6,0.2-2.2-0.1c-0.5-0.2-0.9-0.6-1.2-0.9c-0.3-0.4-0.6-0.9-0.6-1.5c-9.7-0.6-19-1.1-27.9-1.4c-3.8-0.1-7.7-0.3-11.7-0.4
		c-4-0.1-7.9-0.3-11.7-0.3c-3.8-0.1-7.4-0.1-10.7-0.1c-3.4,0-6.3,0.1-8.7,0.2c-3.3,0.2-6.7,0.4-10.5,0.6c-3.7,0.2-7.4,0.4-11.1,0.5
		c-3.7,0.2-7.2,0.3-10.6,0.5c-3.4,0.1-6.4,0.3-9,0.4c-2.6,0.1-5.5,0.2-8.6,0.4c0,0-0.2,0.3-0.6,0.6c-0.4,0.4-0.9,0.7-1.6,1
		c-0.6,0.3-1.4,0.4-2.3,0.5c-0.9,0-1.7-0.3-2.7-1c-0.9-0.7-1.3-1.4-1.2-2c0.1-0.6,0.4-1.2,0.8-1.6c0.5-0.5,1.2-1,2.2-1.4
		c0.2-0.2,0.3-0.4,0.4-0.7c0-0.2,0-0.5-0.1-0.9c-0.1-0.3-0.3-0.7-0.6-1.2c-0.4-0.5-0.7-0.9-1-1.3c-0.3-0.4-0.5-0.7-0.6-1.1
		c-0.1-0.3,0-0.7,0.1-1c0.2-0.3,0.6-0.7,1.2-1.2c0.5-0.4,1.1-0.7,1.8-0.8c0.7-0.1,1.3,0,1.9,0.1c0.6,0.2,1.1,0.4,1.5,0.7
		c0.4,0.3,0.6,0.6,0.6,1c0,0.2,0,0.5,0,0.8c0,0.3-0.1,0.6-0.1,0.8c0,0.3,0,0.5,0,0.7c0,0.2,0.2,0.4,0.4,0.5c0.1,0.1,1.1,0.2,2.8,0.3
		c1.7,0.1,4.1,0.2,7,0.4c3,0.1,6.5,0.2,10.5,0.4c4.1,0.1,8.5,0.2,13.4,0.3c4.9,0,10.1,0.1,15.6,0c5.5,0,11.2-0.1,17.1-0.3
		c8.8-0.2,16.6-0.4,23.4-0.6c6.8-0.2,12.5-0.5,17-0.7c4.6-0.2,8-0.4,10.3-0.6C260,281.3,261.1,281.3,261,281.3z"/>
</g>
</svg>
