<?xml version="1.0" encoding="utf-8"?>
<!-- Generator: Adobe Illustrator 21.1.0, SVG Export Plug-In . SVG Version: 6.00 Build 0)  -->
<svg version="1.1" id="Calque_1" xmlns="http://www.w3.org/2000/svg" xmlns:xlink="http://www.w3.org/1999/xlink" x="0px" y="0px"
	 viewBox="0 0 432 432" style="enable-background:new 0 0 432 432;" xml:space="preserve">
<style type="text/css">
	.st0{fill:#191464;}
	.st1{fill:#C82933;}
	.st2{fill:#E4C877;}
	.st3{fill:#B3B3B3;}
	.st4{fill:#342E8C;}
	.st5{fill:#CCCCCC;}
	.st6{fill:#F44244;}
	.st7{fill:#E6E6E6;}
	.st8{fill:#BD0725;}
	.st9{fill:#1A1A1A;}
	.st10{fill:#DA8F92;}
	.st11{fill:#F4D497;}
	.st12{fill:#F0A762;}
	.st13{fill:#8D4C36;}
	.st14{fill:#DAA18E;}
	.st15{fill:#E0C4BA;}
	.st16{fill:#DA9D8F;}
	.st17{fill:#70796B;}
	.st18{fill:#C5907E;}
	.st19{fill:#AAC69B;}
	.st20{fill:#B098A2;}
	.st21{fill:#2F3448;}
	.st22{fill:#8D1D11;}
	.st23{fill:#1B1E55;}
	.st24{fill:#B22931;}
	.st25{fill:#6E8BC4;}
	.st26{fill:#8B8286;}
	.st27{fill:#E3A8A3;}
	.st28{fill:#D7A392;}
	.st29{fill:#8B6E68;}
	.st30{fill:#C8A093;}
	.st31{fill:#333333;}
	.st32{fill:#B8B195;}
	.st33{fill:#864C38;}
	.st34{fill:#BA9490;}
	.st35{fill:#8D5948;}
	.st36{fill:#656E6E;}
	.st37{fill:#C6A687;}
	.st38{fill:#D6AA9C;}
	.st39{fill:#A06352;}
	.st40{fill:#ECBAA9;}
</style>
<g>
	<g>
		<g>
			<path class="st28" d="M141.5,140.6c2.6,0,5.2,0,7.9,0c0.4-0.6,0.4-0.6-0.1-1.1c-4.6-5.3-6.8-11.4-6.3-18.4c0.3-4.8,2.2-9,6-12.2
				c3.2-2.7,6.9-3.5,10.9-3.1c4,0.4,7.3,2,10.2,4.7c3.8,3.4,6.4,7.6,8.2,12.4c1.5,3.9,2.5,7.9,2.9,12c0.1,1.3,0.3,2.5,0.4,3.8
				c0,0.1,0,0.3,0.1,0.5c0.3-0.2,0.6-0.3,0.8-0.5c1.5-0.9,2.9-1.9,4.4-2.7c0.7-0.4,0.9-0.9,1-1.6c0.6-3.4,1.2-6.9,1.9-10.3
				c0.6-2.8,1.5-5.5,2.6-8.2c0.5-1.2,1.1-2.4,2-3.4c0.4-0.5,0.9-0.9,1.4-1.3c1.6-1.1,3.6-0.6,4.4,1.1c0.3,0.6,0.5,1.4,0.6,2.1
				c0.2,1.9,0,3.9-0.2,5.8c-0.7,4.7-1.5,9.4-2.2,14.1c-0.8,5.4-1.5,10.9-1.2,16.4c0.2,3.2,0.4,6.4,1.2,9.5c0.3,1.2,0.8,2.4,1.3,3.6
				c0.4,0.8,1,1.5,1.6,2.1c0.7,0.7,1.2,0.7,1.9,0.1c0.5-0.4,1-0.8,1.3-1.3c0.6-0.9,1.2-1.9,1.8-2.8c1.6-3,2.7-6.3,3.8-9.5
				c1.2-3.8,2.5-7.5,3.6-11.3c0.5-1.6,0.7-3.3,1.1-4.9c0.2-0.8,0.3-1.6,0.6-2.4c0.8-2.5,3.7-3,5.4-1.1c0.7,0.8,1.2,1.7,1.4,2.8
				c0.4,1.8,0.8,3.6,0.9,5.4c0.2,3.2,0.2,6.5,0.1,9.7c-0.1,4.5,0,9,0.5,13.4c0.4,3.6,1.1,7.1,2.3,10.5c1,2.7,2.6,5.2,4.6,7.4
				c0.7,0.8,1.5,1.4,2.5,1.8c0.8,0.3,1.5,0.2,2.1-0.4c1-0.9,1.7-1.9,2.3-3.1c0.8-1.8,1.3-3.8,1.6-5.7c0.9-5.2,0.9-10.5,0.7-15.8
				c-0.2-3.5-0.5-6.9-0.9-10.4c-0.5-4.7-1.3-9.3-2.3-13.9c-1.1-4.8-2.4-9.4-4.4-13.9c-0.1-0.3-0.3-0.6-0.5-0.9
				c-0.6,0.1-1.1,0.2-1.6,0.3c-3.3,0.7-6.6,0.7-9.8-0.5c-3.3-1.2-5.8-3.2-7.3-6.6c-0.7-1.7-1-3.5-0.6-5.3c0.8-3.1,2.7-4.9,5.8-5.5
				c2.2-0.5,4.3,0,6.4,0.8c3.6,1.5,6.6,3.8,9.1,6.7c1,1.1,1.9,2.4,2.9,3.6c0.2-0.1,0.6-0.2,0.8-0.3c2.1-1,4.3-2,6.4-3
				c2.8-1.3,5.7-2.4,8.8-2.9c2-0.3,4-0.2,5.9,0.5c1.1,0.4,2.1,1,3,1.8c0.8,0.7,1.3,1.6,1.6,2.7c0.1,0.6,0.1,1.1-0.4,1.5
				c-0.5,0.4-1,0.2-1.5-0.1c-0.4-0.3-0.8-0.5-1.1-0.9c-1.7-1.9-3.8-2.3-6.2-1.8c-2.3,0.4-4.6,1.2-6.7,2.2c-2.8,1.2-5.5,2.6-8.2,3.9
				c-0.1,0-0.1,0.1-0.3,0.2c0,0.1,0.1,0.3,0.2,0.4c3.1,6.5,5.1,13.3,6.5,20.3c1,5,1.8,10.1,2.1,15.2c0.4,5.3,0.6,10.6,0.2,16
				c-0.4,4.8-1.2,9.5-2.9,14c-0.8,2-1.8,4-3.3,5.6c-2,2.3-4.4,3.8-7.5,4.3c-2.6,0.4-5-0.1-7.3-1.3c-1.5-0.7-2.8-1.8-4-2.9
				c-3.6-3.5-5.9-7.8-7.4-12.6c-1.2-3.8-1.9-7.7-2.2-11.6c-0.2-2.1-0.2-4.3-0.4-6.4c0-0.1,0-0.3-0.2-0.5c-0.1,0.4-0.2,0.7-0.4,1.1
				c-0.8,2.6-1.6,5.1-2.8,7.6c-0.7,1.5-1.5,2.9-2.6,4.2c-1.3,1.5-2.8,2.6-4.8,2.9c-1.7,0.3-3.4,0-4.9-0.7c-1.3-0.6-2.4-1.5-3.5-2.5
				c-2.5-2.4-4-5.3-5.1-8.5c-1.2-3.5-1.8-7.1-2.1-10.8c-0.2-3.2-0.2-6.4,0.2-9.6c0-0.2,0-0.4,0-0.6c-0.3,0.2-0.5,0.3-0.7,0.4
				c-1.4,0.9-2.7,1.9-4.1,2.8c-0.4,0.3-0.6,0.5-0.6,1c0,5.8-0.5,11.5-1.1,17.2c-0.6,5-1.4,10.1-3.1,14.9c-0.8,2.4-1.8,4.6-3.1,6.7
				c-1.4,2.3-3.3,4.1-5.7,5.2c-3.2,1.4-6.4,1.4-9.6,0.3c-3.1-1.1-5.6-3-7.7-5.4c-3-3.5-4.7-7.5-5.6-11.9c-0.8-4.3-0.8-8.7-0.3-13
				c0.5-4.5,1.3-9,2.6-13.4c0-0.2,0.1-0.4,0.1-0.6c-2.5,0.1-4.9,0.1-7.4,0.2c-0.1,0.3-0.2,0.7-0.3,1c-1.7,6.4-4.7,12.1-9.2,17
				c-2.3,2.5-5,4.5-8.2,5.8c-5.3,2.2-10.3,1.8-15-1.7c-0.1-0.1-0.2-0.1-0.2-0.1c0,0-0.1,0-0.2,0c0.2,1,0.4,2.1,0.6,3.1
				c0.8,4,1.7,7.9,2.5,11.9c0.4,1.6,0.6,3.3,0.5,4.9c-0.1,2.8-2.6,4.3-5.1,3.1c-1.7-0.8-2.9-2.1-3.7-3.8c-0.7-1.6-1.3-3.2-1.9-4.9
				c-1.6-4.9-2.7-9.8-3.6-14.9c-1.2-6.6-2.3-13.2-3.3-19.8c-0.9-6.1-1.7-12.1-2.5-18.2c-0.3-2.5-0.6-5-0.7-7.6
				c-0.1-1.4,0.1-2.9,0.3-4.3c0.1-0.6,0.4-1.2,0.7-1.8c1.2-2.1,3.8-2.6,5.8-1.1c0.9,0.7,1.4,1.6,1.9,2.6c0.9,1.9,1.3,3.8,1.6,5.8
				c0.5,3.8,1,7.5,1.5,11.3c0,0.3,0.1,0.6,0.2,1.1c0.3-1.6,0.5-3.1,0.9-4.5c0.8-3.7,2.2-7.2,4-10.5c1.4-2.5,3.2-4.6,5.4-6.4
				c4-3.3,8.5-3.9,13.3-2.2c3.4,1.2,6.3,3.3,8.6,6.2c3.4,4.2,5.8,8.9,6.8,14.4c0.5,3.1,0.6,6.2,0.2,9.3
				C141.6,140.2,141.5,140.4,141.5,140.6z M158.7,145.7c-0.1,0.4-0.2,0.7-0.3,1.1c-1.2,4.2-2,8.5-2.5,12.9c-0.4,3.2-0.5,6.4,0.1,9.6
				c0.8,4,2.4,7.5,5.1,10.6c0.9,1,2,1.8,3.3,2.3c1.8,0.7,3.4,0.4,4.8-0.9c0.7-0.6,1.3-1.4,1.8-2.1c1.2-1.6,2-3.4,2.8-5.3
				c1.6-4.1,2.4-8.5,3.1-12.8c0.5-3.6,0.9-7.1,1.2-10.7c0.2-1.6,0.2-3.2,0.3-5.1C171.8,147.5,165.3,148,158.7,145.7z M130.9,141.4
				c0.1-0.5,0.2-0.9,0.3-1.3c0.6-3.1,0.6-6.2,0.2-9.3c-0.4-3.9-1.6-7.5-3.5-11c-1.2-2.1-2.9-3.7-5-4.9c-1.3-0.7-2.6-0.9-4-0.7
				c-1.3,0.2-2.5,0.7-3.5,1.5c-1.9,1.4-3.4,3.2-4.6,5.2c-2.5,4.1-3.8,8.6-4.3,13.3c-0.5,4.6-0.5,9.3-0.3,13.9c0,0.5,0.1,1,0.1,1.6
				c0.3-0.2,0.4-0.3,0.5-0.5c2.1-2,4.4-3.5,7.1-4.5c1.8-0.6,3.6-1.2,5.4-1.7c2.8-0.8,5.7-1.1,8.7-1.5
				C128.8,141.6,129.8,141.5,130.9,141.4z M178.1,141c0-0.4,0-0.6,0-0.9c-0.1-2.7-0.4-5.4-0.9-8c-0.9-4.8-2.5-9.3-4.9-13.5
				c-1.6-2.8-3.6-5.1-6.2-7c-1.8-1.3-3.8-2.1-6-2.2c-3.7-0.1-6.5,1.3-8.4,4.5c-1.3,2.2-1.8,4.7-1.6,7.2c0.3,3.9,1.7,7.5,3.6,10.8
				c0,0.1,0.1,0.1,0.2,0.2c0.2-0.3,0.4-0.5,0.7-0.8c0.8-0.8,1.6-1.6,2.5-2.4c0.8-0.7,1.8-1.1,3-1.3c2.1-0.3,3.6,1.1,3.7,3.1
				c0,0.5,0,1.1-0.1,1.6c-0.6,2-1.3,3.9-1.9,5.8c-0.1,0.3-0.2,0.6-0.4,1C166.7,142,172.2,142.9,178.1,141z M129.7,145.5
				c-0.5,0-0.8,0.1-1.1,0.1c-1.4,0.2-2.8,0.5-4.2,0.7c-3.2,0.5-6.4,1.5-9.3,2.9c-1.8,0.9-3.5,2.1-4.9,3.6c-2.3,2.6-2.2,7.5,2.7,9
				c2,0.6,3.9,0.2,5.8-0.9c1.9-1.1,3.5-2.5,4.9-4.2c2.4-2.7,4-5.9,5.4-9.2C129.2,146.9,129.4,146.2,129.7,145.5z M229.5,114.9
				c-0.1-0.2-0.2-0.4-0.2-0.5c-1.2-1.8-2.6-3.5-4.3-4.8c-1-0.8-2.1-1.5-3.4-1.9c-0.6-0.2-1.2-0.3-1.9-0.3c-1.3,0-1.8,0.6-1.7,1.9
				c0,0.2,0,0.4,0.1,0.5c0.3,1.4,1.2,2.5,2.4,3.3C223.2,114.9,226.2,115.4,229.5,114.9z"/>
		</g>
		<g>
			<path class="st28" d="M297.6,117.6c0.5,2.6,0.9,5.1,1.3,7.6c0.6,3.5,0.9,7,1.1,10.5c0.3,4.8,0.2,9.7-0.1,14.5
				c-0.4,8.5-2.2,16.7-5.4,24.5c-1.1,2.7-2.5,5.4-4.3,7.7c-2.9,3.9-6.8,5.9-11.6,6.2c-2.1,0.1-4.2-0.4-6.2-1.1
				c-4.1-1.6-7.4-4.3-10.2-7.6c-4.7-5.6-7.7-12-9.4-19c-1.2-5.3-1.5-10.8-1-16.2c0.4-4.6,1.4-9,3-13.3c1.4-3.9,3.8-7.2,7.2-9.6
				c1.8-1.3,3.7-2.2,5.9-2.4c6-0.6,11.2,3,12.7,8.8c1,4.1,0.1,7.7-2.8,10.7c-2.4,2.5-5.3,4.1-8.5,5.5c-2.1,0.9-4.4,1.6-6.7,1.9
				c-0.1,0-0.3,0.1-0.5,0.1c0,1.2-0.1,2.3-0.1,3.5c0,4.9,0.9,9.6,2.7,14.1c1.8,4.5,4.5,8.4,7.8,11.9c1.4,1.4,3,2.6,4.8,3.5
				c2.7,1.3,5.9,0.7,7.9-1.6c0.7-0.7,1.2-1.6,1.8-2.4c2.8-4.3,4.7-9,5.9-13.9c1.2-4.8,2-9.6,2.4-14.6c0.5-5.8,0.5-11.6,0.1-17.4
				c-0.2-3.2-0.6-6.4-1.2-9.6c0-0.2-0.1-0.4-0.2-0.7c-0.3,0.1-0.7,0.2-1,0.3c-2.5,0.9-5.1,1.7-7.8,1.6c-4.6-0.2-8.5-1.8-11.5-5.4
				c-1.9-2.3-2.8-5.1-2.9-8c-0.1-2.1,0.1-4.1,1.1-6c0.4-0.8,0.8-1.5,1.4-2.2c2.8-3.5,7-4.4,11.1-2.3c2.2,1.2,4.1,2.8,5.7,4.7
				c2.2,2.6,3.7,5.5,5.1,8.6c0.2,0.4,0.4,0.8,0.6,1.3c0.4-0.1,0.7-0.2,1-0.4c2.9-1.3,5.8-2.6,8.7-3.8c2.6-1.1,5.3-2,8.2-2.4
				c3.1-0.4,6.1-0.2,9,1.1c4.5,2,6.8,5.5,7.2,10.3c0.3,3.5-0.4,6.9-1.4,10.2c-1.5,4.9-3,9.7-4.5,14.5c-1.7,5.7-3.3,11.5-4.4,17.4
				c-0.8,4.6-1.6,9.1-1.3,13.8c0.2,3.8,1,7.5,2.9,10.9c0.6,1,1.2,2,1.9,2.9c1.2,1.6,2.7,1.3,3.9,0.3c1.1-0.9,1.9-2.1,2.6-3.3
				c2.9-4.9,4.8-10.2,6.4-15.6c0.3-1,0.6-2,1-3c0.3-0.7,0.8-1.5,1.3-2c1.1-1.2,2.8-0.7,3.1,0.9c0.1,0.5,0.1,1,0.1,1.4
				c-0.1,1.5-0.4,3-0.9,4.5c-1,3.1-1.8,6.3-2.8,9.4c-0.8,2.4-1.6,4.7-2.6,7c-1.1,2.6-2.7,5-4.8,7c-2,2-4.4,2.9-7.2,2.7
				c-2-0.1-3.9-0.8-5.6-1.8c-2.5-1.5-4.3-3.6-5.8-6.1c-1.8-3-2.8-6.2-3.4-9.6c-0.8-4.8-0.7-9.5-0.1-14.3c1.3-10.8,4.3-21.2,7.6-31.5
				c1.3-3.9,2.6-7.9,3.8-11.8c0.5-1.6,0.8-3.2,1.1-4.9c0.2-1.2,0.2-2.3-0.5-3.3c-0.8-1.2-1.9-1.7-3.3-1.8c-1.7-0.1-3.4,0.1-5.1,0.6
				c-2.6,0.9-5.1,2-7.6,3.3c-2.1,1-4.1,2-6.2,3.1C297.9,117.4,297.7,117.5,297.6,117.6z M262.4,142.4c0.4-0.1,0.6-0.1,0.8-0.2
				c2.5-0.7,4.9-1.6,7.2-2.8c1.2-0.6,2.4-1.4,3.5-2.2c0.9-0.6,1.6-1.5,2.2-2.4c1.7-2.9,0.9-6.8-1.9-8.7c-2.1-1.5-4.9-1.2-6.6,0.7
				c-0.3,0.3-0.6,0.6-0.8,1c-0.5,0.8-1,1.6-1.4,2.5C263.9,134.1,263.1,138.2,262.4,142.4z M292.2,112.9c-1.2-3.1-2.5-5.9-4.5-8.4
				c-1-1.3-2.2-2.3-3.6-3.2c-0.6-0.3-1.2-0.6-1.8-0.9c-2-0.7-3.3-0.1-4.2,1.9c-0.2,0.5-0.4,1.1-0.4,1.7c0,0.8,0.1,1.6,0.3,2.4
				c1,3.9,4.1,6.5,8.1,7C288.3,113.7,290.2,113.5,292.2,112.9z"/>
		</g>
	</g>
	<g>
		<g>
			<path class="st28" d="M139,294.5c-0.7,0.4-1.1,1-1.2,1.6c-0.4,1.2-0.7,2.5-0.9,3.8c-0.4,3.2-0.3,6.3,0.2,9.5
				c0.2,1.2,0.3,2.5,0.4,3.7c0.1,1.1-0.4,1.9-1.2,2.3c-0.9,0.4-1.9,0.2-2.7-0.6c-0.3-0.3-0.6-0.7-0.8-1.1c-1-1.6-1.4-3.5-1.8-5.3
				c-0.2-1-0.4-2-0.6-3c0-0.2-0.1-0.4-0.2-0.6c-0.2,0.2-0.4,0.3-0.6,0.5c-0.4,0.2-0.5,0.5-0.5,1c0.1,1.1,0.1,2.2,0.1,3.4
				c-0.1,3.1-0.6,6.1-1.6,9c-0.4,1.1-0.9,2.1-1.6,3.1c-2.6,3.9-7,3.6-9.6,1.9c-2-1.3-3.3-3-4.1-5.3c-0.1-0.3-0.2-0.6-0.3-0.9
				c0,0,0,0-0.1-0.1c-0.2,0.2-0.4,0.5-0.5,0.7c-0.8,1.1-1.6,2.2-2.6,3.1c-2.3,1.9-4.9,2.2-7.7,1.3c-2-0.7-3.6-2-4.9-3.7
				c-1.8-2.3-2.8-4.9-3.4-7.7c-0.7-3.4-0.7-6.8,0.3-10.1c0.6-1.9,1.6-3.5,3-4.8c1.5-1.4,3.3-1.8,5.2-1.3c2.3,0.6,4.1,1.9,5.3,4
				c0.2,0.4,0.4,0.9,0.5,1.4c0,0.2-0.1,0.6-0.3,0.7c-0.2,0.1-0.5,0-0.7-0.1c-0.3-0.3-0.6-0.6-0.9-1c-0.8-0.9-1.6-1.7-2.8-2.2
				c-0.3-0.1-0.7-0.3-1-0.3c-1.2-0.3-2.1,0-2.7,1.1c-0.4,0.6-0.7,1.4-0.8,2.1c-0.9,5.2,0,10,2.6,14.6c0.6,1,1.4,1.8,2.3,2.5
				c1.6,1.1,3.1,1.2,4.7,0.1c1-0.7,1.8-1.6,2.6-2.3c1.1-1,1.6-2.1,1.6-3.7c0-1.6,0.4-3.2,0.7-4.8c0.1-0.6,0.1-1-0.3-1.5
				c-2.5-3.2-3.3-6.8-2-10.7c1.1-3.3,3.6-5.1,7-5.5c3.6-0.4,6.3,1.1,8.4,3.9c1.4,1.8,2.2,4,2.7,6.2c0.3,1.3,0.5,2.7,0.8,4
				c0.9-0.2,1.1-0.3,1-1.3c-0.3-2.5-0.5-5.1-0.3-7.6c0.1-0.7,0.2-1.4,0.4-2.1c0.1-0.4,0.4-0.8,0.6-1.2c0.7-0.8,1.8-0.9,2.6-0.2
				c0.4,0.4,0.8,0.9,0.9,1.4c0.4,1.2,0.6,2.5,0.9,3.7c0,0.2,0.1,0.4,0.2,0.6c0.1-0.3,0.2-0.6,0.3-0.9c0.4-1,0.9-2.1,1.7-2.8
				c1.5-1.4,3.5-1.5,5.1-0.2c1.2,1,2.1,2.3,2.6,3.8c0.2,0.5,0.3,1,0.6,1.7c0.1-0.5,0.2-0.8,0.3-1c0.5-2,1.3-3.8,2.5-5.5
				c0.4-0.6,0.9-1.1,1.5-1.6c1.7-1.3,3.6-1.3,5.3,0c0.9,0.7,1.5,1.5,1.9,2.5c0.9,1.7,1.4,3.6,1.5,5.6c0.3,2.9,0.1,5.8-0.1,8.7
				c-0.2,3.7-0.4,7.4-0.1,11.1c0.1,1.2,0.3,2.3,0.7,3.4c0.1,0.3,0.2,0.5,0.6,0.8c0.2-0.5,0.4-1,0.5-1.5c0.5-2.3,0.9-4.6,1.4-6.9
				c0.1-0.3,0-0.7-0.2-1c-1.6-4.2-1.6-8.5-0.3-12.8c0.4-1.3,1-2.5,1.8-3.5c1-1.2,2.1-2.1,3.7-2.6c3.3-0.9,6.7,1.7,7.2,4.7
				c0.2,0.9,0.2,1.9,0.1,2.8c-0.2,2.5-1.6,4.3-3.7,5.6c-1.2,0.7-2.5,1.2-4,1.4c0,0.3,0.1,0.5,0.1,0.7c0.4,1.6,1.1,3.1,2,4.5
				c0.3,0.5,0.7,0.9,1.1,1.3c0.9,0.8,1.6,0.8,2.6,0c0.3-0.3,0.6-0.6,0.9-0.9c0.5-0.8,1.1-1.5,1.6-2.3c1.3-2.3,2.5-4.7,3.7-7.1
				c0.1-0.1,0.1-0.3,0.2-0.4c-0.2-0.3-0.4-0.6-0.7-0.9c-1.8-2.6-2.5-5.3-1.7-8.4c0.3-1.2,0.8-2.3,1.6-3.3c1.6-2,3.9-2.3,5.9-0.8
				c1.6,1.3,2.8,2.8,3.2,4.9c0.1,0.7,0,1.5,0,2.2c0,0.2-0.1,0.4-0.2,0.6c-0.3,0.4-0.7,0.4-0.9,0c-0.2-0.3-0.2-0.7-0.3-1
				c-0.5-1.8-1.6-3.1-3-4.2c-1-0.7-1.5-0.6-1.8,0.6c-0.5,1.6-0.3,3.2,0.7,4.6c0.8,1.2,1.7,2.2,2.8,3c1.1,0.9,2.2,1.7,3.3,2.6
				c1.2,1,2.4,2.1,3.6,3.2c1-0.8,2.1-1.6,3.2-2.5c0.4-0.3,0.8-0.6,1.2-0.8c0.1-0.1,0.3-0.2,0.5-0.2c0.4-0.1,0.8-0.1,1.1,0.3
				c0.2,0.3,0.2,0.7,0,1c-0.3,0.5-0.7,0.9-1.1,1.3c-1,0.9-2,1.7-2.9,2.6c-0.1,0.1-0.3,0.2-0.4,0.3c0.2,0.4,0.4,0.7,0.5,1
				c1.9,3.5,2.2,7.1,1,10.9c-0.8,2.3-2.1,4.2-4.4,5.3c-4,2-8.5-0.5-8.9-5c-0.3-3.3,0.9-6,3.1-8.4c0.7-0.8,1.5-1.5,2.4-2.3
				c-1.8-1.9-4.1-3.3-6.1-5.1c-0.2,0.4-0.3,0.7-0.4,1c-1,2.3-1.9,4.6-2.9,6.9c-0.4,0.9-0.9,1.7-1.4,2.5c-0.3,0.5-0.6,1-1,1.4
				c-1.7,2-4,2.6-6.5,1.8c-1.5-0.5-2.8-1.4-3.8-2.5c-0.2-0.2-0.3-0.5-0.5-0.7c-0.1,0-0.2,0.1-0.2,0.1c-0.1,0.8-0.2,1.5-0.3,2.3
				c-0.3,1.4-0.6,2.8-0.9,4.1c-0.1,0.4-0.3,0.8-0.6,1.2c-0.8,1.2-2,1.6-3.3,1c-0.6-0.3-1.2-0.7-1.7-1.2c-1.9-1.9-3-4.2-3.5-6.8
				c-0.2-1.2-0.3-2.4-0.3-3.6c0.1-2.7,0.2-5.4,0.4-8.2c0.2-3.1,0.4-6.3,0.1-9.4c-0.1-0.9-0.3-1.8-0.6-2.7c-0.2-0.7-0.7-0.8-1.2-0.3
				c-0.5,0.4-0.9,0.9-1.2,1.4c-1.2,1.8-1.9,3.9-2.3,6c-0.5,2.7-0.8,5.4-0.7,8.1c0,0.8,0,1.5-0.1,2.3c-0.1,0.9-0.5,1.5-1.3,1.8
				c-0.8,0.3-1.6,0.1-2.3-0.5c-0.9-0.8-1.5-1.8-1.8-3c-0.3-1.5-0.5-3.1-0.7-4.7c-0.4-2.8-0.9-5.6-1.3-8.3
				C139.3,295.1,139.2,294.8,139,294.5z M115.1,301.5c0.3-0.2,0.5-0.4,0.7-0.5c0.7-0.5,1.5-0.6,2.3-0.2c0.8,0.5,1,1.2,1,2.1
				c0,0.4-0.1,0.8-0.1,1.3c2.6,1.1,5.2,1.1,8,0.1c-0.2-1.4-0.4-2.7-0.6-4c-0.3-1.8-0.9-3.6-1.8-5.3c-0.8-1.6-2-2.8-3.6-3.6
				c-2.6-1.3-6.1-0.1-7.1,2.6C112.8,296.6,113.5,299.1,115.1,301.5z M117.9,308.5c-0.5,2.4-0.7,4.8-0.2,7.1c0.3,1.5,0.9,2.8,2,3.9
				c1.1,1,2.6,1.3,3.8-0.1c0.7-0.8,1.3-1.8,1.7-2.8c1-2.5,1.5-5.1,1.7-7.8c0-0.6,0-1.1,0-1.9C124,308.4,121.1,308.9,117.9,308.5z
				 M166.1,305.6c0.5-0.1,0.8-0.2,1.2-0.3c0.7-0.2,1.4-0.5,2-0.8c2.3-1.1,3.2-3.7,2.2-6.1c-0.3-0.7-0.8-1.2-1.4-1.6
				c-1-0.6-1.9-0.4-2.6,0.6c-0.2,0.4-0.4,0.8-0.5,1.2c-0.3,1.8-0.6,3.6-0.9,5.4C166,304.6,166.1,305,166.1,305.6z M187.7,312.4
				c-0.7,0.8-1.3,1.4-1.9,2.2c-0.9,1.1-1.6,2.4-1.8,3.8c-0.2,1-0.2,2,0.3,3c0.6,1.2,1.8,1.5,2.7,0.5c0.5-0.5,0.8-1.1,1.1-1.7
				c0.3-0.9,0.5-1.8,0.6-2.7C189,315.7,188.6,314.1,187.7,312.4z"/>
		</g>
		<g>
			<path class="st28" d="M292.2,307.4c0.6-0.2,1.2-0.3,1.9-0.5c0.2-0.8,0.4-1.7,0.6-2.5c0.1-0.4-0.1-0.6-0.4-0.9
				c-1.2-1.3-2-2.8-2.4-4.6c-0.4-1.7-0.4-3.4,0.1-5c0.7-2.8,2.9-4.7,5.8-5c1.1-0.1,2.1,0.1,3.1,0.5c1.1,0.5,2.1,1.2,3,2
				c2.6,2.5,4.2,5.7,5,9.2c0.1,0.3,0.2,0.7,0.3,1.1c0.5-0.3,1-0.5,1.4-0.9c0.2-0.2,0.2-0.5,0.3-0.8c0.2-1.4,0.4-2.8,0.6-4.1
				c0.2-0.8,0.5-1.5,0.9-2.3c0.2-0.4,0.5-0.8,0.8-1.1c1.1-1,2.6-0.5,2.8,1c0.2,1.2,0.2,2.5,0.1,3.8c-0.2,3.7-0.2,7.3,0.5,10.9
				c0.2,1.2,0.5,2.4,1.1,3.4c0.2,0.4,0.5,0.9,0.9,1.3c0.6,0.7,1,0.7,1.6,0c0.4-0.5,0.8-1,1-1.6c0.5-1.1,0.9-2.2,1.3-3.3
				c0.3-0.8,0.5-1.7,0.7-2.5c0.1-0.5,0.2-1,0.2-1.4c0.1-3.2,0.4-6.3,1.1-9.4c0.1-0.6,0.3-1.2,0.6-1.7c0.1-0.4,0.3-0.7,0.6-1
				c0.5-0.6,1.1-1,1.9-0.8c0.8,0.1,1.3,0.7,1.5,1.4c0.1,0.5,0.2,1,0.2,1.5c0,2.1,0,4.2-0.1,6.3c-0.2,4.3-0.3,8.6,0.3,12.9
				c0.2,1.7,0.5,3.4,1.3,4.9c0.3,0.5,0.6,1,0.9,1.4c0.3,0.4,0.7,0.4,1,0.1c0.4-0.3,0.8-0.7,1.1-1.1c0.6-0.9,1.2-1.9,1.7-2.9
				c1.1-2.5,1.9-5.2,2.5-7.9c0.1-0.4,0.2-0.8,0.4-1.1c0.2-0.4,0.6-0.5,1-0.4c0.4,0.1,0.6,0.4,0.6,0.8c0,0.3,0,0.7,0,1
				c-0.6,3.4-1.5,6.7-2.9,9.8c-0.5,1.2-1.2,2.4-2.1,3.4c-1.9,2.4-4.6,2.5-6.9,0.4c-1.2-1.1-2.1-2.5-2.6-4.1
				c-0.5-1.4-0.9-2.9-1.3-4.4c-0.1-0.3-0.1-0.6-0.2-1c-0.2,0.5-0.4,0.8-0.5,1.1c-0.4,0.9-0.9,1.9-1.6,2.6c-1.4,1.4-3.2,1.8-5,0.9
				c-0.7-0.3-1.3-0.8-1.8-1.3c-1.9-1.8-2.9-4.1-3.4-6.6c-0.3-1.4-0.4-2.9-0.6-4.4c0-0.3-0.1-0.6-0.1-1.1c-0.3,0.3-0.6,0.5-0.8,0.6
				c-0.4,0.2-0.4,0.6-0.4,1c0.1,3.2,0,6.3-0.8,9.4c-0.4,1.6-1,3-2,4.3c-1.6,2.1-3.8,2.8-6.3,1.8c-1.7-0.6-3.1-1.7-4.2-3.2
				c-1.4-1.9-2-4.1-2.2-6.4c0-0.3,0-0.6-0.1-0.9c0,0,0-0.1-0.1-0.2c-0.5,0.2-1,0.3-1.5,0.5c0,0.9-0.1,1.8-0.1,2.7
				c-0.1,2.7-0.4,5.4-1.1,8c-0.6,2.2-1.8,4.2-3.6,5.6c-1.1,0.9-2.3,1.4-3.6,1.5c-2.8,0.2-5.5-1.9-6-4.7c-0.3-1.7,0-3.4,0.6-5
				c0.8-2.1,2.2-3.8,3.8-5.2c1.1-1,2.4-1.8,3.6-2.7c0.4-0.3,0.6-0.6,0.6-1.1c-0.1-4.1-0.7-8.2-1.6-12.2c0-0.1-0.1-0.3-0.3-0.4
				c-0.1,0.5-0.3,1-0.4,1.5c-0.4,2.3-0.8,4.5-1.3,6.8c-0.3,1.5-0.8,2.9-1.7,4.2c-1.8,2.7-4.9,3.3-7.6,1.4c-1.2-0.8-2.1-1.9-2.8-3
				c-1.7-2.6-2.6-5.5-2.7-8.6c-0.1-1.8,0-3.6,0.5-5.3c0.2-0.7,0.5-1.3,0.8-1.9c0.2-0.4,0.6-0.7,1-0.9c0.9-0.6,2.1-0.3,2.5,0.8
				c0.2,0.4,0.3,0.9,0.3,1.4c0.1,1.2,0.1,2.5,0.1,3.7c0.1,2.3,0.3,4.6,1.1,6.8c0.4,1.2,0.9,2.3,1.7,3.3c1.2,1.5,2.3,1.5,3.4-0.1
				c0.9-1.3,1.3-2.7,1.6-4.2c0.5-2.3,0.8-4.6,1.3-6.9c0.1-0.7,0.3-1.4,0.7-2c0.7-1.4,2.2-1.9,3.6-1.2c0.8,0.4,1.4,1,2,1.7
				c0.9,1.2,1.4,2.5,1.9,3.9c0.9,2.8,1.4,5.8,1.6,8.7C292.1,306.8,292.2,307,292.2,307.4z M296.8,299.8c0.2-0.2,0.4-0.3,0.5-0.4
				c0.7-0.5,1.4-0.9,2.2-0.4c0.8,0.5,0.8,1.3,0.8,2.1c0,0.5-0.1,0.9-0.2,1.5c2.3,0.7,4.4,1,6.7,0.2c-0.1-0.4-0.1-0.6-0.1-0.8
				c-0.1-0.3-0.1-0.6-0.2-0.9c-0.7-3-2-5.6-4.2-7.8c-0.7-0.7-1.4-1.3-2.4-1.6c-0.5-0.2-1.1-0.3-1.6-0.2c-1.5,0.2-2.3,1.2-2.7,2.5
				C295.1,296,295.6,298,296.8,299.8z M299.5,306.5c0,1.3-0.1,2.4-0.1,3.6c0.1,1.8,0.4,3.5,1.3,5.1c0.4,0.8,1,1.4,1.7,1.9
				c0.5,0.4,1.1,0.4,1.6,0c0.5-0.4,1-1,1.4-1.5c0.9-1.3,1.3-2.7,1.6-4.2c0.4-1.8,0.5-3.7,0.2-5.6
				C304.7,306.6,302.3,307.1,299.5,306.5z M286.3,313.3c-1.7,1.2-3.1,2.4-4.1,4c-0.7,1-1.2,2.1-1.5,3.3c-0.2,0.8-0.2,1.6,0.1,2.3
				c0.5,1.3,2,1.6,2.9,0.5c0.5-0.5,0.8-1.2,1.1-1.9c0.4-1.1,0.7-2.3,0.9-3.5C286.1,316.5,286.3,315,286.3,313.3z"/>
		</g>
		<g>
			<path class="st28" d="M211.2,305.2c-0.3-0.1-0.5-0.3-0.8-0.4c-3.5-1.9-5.4-5.5-5-9.3c0.4-3.2,2.7-5.7,5.9-6.6
				c3.3-0.9,6.2-0.3,8.9,1.8c2.6,2,4.3,4.6,5.3,7.7c0.1,0.5,0.3,0.9,0.5,1.5c1-0.6,1.9-1.1,2.7-1.6c0.1-1.2,0.1-2.3,0.2-3.4
				c0.1-0.7,0.3-1.4,0.6-2.1c0.4-0.9,1.1-1.4,2.2-1.4c1,0,1.6,0.6,2,1.5c0.5,0.9,0.6,2,0.6,3c0.2,2.6,0.4,5.1,0.6,7.7
				c0.1,1,0.3,2.1,0.4,3.1c0.1,0,0.1,0,0.2,0c0.1-0.5,0.2-1.1,0.3-1.6c0.5-2.6,1.1-5.1,2.2-7.6c0.7-1.7,1.6-3.3,2.9-4.7
				c2.5-2.8,5.6-2.8,8.1,0c1.5,1.6,2.1,3.6,2.5,5.6c0.4,2.2,0.5,4.3,0.4,6.5c0,1.8-0.1,3.6-0.2,5.4c-0.1,2.4,0,4.8,0.5,7.2
				c0.2,1,0.5,1.9,1.1,2.7c0.2,0.3,0.5,0.6,0.8,0.8c0.3,0.3,0.8,0.3,1.1-0.1c0.5-0.6,1-1.1,1.4-1.8c1-1.7,1.6-3.6,2.2-5.5
				c0.2-0.8,0.4-1.6,0.6-2.4c0.2-0.5,0.4-1.1,0.7-1.6c0.2-0.4,0.5-0.6,1-0.5c0.4,0.1,0.7,0.4,0.7,0.9c0,0.5,0.1,1,0,1.4
				c-0.6,2.3-1.1,4.5-1.8,6.7c-0.4,1.5-1.1,2.8-2,4c-0.7,1-1.6,1.8-2.8,2.1c-1.4,0.3-2.8,0-4-0.8c-1-0.7-1.8-1.6-2.5-2.6
				c-1.5-2.3-2.3-4.9-2.4-7.7c-0.1-2.4,0-4.9,0.1-7.3c0.1-3.2,0-6.4-0.7-9.6c-0.1-0.6-0.3-1.2-0.6-1.7c-0.4-0.8-0.9-0.9-1.6-0.5
				c-0.5,0.3-0.9,0.6-1.2,1c-1.1,1.3-1.8,2.8-2.4,4.3c-0.9,2.6-1.4,5.3-1.6,8.1c-0.2,2.2-0.3,4.3-0.5,6.5c0,0.4-0.1,0.7-0.2,1.1
				c-0.4,1.2-1.7,1.8-2.9,1.1c-0.5-0.3-0.9-0.6-1.2-1.1c-0.6-0.9-1.3-1.9-1.7-2.9c-1.3-2.9-2.1-5.9-2.3-9.1
				c-0.1-0.9-0.2-1.7-0.2-2.7c-0.9,0.4-1.5,1-2.2,1.5c-0.1,0.1-0.1,0.5-0.1,0.8c0.2,1.7,0.5,3.4,0.5,5c0.1,2.8,0,5.6-0.8,8.3
				c-0.4,1.5-1,2.9-1.8,4.2c-0.6,0.9-1.4,1.7-2.3,2.3c-1.6,1-3.4,1.2-5.1,0.4c-4-1.7-6.4-4.6-6.9-9c-0.3-2.7,0.1-5.4,0.7-8
				c0.1-0.3,0.1-0.6,0.2-0.9C211.2,305.3,211.2,305.3,211.2,305.2z M224,300.8c-0.9-3.4-2.4-6.2-5-8.4c-0.6-0.5-1.3-0.9-2-1.2
				c-1.1-0.5-2.2-0.7-3.4-0.6c-3,0.3-5.4,2.7-4.6,5.8c0.6,2.5,2.1,4.1,4.3,5.1c0.6-0.5,1.1-0.9,1.7-1.2c0.7-0.4,1.4-0.6,2.3-0.5
				c1,0.2,1.5,0.9,1.5,1.8c0,0.2,0,0.4-0.1,0.7C220.5,302.1,222.2,301.6,224,300.8z M224.6,303.7c-0.2,0-0.3,0-0.3,0
				c-2.2,1-4.5,1.9-6.9,2.2c-0.4,0.1-0.6,0.3-0.6,0.7c-0.5,2.2-1,4.4-0.8,6.6c0.2,2.4,1.1,4.4,3.1,5.9c0.5,0.4,1,0.4,1.6,0.2
				c1-0.4,1.6-1.1,2.1-2C225.2,312.9,225.5,308.4,224.6,303.7z"/>
		</g>
	</g>
	<g>
		<path class="st29" d="M98.8,76.7c0.3-0.1,0.5-0.3,0.6-0.4c0.1-0.2,0.3-0.3,0.4-0.5c0.4-0.4,0.7-0.8,1-1.3c0.3-0.4,0.6-0.9,0.8-1.4
			c0.6-1,1.1-2,1.6-2.9c0.5-1,1-2,1.3-3c0.1-0.3,0.3-0.5,0.4-0.7c0.2-0.2,0.4-0.2,0.7-0.2c0.4,0,0.9,0,1.3,0c0.4,0,0.8,0,1.3-0.1
			c0.2,0,0.3,0,0.4,0c0.5,0,0.9,0.1,1,0.3c0.2,0.2,0.3,0.5,0.3,1c0,2.9-0.1,5.6-0.6,8c-0.4,2.4-1,4.4-1.7,6.2
			c-0.7,1.8-1.5,3.2-2.4,4.4c-0.9,1.2-1.9,2.1-2.8,2.7c-1,0.6-1.9,1-2.8,1s-1.8-0.1-2.5-0.6c-0.7-0.5-1.3-1.3-1.8-2.3
			c-0.5-1-0.7-2.3-0.7-3.9c0-0.2,0-0.4,0.1-0.6c0-0.1,0.1-0.2,0.2-0.2c0.1-0.1,0.2-0.1,0.3,0c0.1,0,0.1,0.1,0.2,0.1
			c0.1,0.1,0.1,0.1,0.2,0.2c0,0.2,0,0.3,0.1,0.5c0,0.2,0,0.3,0,0.5c0.3,2,0.7,3.3,1.2,4c0.5,0.6,1.1,0.8,1.7,0.5
			c0.6-0.3,1.2-1,1.8-2.1c0.6-1.1,1.2-2.4,1.7-3.9c0.5-1.5,0.9-3.1,1.2-4.9c0.3-1.7,0.5-3.4,0.5-5c-0.2,0-0.3,0.1-0.4,0.3
			c-0.1,0.1-0.1,0.3-0.2,0.4c-0.4,0.7-0.8,1.3-1.2,2c-0.4,0.7-0.9,1.3-1.4,1.9c-0.2,0.2-0.3,0.4-0.5,0.5c-0.2,0.2-0.3,0.3-0.5,0.5
			c-0.5,0.4-1.1,0.7-1.7,0.7s-1.2-0.1-1.8-0.4c-0.5-0.3-1-0.6-1.3-1c-0.4-0.4-0.7-0.8-1-1.3c-0.3-0.4-0.5-0.9-0.7-1.4
			c-0.2-0.5-0.4-1-0.5-1.5c-0.5-1.8-0.8-3.6-0.9-5.4c-0.1-0.8,0-1.3,0.2-1.5c0.2-0.2,0.7-0.4,1.5-0.4c0.5,0,1,0,1.5,0
			c0.5,0,1,0,1.5,0.1c0.5,0,0.8,0.2,1,0.3c0.2,0.2,0.2,0.5,0.3,1c0,0.6,0,1.2,0,1.8s0,1.2,0,1.8c0,1,0.1,1.9,0.2,2.9
			c0.1,0.9,0.3,1.9,0.5,2.8c0,0.1,0.1,0.2,0.2,0.4C98.7,76.4,98.7,76.6,98.8,76.7z"/>
		<path class="st29" d="M124.8,67.7c0.6,1.1,1,2.3,1.2,3.8c0.2,1.5,0.3,3,0.3,4.6c0,1.6-0.2,3.2-0.5,4.7c-0.3,1.6-0.6,3-1.1,4.2
			c-0.6,1.8-1.4,3-2.3,3.8c-0.9,0.8-1.8,1.1-2.7,1.1c-0.9,0-1.9-0.4-2.8-1.1c-0.9-0.7-1.8-1.6-2.5-2.8c-0.7-1.2-1.4-2.5-1.8-4
			c-0.5-1.5-0.8-3.1-0.8-4.8c-0.1-1.7,0.1-3.3,0.6-5s1.2-3.3,2.3-4.8c0.6-0.8,1.3-1.4,2-1.8c0.8-0.4,1.6-0.7,2.6-0.8
			c1.2-0.1,2.2,0,3.2,0.5C123.4,65.8,124.2,66.6,124.8,67.7z M124.2,82.8c0.7-2.4,1.1-4.7,1.1-6.8c0-2.1-0.2-3.8-0.7-5.3
			c-0.4-1.5-1-2.6-1.7-3.4c-0.7-0.8-1.4-1.1-2.2-1c-0.7,0.1-1.4,0.8-2,2c-0.6,1.2-1,3-1.2,5.4c-0.1,1.7-0.1,3.3,0,4.9
			c0.1,1.6,0.3,3.1,0.7,4.4c0.3,1.3,0.7,2.4,1.1,3.2c0.4,0.8,0.9,1.3,1.5,1.4c0.5,0.1,1.1-0.2,1.7-0.9
			C123.1,86,123.7,84.7,124.2,82.8z"/>
		<path class="st29" d="M134.2,75.9c0,1.1,0,2.1,0,3.2c0,1,0,2.1,0,3.2c0,0.7,0,1.3,0.1,2c0.1,0.7,0.2,1.3,0.4,2
			c0.1,0.4,0.2,0.7,0.4,1.1c0.2,0.3,0.4,0.7,0.6,1c0.2,0.3,0.4,0.5,0.6,0.5s0.4,0,0.7-0.2c1.5-0.8,2.5-2.1,3.1-3.7
			c0.2-0.7,0.4-1.4,0.5-2.2c0.1-0.7,0.1-1.5,0.2-2.2c0.1-1.7,0.2-3.4,0.1-5.1c0-1.7-0.1-3.4-0.2-5.1c0-0.6-0.1-1.2-0.1-1.8
			c0-0.6-0.1-1.2-0.1-1.8c0-0.1,0-0.2,0-0.4c0-0.1,0-0.3,0.1-0.4c0.1-0.2,0.3-0.3,0.4-0.3c0.2,0,0.3,0.1,0.4,0.3
			c0,0.3,0.1,0.6,0.1,1c0,0.3,0.1,0.6,0.1,1c0.2,1.4,0.3,2.8,0.3,4.2c0,1.4,0.1,2.8,0.1,4.2c0,1.3,0,2.5-0.1,3.8
			c-0.1,1.3-0.3,2.5-0.5,3.8c-0.2,1-0.5,1.8-1,2.6c-0.4,0.8-1.1,1.5-1.8,2.2c-0.6,0.5-1.3,0.8-2,1c-0.7,0.2-1.4,0.2-2.1,0.1
			c-0.7-0.1-1.4-0.3-2-0.7c-0.6-0.4-1.2-0.9-1.6-1.5c-0.3-0.4-0.6-0.9-0.8-1.4c-0.2-0.5-0.4-1-0.6-1.5c-0.3-1-0.5-1.9-0.6-2.9
			c-0.1-1-0.3-2-0.4-3c-0.2-1.8-0.3-3.6-0.3-5.3c0-1.8,0-3.5,0.1-5.3c0-0.6,0.1-1.3,0.2-1.9c0.1-0.5,0.4-0.7,0.9-0.8
			c0.3,0,0.7,0,1,0c0.5,0,1,0.1,1.5,0.1c0.5,0,1,0.1,1.5,0.1c0.4,0,0.7,0.2,0.8,0.7c0.1,0.3,0.2,0.6,0.2,1c0,0.3,0,0.7,0,1
			c0,1.3,0.1,2.5,0.1,3.8C134.3,73.4,134.3,74.6,134.2,75.9z"/>
		<path class="st29" d="M171,80.6c-0.1,0.1-0.2,0.2-0.2,0.3c0,0.1-0.1,0.2-0.1,0.3c-0.3,1-0.7,2-1.1,3c-0.4,1-0.8,2-1.1,3
			c-0.1,0.3-0.2,0.6-0.4,0.9c-0.1,0.3-0.2,0.6-0.2,0.9c0,0.2-0.1,0.3-0.2,0.4c-0.1,0.1-0.3,0.1-0.4,0.1c-0.5,0-1.1,0-1.6,0
			c-0.5,0-1.1,0-1.6,0c-0.4,0-0.6-0.2-0.8-0.5c-0.1-0.2-0.2-0.4-0.3-0.6c-0.1-0.2-0.2-0.4-0.3-0.6c-0.4-0.9-0.7-1.8-1.1-2.7
			c-0.3-0.9-0.7-1.8-1-2.8c-0.5-1.4-1-2.9-1.5-4.3c-0.5-1.4-1-2.9-1.5-4.3c-0.4-1-0.7-2-1-3c-0.3-1-0.7-2-1-3c0-0.2-0.1-0.4-0.1-0.6
			c0-0.2-0.1-0.4-0.1-0.6c0-0.3,0-0.5,0.2-0.7c0.1-0.2,0.4-0.3,0.6-0.3c0.6,0,1.2-0.1,1.8-0.1c0.6,0,1.2,0.1,1.8,0.2
			c0.2,0,0.3,0.1,0.4,0.2c0.1,0.1,0.2,0.3,0.3,0.4c1,2.3,2,4.5,2.8,6.9c0.8,2.3,1.5,4.7,2.2,7c0.3,1,0.6,1.9,0.9,2.9
			c0.3,0.9,0.6,1.9,0.9,2.8c0,0.1,0.1,0.3,0.1,0.4c0,0.1,0.2,0.3,0.3,0.4c0.2-0.6,0.5-1.1,0.7-1.6c0.2-0.5,0.4-1.1,0.7-1.6
			c0.3-0.8,0.6-1.6,0.9-2.4c0.3-0.8,0.6-1.6,0.9-2.5c0.2-0.6,0.5-0.8,1.1-0.8c0.2,0,0.5,0,0.7,0c0.2,0,0.4,0,0.7,0c0.4,0,0.8,0,1,0
			c0.2,0,0.4,0,0.5,0.1c0.1,0.1,0.2,0.2,0.3,0.4c0.1,0.2,0.2,0.5,0.4,0.9c0.3,0.6,0.5,1.2,0.8,1.7c0.3,0.6,0.5,1.1,0.8,1.7
			c0.2,0,0.3,0,0.3-0.1s0.1-0.2,0.1-0.3c0.4-1.3,0.8-2.6,1.2-3.9c0.4-1.3,0.8-2.6,1.2-3.9c0.4-1.3,0.8-2.5,1.2-3.8
			c0.4-1.3,0.8-2.5,1.2-3.8c0-0.1,0.1-0.2,0.1-0.3c0-0.1,0.1-0.2,0.1-0.3c0.1-0.2,0.3-0.3,0.5-0.2c0.2,0.1,0.3,0.2,0.3,0.5
			c0,0.1,0,0.3-0.1,0.5c-0.8,2.8-1.7,5.6-2.5,8.4c-0.8,2.8-1.7,5.6-2.5,8.3c-0.2,0.8-0.5,1.6-0.8,2.4c-0.3,0.8-0.5,1.6-0.8,2.4
			c-0.1,0.4-0.3,0.8-0.5,1.2c-0.1,0.3-0.3,0.4-0.6,0.4c-0.3,0-0.5-0.1-0.7-0.4c-0.1-0.2-0.3-0.4-0.4-0.6c-0.1-0.2-0.2-0.4-0.3-0.7
			c-0.5-1.1-0.9-2.3-1.3-3.4c-0.4-1.2-0.8-2.3-1.2-3.5c0-0.1-0.1-0.3-0.1-0.4C171.2,80.9,171.1,80.7,171,80.6z"/>
		<path class="st29" d="M193.9,88.8c0.2,0,0.3,0.2,0.3,0.3c0,0.2-0.1,0.3-0.3,0.4c-0.2,0.1-0.4,0.1-0.6,0.1c-0.8,0-1.7,0.1-2.5,0.1
			c-0.8,0-1.7,0.1-2.5,0.1c-0.3,0-0.6,0-0.9,0c-0.3,0-0.6-0.1-0.9-0.2c-0.2-0.1-0.3-0.2-0.3-0.4c0-0.2,0.1-0.3,0.3-0.4
			c0,0,0.1-0.1,0.2-0.1c0.1,0,0.1,0,0.2-0.1c0.1,0,0.2,0,0.3-0.1c0.1,0,0.2,0,0.4-0.1c0-2.8,0-5.5,0-8.3c0-2.7,0-5.4,0.1-8.2
			c0-0.8,0-1.5,0-2.3c0-0.8,0-1.5-0.1-2.3c0-0.2,0-0.4-0.1-0.5S187,67,186.8,67c-0.2,0-0.3,0-0.5,0c-0.2,0-0.3,0-0.5-0.1
			c-0.1,0-0.2-0.1-0.3-0.1c-0.1,0-0.2-0.1-0.3-0.1c-0.1-0.1-0.1-0.2-0.1-0.3c0,0,0-0.1,0.1-0.2c0-0.1,0.1-0.1,0.1-0.1
			c0.2-0.1,0.5-0.1,0.8-0.1c1.1-0.1,2.1-0.2,3.2-0.2c1.1-0.1,2.1-0.1,3.2,0c0.2,0,0.3,0,0.5,0c0.2,0,0.3,0.1,0.5,0.2
			c0.2,0.1,0.3,0.2,0.3,0.4c0,0.2-0.1,0.3-0.3,0.4c-0.1,0-0.2,0.1-0.3,0.1c-0.1,0-0.2,0-0.3,0.1c-0.1,0-0.3,0-0.4,0
			c-0.1,0-0.3,0-0.4,0.1c-0.2,0-0.3,0.2-0.3,0.4c0.1,2.4,0.1,4.8,0,7.2c-0.1,2.4,0,4.8,0.2,7.2c0.1,0.8,0.1,1.7,0,2.6
			c0,0.9,0,1.7,0,2.6v1.1c0,0.2,0.1,0.3,0.1,0.4c0.1,0.1,0.2,0.1,0.4,0.2c0.2,0,0.5,0,0.7,0C193.4,88.6,193.7,88.7,193.9,88.8z"/>
		<path class="st29" d="M199.5,89.9c-0.3,0-0.6,0-1,0s-0.6,0-1-0.1c-0.3,0-0.5-0.2-0.5-0.5c0-0.2-0.1-0.5-0.1-0.8
			c0-0.3-0.1-0.5-0.1-0.8c-0.1-1.6-0.1-3.3-0.2-4.9c-0.1-1.6-0.1-3.2-0.2-4.9c0-1.1-0.1-2.1-0.1-3.2c0-1.1-0.1-2.1-0.2-3.2
			c-0.1-0.8-0.1-1.6-0.1-2.3c0-0.8,0-1.6,0-2.3c0-0.1,0-0.3,0.1-0.5c0-0.3,0.2-0.5,0.4-0.7c0.2-0.2,0.4-0.2,0.7-0.2
			c0.8,0,1.6,0,2.4,0c0.3,0,0.6,0.1,0.7,0.2c0.2,0.1,0.3,0.4,0.3,0.7c0.1,0.5,0.1,1,0.2,1.5c0,0.5,0.1,1,0.1,1.5
			c0.1,1.7,0.1,3.3,0.2,4.9c0,1.6,0.1,3.3,0.1,4.9c0,1.5,0.1,2.9,0.1,4.4c0,1.4,0.1,2.9,0.1,4.4c0,0.2,0.1,0.4,0.2,0.5
			c0.1,0.1,0.2,0.1,0.5,0.1c1,0,2,0,3,0c1,0,2,0,3,0c0.2,0,0.4,0,0.6,0c0.2,0,0.4,0,0.6,0.1c0.2,0,0.4,0.2,0.4,0.4
			c0,0.3-0.1,0.4-0.4,0.5c-0.2,0-0.3,0.1-0.5,0.1c-0.2,0-0.3,0-0.5,0c-1.4,0-2.5,0-3.1,0c-0.7,0-1.2,0-1.5,0c-0.3,0-0.5,0-0.6,0
			c-0.1,0-0.2,0-0.4,0c-0.2,0-0.5,0-0.9,0C201.2,89.8,200.5,89.8,199.5,89.9z"/>
		<path class="st29" d="M214.9,89.9c-0.3,0-0.6,0-1,0s-0.6,0-1-0.1c-0.3,0-0.5-0.2-0.5-0.5c0-0.2-0.1-0.5-0.1-0.8
			c0-0.3-0.1-0.5-0.1-0.8c-0.1-1.6-0.1-3.3-0.2-4.9c-0.1-1.6-0.1-3.2-0.2-4.9c0-1.1-0.1-2.1-0.1-3.2c0-1.1-0.1-2.1-0.2-3.2
			c-0.1-0.8-0.1-1.6-0.1-2.3c0-0.8,0-1.6,0-2.3c0-0.1,0-0.3,0.1-0.5c0-0.3,0.2-0.5,0.4-0.7c0.2-0.2,0.4-0.2,0.7-0.2
			c0.8,0,1.6,0,2.4,0c0.3,0,0.6,0.1,0.7,0.2c0.2,0.1,0.3,0.4,0.3,0.7c0.1,0.5,0.1,1,0.2,1.5c0,0.5,0.1,1,0.1,1.5
			c0.1,1.7,0.1,3.3,0.2,4.9c0,1.6,0.1,3.3,0.1,4.9c0,1.5,0.1,2.9,0.1,4.4c0,1.4,0.1,2.9,0.1,4.4c0,0.2,0.1,0.4,0.2,0.5
			c0.1,0.1,0.2,0.1,0.5,0.1c1,0,2,0,3,0c1,0,2,0,3,0c0.2,0,0.4,0,0.6,0c0.2,0,0.4,0,0.6,0.1c0.2,0,0.4,0.2,0.4,0.4
			c0,0.3-0.1,0.4-0.4,0.5c-0.2,0-0.3,0.1-0.5,0.1c-0.2,0-0.3,0-0.5,0c-1.4,0-2.5,0-3.1,0c-0.7,0-1.2,0-1.5,0c-0.3,0-0.5,0-0.6,0
			s-0.2,0-0.4,0c-0.2,0-0.5,0-0.9,0C216.6,89.8,215.9,89.8,214.9,89.9z"/>
		<path class="st29" d="M244.7,80c0,0.1,0.1,0.2,0.2,0.3c0.1,0.1,0.2,0.2,0.3,0.3c0.3,0.3,0.6,0.6,0.9,1c0.3,0.3,0.6,0.6,0.8,1
			c0.7,0.8,1.4,1.7,2.1,2.5c0.7,0.8,1.4,1.7,2.1,2.5c0.2,0.2,0.4,0.5,0.5,0.7c0.2,0.3,0.1,0.5-0.1,0.7c-0.1,0.1-0.2,0.2-0.4,0.2
			c-0.2,0-0.3,0-0.4,0c-0.1-0.1-0.2-0.2-0.3-0.3c-0.1-0.1-0.2-0.2-0.3-0.3c-0.3-0.4-0.7-0.8-1-1.1c-0.3-0.4-0.6-0.8-1-1.2
			c-0.6-0.8-1.3-1.6-1.9-2.4c-0.6-0.8-1.3-1.6-1.9-2.4c0,0-0.1-0.1-0.1-0.1c0,0-0.1,0-0.1-0.1c-0.2,0-0.2,0.1-0.2,0.2s0,0.2,0,0.3
			c0,0.9-0.1,1.8-0.1,2.7c0,0.9,0,1.8-0.1,2.7c0,0.3,0,0.7-0.1,1c0,0.3-0.1,0.7-0.1,1c0,0.4-0.2,0.6-0.6,0.7c-0.5,0-1,0.1-1.5,0.1
			c-0.5,0-1,0-1.5-0.1c-0.4-0.1-0.7-0.3-0.8-0.7c0-0.3-0.1-0.6-0.2-0.9c-0.1-0.3-0.1-0.6-0.1-0.9c0-1.9,0-3.7-0.1-5.6
			c-0.1-1.8-0.2-3.7-0.3-5.6c0-1.2-0.1-2.4-0.1-3.7s0-2.4,0-3.6c0-0.5,0.1-1,0.1-1.5c0-0.5,0.1-1,0.1-1.5c0-0.3,0.1-0.5,0.3-0.6
			c0.1-0.1,0.3-0.2,0.7-0.2c1.4,0,2.8,0.1,4.2,0.2c1.4,0.1,2.7,0.5,4.1,1c0.6,0.3,1.2,0.6,1.8,1c0.5,0.4,1,0.9,1.4,1.5
			c0.5,0.8,0.8,1.6,0.9,2.6c0.3,3.2-1,5.7-4,7.4c-0.3,0.2-0.6,0.4-1,0.5c-0.3,0.1-0.7,0.3-1.1,0.4c-0.2,0-0.3,0.1-0.5,0.1
			C244.9,79.7,244.8,79.8,244.7,80z M243.8,78.8c0.7-0.2,1.5-0.5,2.2-0.8c0.7-0.3,1.4-0.7,2-1.2c0.3-0.3,0.6-0.6,0.8-0.9
			c0.2-0.3,0.4-0.6,0.6-1c0.2-0.6,0.4-1.2,0.5-1.8c0.1-0.6,0.1-1.2,0-1.8c-0.1-0.9-0.4-1.7-0.9-2.4c-0.5-0.6-1.2-1.2-2-1.6
			c-0.4-0.2-0.9-0.3-1.3-0.5c-0.4-0.1-0.9-0.3-1.3-0.4c-0.1,0-0.2,0-0.2,0c-0.3,0-0.4,0.1-0.5,0.3c0,0.2,0,0.3,0,0.4
			c-0.1,1.8-0.2,3.6-0.2,5.4c0,1.8,0.1,3.6,0.2,5.4c0,0.1,0,0.2,0,0.3C243.7,78.6,243.7,78.7,243.8,78.8z"/>
		<path class="st29" d="M253.5,77c0-1.4,0-2.8,0-4.2c0.1-1.4,0.1-2.8,0.2-4.2c0-0.3,0.1-0.7,0.1-1c0-0.3,0.1-0.7,0.2-1
			c0.1-0.4,0.2-0.6,0.4-0.7c0.2-0.1,0.4-0.2,0.8-0.2c0.1,0,0.2,0,0.3,0c0.1,0,0.2,0,0.3,0c1.2,0.2,2.4,0.3,3.6,0.4
			c1.2,0.1,2.4,0.1,3.6,0.3c0.2,0,0.3,0,0.5,0.1c0.2,0,0.3,0,0.5,0.1c0.3,0.1,0.4,0.3,0.4,0.6c0,0.3-0.1,0.4-0.4,0.5
			c-0.2,0-0.3,0.1-0.5,0.1s-0.3,0-0.4,0c-0.5,0-1.1,0-1.6-0.1c-0.5,0-1.1,0-1.6-0.1c-0.1,0-0.2,0-0.4,0c-0.1,0-0.3,0-0.4,0
			c-0.1,0-0.2,0.1-0.3,0.2c0,0.1,0,0.1,0,0.2c0,0.1,0,0.2,0,0.3c0,0.9,0,1.8,0,2.7c-0.1,0.9-0.1,1.8-0.2,2.6
			c-0.2,1.9-0.2,3.9-0.2,5.8c0,0.1,0,0.3,0,0.4c0,0.1,0,0.3,0,0.4c0,0.3,0.2,0.5,0.5,0.5h0.9h0.9c0.5,0,0.7,0.2,0.6,0.5
			c0,0.3-0.3,0.5-0.6,0.5c-0.3,0-0.6,0.1-0.9,0.1c-0.3,0-0.6,0-0.9,0c-0.2,0-0.4,0.2-0.4,0.4v0.4c0,0.8,0.1,1.6,0.2,2.3
			c0.1,0.8,0.1,1.5,0.2,2.3c0,0.3,0.1,0.5,0.2,0.6c0.1,0.1,0.3,0.1,0.7,0.1c0.5,0,1-0.1,1.5-0.1c0.5,0,1,0,1.5-0.1
			c0.4,0,0.7,0,1,0.2c0.2,0.1,0.2,0.3,0.2,0.4c0,0.2-0.1,0.3-0.2,0.4c-0.1,0-0.1,0.1-0.2,0.1c-0.1,0-0.1,0-0.2,0.1
			c-0.2,0-0.3,0.1-0.5,0.1c-1.3,0-2.5,0.1-3.7,0.3c-1.2,0.1-2.4,0.3-3.7,0.4c-0.5,0.1-0.9,0-1.1-0.1s-0.3-0.5-0.4-1.1
			c0-0.2-0.1-0.4-0.1-0.7c0-0.2,0-0.5-0.1-0.7c-0.2-1.7-0.3-3.4-0.4-5.1C253.5,80.5,253.4,78.8,253.5,77z"/>
		<path class="st29" d="M278,87.4c1-1,1.8-2.2,2.2-3.6l0.5-1.3c0.1-0.2,0.2-0.4,0.4-0.5c0.1,0,0.2-0.1,0.3,0c0.1,0,0.2,0.1,0.2,0.2
			c0.1,0.3,0.1,0.6,0,0.9c-0.4,1.7-1.2,3.2-2.2,4.5c-1.1,1.4-2.3,2.1-3.6,2.2c-1.3,0.1-2.6-0.1-3.9-0.8c-1.1-0.6-2.1-1.4-2.9-2.5
			c-0.8-1.1-1.4-2.3-1.9-3.6c-0.5-1.3-0.8-2.8-0.9-4.2c-0.1-1.5-0.1-2.9,0.2-4.4c0.2-1.4,0.6-2.7,1.2-4c0.6-1.2,1.3-2.3,2.2-3.1
			c0.9-0.8,2-1.4,3.3-1.8c1.3-0.3,2.8-0.3,4.4,0.1c0.7,0.2,1.3,0.5,1.8,0.8c0.5,0.4,1,0.9,1.3,1.5c0.1,0.1,0.1,0.2,0.2,0.4
			c0.1,0.1,0.1,0.3,0.1,0.5c0,0.2-0.1,0.4-0.3,0.4c-0.2,0.1-0.3,0-0.4-0.1c-0.1-0.2-0.2-0.3-0.3-0.5c-0.1-0.2-0.2-0.3-0.4-0.5
			c-0.9-1-1.7-1.7-2.4-1.8c-0.7-0.2-1.4,0-1.9,0.5c-0.6,0.5-1,1.3-1.4,2.3c-0.4,1-0.7,2.2-0.9,3.5c-0.2,1.3-0.4,2.7-0.4,4.2
			c-0.1,1.5,0,2.9,0.1,4.3c0.1,1.4,0.3,2.6,0.6,3.8c0.3,1.1,0.7,2,1.1,2.7c0.5,0.7,1,1.1,1.6,1.1C276.5,88.6,277.2,88.2,278,87.4z"
			/>
		<path class="st29" d="M283.6,77c0-1.4,0-2.8,0-4.2c0.1-1.4,0.1-2.8,0.2-4.2c0-0.3,0.1-0.7,0.1-1c0-0.3,0.1-0.7,0.2-1
			c0.1-0.4,0.2-0.6,0.4-0.7c0.2-0.1,0.4-0.2,0.8-0.2c0.1,0,0.2,0,0.3,0s0.2,0,0.3,0c1.2,0.2,2.4,0.3,3.6,0.4
			c1.2,0.1,2.4,0.1,3.6,0.3c0.2,0,0.3,0,0.5,0.1c0.2,0,0.3,0,0.5,0.1c0.3,0.1,0.4,0.3,0.4,0.6c0,0.3-0.1,0.4-0.4,0.5
			c-0.2,0-0.3,0.1-0.5,0.1c-0.1,0-0.3,0-0.4,0c-0.5,0-1.1,0-1.6-0.1s-1.1,0-1.6-0.1c-0.1,0-0.2,0-0.4,0c-0.1,0-0.3,0-0.4,0
			c-0.1,0-0.2,0.1-0.3,0.2c0,0.1,0,0.1,0,0.2c0,0.1,0,0.2,0,0.3c0,0.9,0,1.8,0,2.7c-0.1,0.9-0.1,1.8-0.2,2.6
			c-0.2,1.9-0.2,3.9-0.2,5.8c0,0.1,0,0.3,0,0.4c0,0.1,0,0.3,0,0.4c0,0.3,0.2,0.5,0.5,0.5h0.9h0.9c0.5,0,0.7,0.2,0.6,0.5
			c0,0.3-0.3,0.5-0.6,0.5c-0.3,0-0.6,0.1-0.9,0.1c-0.3,0-0.6,0-0.9,0c-0.2,0-0.4,0.2-0.4,0.4v0.4c0,0.8,0.1,1.6,0.2,2.3
			c0.1,0.8,0.1,1.5,0.2,2.3c0,0.3,0.1,0.5,0.2,0.6c0.1,0.1,0.3,0.1,0.7,0.1c0.5,0,1-0.1,1.5-0.1c0.5,0,1,0,1.5-0.1
			c0.4,0,0.7,0,1,0.2c0.2,0.1,0.2,0.3,0.2,0.4c0,0.2-0.1,0.3-0.2,0.4c-0.1,0-0.1,0.1-0.2,0.1c-0.1,0-0.1,0-0.2,0.1
			c-0.2,0-0.3,0.1-0.5,0.1c-1.3,0-2.5,0.1-3.7,0.3c-1.2,0.1-2.4,0.3-3.7,0.4c-0.5,0.1-0.9,0-1.1-0.1s-0.3-0.5-0.4-1.1
			c0-0.2-0.1-0.4-0.1-0.7c0-0.2,0-0.5-0.1-0.7c-0.2-1.7-0.3-3.4-0.4-5.1C283.6,80.5,283.6,78.8,283.6,77z"/>
		<path class="st29" d="M305.2,88.8c0.2,0,0.3,0.2,0.3,0.3c0,0.2-0.1,0.3-0.3,0.4c-0.2,0.1-0.4,0.1-0.6,0.1c-0.8,0-1.7,0.1-2.5,0.1
			c-0.8,0-1.7,0.1-2.5,0.1c-0.3,0-0.6,0-0.9,0c-0.3,0-0.6-0.1-0.9-0.2c-0.2-0.1-0.3-0.2-0.3-0.4c0-0.2,0.1-0.3,0.3-0.4
			c0,0,0.1-0.1,0.2-0.1c0.1,0,0.1,0,0.2-0.1c0.1,0,0.2,0,0.3-0.1c0.1,0,0.2,0,0.4-0.1c0-2.8,0-5.5,0-8.3c0-2.7,0-5.4,0.1-8.2
			c0-0.8,0-1.5,0-2.3c0-0.8,0-1.5-0.1-2.3c0-0.2,0-0.4-0.1-0.5c-0.1-0.1-0.2-0.1-0.5-0.2c-0.2,0-0.3,0-0.5,0c-0.2,0-0.3,0-0.5-0.1
			c-0.1,0-0.2-0.1-0.3-0.1c-0.1,0-0.2-0.1-0.3-0.1c-0.1-0.1-0.1-0.2-0.1-0.3c0,0,0-0.1,0.1-0.2c0-0.1,0.1-0.1,0.1-0.1
			c0.2-0.1,0.5-0.1,0.8-0.1c1.1-0.1,2.1-0.2,3.2-0.2c1.1-0.1,2.1-0.1,3.2,0c0.2,0,0.3,0,0.5,0c0.2,0,0.3,0.1,0.5,0.2
			c0.2,0.1,0.3,0.2,0.3,0.4c0,0.2-0.1,0.3-0.3,0.4c-0.1,0-0.2,0.1-0.3,0.1c-0.1,0-0.2,0-0.3,0.1c-0.1,0-0.3,0-0.4,0
			c-0.1,0-0.3,0-0.4,0.1c-0.2,0-0.3,0.2-0.3,0.4c0.1,2.4,0.1,4.8,0,7.2c-0.1,2.4,0,4.8,0.2,7.2c0.1,0.8,0.1,1.7,0,2.6
			c0,0.9,0,1.7,0,2.6v1.1c0,0.2,0.1,0.3,0.1,0.4c0.1,0.1,0.2,0.1,0.4,0.2c0.2,0,0.5,0,0.7,0C304.8,88.6,305,88.7,305.2,88.8z"/>
		<path class="st29" d="M319.3,86.5c0.2-0.1,0.3-0.2,0.3-0.3c0-0.1,0.1-0.2,0.1-0.3c0.2-0.8,0.5-1.6,0.8-2.3
			c0.3-0.8,0.5-1.6,0.8-2.3c0.5-1.6,1-3.1,1.5-4.6c0.5-1.5,1-3.1,1.6-4.6c0.3-0.9,0.6-1.8,1-2.7c0.4-0.9,0.7-1.8,1-2.6
			c0-0.1,0.1-0.3,0.2-0.4c0.1-0.1,0.2-0.2,0.3-0.3c0.1-0.1,0.3-0.1,0.4,0c0.1,0,0.2,0.1,0.2,0.3c0,0.2,0,0.3-0.1,0.5
			c-0.1,0.1-0.1,0.3-0.2,0.4c-0.4,0.9-0.8,1.8-1.1,2.7c-0.3,0.9-0.6,1.8-1,2.8c-0.6,1.7-1.2,3.5-1.7,5.2c-0.6,1.7-1.1,3.5-1.6,5.3
			c-0.3,1-0.6,1.9-1,2.9c-0.3,0.9-0.7,1.9-1.1,2.8c0,0.1-0.1,0.2-0.1,0.3c0,0.1-0.1,0.2-0.1,0.3c-0.2,0.4-0.6,0.7-1,0.7
			c-0.7,0-1.3,0-2,0c-0.7,0-1.1-0.3-1.4-0.9c-0.1-0.2-0.2-0.5-0.3-0.8c-0.1-0.3-0.2-0.5-0.3-0.8c-0.9-2.6-1.9-5.1-2.7-7.7
			c-0.9-2.6-1.8-5.1-2.7-7.7c-0.3-0.8-0.6-1.7-0.8-2.5c-0.2-0.8-0.5-1.7-0.7-2.5c0-0.1,0-0.2-0.1-0.3c0-0.1,0-0.2-0.1-0.3
			c-0.1-0.5,0.1-0.8,0.6-0.8c0.6-0.1,1.2-0.2,1.8-0.3c0.6-0.1,1.2-0.1,1.8,0c0.1,0,0.3,0.1,0.4,0.1c0.1,0,0.2,0.1,0.2,0.3
			c0.4,1,0.8,2,1.2,3c0.4,1,0.8,2,1.1,3c0.3,0.9,0.6,1.9,0.9,2.8c0.3,0.9,0.6,1.9,0.9,2.9c0.4,1.5,0.9,3,1.5,4.4
			C318.3,83.5,318.8,84.9,319.3,86.5z"/>
		<path class="st29" d="M329.4,77c0-1.4,0-2.8,0-4.2c0.1-1.4,0.1-2.8,0.2-4.2c0-0.3,0.1-0.7,0.1-1c0-0.3,0.1-0.7,0.2-1
			c0.1-0.4,0.2-0.6,0.4-0.7c0.2-0.1,0.4-0.2,0.8-0.2c0.1,0,0.2,0,0.3,0c0.1,0,0.2,0,0.3,0c1.2,0.2,2.4,0.3,3.6,0.4
			c1.2,0.1,2.4,0.1,3.6,0.3c0.2,0,0.3,0,0.5,0.1c0.2,0,0.3,0,0.5,0.1c0.3,0.1,0.4,0.3,0.4,0.6c0,0.3-0.1,0.4-0.4,0.5
			c-0.2,0-0.3,0.1-0.5,0.1s-0.3,0-0.4,0c-0.5,0-1.1,0-1.6-0.1c-0.5,0-1.1,0-1.6-0.1c-0.1,0-0.2,0-0.4,0c-0.1,0-0.3,0-0.4,0
			c-0.1,0-0.2,0.1-0.3,0.2c0,0.1,0,0.1,0,0.2c0,0.1,0,0.2,0,0.3c0,0.9,0,1.8,0,2.7c-0.1,0.9-0.1,1.8-0.2,2.6
			c-0.2,1.9-0.2,3.9-0.2,5.8c0,0.1,0,0.3,0,0.4c0,0.1,0,0.3,0,0.4c0,0.3,0.2,0.5,0.5,0.5h0.9h0.9c0.5,0,0.7,0.2,0.6,0.5
			c0,0.3-0.3,0.5-0.6,0.5c-0.3,0-0.6,0.1-0.9,0.1c-0.3,0-0.6,0-0.9,0c-0.2,0-0.4,0.2-0.4,0.4v0.4c0,0.8,0.1,1.6,0.2,2.3
			c0.1,0.8,0.1,1.5,0.2,2.3c0,0.3,0.1,0.5,0.2,0.6c0.1,0.1,0.3,0.1,0.7,0.1c0.5,0,1-0.1,1.5-0.1c0.5,0,1,0,1.5-0.1
			c0.4,0,0.7,0,1,0.2c0.2,0.1,0.2,0.3,0.2,0.4c0,0.2-0.1,0.3-0.2,0.4c-0.1,0-0.1,0.1-0.2,0.1c-0.1,0-0.1,0-0.2,0.1
			c-0.2,0-0.3,0.1-0.5,0.1c-1.3,0-2.5,0.1-3.7,0.3c-1.2,0.1-2.4,0.3-3.7,0.4c-0.5,0.1-0.9,0-1.1-0.1s-0.3-0.5-0.4-1.1
			c0-0.2-0.1-0.4-0.1-0.7c0-0.2,0-0.5-0.1-0.7c-0.2-1.7-0.3-3.4-0.4-5.1C329.3,80.5,329.3,78.8,329.4,77z"/>
	</g>
	<g>
		<path class="st29" d="M163.5,216c-0.1,0.1-0.2,0.2-0.2,0.3c0,0.1-0.1,0.2-0.1,0.3c-0.3,1-0.7,2-1.1,3s-0.8,2-1.1,3
			c-0.1,0.3-0.2,0.6-0.4,0.9c-0.1,0.3-0.2,0.6-0.2,0.9c0,0.2-0.1,0.3-0.2,0.4c-0.1,0.1-0.3,0.1-0.4,0.1c-0.5,0-1.1,0-1.6,0
			c-0.5,0-1.1,0-1.6,0c-0.4,0-0.6-0.2-0.8-0.5c-0.1-0.2-0.2-0.4-0.3-0.6c-0.1-0.2-0.2-0.4-0.3-0.6c-0.4-0.9-0.7-1.8-1.1-2.7
			c-0.3-0.9-0.7-1.8-1-2.8c-0.5-1.4-1-2.9-1.5-4.3c-0.5-1.4-1-2.9-1.5-4.3c-0.4-1-0.7-2-1-3c-0.3-1-0.7-2-1-3c0-0.2-0.1-0.4-0.1-0.6
			c0-0.2-0.1-0.4-0.1-0.6c0-0.3,0-0.5,0.2-0.7c0.1-0.2,0.4-0.3,0.6-0.3c0.6,0,1.2-0.1,1.8-0.1c0.6,0,1.2,0.1,1.8,0.2
			c0.2,0,0.3,0.1,0.4,0.2c0.1,0.1,0.2,0.3,0.3,0.4c1,2.3,2,4.5,2.8,6.9c0.8,2.3,1.5,4.7,2.2,7c0.3,1,0.6,1.9,0.9,2.9
			c0.3,0.9,0.6,1.9,0.9,2.8c0,0.1,0.1,0.3,0.1,0.4c0,0.1,0.2,0.3,0.3,0.4c0.2-0.6,0.5-1.1,0.7-1.6c0.2-0.5,0.4-1.1,0.7-1.6
			c0.3-0.8,0.6-1.6,0.9-2.4c0.3-0.8,0.6-1.6,0.9-2.5c0.2-0.6,0.5-0.8,1.1-0.8c0.2,0,0.5,0,0.7,0c0.2,0,0.4,0,0.7,0c0.4,0,0.8,0,1,0
			c0.2,0,0.4,0,0.5,0.1c0.1,0.1,0.2,0.2,0.3,0.4c0.1,0.2,0.2,0.5,0.4,0.9c0.3,0.6,0.5,1.2,0.8,1.7c0.3,0.6,0.5,1.1,0.8,1.7
			c0.2,0,0.3,0,0.3-0.1c0-0.1,0.1-0.2,0.1-0.3c0.4-1.3,0.8-2.6,1.2-3.9c0.4-1.3,0.8-2.6,1.2-3.9c0.4-1.3,0.8-2.5,1.2-3.8
			c0.4-1.3,0.8-2.5,1.2-3.8c0-0.1,0.1-0.2,0.1-0.3c0-0.1,0.1-0.2,0.1-0.3c0.1-0.2,0.3-0.3,0.5-0.2c0.2,0.1,0.3,0.2,0.3,0.5
			c0,0.1,0,0.3-0.1,0.5c-0.8,2.8-1.7,5.6-2.5,8.4c-0.8,2.8-1.7,5.6-2.5,8.3c-0.2,0.8-0.5,1.6-0.8,2.4c-0.3,0.8-0.5,1.6-0.8,2.4
			c-0.1,0.4-0.3,0.8-0.5,1.2c-0.1,0.3-0.3,0.4-0.6,0.4c-0.3,0-0.5-0.1-0.7-0.4c-0.1-0.2-0.3-0.4-0.4-0.6c-0.1-0.2-0.2-0.4-0.3-0.7
			c-0.5-1.1-0.9-2.3-1.3-3.4c-0.4-1.2-0.8-2.3-1.2-3.5c0-0.1-0.1-0.3-0.1-0.4C163.7,216.3,163.7,216.2,163.5,216z"/>
		<path class="st29" d="M194.1,212.6c-0.1,2.1-0.1,4.1-0.2,5.8c-0.1,1.8-0.1,3.5-0.2,5.2v0.4c0,0.4-0.1,0.7-0.3,0.9
			c-0.1,0.1-0.4,0.3-0.9,0.3c-0.7,0.1-1.4,0.1-2.1-0.1c-0.3-0.1-0.4-0.2-0.5-0.5c-0.1-0.3-0.2-0.6-0.2-1c0-0.3,0-0.7,0-1
			c0-0.9,0.1-1.8,0.1-2.7c0-0.9,0-1.8,0.1-2.7c0-0.2,0-0.3,0-0.4c0-0.2-0.1-0.3-0.3-0.3c-0.1,0-0.3,0-0.5,0c-1,0-2,0-3,0
			c-1,0-2,0-3,0c-0.1,0-0.2,0-0.3,0c-0.1,0-0.2,0-0.3,0c-0.2,0-0.3,0.2-0.3,0.3c0,0.2,0,0.3,0,0.4s0,0.3,0,0.4c0,0.9,0,1.9,0,2.7
			c0,0.9,0,1.8-0.1,2.7c0,0.5,0,0.9-0.1,1.1c0,0.2-0.1,0.4-0.2,0.5c-0.1,0.1-0.3,0.2-0.6,0.2s-0.6,0-1.1,0c-0.2,0-0.4,0-0.6,0
			c-0.2,0-0.4,0-0.6,0c-0.6,0-0.9-0.3-1.1-0.8c0-0.2-0.1-0.5-0.1-0.7c0-0.2,0-0.4,0-0.7c0.1-1,0.1-2,0.1-3c0-1,0-2,0.1-3
			c0-1.7,0-3.3,0-5c0-1.7,0-3.3,0-5c0-0.6,0-1.3,0-1.9c0-0.6-0.1-1.3-0.2-1.9c0,0,0-0.1,0-0.1c0,0,0-0.1,0-0.1c0-0.6,0-1,0.2-1.2
			c0.2-0.2,0.6-0.3,1.2-0.3c0.3,0,0.6,0.1,0.9,0.1c0.3,0,0.6,0,0.9,0c0.6,0,1,0.3,1.2,1c0,0.2,0.1,0.4,0.1,0.7c0,0.2,0,0.5,0,0.7
			c0,1.8,0,3.6,0,5.3c0,1.8,0,3.5,0,5.3c0,0.4,0,0.7,0,0.9c0,0.2,0.1,0.3,0.1,0.4c0.1,0.1,0.2,0.1,0.4,0.1c0.2,0,0.5,0,0.9,0
			c0.8,0,1.7,0,2.5,0c0.8,0,1.6,0,2.5,0h0.9c0.3,0,0.5-0.2,0.5-0.5c0-0.2,0-0.4,0-0.5c0-0.2,0-0.3,0-0.5c0-1.8,0-3.6,0-5.4
			c0-1.8,0-3.6,0-5.4c0-0.2,0-0.5,0-0.7c0-0.2,0-0.5,0.1-0.7c0.1-0.7,0.5-1,1.1-0.9c0.6,0,1.2,0.1,1.8,0.2c0.4,0.1,0.7,0.2,0.9,0.4
			c0.2,0.2,0.3,0.5,0.3,1c0,0.2,0,0.4,0,0.6c0,0.2,0,0.4,0,0.6V212.6z"/>
		<path class="st29" d="M196,212.5c0-1.4,0-2.8,0-4.2c0.1-1.4,0.1-2.8,0.2-4.2c0-0.3,0.1-0.7,0.1-1c0-0.3,0.1-0.7,0.2-1
			c0.1-0.4,0.2-0.6,0.4-0.7c0.2-0.1,0.4-0.2,0.8-0.2c0.1,0,0.2,0,0.3,0c0.1,0,0.2,0,0.3,0c1.2,0.2,2.4,0.3,3.6,0.4
			c1.2,0.1,2.4,0.1,3.6,0.3c0.2,0,0.3,0,0.5,0.1c0.2,0,0.3,0,0.5,0.1c0.3,0.1,0.4,0.3,0.4,0.6c0,0.3-0.1,0.4-0.4,0.5
			c-0.2,0-0.3,0.1-0.5,0.1c-0.1,0-0.3,0-0.4,0c-0.5,0-1.1,0-1.6-0.1c-0.5,0-1.1,0-1.6-0.1c-0.1,0-0.2,0-0.4,0c-0.1,0-0.3,0-0.4,0
			c-0.1,0-0.2,0.1-0.3,0.2c0,0.1,0,0.1,0,0.2c0,0.1,0,0.2,0,0.3c0,0.9,0,1.8,0,2.7c-0.1,0.9-0.1,1.8-0.2,2.6
			c-0.2,1.9-0.2,3.9-0.2,5.8c0,0.1,0,0.3,0,0.4c0,0.1,0,0.3,0,0.4c0,0.3,0.2,0.5,0.5,0.5h0.9h0.9c0.5,0,0.7,0.2,0.6,0.5
			c0,0.3-0.3,0.5-0.6,0.5c-0.3,0-0.6,0.1-0.9,0.1c-0.3,0-0.6,0-0.9,0c-0.2,0-0.4,0.2-0.4,0.4v0.4c0,0.8,0.1,1.6,0.2,2.3
			c0.1,0.8,0.1,1.5,0.2,2.3c0,0.3,0.1,0.5,0.2,0.6c0.1,0.1,0.3,0.1,0.7,0.1c0.5,0,1-0.1,1.5-0.1c0.5,0,1,0,1.5-0.1
			c0.4,0,0.7,0,1,0.2c0.2,0.1,0.2,0.3,0.2,0.4c0,0.2-0.1,0.3-0.2,0.4c-0.1,0-0.1,0.1-0.2,0.1c-0.1,0-0.1,0-0.2,0.1
			c-0.2,0-0.3,0.1-0.5,0.1c-1.3,0-2.5,0.1-3.7,0.3c-1.2,0.1-2.4,0.3-3.7,0.4c-0.5,0.1-0.9,0-1.1-0.1s-0.3-0.5-0.4-1.1
			c0-0.2-0.1-0.4-0.1-0.7c0-0.2,0-0.5-0.1-0.7c-0.2-1.7-0.3-3.4-0.4-5.1C195.9,215.9,195.9,214.2,196,212.5z"/>
		<path class="st29" d="M210.2,206.8c0,0.5,0,1,0,1.3c0,0.4,0,0.7,0,1.1c0.1,2.1,0.2,4.2,0.2,6.3c0,2.1,0,4.2,0,6.3
			c0,0.4,0,0.7,0,1.1c0,0.3,0,0.7,0,1.1c0,0.1,0,0.3,0,0.4c0,0.1-0.1,0.2-0.2,0.3c-0.1,0.1-0.2,0.2-0.3,0.2c-0.1,0-0.2-0.1-0.3-0.2
			c-0.1-0.1-0.1-0.2-0.1-0.3c0-0.2,0-0.3,0-0.4c0-0.1,0-0.3,0-0.4c0-2.3-0.1-4.6-0.1-6.9c0-2.3-0.1-4.6-0.1-6.9c0-0.7,0-1.5-0.1-2.2
			c0-0.7-0.1-1.5-0.1-2.2c0-0.5-0.1-1-0.1-1.5c0-0.5,0-1,0-1.5c0-0.8,0.1-1.3,0.4-1.5c0.2-0.2,0.7-0.4,1.5-0.4c0.1,0,0.3,0,0.4,0
			s0.3,0,0.4,0c0.2,0,0.5,0.2,0.6,0.4c0.8,0.9,1.5,1.8,2.1,2.7c0.6,0.9,1.2,1.8,1.8,2.7c0.6,0.9,1.2,1.8,1.7,2.8
			c0.6,1,1.2,2,1.9,3.1c0.7,1.1,1.4,2.4,2.3,3.7c0.8,1.3,1.8,2.8,2.8,4.5c0.2,0.3,0.4,0.5,0.6,0.8c0.2,0.3,0.4,0.6,0.6,0.8
			c0.1,0.1,0.1,0.2,0.2,0.3c0.1,0.1,0.2,0.2,0.4,0.2c0.1-0.1,0.2-0.2,0.2-0.4c0-0.2,0-0.3,0-0.4c-0.1-2.1-0.1-4.1-0.1-6.2
			c0-2.1,0.1-4.1,0-6.2c0-1.1,0-2.1,0-3.2c0-1,0-2.1,0-3.2c0-0.2,0-0.5,0-0.7c0-0.2,0.1-0.5,0.2-0.7c0,0,0.1-0.1,0.1-0.1
			c0.1,0,0.1,0,0.2-0.1c0,0,0.1,0,0.1,0c0,0,0.1,0.1,0.1,0.1c0.1,0.2,0.2,0.5,0.2,0.7c0,0.3,0,0.6,0,0.9c0,0.3,0,0.6,0,0.9
			c0.1,1.9,0.1,3.8,0.1,5.6c0,1.9,0,3.7-0.1,5.6c0,1.2-0.1,2.4-0.1,3.6c0,1.2,0,2.4,0.2,3.5c0,0.5,0,0.9,0,1.4
			c0,0.8-0.4,1.3-1.2,1.4c-0.4,0-0.7,0.1-1.1,0.1c-0.3,0-0.7,0-1.1,0.1c-0.2,0-0.5-0.1-0.8-0.4c-1.2-1.4-2.2-2.6-3-3.7
			c-0.8-1.1-1.6-2.1-2.2-3.1c-0.6-0.9-1.3-1.8-1.8-2.7c-0.6-0.8-1.1-1.7-1.7-2.6c-0.6-0.9-1.3-1.8-2-2.8
			C212.1,209.1,211.3,208,210.2,206.8z"/>
		<path class="st29" d="M249.7,209.4c0,1.7,0,3.4,0.1,5.1c0.1,1.6,0.3,3.3,0.4,4.9c0.1,0.7,0.1,1.5,0.1,2.2c0,0.7,0.1,1.5,0.1,2.2
			c0,0.2,0,0.4,0,0.5c0,0.4-0.3,0.7-0.7,0.7c-0.4,0-0.9,0.1-1.3,0.1c-0.4,0-0.9,0-1.3,0.1c-0.7,0-1.2-0.3-1.4-1c0-0.1,0-0.2-0.1-0.3
			c0-0.1,0-0.2,0-0.3c-0.1-1.7-0.2-3.5-0.3-5.2c-0.1-1.7-0.2-3.5-0.3-5.2c-0.1-1.6-0.1-3.2-0.2-4.8c0-1.6-0.1-3.2-0.1-4.8v-0.5
			c0-0.3-0.1-0.4-0.2-0.5c-0.1-0.1-0.3-0.1-0.6-0.1c-0.4,0-0.7,0-1.1,0c-0.3,0-0.7,0-1.1,0c-0.1,0-0.2,0-0.4,0
			c-0.1,0-0.2-0.1-0.4-0.1c-0.1,0-0.2-0.1-0.2-0.3c0-0.2,0.1-0.3,0.2-0.3c0.2-0.1,0.4-0.2,0.6-0.2c0.2,0,0.3,0,0.5,0
			c0.2,0,0.3,0,0.5,0l9.2,0.1c0.1,0,0.2,0,0.4,0c0.1,0,0.3,0,0.4,0.1c0.2,0,0.3,0.1,0.3,0.3c0,0.2-0.1,0.4-0.3,0.5
			c-0.1,0.1-0.3,0.1-0.4,0.1c-0.1,0-0.3,0-0.4,0H250c-0.3,0-0.4,0.1-0.4,0.4v0.6c0,1,0,2,0.1,3C249.7,207.6,249.7,208.5,249.7,209.4
			z"/>
		<path class="st29" d="M271.4,212.6c-0.1,2.1-0.1,4.1-0.2,5.8c-0.1,1.8-0.1,3.5-0.2,5.2v0.4c0,0.4-0.1,0.7-0.3,0.9
			c-0.1,0.1-0.4,0.3-0.9,0.3c-0.7,0.1-1.4,0.1-2.1-0.1c-0.3-0.1-0.4-0.2-0.5-0.5c-0.1-0.3-0.2-0.6-0.2-1c0-0.3,0-0.7,0-1
			c0-0.9,0.1-1.8,0.1-2.7c0-0.9,0-1.8,0.1-2.7c0-0.2,0-0.3,0-0.4c0-0.2-0.1-0.3-0.3-0.3c-0.1,0-0.3,0-0.5,0c-1,0-2,0-3,0
			c-1,0-2,0-3,0c-0.1,0-0.2,0-0.3,0c-0.1,0-0.2,0-0.3,0c-0.2,0-0.3,0.2-0.3,0.3c0,0.2,0,0.3,0,0.4s0,0.3,0,0.4c0,0.9,0,1.9,0,2.7
			c0,0.9,0,1.8-0.1,2.7c0,0.5,0,0.9-0.1,1.1c0,0.2-0.1,0.4-0.2,0.5c-0.1,0.1-0.3,0.2-0.6,0.2s-0.6,0-1.1,0c-0.2,0-0.4,0-0.6,0
			c-0.2,0-0.4,0-0.6,0c-0.6,0-0.9-0.3-1.1-0.8c0-0.2-0.1-0.5-0.1-0.7c0-0.2,0-0.4,0-0.7c0.1-1,0.1-2,0.1-3c0-1,0-2,0.1-3
			c0-1.7,0-3.3,0-5c0-1.7,0-3.3,0-5c0-0.6,0-1.3,0-1.9c0-0.6-0.1-1.3-0.2-1.9c0,0,0-0.1,0-0.1c0,0,0-0.1,0-0.1c0-0.6,0-1,0.2-1.2
			c0.2-0.2,0.6-0.3,1.2-0.3c0.3,0,0.6,0.1,0.9,0.1c0.3,0,0.6,0,0.9,0c0.6,0,1,0.3,1.2,1c0,0.2,0.1,0.4,0.1,0.7c0,0.2,0,0.5,0,0.7
			c0,1.8,0,3.6,0,5.3c0,1.8,0,3.5,0,5.3c0,0.4,0,0.7,0,0.9c0,0.2,0.1,0.3,0.1,0.4c0.1,0.1,0.2,0.1,0.4,0.1c0.2,0,0.5,0,0.9,0
			c0.8,0,1.7,0,2.5,0c0.8,0,1.6,0,2.5,0h0.9c0.3,0,0.5-0.2,0.5-0.5c0-0.2,0-0.4,0-0.5c0-0.2,0-0.3,0-0.5c0-1.8,0-3.6,0-5.4
			c0-1.8,0-3.6,0-5.4c0-0.2,0-0.5,0-0.7c0-0.2,0-0.5,0.1-0.7c0.1-0.7,0.5-1,1.1-0.9c0.6,0,1.2,0.1,1.8,0.2c0.4,0.1,0.7,0.2,0.9,0.4
			c0.2,0.2,0.3,0.5,0.3,1c0,0.2,0,0.4,0,0.6c0,0.2,0,0.4,0,0.6V212.6z"/>
		<path class="st29" d="M273.3,212.5c0-1.4,0-2.8,0-4.2c0.1-1.4,0.1-2.8,0.2-4.2c0-0.3,0.1-0.7,0.1-1c0-0.3,0.1-0.7,0.2-1
			c0.1-0.4,0.2-0.6,0.4-0.7c0.2-0.1,0.4-0.2,0.8-0.2c0.1,0,0.2,0,0.3,0c0.1,0,0.2,0,0.3,0c1.2,0.2,2.4,0.3,3.6,0.4
			c1.2,0.1,2.4,0.1,3.6,0.3c0.2,0,0.3,0,0.5,0.1c0.2,0,0.3,0,0.5,0.1c0.3,0.1,0.4,0.3,0.4,0.6c0,0.3-0.1,0.4-0.4,0.5
			c-0.2,0-0.3,0.1-0.5,0.1c-0.1,0-0.3,0-0.4,0c-0.5,0-1.1,0-1.6-0.1s-1.1,0-1.6-0.1c-0.1,0-0.2,0-0.4,0c-0.1,0-0.3,0-0.4,0
			c-0.1,0-0.2,0.1-0.3,0.2c0,0.1,0,0.1,0,0.2c0,0.1,0,0.2,0,0.3c0,0.9,0,1.8,0,2.7c-0.1,0.9-0.1,1.8-0.2,2.6
			c-0.2,1.9-0.2,3.9-0.2,5.8c0,0.1,0,0.3,0,0.4c0,0.1,0,0.3,0,0.4c0,0.3,0.2,0.5,0.5,0.5h0.9h0.9c0.5,0,0.7,0.2,0.6,0.5
			c0,0.3-0.3,0.5-0.6,0.5c-0.3,0-0.6,0.1-0.9,0.1c-0.3,0-0.6,0-0.9,0c-0.2,0-0.4,0.2-0.4,0.4v0.4c0,0.8,0.1,1.6,0.2,2.3
			c0.1,0.8,0.1,1.5,0.2,2.3c0,0.3,0.1,0.5,0.2,0.6c0.1,0.1,0.3,0.1,0.7,0.1c0.5,0,1-0.1,1.5-0.1c0.5,0,1,0,1.5-0.1
			c0.4,0,0.7,0,1,0.2c0.2,0.1,0.2,0.3,0.2,0.4c0,0.2-0.1,0.3-0.2,0.4c-0.1,0-0.1,0.1-0.2,0.1c-0.1,0-0.1,0-0.2,0.1
			c-0.2,0-0.3,0.1-0.5,0.1c-1.3,0-2.5,0.1-3.7,0.3c-1.2,0.1-2.4,0.3-3.7,0.4c-0.5,0.1-0.9,0-1.1-0.1s-0.3-0.5-0.4-1.1
			c0-0.2-0.1-0.4-0.1-0.7c0-0.2,0-0.5-0.1-0.7c-0.2-1.7-0.3-3.4-0.4-5.1C273.3,215.9,273.2,214.2,273.3,212.5z"/>
	</g>
	<g>
		<path class="st29" d="M113.9,257.7c-0.1,3.4-0.2,6.5-0.3,9.3c-0.1,2.8-0.2,5.6-0.3,8.3v0.6c-0.1,0.7-0.2,1.2-0.4,1.4
			c-0.2,0.2-0.7,0.4-1.4,0.5c-1.1,0.2-2.3,0.2-3.4-0.1c-0.4-0.1-0.7-0.4-0.8-0.8c-0.2-0.5-0.3-1-0.3-1.5c0-0.5,0-1.1,0-1.6
			c0.1-1.4,0.1-2.8,0.1-4.2c0-1.4,0-2.8,0.1-4.2c0-0.2,0-0.4-0.1-0.6c-0.1-0.3-0.2-0.5-0.5-0.5c-0.2,0-0.4-0.1-0.8-0.1
			c-1.6,0-3.2-0.1-4.7-0.1c-1.6,0-3.1,0-4.7,0c-0.2,0-0.3,0-0.5,0c-0.2,0-0.3,0-0.5,0.1c-0.3,0.1-0.5,0.2-0.5,0.5c0,0.2,0,0.5,0,0.7
			c0,0.2,0,0.4-0.1,0.7c0,1.5-0.1,2.9-0.1,4.4c0,1.4,0,2.9-0.1,4.3c0,0.8-0.1,1.4-0.1,1.8c0,0.4-0.2,0.7-0.3,0.9
			c-0.2,0.2-0.5,0.3-0.9,0.3s-1,0-1.7,0c-0.3,0-0.6,0-1,0c-0.3,0-0.7,0-1,0c-0.9,0-1.5-0.4-1.7-1.3c-0.1-0.4-0.1-0.8-0.2-1.1
			c-0.1-0.3,0-0.7,0-1.1c0.1-1.6,0.2-3.2,0.2-4.8c0-1.6,0-3.2,0.1-4.8c0-2.7,0-5.3,0-7.9c0-2.6,0-5.3,0-7.9c0-1,0-2,0-3
			c0-1-0.1-2-0.3-3c0-0.1,0-0.1,0-0.2c0-0.1,0-0.1,0-0.2c-0.1-0.9,0-1.6,0.3-1.9c0.3-0.4,0.9-0.5,1.9-0.4c0.5,0.1,1,0.1,1.4,0.1
			c0.5,0,0.9,0,1.4,0c1,0,1.6,0.5,1.9,1.5c0.1,0.4,0.1,0.7,0.2,1.1c0,0.4,0.1,0.7,0.1,1.1c0,2.8,0.1,5.7,0.1,8.5c0,2.8,0,5.6,0,8.5
			c0,0.6,0,1.1,0,1.4c0,0.3,0.1,0.5,0.2,0.7c0.1,0.1,0.3,0.2,0.7,0.2c0.3,0,0.8,0,1.4,0c1.3,0,2.7,0,4,0c1.3,0,2.6,0,3.9,0h1.4
			c0.5-0.1,0.7-0.3,0.7-0.7c0-0.3,0-0.6,0-0.8c0-0.3,0-0.5,0-0.8c0-2.9-0.1-5.7-0.1-8.5c0-2.8,0-5.7,0-8.5c0-0.4,0-0.8,0-1.1
			c0-0.4,0-0.7,0.1-1.1c0.2-1.1,0.8-1.6,1.8-1.5c1,0.1,1.9,0.2,2.8,0.3c0.7,0.1,1.1,0.3,1.4,0.6s0.4,0.8,0.5,1.5
			c0,0.3,0.1,0.6,0.1,0.9s0,0.6,0,0.9V257.7z"/>
		<path class="st29" d="M137.5,242.6c0.9,1.7,1.5,3.7,1.9,6c0.4,2.3,0.5,4.7,0.5,7.3c-0.1,2.5-0.3,5-0.7,7.5c-0.4,2.5-1,4.7-1.7,6.7
			c-1,2.8-2.2,4.8-3.6,6c-1.4,1.2-2.8,1.8-4.3,1.8c-1.5,0-2.9-0.6-4.4-1.7c-1.5-1.1-2.8-2.6-4-4.4c-1.2-1.8-2.2-4-2.9-6.4
			c-0.8-2.4-1.2-4.9-1.3-7.5c-0.1-2.6,0.2-5.3,0.9-8c0.7-2.7,1.9-5.2,3.7-7.7c0.9-1.3,2-2.2,3.2-2.9c1.2-0.6,2.6-1,4.1-1.2
			c1.9-0.2,3.6,0,5.1,0.8C135.3,239.7,136.5,240.9,137.5,242.6z M136.6,266.7c1.1-3.9,1.7-7.4,1.7-10.7c0-3.3-0.3-6.1-1-8.5
			c-0.7-2.4-1.6-4.2-2.7-5.4c-1.1-1.2-2.3-1.7-3.5-1.5c-1.2,0.2-2.2,1.3-3.2,3.1c-0.9,1.9-1.6,4.7-1.8,8.6c-0.2,2.7-0.2,5.3,0,7.8
			c0.2,2.6,0.5,4.9,1,6.9c0.5,2.1,1.1,3.7,1.8,5.1c0.7,1.3,1.5,2.1,2.3,2.3c0.9,0.2,1.7-0.3,2.6-1.5
			C134.8,271.8,135.7,269.7,136.6,266.7z"/>
		<path class="st29" d="M148.3,277.9c-0.5,0-1,0.1-1.5,0.1c-0.5,0-1-0.1-1.5-0.2c-0.5-0.1-0.7-0.3-0.8-0.7c-0.1-0.4-0.1-0.8-0.2-1.2
			c-0.1-0.4-0.1-0.8-0.1-1.2c-0.1-2.6-0.2-5.2-0.3-7.7c-0.1-2.6-0.2-5.1-0.3-7.7c-0.1-1.7-0.1-3.4-0.2-5.1c-0.1-1.7-0.2-3.4-0.3-5.1
			c-0.1-1.2-0.2-2.5-0.2-3.7c0-1.2,0-2.5,0-3.7c0-0.2,0-0.4,0.1-0.8c0.1-0.4,0.3-0.8,0.6-1c0.3-0.3,0.7-0.4,1.1-0.3
			c1.2,0,2.5,0,3.8,0c0.5,0,0.9,0.1,1.2,0.3c0.2,0.2,0.4,0.6,0.5,1.1c0.1,0.8,0.2,1.6,0.3,2.4c0.1,0.8,0.1,1.6,0.2,2.4
			c0.1,2.6,0.2,5.2,0.2,7.8c0.1,2.6,0.1,5.2,0.2,7.8c0.1,2.3,0.1,4.7,0.2,6.9c0.1,2.3,0.1,4.6,0.2,6.9c0,0.4,0.1,0.6,0.2,0.7
			c0.1,0.1,0.4,0.2,0.8,0.2c1.6,0,3.2,0.1,4.7,0.1s3.1,0,4.7,0.1c0.3,0,0.6,0,1,0c0.3,0,0.7,0,1,0.1c0.4,0.1,0.6,0.3,0.6,0.7
			c0,0.4-0.2,0.7-0.6,0.7c-0.2,0.1-0.5,0.1-0.7,0.1c-0.2,0-0.5,0-0.8,0c-2.2,0-3.9,0-5,0s-1.9,0-2.4,0c-0.5,0-0.8,0-0.9,0
			c-0.1,0-0.3,0-0.6,0c-0.3,0-0.8,0-1.5,0.1C151.1,277.8,149.9,277.8,148.3,277.9z"/>
		<path class="st29" d="M178.4,257c0.4-0.2,0.8-0.4,1-0.7c0.2-0.3,0.5-0.5,0.7-0.8c0.6-0.6,1.1-1.3,1.6-2c0.5-0.7,0.9-1.4,1.3-2.2
			c0.9-1.6,1.8-3.1,2.6-4.6c0.9-1.5,1.5-3.1,2.1-4.8c0.2-0.5,0.4-0.8,0.7-1.1c0.3-0.2,0.7-0.4,1.2-0.4c0.7,0,1.4,0,2,0
			c0.7,0,1.3,0,2-0.1c0.3,0,0.5,0,0.6,0.1c0.8,0.1,1.4,0.2,1.6,0.5c0.3,0.2,0.4,0.8,0.4,1.5c0.1,4.7-0.2,8.9-0.9,12.6
			c-0.7,3.7-1.5,7-2.7,9.8c-1.1,2.8-2.4,5.1-3.9,7c-1.5,1.9-2.9,3.3-4.5,4.3c-1.5,1-3,1.5-4.5,1.6c-1.5,0.1-2.8-0.2-4-1
			c-1.2-0.8-2.1-2-2.8-3.6c-0.7-1.6-1.1-3.7-1.1-6.2c0-0.3,0.1-0.6,0.2-1c0.1-0.1,0.2-0.3,0.3-0.4c0.1-0.1,0.3-0.1,0.5-0.1
			c0.1,0,0.2,0.1,0.3,0.2c0.1,0.1,0.2,0.2,0.2,0.3c0,0.3,0.1,0.5,0.1,0.8c0,0.2,0,0.5,0,0.7c0.5,3.2,1.1,5.2,1.9,6.3
			c0.8,1,1.7,1.3,2.6,0.8c0.9-0.5,1.9-1.6,2.9-3.4c1-1.8,1.9-3.8,2.7-6.2c0.8-2.4,1.4-5,1.9-7.8c0.5-2.8,0.7-5.4,0.7-7.9
			c-0.3,0.1-0.5,0.2-0.6,0.5c-0.1,0.2-0.2,0.4-0.3,0.6c-0.6,1.1-1.3,2.1-1.9,3.2s-1.4,2.1-2.2,3c-0.2,0.3-0.5,0.6-0.7,0.8
			c-0.2,0.3-0.5,0.5-0.8,0.7c-0.8,0.7-1.7,1.1-2.7,1.2c-1,0.1-1.9-0.1-2.9-0.6c-0.8-0.5-1.5-1-2.1-1.6c-0.6-0.6-1.1-1.3-1.6-2.1
			c-0.4-0.7-0.8-1.4-1.1-2.2c-0.3-0.7-0.6-1.5-0.8-2.3c-0.8-2.9-1.2-5.8-1.4-8.6c-0.1-1.2,0-2.1,0.4-2.4c0.4-0.4,1.2-0.6,2.4-0.7
			c0.8,0,1.6,0,2.3,0c0.8,0,1.5,0.1,2.3,0.1c0.8,0.1,1.3,0.2,1.6,0.5c0.2,0.3,0.4,0.8,0.4,1.6c0,1,0,2,0,2.9c0,1,0,1.9,0,2.9
			c0,1.6,0.2,3.1,0.4,4.6c0.2,1.5,0.5,3,0.9,4.5c0.1,0.2,0.2,0.4,0.2,0.6C178.3,256.6,178.3,256.8,178.4,257z"/>
		<path class="st29" d="M226.4,241.7c-0.9,0.3-1.3,0.9-1.1,1.7c0.1,0.9,0.6,1.9,1.5,3.2c0.8,1.3,1.9,2.8,3.2,4.4
			c1.3,1.7,2.7,3.5,4.2,5.4c1.4,1.8,2.5,3.6,3.4,5.5c0.9,1.9,1.3,3.7,1.4,5.5c0,1.8-0.5,3.5-1.6,5.1c-1.1,1.6-2.9,3-5.4,4.2
			c-1.4,0.7-2.8,1.1-4.2,1.2c-1.4,0.1-2.7,0-4-0.4s-2.4-1-3.4-1.9c-1-0.9-1.8-2-2.4-3.4c-0.2-0.4-0.4-1-0.5-1.8
			c-0.2-0.7-0.3-1.5-0.3-2.2c0-0.7,0-1.3,0.2-1.9c0.2-0.5,0.5-0.8,1-0.7c0.5,0,0.7,0.3,0.8,0.7c0.1,0.4,0.1,0.9,0,1.6
			c0,0.6,0,1.4,0.1,2.2c0.1,0.8,0.4,1.6,1,2.4c0.8,1.2,1.8,2.1,3.1,2.6c1.2,0.5,2.5,0.7,3.6,0.5c1.2-0.1,2.2-0.6,3.2-1.4
			c0.9-0.8,1.5-1.8,1.8-3.1c0.2-1.3,0-2.9-0.6-4.8c-0.7-1.8-2-3.9-4-6.3c-1.2-1.4-2.5-2.9-3.7-4.3c-1.3-1.5-2.3-3-3.1-4.4
			c-0.8-1.5-1.3-3-1.5-4.5c-0.2-1.5,0.2-3,1.1-4.4c0.6-1,1.6-1.8,2.8-2.6c1.3-0.7,2.6-1.1,4.2-1.1c1.5,0,3.1,0.4,4.6,1.3
			c1.6,0.9,3,2.4,4.2,4.6c0.2,0.3,0.3,0.6,0.5,0.9c0.1,0.3,0.2,0.6,0.3,0.9c0.1,0.2,0.1,0.5-0.1,0.6c-0.1,0.2-0.3,0.3-0.5,0.4
			c-0.2,0.1-0.4,0.1-0.6,0.1c-0.2-0.1-0.4-0.2-0.5-0.4c-0.4-0.6-0.8-1.3-1.2-2.1s-1.1-1.5-1.8-2.1c-0.7-0.6-1.5-1.1-2.4-1.4
			C228.7,241.2,227.6,241.3,226.4,241.7z"/>
		<path class="st29" d="M242.3,259.1c-0.3-3.4-0.4-6.6-0.5-9.5c0-2.9,0.1-5.7,0.2-8.5c0-0.3,0.1-0.5,0.1-0.8c0-0.2,0.1-0.5,0.1-0.7
			c0.1-0.6,0.5-0.9,1.2-1c0.5,0,1.1,0,1.6,0c1.2,0.1,2.5,0.2,3.7,0.3c1.2,0.1,2.5,0.2,3.7,0.4c1.2,0.2,2.4,0.5,3.5,0.9
			c1.1,0.4,2.2,1,3.2,1.7c3,2.1,4.4,5,4,8.7c-0.2,2.5-1,4.6-2.4,6.3c-1.4,1.7-3.2,3-5.4,4c-0.6,0.2-1.1,0.5-1.7,0.6
			c-0.6,0.2-1.2,0.3-1.8,0.5c-0.4,0.1-0.6,0.2-0.8,0.3c-0.2,0.1-0.3,0.2-0.4,0.3c-0.1,0.1-0.1,0.2-0.2,0.4c0,0.2,0,0.4,0,0.7
			c0,1.6-0.1,3.1-0.1,4.7c0,1.5,0,3.1-0.1,4.7c0,0.6-0.1,1.2-0.1,1.8c0,0.6-0.1,1.2-0.2,1.8c-0.1,0.4-0.2,0.7-0.3,0.9
			c-0.1,0.2-0.4,0.3-0.8,0.3c-1.5,0.2-3,0.2-4.6,0c-0.7-0.1-1.2-0.5-1.4-1.3c-0.1-0.5-0.2-1-0.3-1.5c0-0.5-0.1-1.1-0.1-1.6
			c-0.1-2.6-0.1-5.1-0.2-7.6C242.4,263.3,242.3,261.1,242.3,259.1z M250.5,260.5c1-0.3,2-0.6,2.9-0.9c0.9-0.3,1.7-0.7,2.6-1.2
			c1.2-0.7,2.1-1.6,2.9-2.6c0.7-1,1.2-2.2,1.5-3.5c0.2-1,0.3-2.1,0.2-3.3c-0.1-1.3-0.4-2.4-1-3.4c-0.6-1-1.4-1.8-2.5-2.5
			c-0.9-0.6-1.8-1-2.8-1.3c-1-0.3-2-0.5-3-0.7c-0.4,0-0.6,0.1-0.6,0.5c0,0.1-0.1,0.3-0.1,0.6c-0.1,2.5-0.1,5-0.2,7.5
			c0,2.5,0,5,0.1,7.5c0,0.5,0.1,1.1,0.1,1.6C250.5,259.3,250.5,259.9,250.5,260.5z"/>
		<path class="st29" d="M280.1,276.2c0.3,0.1,0.5,0.2,0.4,0.5c0,0.2-0.2,0.4-0.5,0.6c-0.3,0.1-0.6,0.2-1,0.2c-1.3,0.1-2.7,0.1-4,0.2
			c-1.3,0.1-2.7,0.1-4,0.2c-0.5,0-1,0-1.5,0c-0.5,0-1-0.1-1.5-0.3c-0.3-0.1-0.4-0.3-0.4-0.6c0-0.3,0.1-0.5,0.4-0.6
			c0.1-0.1,0.2-0.1,0.3-0.1c0.1,0,0.2,0,0.3-0.1c0.2,0,0.4-0.1,0.5-0.1c0.2,0,0.4,0,0.6-0.1c0-4.4,0.1-8.8,0.1-13.1
			c0-4.3,0-8.6,0.1-13c0-1.2,0-2.4-0.1-3.6c0-1.2-0.1-2.4-0.1-3.6c0-0.4-0.1-0.6-0.2-0.8c-0.1-0.1-0.4-0.2-0.7-0.2
			c-0.3,0-0.5,0-0.8,0c-0.2,0-0.5,0-0.8-0.1c-0.2,0-0.3-0.1-0.5-0.2c-0.1-0.1-0.3-0.1-0.4-0.2c-0.1-0.1-0.2-0.3-0.2-0.5
			c0-0.1,0-0.2,0.1-0.3c0.1-0.1,0.1-0.2,0.2-0.2c0.3-0.1,0.7-0.2,1.2-0.2c1.7-0.1,3.4-0.3,5.1-0.4c1.7-0.1,3.4-0.1,5.1-0.1
			c0.3,0,0.5,0.1,0.8,0.1c0.2,0,0.5,0.1,0.7,0.3c0.3,0.1,0.5,0.3,0.5,0.6c0,0.3-0.2,0.5-0.5,0.6c-0.1,0.1-0.3,0.1-0.5,0.1
			c-0.2,0-0.3,0-0.5,0.1c-0.2,0-0.4,0.1-0.6,0.1s-0.4,0-0.6,0.1c-0.4,0-0.5,0.3-0.5,0.7c0.1,3.8,0.2,7.6,0.1,11.5
			c-0.1,3.8,0,7.6,0.3,11.5c0.1,1.3,0.1,2.7,0.1,4.1s-0.1,2.8-0.1,4.1v1.8c0,0.3,0.1,0.5,0.2,0.7c0.1,0.1,0.3,0.2,0.6,0.2
			c0.4,0,0.8,0,1.1,0C279.4,275.9,279.7,276,280.1,276.2z"/>
		<path class="st29" d="M293.8,262.1c0,0.2,0.1,0.4,0.3,0.5c0.1,0.1,0.3,0.3,0.4,0.4c0.5,0.5,0.9,1,1.4,1.5c0.4,0.5,0.9,1,1.3,1.5
			c1.1,1.3,2.2,2.7,3.3,4c1.1,1.3,2.2,2.7,3.3,4c0.3,0.4,0.6,0.8,0.8,1.1c0.2,0.4,0.2,0.8-0.1,1.1c-0.1,0.2-0.3,0.3-0.6,0.4
			c-0.2,0.1-0.5,0.1-0.7-0.1c-0.2-0.1-0.4-0.3-0.5-0.4c-0.2-0.1-0.4-0.3-0.5-0.5c-0.5-0.6-1.1-1.2-1.6-1.8c-0.5-0.6-1-1.2-1.5-1.9
			c-1-1.2-2-2.5-3.1-3.8c-1-1.3-2-2.6-3.1-3.8c0-0.1-0.1-0.1-0.1-0.1c-0.1,0-0.1-0.1-0.2-0.1c-0.2,0.1-0.4,0.2-0.4,0.3s0,0.3,0,0.5
			c-0.1,1.5-0.1,2.9-0.1,4.3c0,1.4,0,2.8-0.1,4.3c0,0.5-0.1,1.1-0.1,1.6c0,0.5-0.1,1.1-0.2,1.6c-0.1,0.7-0.4,1-1,1.1
			c-0.8,0.1-1.6,0.1-2.4,0.1c-0.8,0-1.6-0.1-2.4-0.1c-0.6-0.1-1-0.5-1.2-1.2c-0.1-0.5-0.2-1-0.3-1.5c-0.1-0.5-0.1-1-0.1-1.5
			c0.1-3,0-5.9-0.1-8.8c-0.1-2.9-0.3-5.8-0.4-8.8c-0.1-1.9-0.1-3.9-0.2-5.8c-0.1-1.9-0.1-3.8,0-5.7c0.1-0.8,0.1-1.6,0.2-2.4
			c0-0.8,0.1-1.6,0.2-2.4c0.1-0.5,0.2-0.8,0.4-1c0.2-0.2,0.5-0.3,1-0.3c2.2,0,4.4,0.2,6.6,0.4c2.2,0.2,4.3,0.7,6.4,1.6
			c1,0.4,2,0.9,2.8,1.6c0.8,0.6,1.6,1.4,2.2,2.3c0.9,1.2,1.3,2.6,1.4,4.1c0.4,5.1-1.7,9.1-6.3,11.7c-0.5,0.3-1,0.6-1.6,0.8
			c-0.6,0.2-1.1,0.4-1.7,0.6c-0.2,0.1-0.5,0.1-0.7,0.2C294.2,261.8,294,261.9,293.8,262.1z M292.5,260.3c1.2-0.3,2.3-0.7,3.5-1.2
			c1.1-0.5,2.2-1.1,3.1-1.9c0.5-0.4,0.9-0.9,1.3-1.4c0.4-0.5,0.7-1,1-1.6c0.4-0.9,0.6-1.9,0.7-2.8c0.1-0.9,0.2-1.9,0.1-2.9
			c-0.2-1.5-0.7-2.7-1.4-3.8c-0.8-1-1.8-1.9-3.2-2.5c-0.7-0.3-1.4-0.5-2.1-0.7c-0.7-0.2-1.4-0.4-2.1-0.6c-0.2,0-0.3,0-0.4-0.1
			c-0.5,0-0.7,0.2-0.7,0.5c0,0.2,0,0.4-0.1,0.6c-0.2,2.9-0.3,5.8-0.2,8.6c0,2.9,0.1,5.8,0.2,8.6c0,0.2,0,0.4,0,0.5
			C292.2,259.9,292.3,260.1,292.5,260.3z"/>
		<path class="st29" d="M321.7,276.2c0.3,0.1,0.5,0.2,0.4,0.5c0,0.2-0.2,0.4-0.5,0.6c-0.3,0.1-0.6,0.2-1,0.2c-1.3,0.1-2.7,0.1-4,0.2
			c-1.3,0.1-2.7,0.1-4,0.2c-0.5,0-1,0-1.5,0c-0.5,0-1-0.1-1.5-0.3c-0.3-0.1-0.4-0.3-0.4-0.6c0-0.3,0.1-0.5,0.4-0.6
			c0.1-0.1,0.2-0.1,0.3-0.1c0.1,0,0.2,0,0.3-0.1c0.2,0,0.4-0.1,0.5-0.1c0.2,0,0.4,0,0.6-0.1c0-4.4,0.1-8.8,0.1-13.1
			c0-4.3,0-8.6,0.1-13c0-1.2,0-2.4-0.1-3.6c0-1.2-0.1-2.4-0.1-3.6c0-0.4-0.1-0.6-0.2-0.8c-0.1-0.1-0.4-0.2-0.7-0.2
			c-0.3,0-0.5,0-0.8,0c-0.2,0-0.5,0-0.8-0.1c-0.2,0-0.3-0.1-0.5-0.2c-0.1-0.1-0.3-0.1-0.4-0.2c-0.1-0.1-0.2-0.3-0.2-0.5
			c0-0.1,0-0.2,0.1-0.3c0.1-0.1,0.1-0.2,0.2-0.2c0.3-0.1,0.7-0.2,1.2-0.2c1.7-0.1,3.4-0.3,5.1-0.4c1.7-0.1,3.4-0.1,5.1-0.1
			c0.3,0,0.5,0.1,0.8,0.1c0.2,0,0.5,0.1,0.7,0.3c0.3,0.1,0.5,0.3,0.5,0.6c0,0.3-0.2,0.5-0.5,0.6c-0.1,0.1-0.3,0.1-0.5,0.1
			c-0.2,0-0.3,0-0.5,0.1c-0.2,0-0.4,0.1-0.6,0.1s-0.4,0-0.6,0.1c-0.4,0-0.5,0.3-0.5,0.7c0.1,3.8,0.2,7.6,0.1,11.5
			c-0.1,3.8,0,7.6,0.3,11.5c0.1,1.3,0.1,2.7,0.1,4.1s-0.1,2.8-0.1,4.1v1.8c0,0.3,0.1,0.5,0.2,0.7c0.1,0.1,0.3,0.2,0.6,0.2
			c0.4,0,0.8,0,1.1,0C321,275.9,321.3,276,321.7,276.2z"/>
		<path class="st29" d="M339,252.7c-0.1,2.8,0,5.4,0.2,8c0.2,2.6,0.4,5.2,0.6,7.8c0.1,1.2,0.2,2.3,0.2,3.5c0,1.2,0.1,2.4,0.2,3.6
			c0,0.4,0,0.6-0.1,0.8c0,0.7-0.4,1.1-1.2,1.2c-0.7,0.1-1.4,0.1-2.1,0.2c-0.7,0-1.4,0.1-2.1,0.1c-1.1,0-1.9-0.5-2.2-1.6
			c0-0.2-0.1-0.3-0.1-0.5c0-0.2,0-0.3,0-0.5c-0.2-2.8-0.4-5.5-0.5-8.3c-0.2-2.7-0.3-5.5-0.4-8.3c-0.1-2.6-0.2-5.1-0.2-7.6
			c-0.1-2.5-0.1-5-0.2-7.6v-0.8c0-0.4-0.1-0.7-0.2-0.9c-0.1-0.1-0.4-0.2-0.9-0.2c-0.6,0-1.2-0.1-1.7-0.1s-1.1,0-1.7-0.1
			c-0.2,0-0.4,0-0.6-0.1c-0.2,0-0.4-0.1-0.6-0.2c-0.2-0.1-0.3-0.2-0.3-0.5c0-0.2,0.1-0.4,0.3-0.5c0.2-0.1,0.6-0.2,1-0.3
			c0.3,0,0.5,0,0.8,0c0.2,0,0.5,0,0.8,0l14.7,0.2c0.2,0,0.4,0,0.6,0c0.2,0,0.4,0.1,0.6,0.1c0.3,0.1,0.5,0.2,0.5,0.5
			c0.1,0.3-0.1,0.6-0.5,0.9c-0.2,0.1-0.4,0.2-0.7,0.2c-0.2,0-0.5,0-0.7,0h-3c-0.4,0-0.6,0.2-0.6,0.6v1c0,1.6,0.1,3.2,0.1,4.7
			C339,249.8,339,251.3,339,252.7z"/>
	</g>
	<g>
		<g>
			<g>
				<path class="st28" d="M132.4,212.8c-13.7,0-27.4,0-41.1,0c-2,0-2,3.1,0,3.1c13.7,0,27.4,0,41.1,0
					C134.4,216,134.4,212.8,132.4,212.8z"/>
			</g>
			<g>
				<path class="st28" d="M132.4,205.5c-13.7,0-27.4,0-41.1,0c-2,0-2,3.1,0,3.1c13.7,0,27.4,0,41.1,0
					C134.4,208.6,134.4,205.5,132.4,205.5z"/>
			</g>
			<g>
				<path class="st28" d="M132.4,220.2c-13.7,0-27.4,0-41.1,0c-2,0-2,3.1,0,3.1c13.7,0,27.4,0,41.1,0
					C134.4,223.4,134.4,220.2,132.4,220.2z"/>
			</g>
		</g>
		<g>
			<g>
				<path class="st28" d="M340.8,212.8c-13.7,0-27.4,0-41.1,0c-2,0-2,3.1,0,3.1c13.7,0,27.4,0,41.1,0
					C342.7,216,342.8,212.8,340.8,212.8z"/>
			</g>
			<g>
				<path class="st28" d="M340.8,205.5c-13.7,0-27.4,0-41.1,0c-2,0-2,3.1,0,3.1c13.7,0,27.4,0,41.1,0
					C342.7,208.6,342.8,205.5,340.8,205.5z"/>
			</g>
			<g>
				<path class="st28" d="M340.8,220.2c-13.7,0-27.4,0-41.1,0c-2,0-2,3.1,0,3.1c13.7,0,27.4,0,41.1,0
					C342.7,223.4,342.8,220.2,340.8,220.2z"/>
			</g>
		</g>
	</g>
	<g>
		<path class="st29" d="M191.7,354.6c0,0.1,0,0.2,0,0.3c-0.1,0.1-0.1,0.1-0.2,0.1h-2.8c-0.1,0-0.2-0.1-0.2-0.2
			c-0.3-0.8-0.6-1.8-0.9-3c-0.3-1.2-0.7-2.5-1.1-3.8c-0.2,0-0.3,0-0.5,0c-0.1,0-0.2,0-0.3,0c-0.6,0.1-1.2,0.1-1.8,0.1
			c-0.6,0-1.2,0-1.8,0c-0.3,0-0.5,0-0.6,0c-0.1,0-0.2,0-0.3,0.1c-0.1,0.1-0.1,0.2-0.2,0.3c-0.1,0.1-0.1,0.4-0.2,0.6
			c-0.2,0.5-0.3,1-0.5,1.4c-0.1,0.5-0.3,1-0.5,1.4c-0.1,0.4-0.3,0.8-0.4,1.2c-0.2,0.4-0.3,0.8-0.5,1.2c0,0.1-0.1,0.1-0.1,0.2
			c-0.1,0.1-0.1,0.1-0.1,0.2c0,0,0,0-0.1,0.1c0,0-0.1,0-0.1,0c-0.1-0.1-0.2-0.1-0.2-0.2c0-0.1,0-0.2,0-0.3c0-0.1,0-0.2,0.1-0.2
			c0.6-2,1.2-3.8,1.8-5.6c0.6-1.8,1.1-3.3,1.6-4.7c0.5-1.4,0.9-2.5,1.2-3.4c0.3-0.9,0.5-1.5,0.6-1.7c0-0.1,0.1-0.1,0.2-0.1
			c0.1,0,0.2,0,0.4,0c0.2,0,0.3,0,0.5,0c0.2,0,0.4,0,0.6,0c0.2,0,0.4,0,0.5,0c0.3,0,0.5,0.1,0.7,0.4c0.2,0.2,0.4,0.6,0.6,1.1
			c0.2,0.5,0.4,1.2,0.6,2c0.2,0.8,0.5,1.8,0.8,3c0.3,1.2,0.7,2.5,1.2,4.1C190.4,350.9,191,352.6,191.7,354.6z M181.6,347.4
			c0.3,0,0.6,0,0.9,0c0.4,0,0.8,0,1.2,0c0.4,0,0.8,0,1.3,0c0.4,0,0.8,0,1.2-0.1c-0.3-1.1-0.6-2.2-0.9-3.2c-0.3-1-0.6-1.8-0.8-2.5
			c-0.1-0.3-0.2-0.5-0.3-0.7s-0.2-0.5-0.3-0.7c-0.1,0.3-0.3,0.6-0.4,1.1c-0.2,0.4-0.3,0.9-0.5,1.4c-0.2,0.5-0.3,1-0.5,1.5
			c-0.2,0.5-0.3,1-0.5,1.4c-0.1,0.4-0.2,0.8-0.3,1.2C181.7,347,181.6,347.2,181.6,347.4z"/>
		<path class="st29" d="M200.9,353.4c0.7-0.7,1.2-1.5,1.5-2.4l0.3-0.9c0-0.1,0.1-0.2,0.2-0.3c0.1,0,0.1,0,0.2,0
			c0.1,0,0.1,0.1,0.2,0.1c0.1,0.2,0.1,0.4,0,0.6c-0.3,1.1-0.8,2.2-1.5,3.1c-0.7,0.9-1.5,1.4-2.4,1.5c-0.9,0.1-1.8-0.1-2.6-0.6
			c-0.8-0.4-1.4-1-2-1.7c-0.5-0.7-1-1.5-1.3-2.4c-0.3-0.9-0.5-1.9-0.6-2.9c-0.1-1,0-2,0.1-2.9c0.2-1,0.4-1.9,0.8-2.7
			c0.4-0.8,0.9-1.5,1.5-2.1s1.4-1,2.2-1.2c0.9-0.2,1.9-0.2,3,0c0.5,0.1,0.9,0.3,1.2,0.6c0.4,0.2,0.6,0.6,0.9,1
			c0,0.1,0.1,0.2,0.1,0.2c0,0.1,0.1,0.2,0,0.3c0,0.2-0.1,0.2-0.2,0.3c-0.1,0-0.2,0-0.3-0.1c-0.1-0.1-0.1-0.2-0.2-0.3
			c-0.1-0.1-0.1-0.2-0.2-0.3c-0.6-0.7-1.2-1.1-1.7-1.2c-0.5-0.1-0.9,0-1.3,0.4s-0.7,0.9-1,1.6c-0.3,0.7-0.5,1.5-0.6,2.4
			c-0.2,0.9-0.2,1.8-0.3,2.8c0,1,0,1.9,0.1,2.9c0.1,0.9,0.2,1.8,0.4,2.5c0.2,0.8,0.4,1.4,0.8,1.8c0.3,0.5,0.7,0.7,1.1,0.8
			C199.9,354.1,200.4,353.9,200.9,353.4z"/>
		<path class="st29" d="M210.6,344.3c0,1.2,0,2.3,0.1,3.4c0.1,1.1,0.2,2.2,0.2,3.3c0,0.5,0.1,1,0.1,1.5c0,0.5,0,1,0.1,1.5
			c0,0.2,0,0.3,0,0.3c0,0.3-0.2,0.5-0.5,0.5c-0.3,0-0.6,0.1-0.9,0.1c-0.3,0-0.6,0-0.9,0c-0.5,0-0.8-0.2-0.9-0.7c0-0.1,0-0.1,0-0.2
			c0-0.1,0-0.1,0-0.2c-0.1-1.2-0.2-2.3-0.2-3.5c-0.1-1.2-0.1-2.3-0.2-3.5c0-1.1-0.1-2.2-0.1-3.2s0-2.1-0.1-3.2v-0.3
			c0-0.2,0-0.3-0.1-0.4c-0.1-0.1-0.2-0.1-0.4-0.1c-0.3,0-0.5,0-0.7,0c-0.2,0-0.5,0-0.7,0c-0.1,0-0.2,0-0.2,0c-0.1,0-0.2,0-0.2-0.1
			c-0.1,0-0.1-0.1-0.1-0.2c0-0.1,0-0.2,0.1-0.2c0.1-0.1,0.2-0.1,0.4-0.1c0.1,0,0.2,0,0.3,0c0.1,0,0.2,0,0.3,0l6.2,0.1
			c0.1,0,0.2,0,0.2,0c0.1,0,0.2,0,0.2,0.1c0.1,0,0.2,0.1,0.2,0.2c0,0.1,0,0.2-0.2,0.4c-0.1,0-0.2,0.1-0.3,0.1c-0.1,0-0.2,0-0.3,0
			h-1.3c-0.2,0-0.3,0.1-0.3,0.3v0.4c0,0.7,0,1.3,0,2C210.6,343.1,210.6,343.7,210.6,344.3z"/>
		<path class="st29" d="M218,339.6c-0.4,0.1-0.5,0.4-0.5,0.7s0.3,0.8,0.6,1.4c0.4,0.6,0.8,1.2,1.4,1.9c0.6,0.7,1.2,1.5,1.8,2.3
			c0.6,0.8,1.1,1.5,1.4,2.3c0.4,0.8,0.6,1.6,0.6,2.3c0,0.8-0.2,1.5-0.7,2.1c-0.5,0.7-1.2,1.3-2.3,1.8c-0.6,0.3-1.2,0.5-1.8,0.5
			c-0.6,0.1-1.2,0-1.7-0.2c-0.5-0.2-1-0.4-1.4-0.8c-0.4-0.4-0.8-0.9-1-1.4c-0.1-0.2-0.2-0.4-0.2-0.7c-0.1-0.3-0.1-0.6-0.1-0.9
			c0-0.3,0-0.6,0.1-0.8c0.1-0.2,0.2-0.3,0.4-0.3c0.2,0,0.3,0.1,0.3,0.3c0,0.2,0,0.4,0,0.7c0,0.3,0,0.6,0,0.9c0,0.3,0.2,0.7,0.4,1
			c0.3,0.5,0.8,0.9,1.3,1.1c0.5,0.2,1,0.3,1.5,0.2c0.5-0.1,1-0.3,1.3-0.6c0.4-0.3,0.6-0.8,0.7-1.3c0.1-0.6,0-1.2-0.3-2
			c-0.3-0.8-0.8-1.7-1.7-2.7c-0.5-0.6-1.1-1.2-1.6-1.8c-0.5-0.6-1-1.3-1.3-1.9c-0.4-0.6-0.6-1.3-0.7-1.9c-0.1-0.6,0.1-1.3,0.5-1.9
			c0.3-0.4,0.7-0.8,1.2-1.1c0.5-0.3,1.1-0.5,1.8-0.5c0.6,0,1.3,0.2,2,0.6c0.7,0.4,1.3,1,1.8,2c0.1,0.1,0.1,0.2,0.2,0.4
			c0.1,0.1,0.1,0.3,0.1,0.4c0,0.1,0,0.2,0,0.3c0,0.1-0.1,0.1-0.2,0.2c-0.1,0-0.2,0-0.2,0c-0.1,0-0.2-0.1-0.2-0.2
			c-0.2-0.3-0.3-0.6-0.5-0.9c-0.2-0.3-0.5-0.6-0.7-0.9c-0.3-0.3-0.6-0.5-1-0.6C219,339.4,218.6,339.4,218,339.6z"/>
		<path class="st29" d="M238,353.6c0,0.2,0.1,0.2,0.2,0.2c0.1,0,0.2,0,0.3,0c0.1,0,0.2,0,0.3,0c0.2,0,0.4,0.1,0.4,0.4
			c0,0.3-0.1,0.5-0.4,0.5c-0.2,0-0.4,0.1-0.6,0.1c-0.2,0-0.4,0.1-0.6,0.1c-0.3,0-0.6,0-0.8,0c-0.2,0-0.4,0-0.6,0c-0.2,0-0.4,0-0.6,0
			c-0.2,0-0.5,0-0.8,0c-0.1,0-0.2,0-0.4,0c-0.1,0-0.3,0-0.4-0.1c-0.1,0-0.2-0.1-0.3-0.1c-0.1,0-0.1-0.1-0.2-0.2
			c0-0.2,0.1-0.4,0.5-0.5c0.1,0,0.2-0.1,0.3-0.1c0.1,0,0.2,0,0.3,0c0.1,0,0.2-0.2,0.2-0.6s0.1-0.9,0.2-1.5c0-0.6,0.1-1.3,0.1-2.1
			c0-0.8,0-1.6,0-2.5c0-0.8,0-1.7,0-2.5c0-0.8,0-1.5,0-2.2c0-0.7,0-1.2,0-1.7c0-0.4,0-0.7,0-0.8c0-0.1,0-0.1,0-0.2
			c0-0.1,0-0.1-0.1-0.1c-0.1,0-0.1,0-0.2,0c-0.1,0.1-0.1,0.1-0.2,0.2c-0.5,0.6-0.9,1-1.2,1.3c-0.3,0.3-0.5,0.5-0.6,0.7
			c-0.1,0.2-0.2,0.2-0.2,0.2c0,0,0,0,0,0c0,0,0,0,0.1-0.1c0,0,0,0-0.1,0.1c-0.1,0.1-0.2,0.2-0.3,0.2c-0.1,0-0.2,0-0.2-0.1
			c-0.1,0-0.1-0.1-0.1-0.2c0-0.1,0-0.2,0.1-0.3c0.1-0.2,0.3-0.4,0.4-0.6c0.1-0.2,0.3-0.4,0.5-0.6c0.2-0.2,0.4-0.4,0.5-0.5
			c0.1-0.1,0.2-0.3,0.4-0.4c0.1-0.1,0.2-0.3,0.4-0.4c0.1-0.1,0.3-0.3,0.5-0.5c0.3-0.3,0.6-0.5,1.1-0.5c0.3,0,0.6,0,0.7,0
			c0.2,0,0.4,0,0.7,0.1c0.2,0,0.4,0.1,0.5,0.2c0.1,0.1,0.1,0.3,0.2,0.5c0.1,0.5,0.1,1.2,0.2,2.1c0,0.9,0,1.9,0,3
			c0,1.1,0,2.2-0.1,3.3c0,1.1-0.1,2.1-0.1,3.1c0,0.9-0.1,1.7-0.1,2.3C238,353.3,238,353.6,238,353.6z"/>
		<path class="st29" d="M242.4,345.6c-0.4,0.1-0.8,0-1.1-0.1c-0.3-0.2-0.5-0.4-0.6-0.7c-0.1-0.3-0.2-0.6-0.1-1
			c0-0.3,0.1-0.6,0.3-0.9c0.2-0.2,0.4-0.4,0.7-0.5c0.3-0.1,0.7,0,1.1,0.3c0.3,0.2,0.5,0.4,0.6,0.7c0.1,0.3,0.2,0.6,0.1,0.9
			c0,0.3-0.1,0.6-0.3,0.8C242.9,345.4,242.7,345.5,242.4,345.6z M242.4,351.3c-0.4,0.1-0.8,0-1.1-0.1c-0.3-0.2-0.5-0.4-0.6-0.7
			c-0.1-0.3-0.2-0.6-0.1-1c0-0.3,0.1-0.6,0.3-0.9c0.2-0.2,0.4-0.4,0.7-0.5c0.3-0.1,0.7,0,1.1,0.3c0.3,0.2,0.5,0.4,0.6,0.7
			c0.1,0.3,0.2,0.6,0.1,0.9c0,0.3-0.1,0.6-0.3,0.8C242.9,351.1,242.7,351.2,242.4,351.3z"/>
		<path class="st29" d="M247,346.5c0-0.1-0.2-0.2-0.3-0.4c-0.2-0.2-0.4-0.4-0.5-0.8c-0.2-0.3-0.3-0.7-0.4-1.2
			c-0.1-0.5-0.1-1.1,0-1.8c0.1-0.8,0.3-1.5,0.6-2c0.3-0.5,0.6-1,1-1.3c0.5-0.3,0.9-0.6,1.5-0.7c0.5-0.1,1.1-0.1,1.6,0
			c0.5,0.1,1,0.3,1.5,0.6c0.5,0.3,0.8,0.7,1.1,1.2c0.2,0.4,0.4,0.9,0.5,1.4c0.1,0.5,0.1,1,0,1.6c-0.1,0.5-0.3,1.1-0.6,1.6
			c-0.3,0.5-0.7,1-1.2,1.5c0,0,0.1,0.1,0.3,0.2s0.4,0.3,0.6,0.6c0.2,0.2,0.5,0.5,0.7,0.9c0.2,0.4,0.3,0.8,0.4,1.2
			c0.1,0.5,0,1-0.1,1.6c-0.2,0.6-0.5,1.2-1,1.9c-0.7,0.9-1.4,1.5-2.2,1.9c-0.8,0.3-1.6,0.4-2.3,0.2c-0.7-0.2-1.4-0.5-2-1.1
			c-0.6-0.6-0.9-1.3-1.1-2.2c-0.2-0.8-0.1-1.5,0.1-2.1c0.2-0.6,0.5-1.1,0.8-1.5c0.3-0.4,0.6-0.7,0.9-0.9
			C246.8,346.6,247,346.5,247,346.5z M248,350.4c0,1.1,0.1,2,0.3,2.5c0.2,0.5,0.5,0.9,0.9,1c0.4,0.1,0.7,0,1.2-0.2
			c0.4-0.3,0.8-0.6,1.2-1.1c0.4-0.5,0.7-1,0.9-1.6c0.2-0.6,0.4-1.1,0.4-1.7c0-0.5-0.2-1-0.5-1.4c-0.3-0.4-0.8-0.7-1.6-0.8
			c-0.5-0.1-0.9,0-1.2,0.2c-0.3,0.2-0.6,0.4-0.9,0.8c-0.2,0.3-0.4,0.7-0.5,1.1C248.1,349.6,248,350,248,350.4z M249.8,339.1
			c-0.7,0.5-1.2,1.2-1.4,2.1c-0.1,0.5-0.1,1-0.1,1.6c0,0.6,0.1,1.1,0.3,1.6c0.1,0.5,0.3,0.9,0.6,1.2c0.2,0.3,0.5,0.4,0.8,0.4
			c0.9-0.2,1.5-0.5,1.9-1c0.4-0.5,0.7-1,0.8-1.6c0.1-0.6,0.1-1.2-0.1-1.8c-0.2-0.6-0.4-1.1-0.7-1.6s-0.7-0.8-1-1
			C250.5,338.9,250.1,338.9,249.8,339.1z"/>
	</g>
	<g>
		<g>
			<path class="st29" d="M94.9,344.4c-0.2,0.3-0.4,0.5-0.6,0.9c-1.1,1.8-0.8,3.2,0.9,4.2c1.5,0.9,3.2,1.3,4.9,1.5
				c4.1,0.4,8.1-0.4,12-1.7c4.6-1.5,9-3.7,13.4-6.1c4.2-2.3,8.4-4.7,12.7-6.5c3.9-1.6,7.9-2.6,12-2.7c3.6-0.1,7.1,0.5,10.6,1.8
				c4.5,1.8,7.2,5.6,8.8,10.7c0.3,1.1,0.5,2.3,0.3,3.5c-0.1,0.5-0.2,1-0.4,1.5c-0.3,0.6-0.7,1-1.3,0.9c-0.6,0-1-0.5-1.2-1.1
				c-0.2-0.5-0.3-1-0.5-1.6c-1.2-3.6-3.4-5.5-6.6-6c-3.4-0.6-6.8-0.6-10.2-0.1c-5.4,0.8-10.7,2.3-15.9,4.6c-1.3,0.6-2.6,1.2-3.8,2
				c-1.7,1-3.1,2.4-4.2,4.3c-1,1.8-1.4,3.7-0.5,5.8c0.7,1.5,1.8,2.3,3.2,2.7c1.5,0.3,2.9,0.2,4.5-0.1c-0.3-0.2-0.5-0.3-0.7-0.4
				c-0.8-0.4-1.5-0.9-2-1.7c-0.8-1.2-0.8-2.7,0-3.9c0.4-0.5,0.8-1.1,1.3-1.4c2.4-1.3,4.8-1.5,7.3-0.3c1.2,0.6,2.1,1.7,2.2,3.4
				c0.1,1.2-0.2,2.2-0.7,3.2c-0.7,1.3-1.7,2.2-2.8,2.9c-2.1,1.3-4.3,2-6.6,2.4c-2.3,0.3-4.4-0.1-6.5-1.2c-3-1.6-4.9-4.2-5.4-8
				c-0.1-0.9,0-1.9,0-2.9c0-0.3,0.1-0.6,0.1-1.1c-0.5,0.2-0.8,0.3-1.2,0.4c-3.9,1.6-8,2.8-12.1,3.4c-3.6,0.5-7.2,0.4-10.7-0.8
				c-3-1-5.4-3-6.8-6.3c-1.4-3.4-1.2-6.7,0.6-9.8c1.3-2.2,3.1-3.8,5.2-5c2.2-1.2,4.4-2.1,6.8-2c1.5,0.1,2.8,0.7,3.9,2.1
				c1,1.3,1.2,2.9,0.7,4.6c-1.1,3.8-5.9,6.4-9.1,5C96.1,345.2,95.6,344.8,94.9,344.4z"/>
		</g>
		<g>
			<path class="st29" d="M337.1,344.4c0.2,0.3,0.4,0.5,0.6,0.9c1.1,1.8,0.8,3.2-0.9,4.2c-1.5,0.9-3.2,1.3-4.9,1.5
				c-4.1,0.4-8.1-0.4-12-1.7c-4.6-1.5-9-3.7-13.4-6.1c-4.2-2.3-8.4-4.7-12.7-6.5c-3.9-1.6-7.9-2.6-12-2.7c-3.6-0.1-7.1,0.5-10.6,1.8
				c-4.5,1.8-7.2,5.6-8.8,10.7c-0.3,1.1-0.5,2.3-0.3,3.5c0.1,0.5,0.2,1,0.4,1.5c0.3,0.6,0.7,1,1.3,0.9c0.6,0,1-0.5,1.2-1.1
				c0.2-0.5,0.3-1,0.5-1.6c1.2-3.6,3.4-5.5,6.6-6c3.4-0.6,6.8-0.6,10.2-0.1c5.4,0.8,10.7,2.3,15.9,4.6c1.3,0.6,2.6,1.2,3.8,2
				c1.7,1,3.1,2.4,4.2,4.3c1,1.8,1.4,3.7,0.5,5.8c-0.7,1.5-1.8,2.3-3.2,2.7c-1.5,0.3-2.9,0.2-4.5-0.1c0.3-0.2,0.5-0.3,0.7-0.4
				c0.8-0.4,1.5-0.9,2-1.7c0.8-1.2,0.8-2.7,0-3.9c-0.4-0.5-0.8-1.1-1.3-1.4c-2.4-1.3-4.8-1.5-7.3-0.3c-1.2,0.6-2.1,1.7-2.2,3.4
				c-0.1,1.2,0.2,2.2,0.7,3.2c0.7,1.3,1.7,2.2,2.8,2.9c2.1,1.3,4.3,2,6.6,2.4c2.3,0.3,4.4-0.1,6.5-1.2c3-1.6,4.9-4.2,5.4-8
				c0.1-0.9,0-1.9,0-2.9c0-0.3-0.1-0.6-0.1-1.1c0.5,0.2,0.8,0.3,1.2,0.4c3.9,1.6,8,2.8,12.1,3.4c3.6,0.5,7.2,0.4,10.7-0.8
				c3-1,5.4-3,6.8-6.3c1.4-3.4,1.2-6.7-0.6-9.8c-1.3-2.2-3.1-3.8-5.2-5c-2.2-1.2-4.4-2.1-6.8-2c-1.5,0.1-2.8,0.7-3.9,2.1
				c-1,1.3-1.2,2.9-0.7,4.6c1.1,3.8,5.9,6.4,9.1,5C335.9,345.2,336.4,344.8,337.1,344.4z"/>
		</g>
	</g>
</g>
</svg>
