<?xml version="1.0" encoding="utf-8"?>
<!-- Generator: Adobe Illustrator 21.1.0, SVG Export Plug-In . SVG Version: 6.00 Build 0)  -->
<svg version="1.1" id="Calque_1" xmlns="http://www.w3.org/2000/svg" xmlns:xlink="http://www.w3.org/1999/xlink" x="0px" y="0px"
	 viewBox="0 0 432 432" style="enable-background:new 0 0 432 432;" xml:space="preserve">
<style type="text/css">
	.st0{fill:#333333;}
	.st1{fill:#BF924C;}
	.st2{fill:#E6E6E6;}
	.st3{fill:#801422;}
	.st4{fill:#6F4436;}
	.st5{fill:#BE9B7B;}
	.st6{fill:#FBB03B;}
	.st7{fill:#D37A20;}
	.st8{fill:#1A1A1A;}
	.st9{fill:#EE7EB0;}
	.st10{fill:#FFD744;}
	.st11{fill:#78CFDE;}
	.st12{fill:#AA4B57;}
	.st13{fill:#B3B3B3;}
	.st14{fill:#66472D;}
	.st15{fill:#4C71A8;}
	.st16{fill:#D18FAF;}
	.st17{fill:#578FC8;}
	.st18{fill:#D9B442;}
	.st19{fill:#8C6E54;}
	.st20{fill:#3C2F2F;}
	.st21{fill:#9FAF88;}
	.st22{fill:#7E8D66;}
	.st23{fill:#D6A1AD;}
	.st24{fill:#FCD5D2;}
	.st25{fill:#BA2C38;}
	.st26{fill:#BF926B;}
	.st27{fill:#5B9DC1;}
	.st28{fill:#F4923E;}
	.st29{fill:#282C35;}
	.st30{fill:#EBB2A5;}
	.st31{fill:#CF6557;}
	.st32{fill:#7FB9BC;}
	.st33{fill:#154B67;}
	.st34{fill:#EAD5B6;}
	.st35{fill:#4D9164;}
	.st36{fill:#C59E73;}
	.st37{fill:#EEC7A0;}
	.st38{fill:#EC9294;}
	.st39{fill:#D2523D;}
	.st40{fill:#BEC1A4;}
	.st41{fill:#939176;}
	.st42{fill:#F8CACC;}
	.st43{fill:#F1949B;}
	.st44{fill:#59A5AD;}
	.st45{fill:#11937F;}
	.st46{fill:#406C70;}
	.st47{fill:#6FAFC6;}
	.st48{fill:#EF777F;}
	.st49{fill:#F3C186;}
	.st50{fill:#F6AD4B;}
	.st51{fill:none;}
	.st52{fill:#579B5E;}
	.st53{fill:#C69C6D;}
	.st54{fill:#4B8599;}
	.st55{fill:#D09596;}
	.st56{fill:#91B468;}
	.st57{fill:#F9C9CC;}
	.st58{fill:#2D302A;}
	.st59{fill:#D17475;}
	.st60{fill:#C1272D;}
	.st61{fill:#736357;}
	.st62{fill:#92B4C4;}
	.st63{fill:#A67C52;}
	.st64{fill:#F7931E;}
	.st65{fill:#B2151B;}
	.st66{fill:#D7A356;}
	.st67{fill:#B88D52;}
	.st68{fill:#8B514D;}
	.st69{fill:#727D6D;}
	.st70{fill:#F6A865;}
	.st71{fill:#F885C1;}
	.st72{fill:#4DC497;}
	.st73{fill:#AAA39B;}
	.st74{fill:#564336;}
	.st75{fill:#006837;}
	.st76{fill:#953D3D;}
	.st77{fill:#BEAF98;}
	.st78{fill:#D06C5D;}
	.st79{fill:#CCCCCC;}
	.st80{fill:#961F21;}
	.st81{fill:#C1934D;}
	.st82{fill:#F7CAC9;}
	.st83{fill:#FF8B85;}
	.st84{fill:#EE5977;}
	.st85{fill:#FDC111;}
	.st86{fill:#53BFD3;}
	.st87{fill:#CCCE01;}
	.st88{fill:#FD8C84;}
	.st89{fill:#92C142;}
	.st90{fill:#FFD066;}
	.st91{fill:#DC042B;}
</style>
<g>
	<g>
		<path class="st12" d="M296.4,104.4c0.7-0.5,1.2-0.9,1.8-1.3c1.5-1,3.1-1.7,4.8-2.1c3.2-0.6,5.5,1.9,4.8,5.1
			c-0.3,1.1-0.7,2.1-1.5,3c-0.9,1-1.7,2.1-2.8,2.9c-2.7,2.3-5.8,4.1-9.1,5.4c-0.6,0.2-1.2,0.4-1.7,0.5c-1.8,0.3-3.3-0.3-4.3-1.9
			c-0.6-1-1-2.1-1.1-3.2c-0.9-5.2-0.8-10.3,1-15.3c0.4-1,0.9-2,1.8-2.7c1.4-1.1,3-1.1,4.4-0.1c1.4,1,2.1,2.4,2.2,4.1
			c0.2,1.6,0,3.3-0.3,4.9C296.4,104,296.4,104.1,296.4,104.4z"/>
		<path class="st12" d="M151.3,91.9c0.2-1.4,0.4-2.6,0.7-3.7c0.2-0.9,0.5-1.8,0.9-2.7c0.4-0.8,1-1.4,1.7-1.8
			c1.5-0.8,3.2-0.3,4.2,1.2c0.8,1.2,1,2.5,1.1,3.9c0.1,2.6-0.3,5.1-0.8,7.6c-0.3,1.4-0.6,2.7-1,4.1c-0.1,0.5-0.4,1-0.6,1.5
			c-0.8,1.5-2.1,2.1-3.7,1.6c-0.5-0.2-1.1-0.4-1.6-0.7c-4.1-2.3-7.2-5.5-9.7-9.5c-0.3-0.5-0.5-1-0.7-1.6c-0.7-2.6,1.2-4.6,3.8-4
			c0.7,0.2,1.5,0.5,2.1,0.9c1,0.7,1.9,1.5,2.8,2.2C150.8,91.3,151,91.5,151.3,91.9z"/>
		<path class="st12" d="M86.8,153.2c0.1-0.8,0.2-1.5,0.3-2.2c0.2-0.8,0.4-1.6,0.7-2.4c0.1-0.4,0.3-0.7,0.5-1.1
			c0.9-1.3,2.1-2.2,3.7-2c1.6,0.1,2.7,1.1,3.3,2.5c0.5,1.1,0.7,2.3,0.8,3.5c0.2,1.9,0.1,3.9-0.2,5.8c-0.5,2.9-2.2,4.6-5.3,5.1
			c-2.8,0.4-5.5,0.1-8.1-1c-1.2-0.5-2.3-1.2-3.1-2.1c-0.9-1-1.4-2.1-1.2-3.5c0.2-1.6,1.4-2.9,3.1-3.3c1.1-0.3,2.1-0.2,3.2,0.1
			C85.3,152.7,86,152.9,86.8,153.2z"/>
		<path class="st12" d="M318.5,146.8c0.6-0.6,1.1-1.1,1.5-1.6c0.9-0.9,1.9-1.7,3.1-2.3c0.8-0.4,1.6-0.6,2.5-0.5
			c1.7,0.2,2.8,1.6,2.6,3.3c-0.1,1.1-0.6,2.2-1.2,3.1c-1,1.8-2.5,3.2-4,4.4c-1.2,0.9-2.4,1.8-3.6,2.7c-2,1.4-4.1,1.1-5.7-0.7
			c-0.8-0.9-1.4-2-1.9-3.1c-0.9-2.3-1.6-4.6-1.8-7c-0.1-1.1,0-2.1,0.4-3.1c0.8-2.1,3-2.8,4.9-1.5c0.5,0.4,1,0.9,1.3,1.4
			c0.9,1.2,1.4,2.7,1.8,4.2C318.3,146.2,318.4,146.4,318.5,146.8z"/>
		<path class="st12" d="M87,291.1c0.4-1.2,0.7-2.4,1.1-3.5c0.3-0.7,0.6-1.5,1.1-2.1c0.9-1.2,2.1-1.7,3.5-1.4
			c1.5,0.3,2.3,1.4,2.6,2.8c0.3,1.2,0.2,2.4-0.1,3.6c-0.6,2.3-1.3,4.5-1.9,6.7c-0.1,0.3-0.2,0.6-0.4,0.8c-1,2-2.7,2.8-4.9,2.4
			c-1.1-0.2-2-0.6-2.9-1.2c-2.3-1.5-4.3-3.3-5.7-5.7c-0.4-0.7-0.7-1.5-1-2.3c-0.6-2.3,1.2-4.2,3.5-3.7c0.9,0.2,1.6,0.6,2.3,1.1
			c0.7,0.6,1.4,1.2,2.1,1.8C86.6,290.7,86.8,290.9,87,291.1z"/>
		<path class="st12" d="M72.2,202.4c0.1-0.6,0.2-1.1,0.4-1.5c0.4-1.2,0.8-2.5,1.4-3.6c1.2-2.2,4.1-2.2,5.4,0
			c0.2,0.4,0.4,0.9,0.5,1.3c0.3,1,0.2,2.1-0.1,3.1c-0.6,2.7-1.5,5.2-2.6,7.7c-0.8,1.8-2.5,2.6-4.5,2.3c-1.5-0.3-2.8-0.9-4-1.8
			c-1.8-1.4-3.3-3.2-4.3-5.2c-0.7-1.4-0.5-2.7,0.2-4c0.6-1,1.6-1.4,2.7-1.2c1.1,0.1,2,0.6,2.8,1.3C70.8,201.2,71.5,201.8,72.2,202.4
			z"/>
		<path class="st12" d="M318.2,120c0.8-1.1,1.6-2.2,2.5-3.1c0.4-0.5,1-0.9,1.6-1.2c2.2-0.9,4.5,0.8,4.5,3.3c0,0.8-0.2,1.6-0.5,2.3
			c-0.9,2.2-2.1,4.1-3.6,5.9c-1.9,2.1-4.1,2.5-6.6,1.2c-2.4-1.2-4.1-3.1-5.4-5.4c-0.5-0.9-0.7-1.8-0.8-2.8c-0.3-2.4,1.7-3.6,3.6-3.4
			c1.4,0.2,2.6,0.9,3.6,1.9C317.5,119.1,317.8,119.6,318.2,120z"/>
	</g>
	<g>
		<path class="st1" d="M118.6,198.3c-0.1,0.3-0.3,0.5-0.4,0.8c-1.2,2.2-2.4,4.4-3.9,6.5c-2,2.5-4.4,4.5-7.4,5.6
			c-3,1.1-6,0.8-8.8-0.5c-3.5-1.7-5.9-4.4-7.4-8c-1.1-2.6-1.7-5.4-1.9-8.2c-0.5-5.4-0.1-10.6,1.4-15.8c1-3.4,2.4-6.7,4.6-9.6
			c2.2-2.9,4.9-5.1,8.4-6.2c2.9-0.9,5.7-0.9,8.6-0.3c2.1,0.5,3.9,1.6,5.4,3.1c1.7,1.7,3.1,3.7,4.3,5.9c0.1,0.2,0.2,0.4,0.4,0.6
			c0,0,0.1,0.1,0.2,0.1c0.2-0.6,0.4-1.2,0.5-1.8c0.4-1.4,1-2.7,1.9-3.9c0.7-0.9,1.5-1.7,2.5-2.1c1.3-0.6,2.5-0.3,3.5,0.8
			c0.6,0.7,0.9,1.4,1.1,2.3c0.5,1.7,0.6,3.5,0.7,5.3c0.4,8.2,0.3,16.4,0.2,24.5c0,4-0.2,8-0.4,12c-0.1,3.6-0.3,7.2-0.5,10.8
			c0,0.8-0.1,1.6-0.2,2.6c0.6-0.3,0.9-0.5,1.3-0.8c3.4-2.1,6.3-4.9,8.8-8c4.2-5.1,7.2-10.8,9.2-17.1c1.6-5.1,3-10.2,4-15.4
			c0.8-4.5,0.9-9,0.2-13.5c-0.1-0.5-0.2-0.9-0.4-1.5c-0.3,0.1-0.6,0.2-0.8,0.3c-2.8,1.1-5.6,1.5-8.6,1.1c-5.1-0.5-8.4-4.3-8.6-9.2
			c-0.1-3.6,2.2-6.8,5.6-7.7c1.4-0.4,2.8-0.2,4.2,0.2c2.8,0.7,5.1,2.3,6.9,4.5c1.3,1.6,2.4,3.4,3.2,5.3c0.1,0.3,0.3,0.6,0.4,0.9
			c1.6-0.7,3.2-1.3,4.8-2c2.4-1,4.8-2.1,7.3-2.7c1.8-0.4,3.6-0.7,5.4-0.3c2.3,0.5,3.9,1.9,4.7,4.2c0.7,2,0.7,4.1,0.4,6.2
			c-0.5,4.5-1.7,8.8-2.5,13.2c-1.1,5.3-2.2,10.7-3.1,16c-0.5,3-0.7,6.1-0.9,9.2c-0.1,0.9,0,1.8,0.3,2.8c0.4-0.2,0.8-0.4,1.1-0.6
			c0.6-0.6,1.3-1.3,1.8-2.1c0.9-1.5,1.8-3,2.6-4.6c1-2,1.8-4.1,2.6-6.2c0.2-0.4,0.2-0.9,0.2-1.4c-0.2-4.9,0.4-9.6,2.2-14.2
			c1.2-3.4,3.1-6.3,5.8-8.8c1.7-1.5,3.5-2.6,5.8-3c3.3-0.6,6.1,0.3,8.5,2.7c0.8,0.8,1.3,1.7,1.6,2.8c0.1,0.3,0.1,0.7,0.1,1
			c-0.1,0.5-0.5,0.7-0.9,0.5c-0.4-0.2-0.7-0.4-1.1-0.6c-0.5-0.3-1-0.8-1.5-1.1c-1.4-0.9-2.8-0.8-4,0.3c-0.7,0.6-1.2,1.3-1.7,2.1
			c-1,1.5-1.5,3.3-1.8,5c-0.9,4.4-1.1,8.8-0.9,13.3c0.2,4.1,0.6,8.2,1.8,12.2c0.4,1.3,0.9,2.6,1.5,3.8c0.4,0.9,1,1.7,1.9,2.2
			c0.9,0.6,1.5,0.5,2-0.5c1.1-1.9,1.7-3.9,2.3-5.9c1-3.5,1.5-7.1,2-10.7c0.6-4.2,1.3-8.3,2-12.5c0.3-1.7,0.8-3.2,1.6-4.7
			c0.8-1.5,1.9-2.7,3.5-3.5c0.7-0.4,1.5-0.6,2.4-0.4c1.2,0.2,2,0.9,2.6,2c0.6,1.1,0.9,2.4,1,3.7c0.1,1.8,0.2,3.7,0.2,5.6
			c0,4.5-0.4,9-0.8,13.6c-0.3,3.9-0.6,7.9-0.6,11.8c0,1.4,0.2,2.7,0.4,4.1c0.1,0.6,0.2,1.2,0.7,1.7c0.6-0.1,1-0.5,1.4-0.9
			c0.9-0.9,1.5-2,2.1-3.1c1.2-2.4,2.1-4.9,2.7-7.4c0.9-3.6,1.7-7.2,2.5-10.7c0.1-0.6,0.1-1.2,0-1.8c-0.2-3.3-0.5-6.6-0.6-9.9
			c-0.3-4.8-0.5-9.6-0.7-14.4c-0.1-2,0-4.1,0-6.1c0-0.3,0-0.6,0-0.9c-1.2-0.1-2.4-0.2-3.6-0.3c-6.6-0.6-13.1-2-19.4-4.1
			c-12.4-4.1-23.6-10.5-34-18.4c-4.5-3.4-8.8-7-13.1-10.7c-4.7-4-9.5-7.9-14.8-11.1c-2.6-1.6-5.3-3-8.2-4c-2.7-0.9-5.5-1.4-8.3-1.2
			c-3.4,0.3-6.5,1.4-9.2,3.6c-3.8,3.2-6.6,7-8.2,11.7c-0.8,2.5-1.4,5.1-1.2,7.8c0.2,2.6,1.1,4.9,3.3,6.6c2.2,1.7,4.8,2.4,7.6,1.8
			c1.7-0.3,3.1-1.3,4.3-2.5c0.9-0.9,1.8-2,2.6-3c0.8-1,1.6-2.1,2.5-3c0.6-0.6,1.4-1.2,2.2-1.6c1.5-0.8,3-0.3,3.8,1.3
			c0.7,1.3,0.8,2.7,0.5,4c-1.1,4.7-3.4,8.7-7.4,11.5c-2.2,1.5-4.6,2.4-7.2,2.6c-4.5,0.4-8.6-0.6-12.2-3.4c-4-3.1-6.2-7.3-6.7-12.3
			c-0.4-3.3,0.3-6.5,1.3-9.6c2.3-7.2,6.6-12.8,13-16.8c3.2-2,6.6-3.2,10.3-3.6c3-0.3,5.9,0.2,8.7,0.9c3.3,0.9,6.2,2.4,9.1,4.1
			c5.2,3,9.8,6.6,14.4,10.4c4.4,3.7,8.7,7.4,13.2,11c6,4.9,12.4,9.2,19.3,12.7c8.1,4.2,16.6,7.4,25.5,9.3c3.8,0.8,7.5,1.3,11.4,1.6
			c0.2,0,0.4,0,0.7,0c0.1-0.9,0.2-1.8,0.3-2.7c0.3-3.4,0.8-6.8,1.6-10.1c0.4-1.5,0.9-3,1.8-4.4c0.8-1.2,1.7-2.2,2.9-2.9
			c1.9-1.1,3.9-0.7,5.2,0.9c0.5,0.7,0.9,1.4,1.2,2.2c0.7,1.9,1,4,1.1,6.1c0.2,3.2,0.1,6.4-0.2,9.7c0,0.4,0,0.7,0,1.2
			c0.7-0.1,1.5-0.2,2.2-0.2c4-0.4,7.6-1.8,11-3.9c0.7-0.4,1.4-0.9,2.1-1.2c0.6-0.3,1.2-0.4,1.8-0.5c1.1,0,1.6,0.8,1.2,1.8
			c-0.2,0.5-0.6,0.9-1,1.3c-3.4,3.1-7.3,5-11.7,6c-1.7,0.4-3.5,0.6-5.3,0.9c-0.2,0-0.4,0.1-0.7,0.2c-0.1,0.6-0.2,1.2-0.2,1.8
			c-0.2,3-0.4,6-0.6,9c-0.2,3.8-0.4,7.6-0.6,11.5c-0.1,2.1-0.2,4.1-0.3,6.2c-0.2,4.8-0.3,9.7-0.4,14.5c-0.1,2.6,0,5.3,0.6,7.9
			c0.3,1.3,0.8,2.6,1.4,3.9c0.2,0.5,0.7,1,1.1,1.4c0.5,0.5,0.8,0.5,1.3,0c0.4-0.3,0.8-0.7,1.1-1.2c0.6-1.1,1.2-2.2,1.7-3.3
			c1.1-2.8,1.6-5.8,2-8.8c0-0.3,0-0.6-0.1-0.9c-1.7-5.5-1.8-11.1-1-16.8c0.5-3.7,1.4-7.4,2.8-10.9c0.8-1.9,1.7-3.6,2.9-5.2
			c1.7-2.2,3.9-3.7,6.7-4.3c5-1.1,9,1.9,9.5,7c0.5,4.9-1.3,8.8-5.2,11.8c-1.6,1.3-3.4,2.2-5.3,3c-0.4,0.2-0.7,0.4-0.7,0.9
			c-0.2,4.9,0.2,9.7,1.7,14.4c0.5,1.6,1.2,3.1,2.2,4.4c0.6,0.7,1.3,1.3,2,1.9c0.7,0.5,1.5,0.5,2.3,0.2c0.9-0.4,1.5-1,2.1-1.7
			c1.6-2.2,2.9-4.7,3.9-7.2c0.2-0.4,0.1-0.8,0.1-1.3c0.1-6.9,0.1-13.9,0.3-20.8c0.2-5.6,0.6-11.2,1-16.8c0.2-3.3,0.4-6.7,0.8-10
			c0.7-6.6,2-13.1,4.6-19.3c0.7-1.7,1.5-3.3,2.6-4.8c0.9-1.2,1.9-2.3,3.2-3.1c2.8-1.7,5.8-1.3,8.1,1c1.7,1.7,2.6,3.8,3.1,6.1
			c0.7,3,0.7,6,0.5,9.1c-0.5,7.7-2.8,15-5.6,22.1c-1.8,4.6-3.7,9.1-6.3,13.4c-0.2,0.3-0.3,0.7-0.3,1c-0.1,5-0.3,9.9-0.4,14.9
			c-0.1,2.6-0.1,5.2-0.1,7.8c0,0.2,0,0.4,0,0.7c0.3-0.2,0.5-0.3,0.7-0.5c1.8-1.6,3.3-3.5,4.7-5.6c2.3-3.5,4.2-7.1,5.7-11
			c0.5-1.4,1.2-2.8,1.9-4.2c0.6-1.2,1.4-2.2,2.3-3.2c0.5-0.5,1-1,1.6-1.4c2.6-1.8,5.7-1,7.2,1.8c0.8,1.5,1.1,3.1,1.2,4.8
			c0.2,3.1-0.2,6.1-0.6,9.1c-0.5,3.7-1.1,7.5-1,11.2c0,0.6,0.1,1.2,0.3,1.8c0.3,1.1,1.3,1.5,2.4,1.1c0.7-0.3,1.3-0.8,1.7-1.5
			c1-1.7,2-3.4,2.8-5.2c2-4.1,3.4-8.4,4.6-12.8c0.5-1.8,1-3.6,1.5-5.5c0.4-1.4,0.9-2.7,1.7-3.8c0.3-0.4,0.6-0.8,0.9-1.1
			c2.1-2.2,5.4-2,7.2,0.5c1,1.4,1.4,3,1.5,4.6c0.3,2.8,0.2,5.5,0,8.3c-0.4,4.1-0.8,8.1-1.2,12.2c-0.4,3.8-0.8,7.6-1.2,11.3
			c-0.4,3.6-0.6,7.3-0.5,10.9c0,1,0.3,2,0.5,3c0.1,0.4,0.3,0.7,0.6,1c0.5,0.6,1.1,0.6,1.7,0.1c0.9-0.8,1.6-1.7,2.1-2.7
			c1.3-2.3,2.2-4.7,2.9-7.3c0.8-3.1,1.6-6.2,2.3-9.4c0.1-0.5,0.1-1,0-1.4c-1-6.3-1.7-12.7-2-19.1c-0.3-7.2-0.1-14.3,0.4-21.4
			c0.4-5.3,0.9-10.7,2.3-15.9c0.5-1.9,1.1-3.8,2.1-5.6c0.8-1.5,1.7-2.8,3.1-3.8c1.4-1,2.9-1.5,4.6-1c1.4,0.4,2.7,1.2,3.7,2.4
			c1.2,1.4,1.9,3.2,2.3,5c0.7,3.1,0.8,6.3,0.5,9.4c-0.6,7.9-2.9,15.5-5.3,23c-1.5,4.5-3.1,9-4.6,13.5c-0.1,0.3-0.2,0.7-0.1,1
			c0.4,6.4,1.3,12.8,2.7,19c0.4,2.1,1,4.1,1.8,6c0.6,1.3,1.3,2.6,2.3,3.7c1.5,1.6,3.5,1.8,5.2,0.4c0.8-0.7,1.6-1.5,2.1-2.3
			c1.1-1.8,2.1-3.6,3-5.4c1-2,1.8-4.1,2.8-6.2c0.4-0.8,0.7-1.6,1.2-2.4c0.2-0.4,0.5-0.7,0.9-1c0.7-0.5,1.6-0.2,1.9,0.6
			c0.2,0.6,0.2,1.2,0.1,1.8c-0.3,1.9-1,3.6-1.7,5.4c-1.7,4.2-4,8.1-7,11.5c-1,1.1-2.1,2.1-3.3,2.9c-3,2-6,1.9-9,0.1
			c-1.6-1-2.9-2.3-4-3.8c-1.5-2.1-2.5-4.4-3.3-6.8c-0.4-1.2-0.7-2.4-1.1-3.7c0-0.2-0.1-0.3-0.3-0.7c-0.3,1.1-0.5,2-0.7,2.8
			c-0.7,2.9-1.6,5.8-2.7,8.6c-0.7,1.6-1.5,3.1-2.6,4.4c-0.2,0.3-0.5,0.6-0.7,0.8c-2.4,2.5-5.6,2.2-7.7,0.8c-0.8-0.6-1.5-1.3-2.1-2.1
			c-1.8-2.3-2.8-5-3.3-7.8c-1.1-5.8-1.4-11.6-1.1-17.4c0.1-2,0.2-3.9,0.3-5.9c0-0.1,0-0.2-0.1-0.5c-0.2,0.4-0.3,0.7-0.4,0.9
			c-1.2,3.4-2.8,6.5-5.3,9.2c-1.6,1.8-3.5,3.1-5.8,3.7c-2.8,0.8-5.2,0.1-7.3-1.9c-1.8-1.7-2.8-3.9-3.3-6.3c-0.7-3.1-0.8-6.3-0.6-9.5
			c0.1-1,0.2-1.9,0.2-2.9c0-0.3,0-0.5,0-1c-0.2,0.3-0.3,0.5-0.4,0.6c-3.1,5.5-7.4,10-12,14.1c-1,0.9-1,0.9-0.7,2.4
			c1,0.1,2,0.2,3,0.4c7.5,1.3,13.2,5.5,17,12c2.2,3.7,3.4,7.7,4.3,11.9c1,5,1.3,10.1,1.1,15.2c-0.2,5.6-1.3,11.1-3.6,16.3
			c-1,2.2-2.2,4.4-3.7,6.3c-2,2.5-4.6,3.8-7.8,3.5c-2.1-0.2-4-0.8-5.7-2.1c-1-0.8-2-1.6-2.8-2.6c-2.7-3.1-4.5-6.6-5.9-10.4
			c-1.7-4.3-2.8-8.9-3.6-13.4c-1.2-6.6-2.2-13.3-2.7-20c-0.4-5.1-0.6-10.3-0.9-15.4c0-0.3,0-0.6,0-1c-0.4,0.1-0.4,0.5-0.5,0.7
			c-0.9,1.7-1.9,3.4-3.3,4.8c-1.6,1.7-3.4,2.9-5.8,3.2c-2.2,0.3-4.4-0.2-6.3-1.2c-2.6-1.4-4.5-3.4-6-5.8c-0.2-0.2-0.3-0.5-0.6-0.8
			c-0.3,1.4-0.5,2.7-0.8,3.9c-0.4,1.9-1,3.8-1.8,5.5c-0.4,0.9-0.9,1.7-1.5,2.5c-1.5,1.8-3.6,2.3-5.7,1.3c-1.2-0.6-2.2-1.4-3-2.4
			c-1.7-2-2.9-4.4-3.9-6.9c-1.3-3.2-2.2-6.6-2.9-10.1c-0.1-0.3-0.1-0.7-0.3-1c-0.1,0.5-0.3,1.1-0.4,1.6c-0.9,4-2,7.8-3.5,11.6
			c-0.6,1.5-1.2,2.9-2.1,4.1c-0.6,0.8-1.3,1.7-2.2,2.3c-1.9,1.5-4.2,1.6-6.3,0.2c-1.2-0.8-2-1.8-2.8-3c-1.6-2.4-2.4-5.1-2.9-7.9
			c-0.3-1.4-0.4-2.8-0.6-4.2c0-0.1,0-0.2-0.2-0.4c-0.1,0.3-0.2,0.6-0.3,0.9c-0.9,2.4-1.7,4.9-2.6,7.3c-0.7,1.9-1.8,3.7-3.1,5.2
			c-0.7,0.8-1.4,1.5-2.2,2.2c-2.2,1.7-4.8,1.8-7.1,0.3c-1.3-0.8-2.4-2-3.3-3.2c-1.7-2.4-2.9-5-3.9-7.7c-0.9-2.7-1.5-5.4-2-8.1
			c0-0.1,0-0.2-0.1-0.6c-0.2,0.5-0.3,0.8-0.4,1.1c-0.9,2.3-1.8,4.6-3.1,6.8c-0.6,1-1.2,2-2,2.8c-2.4,2.9-5.9,2.8-8.3,0
			c-1.1-1.3-1.7-2.9-2.2-4.5c-0.5-1.8-0.8-3.7-0.8-5.6c0-4.7,0.3-9.4,0.9-14.1c0.6-5.1,1.2-10.2,1.8-15.3c0.2-1.6,0.2-3.3-0.1-4.9
			c-0.1-0.6-0.3-1.2-0.6-1.8c-0.4-0.9-1.1-1.4-2.1-1.4c-1.1,0-2.2,0-3.2,0.3c-1.4,0.4-2.7,1.1-4,1.6c0.3,1.3,0.5,2.6,0.7,3.8
			c0.5,3.4,0.6,6.9,0.4,10.4c-0.6,8.5-2.5,16.6-5.9,24.3c-1.6,3.7-3.6,7.2-6,10.5c-4,5.3-9.2,9.3-15.1,12.3
			c-1.2,0.6-1.2,0.6-1.2,1.9c-0.4,8.4-1.4,16.7-3.7,24.8c-1.2,4.3-2.8,8.4-5.2,12.2c-2.1,3.2-4.6,5.9-8,7.7
			c-3.8,2.1-7.8,2.8-12.1,2.4c-5-0.5-9.6-2.3-13.9-4.8c-9.6-5.5-15.9-13.6-19-24.2c-0.8-2.7-1.2-5.5-1.2-8.3c0.1-5.2,1.5-10,4.8-14
			c2.6-3.2,5.8-5.4,9.9-6.3c3.1-0.7,6.1-0.3,9,1c3,1.4,5.4,3.5,7.3,6.2c1.7,2.4,2.9,5,3.7,7.8c0.1,0.2,0.1,0.5,0.2,0.7
			c0.1,0,0.2,0,0.3,0c4.4-1.4,8.7-2.8,13.1-4.3c0.1,0,0.3-0.1,0.4-0.1c0.4-0.1,0.6-0.4,0.6-0.8c0.1-1.9,0.1-3.8,0.2-5.6
			c0.1-2.6,0.3-5.2,0.5-7.7c0.1-1.6,0.2-3.2,0.2-4.7c0.2-3.6,0.4-7.2,0.5-10.7c0-0.1,0-0.3,0-0.4
			C118.7,198.3,118.7,198.3,118.6,198.3z M95.3,235.9c-0.4-2.8-1.1-5.5-2.4-8c-1.4-2.7-3.2-4.9-5.8-6.6c-1.3-0.8-2.7-1.2-4.2-0.9
			c-1.8,0.3-3.3,1.1-4.7,2.2c-3.6,2.9-5.6,6.8-6.1,11.4c-0.3,2.6-0.2,5.2,0.2,7.8c0.6,4.5,2.2,8.6,4.7,12.4c1.8,2.8,4.2,5.1,6.7,7.3
			c2.4,2,4.9,3.8,7.8,5c2.4,1,4.8,1.6,7.4,2c3.9,0.5,7.3-0.6,10-3.5c2.3-2.5,3.9-5.4,4.6-8.7c0.7-3.2,1.3-6.5,1.8-9.8
			c0.6-4.4,1.1-8.9,1.6-13.3c0.1-0.5,0.1-1.1,0.1-1.7c-4.7,1.1-9.2,2.4-13.5,4.2c0,0.3,0,0.6,0,0.9c0.1,1.9-0.1,3.8-0.6,5.7
			c-0.9,3.8-2.7,6.9-6.3,8.8c-1.5,0.8-2.9,1.3-4.6,0.9c-2.7-0.6-4.3-2.6-4.1-5.4c0.1-1.7,0.7-3.3,1.6-4.8c1.1-1.6,2.3-3.1,3.8-4.3
			C93.9,237,94.6,236.5,95.3,235.9z M281.9,207.7c0,0.4,0,0.6,0,0.8c0.1,1.5,0.1,3,0.2,4.6c0.2,3.1,0.3,6.1,0.6,9.2
			c0.4,4.4,1,8.7,1.5,13.1c0.7,6.2,1.9,12.2,3.5,18.2c0.7,2.6,1.5,5.2,2.7,7.5c0.4,0.8,0.8,1.5,1.4,2.1c1.6,1.8,3.7,2,5.6,0.5
			c1.1-0.8,1.9-1.9,2.5-3.1c1.2-2.4,2-4.9,2.6-7.5c1-4.4,1.1-8.8,1.2-13.2c0.1-2.8-0.2-5.5-0.7-8.3c-0.6-3.8-1.8-7.5-3.9-10.8
			c-1.2-1.9-2.6-3.8-4-5.5c-2.4-2.9-5.3-5.1-8.8-6.7C285.1,208.1,283.5,207.9,281.9,207.7z M101.8,188.5c0,2.4,0.2,4.8,0.7,7.2
			c0.4,2,1,4,2.2,5.7c0.5,0.6,1,1.3,1.6,1.7c1.5,1.2,3.1,1.2,4.6,0.1c1.2-0.8,2.1-1.9,2.8-3.2c0.9-1.6,1.8-3.2,2.4-4.9
			c1.9-5,2.9-10.3,4.2-15.5c0.1-0.3,0-0.6,0-0.8c-0.8-2.5-1.6-4.9-2.7-7.2c-0.6-1.3-1.4-2.4-2.4-3.5c-0.9-0.9-1.9-1.6-3.1-2
			c-1.6-0.6-3.1-0.3-4.3,0.8c-0.7,0.6-1.3,1.4-1.8,2.2c-1.3,2-2.2,4.3-2.8,6.6C102.1,179.9,102,184.2,101.8,188.5z M349.3,143.4
			c-0.7,0.4-0.8,0.5-1.1,1.2c-0.4,1.1-0.8,2.3-1.1,3.5c-1.5,6-2.1,12.1-2.6,18.2c-0.2,2.4-0.3,4.8-0.4,7.2c-0.1,3.1-0.2,6.1-0.3,9.2
			c0,0.1,0.1,0.3,0.1,0.4c0.5-0.8,0.8-1.5,1.1-2.3c2.1-5.5,3.7-11.1,4.8-16.9c0.9-4.6,1.5-9.2,1.1-13.8c-0.2-1.9-0.5-3.7-1.1-5.5
			C349.7,144.1,349.5,143.8,349.3,143.4z M289.2,127.8c-0.4,0.7-0.7,1.1-0.9,1.7c-0.5,1.5-1,3-1.3,4.6c-1.5,7.3-2.3,14.6-3.1,22
			c-0.4,3.6-0.7,7.3-1,10.9c0,0.3,0,0.5,0,0.8c0.8-1.6,1.5-3.2,2.2-4.8c2.7-6.6,4.9-13.3,5.9-20.4c0.4-3.4,0.5-6.8-0.1-10.2
			C290.6,130.8,290.2,129.3,289.2,127.8z M256.3,183.8c0.1,0,0.1,0.1,0.2,0.1c2-1,3.9-2.2,5.3-4c0.7-0.9,1.3-2,1.7-3.1
			c0.6-1.9,0.6-3.7-0.3-5.5c-0.6-1.2-1.3-0.9-2-0.4c-0.4,0.3-0.7,0.6-0.9,1c-0.6,0.9-1.2,1.8-1.6,2.7c-0.8,1.6-1.3,3.3-1.6,5.1
			C256.8,181,256.6,182.4,256.3,183.8z M153.2,163.4c-0.4-1.4-1.4-3.4-2.2-4.3c-0.3-0.3-0.6-0.7-1-0.9c-0.9-0.6-1.8-0.7-2.9-0.4
			c-1.6,0.5-2.2,1.7-1.4,3.2C147,163.7,149.6,164.8,153.2,163.4z M95.5,240.2c-1.4,1.1-2.6,2.3-3.6,3.6c-0.6,0.8-1,1.7-1.2,2.6
			c-0.1,0.5,0,1,0.1,1.4c0.3,0.8,1,1,1.8,0.5c0.8-0.5,1.5-1.2,1.8-2.1c0.4-1,0.7-2,0.9-3C95.5,242.4,95.7,241.4,95.5,240.2z"/>
		<path class="st0" d="M237,116.3c-0.5,0.5-1,0.8-1.4,1.2c-2,1.7-4.1,3.1-6.6,3.7c-1.8,0.4-3.5,0.6-5.3,0.6c-0.7,0-1.5-0.2-2.1,0.1
			c-0.6,0.3-0.9,1-1.3,1.6c-4.2,5.7-9.4,10.1-15.9,12.9c-2.4,1.1-4.9,1.6-7.6,1.4c-6.9-0.6-12.1-5.6-12.9-12.4
			c-0.4-2.9,0.6-5.5,2.5-7.7c1.7-1.9,3.8-3.2,6.3-3.9c0.4-0.1,0.8-0.2,1.1-0.3c0-3.1-0.1-6.2,0-9.2c0.1-3.1,0.4-6.1,0.6-9.3
			c-0.6,0.1-1.1,0.2-1.7,0.4c-3.7,0.9-7.3,1.8-10.8,3.3c-3.6,1.6-6.6,4-9.1,7c-1.6,1.9-2.9,4-4,6.2c-0.6,1.2-1.2,2.3-2,3.4
			c-0.4,0.6-1,1.2-1.6,1.7c-1.7,1.2-3.3,0.4-3.5-1.6c-0.1-1.4,0.1-2.7,0.5-4.1c0.6-1.9,1.5-3.5,2.6-5.1c2.3-3.2,5.1-5.8,8.5-7.9
			c5.2-3.1,10.5-5.6,16.4-6.8c1.6-0.3,3.2-0.6,4.8-0.8c1.1-0.2,1.1-0.1,1.4-1.2c0.4-1.4,0.7-2.8,1-4.2c1-3.6,2.3-7.1,4.2-10.3
			c1.5-2.6,3.3-4.9,5.7-6.8c1.9-1.5,4-2.6,6.4-3.1c4.6-0.9,8.9,2.6,9.1,7.3c0.1,1.8-0.4,3.5-1.1,5.1c-0.9,2.1-2.2,4-3.8,5.7
			c-3.1,3.2-6.7,5.7-10.9,7.4c-0.6,0.3-0.9,0.6-1,1.2c-0.5,3.1-1.1,6.1-1.6,9.2c0,0.1,0,0.3,0.1,0.5c0.2-0.2,0.4-0.5,0.6-0.7
			c2.1-2.6,4.7-4.7,7.6-6.4c1.7-1,3.5-1.4,5.4-1.6c1.5-0.1,2.8,0.2,4.1,0.9c2.8,1.6,4.5,4,5.3,7.1c0.9,3.6,0.5,7.1-0.5,10.5
			c-0.7,2.4-1.7,4.7-2.9,6.9c-0.2,0.3-0.3,0.6-0.5,0.9c1.1,0.2,2.1,0.1,3.1-0.1c3-0.4,5.5-2,7.8-3.9c0.8-0.6,1.4-1.4,2.1-2.1
			c0.4-0.4,0.5-0.8,0.6-1.4c0.2-4.3,1.3-8.5,3-12.4c1-2.3,2.3-4.5,4-6.4c2-2.2,4.2-4,7.2-4.8c4.5-1.2,9,0.8,10.9,4.9
			c1,2.1,1,4.2,0.2,6.4c-0.7,2.2-2,3.9-3.7,5.5c-2.7,2.4-5.8,4-9.4,4.5c-0.4,0.1-0.7,0.1-1.1,0.2c-0.1,0.7-0.1,1.4-0.2,2.2
			c-0.2,2.9,0,5.8,1.2,8.6c0.4,0.9,0.9,1.7,1.5,2.5c1.7,2.4,5,3.8,8.2,2.8c3-0.9,5.6-2.5,7.8-4.7c3.5-3.4,6.2-7.5,8.6-11.7
			c0.9-1.7,1.8-3.4,2.8-5c0.4-0.6,0.8-1.2,1.3-1.8c0.4-0.5,1-0.7,1.6-0.4c0.6,0.3,0.9,0.9,0.8,1.7c0,0.3-0.1,0.6-0.2,0.9
			c-0.5,1.2-1,2.3-1.6,3.5c-1.3,2.4-2.7,4.8-4.1,7.1c-3.1,5.1-7.1,9.3-12,12.7c-2.3,1.6-4.9,2.7-7.6,3.3c-6,1.4-12.3-1.9-15.2-5.8
			c-1.8-2.4-3-5-3.6-8C237.1,116.9,237.1,116.6,237,116.3z M203.5,117.3c-0.1,0.6-0.1,1.1-0.2,1.5c-0.1,0.8-0.2,1.6-0.4,2.4
			c-0.2,0.9-0.7,1.6-1.6,2c-2.1,1-4.7,0.3-5.8-1.8c-0.4-0.7-0.6-1.6-0.9-2.4c-0.2-0.7-0.3-1.5-0.5-2.3c-2.6,0.8-4.8,2-6,4.5
			c-0.4,0.9-0.6,1.9-0.4,2.8c0.5,2.4,1.7,4.3,3.6,5.8c0.6,0.4,1.3,0.8,1.9,1c2.4,0.7,4.7,0.6,7-0.4c2.3-1,4.2-2.4,6-4.1
			c2-1.9,3.7-4.1,5.2-6.6C208.8,119,206.2,118.2,203.5,117.3z M213,117.2c0.1-0.1,0.2-0.2,0.2-0.3c0.1-0.3,0.3-0.6,0.4-0.9
			c1.5-3.7,2.4-7.5,2.9-11.5c0.2-1.5,0.4-3,0.1-4.4c-0.1-0.6-0.4-1.3-0.7-1.8c-0.7-1.1-1.8-1.4-3-0.8c-0.5,0.2-1,0.6-1.4,0.9
			c-1.1,0.9-2,2-2.7,3.2c-2.2,3.5-3.8,7.2-4.7,11.2c-0.1,0.4-0.2,0.8-0.2,1.2C206.9,115.1,210,116.1,213,117.2z M207.2,85.5
			c3.5-1.5,6.4-3.3,8.8-6c1.2-1.3,2-2.8,2.5-4.5c0.2-0.6,0.3-1.2,0.3-1.8c0.1-1.2-0.3-2.2-1.3-2.8c-1.1-0.6-2.1-0.2-3.1,0.4
			c-0.2,0.1-0.4,0.3-0.6,0.5c-0.3,0.3-0.6,0.6-0.8,0.9c-1.3,1.7-2.5,3.5-3.2,5.5c-0.8,2.3-1.5,4.5-2.3,6.8
			C207.4,84.7,207.3,85,207.2,85.5z M248.3,106.7c0.4,0,0.6-0.1,0.8-0.1c2.7-0.7,5.1-1.9,7.1-3.7c1.3-1.2,2.3-2.5,2.9-4.2
			c0.4-1.2,0.2-2.3-0.3-3.3c-0.5-0.9-1.1-1.1-2-0.9c-0.9,0.2-1.7,0.6-2.4,1.2c-1.1,0.8-1.9,1.8-2.7,3c-1.4,2.1-2.4,4.4-3,6.8
			C248.5,105.8,248.4,106.2,248.3,106.7z"/>
		<path class="st0" d="M168.2,249.3c0,0.3,0,0.5,0.1,0.7c0.6,3.2,0.4,6.4-0.5,9.6c-0.8,2.6-2.3,4.7-4.6,6.2
			c-2.2,1.5-4.7,2.6-7.4,2.7c-1.4,0.1-2.7-0.1-4-0.5c-1-0.3-2-0.6-3-1c-3.5-1.3-6.1-3.6-7.8-6.9c-2.5-4.9-2.7-9.8-0.7-14.9
			c0.9-2.2,2.3-3.9,4.2-5.3c0.6-0.4,1.3-0.8,2-1.1c0.7-0.3,1.4-0.4,2.1-0.7c-0.1-0.2-0.2-0.5-0.3-0.7c-2.5-5-2-9.9,0.8-14.6
			c1.6-2.6,4.2-3.8,7.2-4.1c2-0.1,3.7,0.6,5,2c2.3,2.3,3,5.1,2.3,8.3c-0.1,0.5-0.4,1-0.6,1.4c-0.2,0.3-0.5,0.5-0.9,0.3
			c-0.2-0.1-0.4-0.4-0.5-0.6c-0.1-0.3-0.1-0.7-0.1-1c-0.1-1.2-0.3-2.3-0.7-3.4c-0.3-0.8-0.8-1.5-1.6-2c-1.3-0.9-2.6-0.7-3.5,0.6
			c-0.7,1.1-1.1,2.2-1.3,3.5c-0.2,2.1,0,4.2,1,6.1c0.7,1.4,1.6,2.8,2.4,4.2c0.4,0.7,0.8,1.3,1.1,2c0.5,1.5-0.2,2.9-1.6,3.4
			c-0.6,0.2-1.2,0-1.9-0.2c-0.7-0.3-1.5-0.5-2.3-0.6c-1.1-0.2-2.1,0.1-3,0.9c-1.4,1.1-2,2.6-2.3,4.3c-0.2,1.3-0.1,2.6,0.2,3.9
			c0.6,2.5,1.7,4.8,3.5,6.6c2.4,2.4,5.3,3.2,8.6,2.9c1.4-0.1,2.6-0.9,3.4-2.1c0.7-1,1.2-2.1,1.4-3.2c0.5-2.2,0.2-4.4,0-6.6
			c-1.1-0.1-2,0.2-2.9,0.6c-1.6,0.8-3,1.9-3.8,3.6c-0.3,0.5-0.5,1.1-1.2,1.1c-0.7,0-1-0.6-1.3-1.2c-0.4-1-0.4-2.1,0-3.1
			c1.2-3.4,3.6-5.5,7.1-6.4c2.3-0.6,4.6-0.4,6.9-0.3c1.7,0.1,3.5,0.2,5.2-0.3c3.2-1,5.5-2.9,6.7-5.9c1.5-3.6,1.6-7.3,0.1-10.9
			c-0.4-1.1-1-2.1-1.9-2.8c-0.5-0.4-1-0.8-1.7-0.8c-1.1-0.1-1.8,0.4-2.1,1.4c-0.2,0.5-0.2,1.1-0.2,1.7c0,0.8,0,1.6,0,2.4
			c0,0.6,0,1.2-0.2,1.8c-0.3,1-1.1,1.4-2.1,1.1c-0.6-0.2-1.1-0.6-1.4-1.2c-1.5-3.1-1.5-6.2,0.5-9.2c1.4-2.1,3.8-2.9,6.3-2.2
			c2.5,0.7,4.4,2.2,5.8,4.3c1.6,2.3,2.4,4.9,2.6,7.7c0.2,3.4-0.4,6.7-1.9,9.8c-2.5,5.1-6.5,8.3-12.2,9c-1.3,0.2-2.7,0-4,0
			C168.8,249.3,168.6,249.3,168.2,249.3z"/>
		<g>
			<path class="st12" d="M344.4,292c0.7,0.8,1.3,1.5,1.9,2.2c2.2,2.4,3.6,5.3,4.4,8.4c1,4-1.2,8.4-4.4,10.4
				c-1.5,0.9-3.1,1.5-4.9,1.5c-2.2,0-3.8-1-4.9-2.8c-0.8-1.4-1.1-2.9-1.1-4.5c-0.1-3.1,0.8-6.1,2.1-8.9c0.2-0.4,0.4-0.8,0.6-1.3
				c-0.9-0.2-1.8-0.1-2.7,0c-2.1,0.4-4,1.1-6,1.9c-2.2,0.8-4.4,1.6-6.7,2c-0.8,0.1-1.6,0.2-2.4,0.3c0.2,0.4,0.3,0.7,0.5,0.9
				c1.7,2.9,3.4,5.8,5,8.7c1.2,2.1,2.1,4.4,2.6,6.8c0.3,1.7,0.4,3.3,0,5c-0.5,2.6-1.8,4.5-4.1,5.9c-2.9,1.8-6.1,2.5-9.5,2.5
				c-3.5,0-6.9-0.7-10.3-1.4c-1.1-0.2-2.1-0.5-3.3-0.8c0.2,0.4,0.4,0.6,0.5,0.8c1.2,1.9,2.5,3.7,3.6,5.6c0.8,1.3,1.4,2.6,1.6,4.1
				c0.1,0.4,0,0.9,0,1.3c-0.2,1.4-1,2.1-2.4,2.1c-1,0-1.8-0.3-2.5-0.9c-1.1-0.7-2.1-1.6-2.8-2.7c-1.3-1.7-2.5-3.5-3.7-5.2
				c-0.2-0.3-0.4-0.6-0.8-0.9c0,0.4-0.1,0.8-0.1,1.1c-0.3,3.2-0.6,6.5-1.3,9.7c-0.4,1.8-0.9,3.5-1.8,5c-0.4,0.6-0.8,1.2-1.2,1.7
				c-1.2,1.4-2.7,2-4.6,2c-2.3-0.1-4.2-1-5.9-2.5c-1.8-1.5-3.1-3.4-4.2-5.4c-1.8-3.3-3.2-6.8-4.3-10.4c-0.8-2.8-1.5-5.6-2.4-8.4
				c-0.5-1.6-1.1-3.1-1.7-4.6c-0.2-0.5-0.5-1-0.9-1.5c-0.5-0.6-0.8-0.7-1.4-0.1c-0.4,0.3-0.7,0.7-0.9,1.1c-0.5,1-1,2-1.3,3
				c-1.7,4.9-2.3,9.9-1.9,15c0.3,4.3,1.1,8.5,2.4,12.6c0.6,1.9,1.2,3.8,1.4,5.7c0.1,0.7,0.1,1.5-0.1,2.2c-0.5,2.4-2.7,3.4-4.8,2.2
				c-0.6-0.4-1.1-0.9-1.6-1.5c-0.9-1.1-1.5-2.3-2.1-3.6c-1.4-3.1-2.2-6.5-3.1-9.7c-1-3.5-1.8-7.1-3.4-10.5c-0.3-0.6-0.6-1.1-1.2-1.4
				c-0.6,0.5-0.8,1.1-1,1.8c-0.5,1.8-1,3.6-1.3,5.4c-0.7,3.9-1.2,7.9-1.8,11.8c-0.4,2.5-0.9,4.9-1.5,7.3c-0.3,1.5-1,2.9-2,4.1
				c-1,1.1-2.1,1.9-3.6,2.1c-1,0.1-1.9-0.1-2.8-0.5c-1.9-0.9-3.5-2.3-4.7-4.1c-1.5-2.1-2.3-4.5-3-7c-0.7-2.5-1-5.1-1.2-7.6
				c0-0.1,0-0.3-0.2-0.5c-0.1,0.3-0.3,0.7-0.4,1c-0.9,2.9-2,5.8-3.3,8.6c-1.1,2.2-2.2,4.3-3.9,6.1c-0.9,0.9-1.8,1.8-3,2.4
				c-2.4,1.3-4.8,1.3-7.2-0.2c-1.8-1.1-3.3-2.5-4.5-4.3c-2.1-3.1-3.3-6.6-3.8-10.3c-0.1-0.4-0.1-0.7-0.1-1.1c0-0.1,0-0.2-0.1-0.4
				c-0.2,0.3-0.4,0.5-0.5,0.7c-1.9,2.6-3.7,5.3-5.6,7.9c-1.1,1.5-2.3,2.9-3.8,4.1c-0.7,0.5-1.4,1.1-2.2,1.5
				c-2.4,1.2-4.9,0.9-6.9-0.9c-1.4-1.2-2.3-2.8-2.9-4.6c-1.1-3.1-1.3-6.4-1-9.6c0.5-4.7,1.7-9.3,3.1-13.8c1.3-4.3,2.7-8.7,4-13
				c0.3-0.9,0.4-1.8,0.7-2.9c-0.5,0.1-0.8,0.2-1.1,0.3c-0.9,0.4-1.8,0.9-2.6,1.4c-3.1,2-5.8,4.7-8.2,7.4c-4.3,4.8-7.9,10.1-11,15.7
				c-1.2,2.2-2.4,4.4-3.5,6.6c-0.5,1-1.3,1.7-2.5,1.7c-1.1,0-2.1-0.8-2.4-2c-0.2-1.2-0.3-2.5-0.3-3.7c0.1-3.5,0.7-6.9,1.4-10.3
				c0.1-0.4,0.2-0.7,0.2-1.1c0-0.1,0-0.1,0-0.3c-0.3,0.2-0.6,0.4-0.8,0.6c-2.3,1.6-4.7,3.3-7,4.9c-1.9,1.3-4,2.4-6.2,3.3
				c-3,1.1-6,1.4-9,0.7c-3.7-0.9-6.3-3-7.8-6.5c-0.8-1.8-1.4-3.7-1.8-5.6c-0.7-2.8-0.5-5.6-0.1-8.3c1-7,3.6-13.3,6.9-19.5
				c0.2-0.3,0.4-0.7,0.5-1c0,0-0.1-0.1-0.1-0.1c-0.3,0.2-0.7,0.3-1,0.5c-4,2-8.1,3.9-12.3,5.5c-3.2,1.2-6.4,2.1-9.8,2.6
				c-3.1,0.4-6.2,0.4-9.2-0.4c-1.2-0.3-2.4-0.8-3.5-1.3c-0.5-0.2-1-0.7-1.3-1.1c-0.8-1.1-0.2-2.4,1.2-2.5c0.7-0.1,1.5-0.1,2.2,0
				c4,0.4,7.9-0.1,11.8-0.9c5.2-1.1,10.2-2.9,14.9-5.3c0.3-0.1,0.6-0.3,1-0.6c-0.3-0.3-0.6-0.5-0.8-0.6c-2.4-1.7-4.4-3.8-6-6.3
				c-2.1-3.4-2.6-7.1-1.2-10.9c1.8-4.8,7.3-8.9,12.6-8.7c1.4,0,2.8,0.2,4.2,0.4c1.4,0.2,2.5,0.8,3.5,1.8c1.2,1.1,1.5,2.4,0.9,3.6
				c-0.6,1.4-2,2.2-3.6,2c-1.8-0.3-3.6-0.3-5.4-0.2c-1,0.1-2.1,0.1-3.1,0.4c-2.6,0.6-4.2,2.2-5.1,4.6c-0.4,1-0.1,2.1,0.2,3.1
				c0.1,0.4,0.3,0.8,0.5,1.2c1.6,3.1,4,5.5,7,7.4c0.3-0.2,0.5-0.3,0.7-0.5c3.5-2.7,7.2-5.4,10.6-8.3c2.9-2.4,5.5-5.1,8.3-7.7
				c2.6-2.4,5.3-4.8,8-7.2c0.7-0.6,1.5-1.1,2.3-1.6c1.7-0.9,3.4-1.1,5,0.1c1.7,1.2,2.4,2.9,2.2,4.9c-0.1,1.3-0.6,2.5-1.3,3.5
				c-1,1.3-2,2.6-3,3.8c-2.1,2.4-4.4,4.6-6.5,7.1c-3.1,3.7-6.1,7.4-9.1,11.1c-0.1,0.1-0.1,0.2-0.3,0.5c7,1,13.9,0.9,20.8-0.3
				c0.3-0.6,0.5-1.3,0.8-1.9c1.9-4.9,4.2-9.7,7-14.2c2.2-3.5,4.7-6.7,7.8-9.5c2.7-2.3,5.7-4,9.2-4.7c2-0.4,4.1-0.5,6.1,0
				c4.9,1.1,7.7,5.8,6.3,10.8c-0.4,1.5-1.1,2.8-1.9,4c-1.5,2.4-3.5,4.4-5.7,6.1c-4.2,3.3-8.9,5.7-13.8,7.7c-0.9,0.3-1.8,0.7-2.7,1
				c-0.4,0.1-0.7,0.4-0.9,0.8c-4.5,8.7-8.5,17.6-10.9,27.1c-0.1,0.6-0.3,1.1-0.5,1.7c0,0.1,0,0.1,0,0.3c0.3-0.3,0.4-0.6,0.6-0.8
				c3.7-4.9,7.8-9.4,12.5-13.4c1.6-1.4,3.4-2.5,5.4-3.2c1.4-0.5,2.8-0.8,4.3-0.6c3.1,0.4,4.9,2.3,5.7,5.2c0.3,1,0.3,2.2,0.3,3.2
				c0,3.3-0.8,6.4-1.8,9.5c-1.2,3.6-2.4,7.1-3.6,10.6c-1.3,3.8-2.3,7.6-2.7,11.6c-0.1,1.4-0.2,2.9-0.1,4.3c0.1,1.6,0.9,2,2.3,1.2
				c0.9-0.5,1.7-1.2,2.5-1.9c2.2-2.2,4.1-4.6,5.9-7.2c1-1.5,2.1-3,3.1-4.5c0.3-0.4,0.3-0.8,0.3-1.2c0.2-4.5,0.9-8.8,2.4-13.1
				c0.7-2,1.6-3.9,2.8-5.6c1-1.4,2.2-2.5,3.7-3.4c3.2-1.8,6.4-1.9,9.6-0.2c2.5,1.3,4.4,3.2,5.7,5.7c0.5,0.9,0.9,1.8,1.2,2.7
				c0.2,0.5,0.2,1.1,0.1,1.6c-0.1,0.7-0.7,0.8-1.2,0.3c-0.2-0.2-0.3-0.4-0.4-0.6c-0.8-1-1.6-2.1-2.5-3c-0.4-0.4-0.8-0.8-1.3-1.2
				c-1.5-1.2-2.9-1.1-4.1,0.5c-0.5,0.7-1,1.5-1.4,2.4c-1.1,2.4-1.7,5-2.1,7.6c-0.7,4.8-1.2,9.7-1.1,14.6c0,1.5,0.3,3,0.5,4.4
				c0.2,1.1,0.6,2.1,1.3,3c0.9,1.1,1.7,1.3,3,0.8c0.9-0.3,1.5-1,2.2-1.6c1-1.2,1.8-2.5,2.5-3.9c1.8-3.7,3-7.6,3.8-11.6
				c0.4-1.9,0.9-3.7,1.1-5.6c0.3-2.7,0.5-5.4,0.7-8.1c0.2-1.6,0.3-3.2,0.6-4.8c0.2-1,0.6-2,1.2-2.8c1.1-1.5,2.5-2.2,4.4-1.9
				c1,0.2,1.7,0.7,2.3,1.5c0.8,1,1.2,2.2,1.5,3.4c0.5,2.4,0.6,4.8,0.5,7.3c-0.3,5.9-0.6,11.8-0.8,17.8c-0.1,2.5,0.1,4.9,0.3,7.4
				c0.1,1.2,0.5,2.4,0.9,3.5c0.2,0.5,0.5,1,0.7,1.4c0.8-0.2,1.3-0.6,1.6-1.2c0.4-0.7,0.8-1.4,1.1-2.1c1-2.5,1.5-5.2,2-7.8
				c1.1-5.8,2.2-11.6,3.3-17.4c0.3-1.4,0.7-2.8,1.3-4.2c0.4-0.9,1-1.8,1.6-2.6c1.7-1.9,4.1-2.2,6.3-0.9c1.5,0.9,2.4,2.2,3,3.8
				c0.1,0.3,0.2,0.6,0.5,0.9c0.1-0.6,0.2-1.2,0.3-1.8c0.5-3.8,1.3-7.5,2.9-11c0.6-1.4,1.3-2.7,2.3-3.8c2-2.4,4.9-2.8,7.5-1
				c1,0.7,1.7,1.5,2.4,2.5c1.2,1.8,2.1,3.7,2.7,5.7c1.2,3.6,2.2,7.3,3.3,10.9c1.3,4.4,2.9,8.6,5.2,12.5c0.5,0.9,1.1,1.7,1.8,2.4
				c0.8,0.9,1.4,0.9,2.3,0.1c0.9-0.8,1.4-1.9,1.9-3c0.8-2,1.1-4,1.4-6.1c0.3-2.4,0.6-4.8,0.9-7.2c0.1-0.6,0-1-0.4-1.5
				c-5-7.3-9.6-14.9-14-22.6c-2.8-4.8-5.6-9.5-8-14.5c-2.3-4.7-4.3-9.4-5.8-14.4c-0.6-1.8-0.9-3.7-0.9-5.7c0-0.8,0.1-1.6,0.5-2.3
				c0.8-1.6,2.2-2,3.7-1.2c0.9,0.5,1.6,1.1,2.2,1.9c1,1.4,1.9,2.8,2.7,4.3c4,7.3,7.5,14.8,11,22.3c2.4,5.1,4.9,10.1,7.3,15.2
				c0.1,0.2,0.2,0.4,0.4,0.7c0.2-1,0.5-1.8,0.6-2.6c1.2-4.9,1.4-9.9,1.1-14.9c-0.1-1.7-0.3-3.4-0.5-5.2c0-0.4-0.1-0.8,0-1.2
				c0-0.4,0.3-0.8,0.7-1c0.4-0.2,0.8,0,1.1,0.3c0.3,0.3,0.6,0.7,0.8,1.1c1.1,1.9,1.6,4,2.1,6.1c1.7,7.3,0.8,14.4-1.8,21.3
				c-0.1,0.3-0.2,0.6-0.3,0.9c1.3,0.3,2.5,0.6,3.7,0.9c3,0.7,5.9,1.5,8.9,2.2c4.1,0.9,8.3,1.1,12.4,0.3c0.9-0.2,1.7-0.5,2.6-0.8
				c1-0.4,1.5-1.1,1.7-2.1c0.2-1.3,0.2-2.6-0.2-3.8c-0.9-2.1-1.7-4.3-2.7-6.4c-1.2-2.6-2.6-5.1-4-7.6c-0.8-0.2-1.7-0.3-2.6-0.6
				c-5.7-1.8-10.1-5.3-12.6-10.9c-1.3-3.1-1.8-6.3-1-9.6c0.3-1.3,0.8-2.5,1.7-3.6c1.9-2.5,5-3.4,7.9-2.2c1.6,0.6,2.9,1.6,4.2,2.8
				c0.2,0.2,0.3,0.4,0.4,0.6c0.4,0.8-0.1,1.5-0.9,1.4c-0.5,0-0.9-0.2-1.4-0.3c-1-0.2-2-0.5-2.9-0.5c-1.4-0.1-2.2,0.6-2.5,2
				c-0.6,2.6,0.1,4.9,2,6.8c1.6,1.6,3.6,2.4,5.9,2.7c2,0.3,4,0.1,6-0.1c2.2-0.3,4.4-0.6,6.6-0.9c3-0.4,6-0.5,9,0.3
				c1.3,0.4,2.6,1,3.9,1.5c0.3,0.1,0.5,0.3,0.9,0.4c0.5-0.8,1.1-1.6,1.6-2.4c1.9-2.9,3.6-5.8,5.1-9c1.8-3.7,2.8-7.7,3.1-11.8
				c0.4-4,0.2-8-0.9-11.8c-0.7-2.6-1.9-5-3.7-7.1c-1.7-2-3.8-3.5-6.4-4.1c-1.2-0.2-2.5-0.2-3.7,0.2c-1,0.3-1.8,0.8-2.4,1.7
				c-2.2,2.7-2.9,5.8-2.1,9.1c0.3,1.2,0.7,2.3,1,3.5c0.2,0.7,0.3,1.4,0.3,2.1c-0.1,1.6-1.4,2.3-2.9,1.8c-0.7-0.3-1.3-0.7-1.8-1.3
				c-0.3-0.5-0.7-0.9-0.9-1.5c-1.3-3.2-1.8-6.5-0.9-9.8c0.8-3.3,2.7-6,5.4-8c2.5-1.9,5.3-2.3,8.4-1.6c6.4,1.5,10.2,5.7,12.5,11.6
				c1.7,4.4,2,9,1.5,13.6c-0.7,7.5-3.4,14.3-7.3,20.6C346.7,288.4,345.5,290.3,344.4,292z M162.1,305c-0.5,0.1-0.8,0.1-1.2,0.1
				c-2.9,0.4-5.9,0.7-8.8,0.8c-3.7,0.1-7.5,0-11.2-0.5c-0.6-0.1-0.9,0.1-1.3,0.6c-1.8,2.9-3.8,5.8-5.5,8.8
				c-1.9,3.3-3.5,6.7-4.8,10.3c-1,3-1.6,6.1-1.2,9.3c0.4,3.2,2.2,5.1,5.4,5.7c1.5,0.3,3,0.2,4.5-0.1c2.5-0.5,4.7-1.6,6.8-2.9
				c2.7-1.7,5.3-3.5,8-5.1c1.1-0.7,1.6-1.5,1.9-2.7c1.8-7.8,4.3-15.5,6.9-23.1C161.9,305.8,162,305.5,162.1,305z M178.3,297.4
				c0.3-0.1,0.5-0.2,0.7-0.2c4.8-1.9,9-4.7,12.9-8.1c1.5-1.3,2.6-2.9,3.6-4.7c0.6-1.2,0.9-2.5,0.7-3.9c-0.2-1.2-1-1.9-2.2-1.8
				c-0.7,0.1-1.3,0.2-1.9,0.5c-0.9,0.5-1.8,1.1-2.6,1.8c-2,1.7-3.7,3.8-5.1,6c-2.1,3.1-4,6.4-5.7,9.8
				C178.5,296.9,178.5,297.1,178.3,297.4z M340.7,297.7c-0.5,1.1-1,2.1-1.4,3.1c-0.9,2.2-1.3,4.4-1.2,6.8c0.1,0.9,0.2,1.8,0.7,2.6
				c0.6,1,1.5,1.4,2.6,1.2c3.6-0.7,6.4-4.9,4.3-8.6c-0.9-1.7-2.2-3.1-3.7-4.2C341.7,298.2,341.2,298,340.7,297.7z"/>
			<g>
				<path class="st12" d="M221.9,296.6c-0.6,2.2-1.1,4.2-1.7,6.2c-0.7,2.5-1.8,4.9-3.2,7c-1.5,2.3-3.5,4.1-6.1,4.9
					c-1.6,0.5-3.3,0.8-5,0.3c-2.2-0.6-3.9-1.9-5-3.8c-2.2-4-2.2-7.9,0.5-11.7c3-4.2,7.1-6.5,12.2-6.9c0.3,0,0.5,0,0.8-0.1
					c0.1,0,0.1-0.1,0.3-0.1c0.1-1,0.2-2,0.2-3c0.3-4.9,0.1-9.7-0.3-14.6c-0.5-7.2-1.4-14.4-2.4-21.6c-0.2-1.5-0.4-2.9-0.7-4.4
					c-0.1,0.2-0.2,0.4-0.3,0.6c-0.9,2.1-1.7,4.2-2.6,6.3c-0.6,1.4-1.4,2.7-2.5,3.8c-1.4,1.6-3.1,2.7-5.3,2.8c-1.6,0.1-3-0.3-4.4-1.1
					c-1.5-0.9-2.7-2.2-3.7-3.6c-2-3.1-2.7-6.4-2.5-10c0.1-4,1.3-7.7,3.4-11.1c1-1.6,2.3-3,3.9-4.1c3.1-2,6.9-1.5,9.2,1.3
					c1.2,1.4,2,3.1,2.2,4.9c0,0.4,0,0.7-0.1,1.1c-0.1,0.2-0.3,0.5-0.5,0.5c-0.2,0-0.6-0.2-0.8-0.3c-0.2-0.2-0.2-0.5-0.4-0.7
					c-0.5-0.7-0.9-1.5-1.5-2c-1.3-1.3-2.7-1.2-4,0.1c-0.8,0.8-1.3,1.9-1.6,2.9c-0.9,2.8-1.2,5.6-1,8.5c0.1,1.4,0.3,2.7,0.7,4
					c0.2,0.8,0.6,1.5,1.1,2.2c1,1.4,2.4,1.5,3.7,0.4c0.5-0.4,1-0.9,1.3-1.5c1.7-2.4,2.6-5.2,3.1-8.1c0.4-1.9,0.6-3.8,0.9-5.8
					c0.2-0.9,0.5-1.8,0.9-2.7c1-1.9,3.1-2.1,4.5-0.3c1,1.4,1.6,2.9,1.9,4.6c0.4,2.2,0.8,4.5,1.1,6.7c0.5,3.7,1.1,7.4,1.6,11.1
					c0.4,3.5,0.8,7,1.2,10.5c0.3,3.5,0.6,7.1,0.9,10.6c0.1,0.8,0.1,1.7,0.1,2.6c0,3.1,0,6.3,0,9.4c0,0.1,0,0.3,0,0.4
					c2,0.5,4,0.9,5.9,1.5c3.5,1,7,2.1,10.6,3.2c1.5,0.4,3,0.6,4.6,0.7c1.1,0,2.2-0.2,3.2-0.7c1.8-0.8,3.3-2,4.5-3.6
					c0.4-0.6,0.8-1.2,1.2-1.8c0.5-0.7,1.1-1.4,1.9-1.8c1.7-0.9,3.5,0.1,3.6,2c0.1,1.7-0.5,3.2-1.5,4.5c-2.2,2.9-5,4.8-8.7,5.3
					c-2.8,0.4-5.5,0-8.2-0.7c-4.2-1-8.3-2.5-12.5-3.8C225.1,297.6,223.5,297.1,221.9,296.6z M214.2,295.9c-0.3,0-0.4,0-0.6,0
					c-4.4,0.3-9,3.9-10.2,8.2c-0.2,0.6-0.3,1.3-0.2,2c0.1,1.4,1.4,2.8,2.7,2.9c1.4,0.1,2.7-0.2,3.6-1.3c0.4-0.5,0.8-1,1.2-1.5
					c1-1.4,1.7-3,2.2-4.6C213.6,299.7,214,297.9,214.2,295.9z"/>
				<path class="st12" d="M246.5,260.6c0-0.2,0.1-0.5,0.1-0.7c0.1-4.9,0.3-9.8,0.4-14.7c0-1.1-0.1-2.2-0.1-3.4
					c-0.1-3.6,0.4-7.1,2.4-10.2c1.6-2.6,3.7-4.5,6.7-5.3c2.5-0.7,4.7-0.2,6.7,1.4c1,0.8,1.7,1.8,2,3.1c1.4,4.7-1,9.5-5,11.6
					c-0.2,0.1-0.5,0.2-0.8,0.4c0.1,0.6,0.1,1.2,0.3,1.8c0.3,1.8,0.9,3.5,1.7,5.1c0.4,0.9,1,1.6,1.8,2.2c0.8,0.6,1.4,0.6,2.2,0
					c1.1-0.9,1.8-2,2.4-3.2c0.4-0.9,0.7-1.9,1.1-2.8c0.1-0.2,0.2-0.5,0.3-0.7c0.3-0.5,0.8-0.7,1.3-0.6c0.5,0.1,0.8,0.6,0.8,1.2
					c0,0.1,0,0.3-0.1,0.4c-0.6,2.5-1.4,4.9-2.7,7.2c-1.1,2.1-2.8,3.7-4.9,4.7c-3.3,1.6-8.1,1.5-11.1-2.3c-0.8-1-1.4-2.1-2.1-3.1
					c-0.1-0.2-0.3-0.4-0.5-0.6c0,0.8,0,1.6,0,2.4c0,2.3,0.1,4.7,0.2,7c0.1,2,0.2,4,0.2,6c0,1.2,0,2.5-0.3,3.7
					c-0.4,2.1-2.3,2.7-4,1.4c-0.6-0.5-1.1-1-1.6-1.7c-1.6-2.2-2.9-4.6-3.8-7.1c-0.9-2.5-1.7-5.1-2.5-7.6c-0.1-0.3-0.2-0.6-0.4-0.9
					c-0.1,0.2-0.1,0.4-0.1,0.6c-0.4,2.9-1,5.7-1.8,8.5c-0.4,1.3-0.9,2.6-1.9,3.7c-1,1.1-2.2,1.6-3.7,1.4c-0.9-0.2-1.7-0.6-2.4-1.3
					c-0.7-0.7-1.4-1.5-1.9-2.3c-1.6-2.5-2.6-5.3-3.4-8.1c-1.3-4.9-1.9-9.8-1.9-14.9c0-0.7,0.1-1.3,0.2-2c0.1-0.4,0.3-0.8,0.5-1.2
					c0.8-1.3,2.4-1.6,3.6-0.7c1,0.7,1.7,1.6,2.2,2.6c0.7,1.3,1.2,2.6,1.5,4c0.7,3.4,1.4,6.9,2.2,10.3c0.4,1.8,0.9,3.6,1.3,5.4
					c0.1,0.4,0.2,0.9,0.7,1.2c0.5-0.2,0.7-0.7,0.9-1.2c0.5-1.4,0.8-2.8,1-4.3c0.4-3.3,0-6.5-0.3-9.7c-0.2-1.8-0.4-3.5-0.6-5.3
					c-0.1-0.7,0-1.5,0.1-2.3c0.1-0.6,0.5-1.2,0.9-1.7c0.8-0.9,1.9-1.1,3-0.7c1.1,0.4,1.9,1.1,2.5,2.1c0.7,1.1,1.3,2.3,1.9,3.5
					c1.3,2.9,2,5.9,2.7,9c0.6,2.6,1.3,5.1,2,7.7c0.1,0.3,0.2,0.6,0.3,0.9C246.5,260.6,246.5,260.6,246.5,260.6z M258.7,240.5
					c0.2,0,0.2,0,0.3,0c2.1-0.9,3.8-3.7,3.5-5.9c-0.1-0.7-0.3-1.4-0.9-1.8c-0.6-0.5-1.2-0.4-1.6,0.3c-0.2,0.4-0.4,0.8-0.5,1.2
					C259,236.2,258.7,238.3,258.7,240.5z"/>
				<path class="st12" d="M225.5,232.6c0,1.8-1.6,3.6-3.8,3.9c-1.8,0.3-3.6-1-4.2-2.9c-0.7-2.1,0-4.1,1.7-5.2c1.6-1,3.5-0.8,4.7,0.6
					c0.3,0.3,0.5,0.6,0.8,0.9C225.2,230.6,225.5,231.4,225.5,232.6z"/>
			</g>
		</g>
	</g>
</g>
</svg>
