<?xml version="1.0" encoding="utf-8"?>
<!-- Generator: Adobe Illustrator 21.1.0, SVG Export Plug-In . SVG Version: 6.00 Build 0)  -->
<svg version="1.1" id="Calque_1" xmlns="http://www.w3.org/2000/svg" xmlns:xlink="http://www.w3.org/1999/xlink" x="0px" y="0px"
	 viewBox="0 0 432 432" style="enable-background:new 0 0 432 432;" xml:space="preserve">
<style type="text/css">
	.st0{fill:#191464;}
	.st1{fill:#C82933;}
	.st2{fill:#E4C877;}
	.st3{fill:#B3B3B3;}
	.st4{fill:#342E8C;}
	.st5{fill:#CCCCCC;}
	.st6{fill:#F44244;}
	.st7{fill:#E6E6E6;}
	.st8{fill:#BD0725;}
	.st9{fill:#1A1A1A;}
	.st10{fill:#DA8F92;}
	.st11{fill:#F4D497;}
	.st12{fill:#F0A762;}
	.st13{fill:#8D4C36;}
	.st14{fill:#DAA18E;}
	.st15{fill:#E0C4BA;}
	.st16{fill:#DA9D8F;}
	.st17{fill:#70796B;}
	.st18{fill:#C5907E;}
	.st19{fill:#AAC69B;}
	.st20{fill:#B098A2;}
	.st21{fill:#2F3448;}
	.st22{fill:#8D1D11;}
	.st23{fill:#1B1E55;}
	.st24{fill:#B22931;}
	.st25{fill:#6E8BC4;}
	.st26{fill:#8B8286;}
	.st27{fill:#E3A8A3;}
	.st28{fill:#D7A392;}
	.st29{fill:#8B6E68;}
	.st30{fill:#C8A093;}
	.st31{fill:#333333;}
	.st32{fill:#B8B195;}
	.st33{fill:#864C38;}
	.st34{fill:#BA9490;}
	.st35{fill:#8D5948;}
	.st36{fill:#656E6E;}
	.st37{fill:#C6A687;}
	.st38{fill:#D6AA9C;}
	.st39{fill:#A06352;}
	.st40{fill:#ECBAA9;}
</style>
<g>
	<g>
		<path d="M222.6,149.6c-0.8,0.1-1.6,0.2-2.4,0.3c0,0.5,0,1,0,1.4c0,2.8-0.4,5.5-1.4,8.1c-0.7,1.8-1.7,3.4-3,4.7
			c-1.6,1.6-3.5,2.6-5.8,2.8c-1.9,0.1-3.7-0.3-5-1.7c-2.5-2.7-3.5-5.9-2.5-9.6c0.5-1.9,1.8-3.4,3.3-4.5c1.4-1.1,2.9-1.9,4.5-2.6
			c0.3-0.1,0.6-0.3,0.9-0.4c0-0.2,0-0.4,0-0.6c-0.5-1.8-0.9-3.6-1.5-5.4c-0.4-1.1-1-2.1-1.6-3c-0.8-1.1-1.9-1.4-3.2-1.1
			c-1.2,0.3-2.2,0.9-3,1.7c-1.3,1.2-2.1,2.7-2.9,4.2c-1.8,4.1-2.3,8.3-1.5,12.7c0.2,1.2,0.6,2.4,0.9,3.6c0.6,2.4-1,4.7-3.5,4.9
			c-1.5,0.1-2.8-0.3-3.9-1.3c-0.7-0.7-1.3-1.4-1.9-2.2c-3.2-4.6-5.6-9.6-7.1-15c-0.8-2.7-1.3-5.5-2-8.3c-0.1-0.2-0.1-0.4-0.2-0.7
			c-1.8,0.3-3.6,0.5-5.4,0.8c-3.1,0.5-6.1,1.1-9.1,2c-3.1,0.9-5.8,2.5-8.2,4.5c-1.6,1.3-2.8,3-3.6,4.9c-0.1,0.2-0.2,0.4-0.3,0.6
			c-0.2,0.4-0.5,0.6-1,0.6c-0.5,0-0.9-0.3-1-0.7c-0.1-0.5-0.2-1-0.2-1.5c0.3-2.6,1.5-4.8,3.3-6.7c2.2-2.3,4.7-4,7.6-5.1
			c3.6-1.5,7.4-2.4,11.3-3c1.9-0.3,3.9-0.6,6-0.9c0-0.4,0-0.7,0-1.1c-0.4-6.2,0.1-12.2,2-18.1c1.1-3.3,2.6-6.3,4.8-8.9
			c2.3-2.7,5.3-4.5,8.7-5.2c3.9-0.9,7.5,0.2,10.7,2.4c4.5,3.1,6.5,8.5,5.3,14c-0.8,3.5-2.4,6.5-4.6,9.2c-4.4,5.2-10,8.6-16.5,10.5
			c-0.3,0.1-0.6,0.2-1,0.3c0,0,0,0-0.2,0.2c0.8,5,2.2,9.9,4.6,14.7c0.1-0.5,0.2-1,0.3-1.5c0.5-2.8,1.2-5.4,2.4-8
			c1.7-3.4,4.2-6.1,7.8-7.5c3.7-1.5,7.2-1,10.2,1.6c2.5,2.2,4.1,4.9,5.1,8.1c0.3,0.9,0.5,1.9,0.8,2.9c0.8-0.1,1.5-0.2,2.4-0.3
			c0-0.4,0-0.8,0-1.2c-0.1-2.6,0.1-5.2,0.8-7.7c0.9-3,2.2-5.7,4.5-7.8c1.8-1.7,4-2.8,6.5-3.1c1.5-0.1,2.9,0.2,4.1,1
			c4.3,2.6,5.6,7.8,3.2,12.1c-1.1,2-2.8,3.6-4.6,5c-1.4,1.1-2.9,2-4.6,2.7c-0.3,0.1-0.7,0.3-1.1,0.5c0.2,0.8,0.3,1.5,0.6,2.2
			c0.9,3,2.6,5.5,5.2,7.3c2.5,1.7,3.9,1.5,6.1,0c1-0.7,2-1.6,2.8-2.6c1.4-1.6,2.6-3.4,3.9-5.1c2.1-2.7,4.4-5.3,7.1-7.4
			c2.9-2.2,6.1-4,9.7-4.7c2.1-0.4,4.1-0.4,6.2,0.2c3.5,1.1,5.9,3.4,7.1,6.8c1.7,4.7,1.5,9.3-0.8,13.7c-2.5,4.8-6.6,7.4-12,8
			c-1.6,0.2-3.1,0-4.6-0.2c-0.4-0.1-0.8-0.2-1.1-0.4c-0.9-0.7-0.8-1.9,0.2-2.3c0.4-0.2,1-0.2,1.5-0.2c1.3-0.1,2.6,0,3.9-0.2
			c3.4-0.7,6-2.4,7.7-5.5c1.5-2.7,2.3-5.6,1.6-8.7c-0.2-1.1-0.7-2.2-1.2-3.2c-1.4-2.6-4.4-4-7.4-3.6c-2.7,0.4-5.1,1.5-7.3,3
			c-2.5,1.6-4.5,3.6-6.2,6c-1.1,1.5-2.2,3.2-3.3,4.7c-1.2,1.7-2.4,3.3-3.7,4.9c-1,1.1-2.2,2.2-3.5,3.1c-4.3,3-9.8,2.7-13.8-0.7
			c-2.9-2.4-4.7-5.5-6-8.9C223.3,152.2,223,150.9,222.6,149.6z M187.9,131.5c0.2,0,0.4,0,0.5,0c0.7-0.2,1.5-0.4,2.2-0.6
			c4.2-1.2,8-3.1,11.2-6.1c2.7-2.6,4.7-5.6,5.7-9.3c0.7-2.9,0.3-5.5-1.3-8c-1.4-2.1-3.5-3.3-6-3.6c-2.3-0.2-4.2,0.7-5.6,2.5
			c-1.8,2.2-3.1,4.6-4.2,7.2c-1.8,4.5-2.5,9.1-2.5,13.9C187.8,128.8,187.9,130.2,187.9,131.5z M230.6,143.7c0.3-0.1,0.5-0.1,0.6-0.2
			c2.4-1.1,4.5-2.6,6.2-4.6c0.6-0.7,1.1-1.4,1.4-2.2c0.9-2.2,0.1-4.7-1.9-5.9c-1-0.6-1.8-0.6-2.8,0.2c-1.1,0.9-1.8,2-2.2,3.3
			c-0.6,1.7-0.8,3.4-1,5.1C230.7,140.8,230.7,142.2,230.6,143.7z M211.4,152.1c-2.4,0.9-3.9,2.5-4.5,4.8c-0.2,0.6-0.2,1.3-0.1,1.9
			c0.1,0.7,0.6,0.9,1.2,0.6c0.6-0.4,1.2-0.8,1.6-1.4C210.7,156.2,211.3,154.3,211.4,152.1z"/>
		<g>
			<path d="M253.1,193.3c0.7-1.3,1.3-2.6,1.9-3.7c0.7-1.2,1.5-2.5,2.4-3.6c2.2-2.8,5.1-2.4,7.2-0.8c1,0.8,1.8,1.8,2.5,2.9
				c2,3.2,3.2,6.6,3.9,10.3c0.7,3.5,1.1,7,1.4,10.6c0.1,0.7,0.1,1.3,0.2,2c0.2,0,0.3,0,0.4-0.1c2.9-1.3,5.8-2.6,8.4-4.3
				c5.8-3.9,9.4-9.2,10.5-16c0.4-2.7,0.3-5.4-0.7-7.9c-0.8-2.1-2-3.8-3.8-5.1c-2.7-2.1-5.3-1.5-7.4,0.7c-1.7,1.7-2.1,3.9-1.9,6.3
				c0.1,1.2,0.5,2.4,1.3,3.3c0.5,0.7,0.8,1.5,0.7,2.4c0,1.1-1,1.8-2.1,1.5c-0.7-0.2-1.3-0.5-1.7-1.1c-2.4-3.2-3.4-6.8-2.5-10.8
				c1.1-5,6-8.5,11.1-7.8c1.6,0.2,3.1,0.9,4.4,1.9c3.1,2.4,5,5.6,5.8,9.4c1,4.5,0.5,8.9-1.1,13.2c-2.1,5.7-5.8,10.4-10.6,14
				c-2.9,2.2-6,4-9.2,5.6c-0.4,0.2-0.8,0.4-1.3,0.7c0,0.4,0,0.7,0,1.1c0.2,4.4,0.2,8.7-0.2,13.1c-0.3,3.9-1.1,7.7-2.6,11.3
				c-0.6,1.5-1.4,2.9-2.5,4.1c-3.6,4.1-9.2,4.3-12.9,0.3c-2.2-2.3-3.3-5.2-3.9-8.2c-1.3-6.6,0.6-12.2,5.2-17
				c2.1-2.2,4.6-3.9,7.1-5.4c0.3-0.2,0.7-0.4,1-0.6c0.3-5.8-2.5-23.4-4.2-26.1c-0.4,0.5-0.9,1-1.3,1.6c-0.7,1.3-1.5,2.6-2,3.9
				c-1.2,2.9-2.3,5.8-3.4,8.7c-0.9,2.4-1.9,4.6-3.2,6.8c-1,1.7-2.3,3.2-3.9,4.3c-3.4,2.3-7.7,2-10.8-0.8c-0.6-0.6-1.2-1.2-1.8-1.9
				c-0.4,1.2-0.8,2.3-1.1,3.4c-0.6,2.1-1.3,4.2-2.4,6.2c-0.3,0.6-0.6,1.1-1,1.7c-1.2,1.8-2.9,2.3-4.9,1.6c-0.9-0.3-1.8-0.8-2.6-1.3
				c-3-2-4.7-5-5.9-8.3c-1-2.9-1.1-5.9-0.9-9c0.3-4.2,1-8.3,1.6-12.4c0.4-3,0.6-6,0.9-9c0-0.4,0-0.9,0-1.4c-0.4,0.2-0.6,0.2-0.7,0.4
				c-0.9,0.9-1.8,1.8-2.5,2.9c-2,2.8-3.1,6.1-4,9.4c-1,3.8-1.4,7.6-1.8,11.5c-0.1,1.1-0.2,2.2-0.4,3.3c-0.5,2.9-3.1,4-5.5,2.3
				c-2.4-1.7-4-4-4.9-6.8c-1-3.3-1.7-6.8-2.2-10.2c-0.2-1.9-0.4-3.9-0.6-5.8c0-0.1,0-0.3-0.1-0.5c-0.9,0.5-1.7,0.9-2.6,1.4
				c0,0.6,0.1,1.2,0.1,1.7c0.4,4.6,0.4,9.2-0.3,13.8c-0.4,2.8-1.4,5.4-2.9,7.8c-3.4,5.6-10.8,5.7-14.7,1.5c-0.3-0.3-0.6-0.7-1.1-1.1
				c-0.4,1.1-0.7,2.1-1,3.1c-0.7,2.1-1.4,4.3-2.2,6.4c-0.3,0.7-0.6,1.4-1,2.1c-1.8,2.9-4.9,3.8-7.9,2.3c-1.7-0.9-3.1-2.1-4.2-3.7
				c-1.9-2.5-2.8-5.3-3-8.4c-0.3-6.1,0.4-12,2.1-17.8c0.3-1.2,0.6-2.3,0.8-3.5c0.3-1.4,0.2-2.9-0.4-4.2c-0.7-1.5-1.5-2-3.1-1.7
				c-0.7,0.1-1.4,0.3-2,0.5c0.1,1.2,0.1,2.3,0.1,3.3c0.1,5.4-0.8,10.7-3.1,15.7c-0.6,1.4-1.4,2.7-2.3,3.9c-2.7,3.7-7,4.9-11.3,3.4
				c-2.8-1-5.1-2.7-6.9-5.1c-2.5-3.3-4.1-6.9-5.2-10.8c-0.1-0.4-0.2-0.8-0.3-1.2c0-0.1-0.1-0.1-0.2-0.3c-3.3,0.4-6.6,0.6-10,1.7
				c0.3,0.4,0.5,0.7,0.7,1c2,2.5,3.5,5.3,4.1,8.4c0.6,3.2,0.1,6.3-1.4,9.2c-1.4,2.7-3.8,3.9-6.7,4.5c-3.3,0.7-6.3,0-9-2
				c-0.7-0.5-1.4-1.1-2.1-1.7c-2.9-2.9-3.8-6.2-2.6-10.1c0.9-3,2.6-5.5,5.1-7.5c0.3-0.2,0.5-0.4,0.9-0.7c-0.3-0.3-0.5-0.5-0.8-0.8
				c-1.7-1.8-3.4-3.6-5-5.6c-1.7-2.1-2.9-4.4-3.5-7.1c-1-5.1,0.7-9.2,4.5-12.5c1.4-1.2,3-1.7,4.8-1.9c6-0.6,12.1,3.3,13.6,8.9
				c0.4,1.7,0.6,3.4-0.1,5c-0.2,0.4-0.4,0.8-0.6,1.1c-0.4,0.5-0.9,0.7-1.3,0.5c-0.6-0.2-0.6-0.7-0.5-1.2c0.2-1.9-0.3-3.7-1.2-5.3
				c-1.4-2.6-3.5-4.5-6.5-5c-0.7-0.1-1.5-0.1-2.2-0.1c-2.7,0.2-3.8,2.5-3.6,4.8c0.1,1.1,0.4,2.1,0.8,3.1c0.7,1.8,1.7,3.5,3.1,4.9
				c2.2,2.4,4.4,4.7,6.7,7c4.1-1.2,8.1-2.1,12.3-2.2c-1-8.4-0.1-16.7,1.5-25c-0.3-0.1-0.6-0.3-0.9-0.4c-2-0.9-3.9-1.7-5.9-2.6
				c-3.6-1.6-7.1-3.2-10.7-4.8c-3.5-1.5-7.2-2.1-11-2.3c-2.2-0.1-4.4,0.2-6.4,1c-2.7,1-4.5,2.9-5.5,5.6c-0.4,1.1-0.3,2.2-0.1,3.4
				c0.1,0.8,0.3,1.6,0.3,2.4c0,0.9-0.5,1.5-1.3,1.7c-0.8,0.2-1.6-0.2-1.9-1.1c-0.3-0.6-0.5-1.3-0.6-1.9c-0.9-5.7,2-11,7.4-13.1
				c2.9-1.2,6-1.6,9.2-1.4c4.9,0.4,9.6,1.5,14.1,3.5c2.7,1.3,5.4,2.5,8.1,3.7c1.8,0.8,3.6,1.5,5.4,2.3c0.3,0.1,0.6,0.2,1,0.3
				c0.3-0.4,0.5-0.8,0.7-1.1c0.7-1,1.6-1.6,2.8-1.8c2-0.2,3.6,1.2,4,3.3c0.1,0.6,0.1,1.2,0.2,1.9c1,0.1,1.9,0.3,2.9,0.4
				c5.3,0.5,10.5,0.1,15.5-1.5c2.7-0.9,5.2-2.3,7.4-4.2c1.2-1,2.3-2.2,3.1-3.7c0.3-0.6,0.6-1.3,0.8-2c0.4-1.6-0.2-2.8-1.4-3.7
				c-0.5-0.4-1.2-0.7-1.8-1c-0.5-0.3-0.9-0.6-0.9-1.2c0-0.7,0.4-1.1,1-1.2c0.6-0.1,1.3-0.2,1.9-0.1c3.7,0.9,5.8,4.6,4.7,8.4
				c-0.8,2.8-2.4,5.1-4.5,7c-3.3,3-7.1,4.8-11.3,5.8c-5,1.2-10.1,1.5-15.2,0.9c-0.8-0.1-1.6-0.2-2.6-0.3c-0.2,1.2-0.4,2.3-0.6,3.4
				c-0.6,4.2-1.1,8.5-0.8,12.7c0.2,3.9,0.7,7.8,1.9,11.5c0.8,2.6,2.2,4.9,4,6.9c0.8,0.9,1.7,1.6,2.7,2.2c1.4,0.7,2.6,0.6,3.7-0.5
				c0.8-0.9,1.6-1.9,2.2-3c1.7-2.8,2.4-5.9,2.9-9c0.2-1.3,0.2-2.6,0.3-3.9c0-0.5,0-0.9,0-1.6c-0.8,0.4-1.5,0.7-2.2,1.1
				c-4.5,2.6-11,1-12.2-6c-0.6-3.5,0.5-6.5,3.3-8.8c2.5-2,5.5-2.2,8.1-0.4c2,1.3,3.5,3.1,4.5,5.3c0.5,1.1,0.9,2.3,1.3,3.5
				c0.9-0.1,1.8-0.3,2.6-0.4c3.1-0.4,5.5,0.7,7.3,3.3c1.4,2,2.2,4.2,2.4,6.5c0.4,3.6,0.3,7.2-0.1,10.9c-0.3,3.5-0.7,7-0.3,10.4
				c0.2,1.8,0.6,3.5,1,5.2c0.2,0.8,0.7,1.5,1.2,2.2c0.4,0.5,0.7,0.5,1.2,0.1c0.4-0.3,0.7-0.7,1-1.1c0.5-0.7,0.9-1.5,1.2-2.3
				c1.1-2.6,2.2-5.3,3.2-7.9c0.2-0.5,0.2-0.9,0-1.4c-2.1-4.8-2.7-9.9-2.1-15.1c0-0.3,0.1-0.7,0.1-1c0-0.3,0.1-0.6,0.1-1
				c-0.3-0.1-0.5-0.3-0.8-0.4c-5.4-2.6-8.4-6.9-8.7-12.8c-0.5-7,4.8-12.6,11.1-13.3c2.4-0.2,4.7,0.2,6.9,1.3c3.9,1.8,7,4.5,9.3,8.1
				c1.9,3,3.3,6.3,4.1,9.8c0.1,0.3,0.2,0.6,0.3,1.1c1.1-0.5,2.1-0.9,3.1-1.4c0.1-1.7,0.1-3.3,0.3-4.8c0.1-0.9,0.3-1.9,0.6-2.7
				c0.6-1.6,1.8-2.6,3.5-2.7c1.5,0,2.9,1.1,3.5,2.9c0.3,1.1,0.5,2.2,0.5,3.4c0.1,2.2,0.1,4.4,0.2,6.6c0.1,3.6,0.7,7.1,1.4,10.7
				c0,0.1,0.1,0.3,0.2,0.6c0.4-1.8,0.8-3.4,1.2-4.9c0.9-3.3,2-6.5,3.4-9.6c1-2.1,2.2-3.9,3.7-5.6c0.8-0.9,1.8-1.7,2.9-2.3
				c2.1-1.1,4-0.8,5.8,0.7c1.3,1.1,2.2,2.6,2.7,4.2c0.5,1.4,0.6,2.9,0.6,4.4c0.1,2.9-0.3,5.8-0.7,8.6c-0.4,3.1-1,6.2-1.2,9.4
				c-0.2,2.3,0,4.6,0.1,6.9c0,1.8,0.3,3.5,0.9,5.2c0.3,0.8,0.7,1.6,1.1,2.4c0.2,0.3,0.5,0.6,0.9,1c0.5-0.7,0.9-1.1,1.2-1.7
				c0.9-1.8,1.8-3.7,2.6-5.6c0.6-1.3,1.1-2.7,1.6-4c0.2-0.4,0.2-0.8,0-1.2c-2.4-5.6-2.7-11.4-1.3-17.3c0.5-2,1.3-3.7,2.6-5.3
				c2.3-2.7,5.2-3.7,8.7-2.9c1.7,0.4,3.3,1,4.7,2.1c2.7,1.9,4.8,4.3,6.2,7.3C252.8,192.8,252.9,193,253.1,193.3z M188.1,189.7
				c0-0.2,0-0.3,0-0.4c-0.7-3.5-2-6.7-3.8-9.8c-0.5-0.9-1.1-1.8-1.8-2.5c-2.1-2.4-4.7-4.3-7.9-4.9c-3.5-0.8-6.4,1.2-6.9,4.8
				c-0.4,3,0.6,5.8,2.5,8.1c0.4,0.5,1,0.9,1.5,1.3c0.3-0.4,0.5-0.6,0.7-0.9c0.6-0.7,1.3-1.3,2.1-1.6c2.3-0.9,4.7,0.5,4.9,3
				c0.1,0.8-0.1,1.5-0.1,2.3c0,0.3-0.1,0.6-0.1,0.9C182.3,190.8,185.2,190.7,188.1,189.7z M251.2,197.4c-1.8-2.4-3.9-4.6-6.4-6.3
				c-0.2-0.1-0.5-0.2-0.7-0.3c-1.9-0.8-3.8-0.1-4.8,1.7c-0.3,0.5-0.5,1.1-0.6,1.7c-0.6,3.8-0.3,7.5,1.1,11.1c0.5,1.2,1.3,2.2,2.3,3
				c0.9,0.7,1.5,0.8,2.5,0.2c1.1-0.7,2-1.6,2.7-2.7C249,203.2,249.9,200.3,251.2,197.4z M178.1,195.9c-0.1,0.9-0.2,1.7-0.3,2.5
				c-0.3,3.3,0.1,6.5,1.3,9.6c0.6,1.6,1.8,2.8,3.2,3.8c1.4,1,2.3,0.8,3.4-0.6c0.2-0.3,0.4-0.5,0.6-0.8c0.8-1.3,1.3-2.7,1.7-4.2
				c1.1-4.2,1-8.4,0.7-12.6c0-0.2-0.1-0.3-0.2-0.6C185.2,194.5,181.8,195.6,178.1,195.9z M264.5,221.7c-0.3,0.1-0.4,0.2-0.5,0.2
				c-1.3,1.1-2.7,2.2-3.9,3.4c-1.4,1.3-2.3,2.9-2.9,4.8c-1.1,3.5-0.8,6.9,1.3,10c0.3,0.5,0.8,0.9,1.2,1.3c0.4,0.3,0.8,0.3,1.1-0.1
				c0.2-0.3,0.5-0.6,0.7-0.9c0.5-0.9,0.9-1.9,1.3-2.8c0.9-2.4,1.3-4.9,1.5-7.4C264.5,227.5,264.6,224.7,264.5,221.7z M104,204.2
				c-2.7,1.8-4.6,4-5.3,7.2c-0.6,3,1.4,5.6,3.9,6.2c1.6,0.4,3.3,0.2,4.5-1.1c1.6-1.8,2.2-3.9,1.2-6.3
				C107.3,207.9,105.8,206,104,204.2z M147,186.8c-0.2-2.3-2.3-5.5-4.2-6.5c-0.1,0-0.2-0.1-0.3-0.1c-1.2-0.5-2.2,0-2.3,1.3
				c0,0.3,0,0.5,0,0.8c0.3,1.5,1,2.7,2.3,3.4C144,186.5,145.4,187,147,186.8z"/>
			<path d="M328,209.5c-2.1,0.3-4.2,0.8-6.1,1.8c-0.9,0.5-1.7,1.2-2.3,2.1c-0.4,0.6-0.8,1.3-1.2,2c-0.3,0.4-0.6,0.7-1.2,0.6
				c-0.6-0.1-0.9-0.5-1-1c-0.1-0.4,0-0.7,0-1.1c0.6-2.8,2-5.3,4.3-7c1.6-1.2,3.3-2.1,5.2-2.8c1.7-0.6,3.4-1.2,5-1.8
				c4.7-1.9,8.8-4.6,12-8.6c2.9-3.6,5-7.7,5.9-12.3c0.4-2.1,0.5-4.2-0.1-6.3c-0.3-1-0.7-2-1.3-2.8c-1.6-2.3-4.2-2.4-6.1-0.5
				c-1.5,1.5-2.2,3.4-2.6,5.5c-0.1,0.8-0.2,1.6-0.2,2.4c0,0.7-0.3,1.4-0.7,1.9c-0.7,0.8-1.7,0.7-2.2-0.1c-0.3-0.5-0.5-1.1-0.5-1.6
				c0.1-2.7,0.5-5.3,1.6-7.7c0.6-1.3,1.4-2.4,2.4-3.4c3.4-3.2,7.4-2.2,9.7-0.3c2.2,1.8,3.4,4.3,4,7c0.6,3.4,0.2,6.8-0.7,10.2
				c-1.7,5.9-4.6,11.2-8.7,15.8c-2.9,3.3-6.5,5.6-10.7,7c-0.3,0.1-0.6,0.2-0.8,0.3c-0.1,0-0.1,0.1-0.2,0.1c0.4,0.9,0.9,1.9,1.2,2.9
				c1.8,4.8,1.7,9.5-0.7,14.1c-1.7,3.2-4.4,5.2-7.9,6c-2.3,0.5-4.5,0.2-6.7-0.6c-4.1-1.4-7.5-4-10.1-7.4c-5.1-6.7-7.7-14.3-7.3-22.8
				c0.2-5.3,2-10,5.4-14c1.2-1.5,2.7-2.6,4.3-3.7c0.3-0.2,0.6-0.4,1-0.7c-0.3-0.3-0.5-0.5-0.8-0.7c-3.7-3.2-6.2-7.1-7.4-11.9
				c-1.1-4.5-1-9,1.1-13.2c1.8-3.5,4.4-5.9,8.3-6.8c3-0.7,5.8-0.3,8.5,1.1c1.4,0.7,2.7,1.6,4,2.5c2.8,2.1,4.2,5,4.6,8.4
				c0.2,2.2,0.2,4.4-0.6,6.5c-0.2,0.7-0.5,1.3-0.9,1.9c-0.1,0.3-0.4,0.6-0.6,0.8c-0.4,0.4-0.9,0.4-1.4,0.2c-0.5-0.3-0.7-0.7-0.6-1.3
				c0.1-0.7,0.3-1.3,0.4-2c0.4-2.3,0.4-4.6-0.3-6.9c-0.5-1.7-1.4-3.1-2.8-4.2c-1.5-1.3-3.2-2.3-5.2-2.8c-2.9-0.6-5.4,0.8-6.4,3.5
				c-0.6,1.8-0.6,3.6-0.5,5.5c0.1,2.1,0.4,4.2,1.2,6.2c1.3,3.1,3.4,5.5,6.2,7.4c0.7,0.5,1.3,0.9,2,1.4c1,0.8,1.9,1.7,2.4,2.9
				c0.9,2.2,0,4.3-2.2,5c-1.2,0.4-2.4,0.7-3.7,1c-1.8,0.4-3.1,1.3-4.2,2.8c-1.3,1.7-2,3.6-2.3,5.6c-1.1,7.1-0.2,13.9,3.4,20.3
				c1.3,2.3,2.9,4.3,5.1,5.9c1.3,1,2.7,1.6,4.3,1.7c0.7,0,1.3,0.1,2,0.1c2.3,0,4.1-1.2,4.9-3.3c0.9-2.3,1.1-4.6,0.3-6.9
				C329.3,212,328.9,210.7,328,209.5z"/>
		</g>
		<g>
			<path d="M154.3,237c0.7,0,1.4-0.1,2-0.1c2.1,0,4.2-0.2,6.3,0.1c4.6,0.6,7.3,3.8,7.3,8.4c0,2.2-0.3,4.4-0.7,6.6
				c-0.8,4.8-1.3,9.6-1.3,14.4c0,3.5,0.5,6.9,1,10.3c0.1,0.6,0.3,1.1,0.6,2c0.4-0.6,0.6-1,0.8-1.4c1.5-3.2,2.9-6.4,4-9.8
				c0.3-1,0.7-2,1-2.9c0.2-0.4,0.1-0.8-0.1-1.2c-2.1-4.6-2.9-9.4-2.5-14.4c0.3-3.9,1.5-7.4,4.1-10.4c2.9-3.5,6.7-4.5,11-2.8
				c1,0.4,2,0.9,3,1.4c0.1-0.3,0.3-0.6,0.4-0.9c0.7-1.4,1.7-2.3,3.4-2.3c1.6,0,2.7,1,3.3,2.4c0.6,1.3,0.7,2.7,0.7,4.1
				c0,2.8-0.1,5.6-0.1,8.5c0,3,0.1,6,0.2,9c0,1.1,0.2,2.2,0.4,3.3c0.5,2.6,0.9,5.3,1.4,7.9c0.3,1.3,0.6,2.1,1.3,2.8
				c0.3-0.4,0.7-0.9,0.9-1.3c0.4-0.8,0.8-1.7,1.1-2.6c1.3-3.5,2.5-7,3.8-10.5c0.2-0.5,0.2-0.9-0.1-1.4c-2.5-4.5-3.5-9.4-3.2-14.5
				c0.1-1.7,0.6-3.4,1.4-4.9c2-3.6,5.9-5.1,9.7-3.8c1.7,0.6,3.1,1.5,4.5,2.6c1.6,1.3,2.9,2.8,4.2,4.4c0.2,0.2,0.4,0.5,0.6,0.8
				c0.2-0.4,0.3-0.7,0.5-1.1c0.6-1,1.1-2.1,1.8-3c0.6-0.8,1.3-1.5,2.1-2c2.1-1.4,4.5-1,6,1c0.5,0.7,0.8,1.4,1.2,2.2
				c0.9,2.3,1.4,4.6,1.6,7c0.5,5.9,0.8,11.9,0.6,17.8c-0.1,1.8-0.2,3.6-0.3,5.4c0,0.8-0.1,1.7-0.1,2.6c1-0.2,1.9-0.4,2.8-0.7
				c0-0.4,0-0.8,0.1-1.1c0.1-3.3,0.7-6.5,2-9.5c0.5-1.3,1.2-2.5,2.1-3.5c2.8-3.2,7.3-3.6,10.6-0.9c1.7,1.4,2.9,3.2,3.3,5.5
				c0.3,1.7-0.1,3.2-1.3,4.5c-0.8,0.8-1.7,1.5-2.6,2.1c-1.6,1-3.5,1.7-5.4,2.2c0,0.3-0.1,0.6-0.1,0.8c0.1,3.8,0.7,7.5,2.6,10.8
				c0.5,0.9,1,1.8,1.5,2.7c0.3,0.5,0.7,1,1.1,1.4c0.5,0.5,1,0.6,1.6,0.2c0.7-0.5,1.3-1,1.8-1.7c1.5-1.9,2.9-3.9,4.3-5.8
				c0.4-0.5,0.6-1,1-1.5c0.7-1,1.1-2.1,1.3-3.3c0.3-1.4,0.2-2.5-0.7-3.8c-1.6-2.4-2.3-5.1-1.9-8.1c0.3-2.4,1.4-4.4,3.4-5.8
				c4.6-3.4,9.8-2.7,14,0.2c2.9,2,5.1,4.8,6.5,8c0.1,0.3,0.3,0.6,0.4,1c0.2-0.2,0.4-0.4,0.6-0.5c1.2-1.3,2.4-2.6,3.6-3.9
				c0.4-0.4,0.5-0.8,0.5-1.4c-0.1-4.2,0.2-8.4,0.8-12.6c0.1-1,0.4-1.9,0.7-2.8c0.4-1.2,1.2-2.2,2.5-2.6c2.4-1,5,0.7,5.3,3.3
				c0.1,1,0,2-0.1,3c-0.3,3.5-0.6,7-0.6,10.5c0,3.3,0.5,6.5,1.5,9.6c0.3,1.1,0.7,2.2,1,3.3c0.1,0.3,0.2,0.5,0.3,0.7
				c0.7,1.3,2,1.5,3.1,0.5c0.4-0.4,0.9-0.9,1.2-1.4c0.6-1,1.2-2,1.6-3.1c1.8-4,2.9-8.2,4-12.4c0.6-2.1,0.6-4.2,1-6.4
				c0.2-0.9,0.3-1.8,0.6-2.8c0.3-1.1,1-1.9,2.2-2.1c1.2-0.2,2.2,0.2,3,1.1c0.6,0.7,1,1.5,1.1,2.4c0.3,1.9,0.6,3.7,0.8,5.6
				c0.3,3.4,0.3,6.9,0.7,10.3c0.5,4.1,1.1,8.2,1.8,12.3c0.3,2,1,3.9,2.1,5.6c0.3,0.4,0.6,0.8,1,1.3c0.4-0.5,0.8-0.9,0.9-1.3
				c0.7-1.6,1.4-3.2,2-4.8c1.7-5.4,3.2-10.9,4.8-16.3c0.3-1.1,0.6-2.2,1-3.3c0.2-0.6,0.1-1-0.3-1.5c-1.1-1.1-2.1-2.3-3-3.6
				c-1.4-1.9-2.2-4-2.4-6.3c-0.5-5.4,2.7-10.2,8-11.7c6.3-1.9,13.2,2,15.2,8.5c0.4,1.4,0.7,2.7,0.5,4.2c0,0.2,0,0.4-0.1,0.6
				c-0.3,0.9-1.1,1.1-1.8,0.4c-0.4-0.4-0.6-0.9-0.9-1.4c-0.7-1.1-1.3-2.3-2.1-3.4c-1.4-2-3.4-3.4-5.9-4c-0.6-0.1-1.3-0.2-1.9-0.1
				c-2,0.2-3.4,2-3.2,4.3c0.1,1.6,0.6,3.1,1.6,4.4c1.3,1.8,2.9,3.3,4.6,4.6c2.7,2.2,5.4,4.3,8,6.6c1.9,1.6,3.7,3.4,5.6,5.2
				c0,0,0.1-0.1,0.2-0.1c4.5-4.4,8.3-9.3,11.1-15c2.5-5,4.1-10.3,4.7-15.8c0.5-4.5,0-9-1.8-13.2c-1.3-2.9-3.2-5.2-6.2-6.5
				c-3.3-1.5-6.7-0.1-8.5,2.1c-1.4,1.8-2.1,3.8-2.5,6c-0.3,1.6-0.4,3.1-0.5,4.7c-0.1,0.8-0.5,1.3-1.2,1.5c-0.7,0.2-1.5,0-1.8-0.7
				c-0.3-0.6-0.6-1.3-0.7-2c-0.1-2.5,0-4.9,0.6-7.3c1.1-4.2,3.5-7.4,7.7-8.9c2.2-0.8,4.4-0.8,6.6-0.2c3.7,1.1,6.6,3.3,8.6,6.7
				c2.7,4.5,3.8,9.3,3.6,14.5c-0.2,4.4-1.2,8.6-2.5,12.8c-2.9,9-7.6,16.8-14.3,23.5c-0.3,0.3-0.6,0.6-0.8,0.9c0,0-0.1,0.1-0.2,0.3
				c0.2,0.3,0.4,0.6,0.6,1c1.7,2.7,3.1,5.4,3.8,8.5c0.9,3.9,0.7,7.7-1.5,11.2c-2.2,3.4-5.4,5.1-9.4,5c-4-0.1-7.3-2.8-8.3-6.7
				c-0.6-2.4-0.4-4.7,0.5-7c0.9-2.4,2.2-4.4,3.8-6.4c0.6-0.8,1.3-1.5,2-2.4c-0.3-0.4-0.6-0.8-0.9-1.1c-2.2-2.1-4.4-4.1-6.7-6.1
				c-1.8-1.6-3.7-3-5.6-4.5c-0.1-0.1-0.2-0.1-0.4-0.2c-0.1,0.3-0.2,0.5-0.2,0.8c-1.3,5.2-2.5,10.4-3.8,15.5
				c-0.6,2.4-1.5,4.8-2.4,7.1c-0.4,1-0.9,2-1.5,2.9c-1.3,2-3.3,2.5-5.6,1.7c-1.2-0.5-2.2-1.2-3-2.1c-2.5-2.5-4.2-5.5-5.6-8.8
				c-1.3-3.3-1.9-6.8-2.2-10.4c0-0.3-0.1-0.7-0.1-1c0,0,0,0-0.1-0.1c-0.1,0.3-0.2,0.5-0.3,0.8c-0.7,1.9-1.4,3.9-2.2,5.8
				c-0.5,1.1-1.1,2.2-1.7,3.2c-0.7,1.1-1.6,2-2.7,2.7c-2,1.2-4.1,1.4-6.3,0.6c-3.2-1.3-5.5-3.4-6.7-6.7c-0.5-1.4-0.8-2.8-1.2-4.3
				c-0.1-0.4-0.2-0.8-0.3-1.3c-0.3,0.3-0.5,0.5-0.7,0.7c-1,1.3-1.9,2.7-2.9,4c-0.3,0.4-0.3,0.7-0.2,1.1c0.7,4.2,0.5,8.4-0.6,12.6
				c-0.8,3-2.1,5.7-4.4,7.9c-0.8,0.7-1.6,1.4-2.5,1.9c-2.2,1.3-4.6,1.5-7.1,0.5c-3.2-1.2-5.5-3.5-7-6.6c-0.9-1.9-1.4-3.8-1.8-5.9
				c0-0.2-0.1-0.3-0.3-0.5c-0.3,0.5-0.5,1-0.8,1.4c-0.9,1.6-1.9,3.3-2.9,4.9c-0.5,0.7-1,1.4-1.6,2.1c-2.1,2.3-4.6,3-7.6,2.2
				c-2.9-0.8-5.2-2.5-6.9-5c-1.7-2.5-2.6-5.4-3.2-8.3c-0.3-1.4-0.4-2.8-0.7-4.2c-1,0.3-1.9,0.6-3,0.9c-0.1,0.8-0.1,1.7-0.2,2.5
				c-0.4,5.6-1.1,11.1-2.8,16.4c-1.2,3.7-2.8,7.1-5.4,10.1c-0.9,1.1-2,2.1-3.2,2.9c-2.9,2.1-6.2,2-9.1-0.1c-2.2-1.6-3.6-3.7-4.3-6.3
				c-1.5-5.1-0.9-9.9,1.7-14.5c3.1-5.3,7.6-8.9,13.3-11.1c0.4-0.2,0.8-0.3,1.3-0.5c0.7-10.1,0.3-20.2-0.5-30.3c-0.1,0-0.1,0-0.2,0
				c-0.1,0.3-0.3,0.6-0.4,0.8c-1.1,2.5-2.1,5.1-3.2,7.6c-1,2.4-2,4.7-3.7,6.7c-0.5,0.6-1,1.1-1.5,1.6c-2.6,2.4-6,2.6-8.9,0.7
				c-0.4-0.3-0.7-0.6-1.2-0.9c-0.1,0.3-0.2,0.5-0.3,0.7c-0.9,3.1-1.8,6.2-2.8,9.2c-0.5,1.6-1.3,3.1-2,4.6c-0.8,1.4-2,2.2-3.7,2.2
				c-0.9,0-1.8-0.1-2.5-0.6c-1-0.6-1.9-1.2-2.7-2c-2.6-2.6-4.2-5.8-4.9-9.4c-0.2-1-0.3-1.9-0.6-3.2c-0.2,0.5-0.3,0.7-0.5,1
				c-0.5,1.1-0.9,2.2-1.5,3.3c-0.6,1.3-1.5,2.4-2.7,3.1c-1.9,1.1-3.9,1.2-5.9,0.2c-0.8-0.4-1.5-0.9-2.4-1.5
				c-0.1,0.1-0.2,0.3-0.2,0.5c-0.9,3-1.8,6-2.8,9c-0.4,1.2-0.9,2.3-1.4,3.5c-0.2,0.6-0.5,1.1-0.9,1.6c-1.3,2-3.3,2.7-5.6,1.9
				c-1.5-0.5-2.7-1.5-3.6-2.8c-1.9-2.6-2.9-5.6-3.2-8.8c-0.5-5.2-0.4-10.5,0.3-15.7c0.5-3.8,1.2-7.5,1.7-11.2
				c0.1-0.7,0.2-1.5,0.2-2.2c0-1-0.2-1.3-1.2-1.5c-0.4-0.1-0.8-0.2-1.2-0.2c-1.2,0-3.5,0.4-4.8,0.8c0,0.2-0.1,0.4-0.1,0.6
				c0.1,7.5-0.8,14.9-2.6,22.1c-0.8,3.1-1.6,6.2-2.5,9.3c-0.5,1.7-1.3,3.3-2.3,4.8c-0.7,1.1-1.6,2.2-2.7,3c-2.4,1.7-5,2-7.7,0.8
				c-2.4-1-4.1-2.8-5.5-5c-1.5-2.4-2.4-5-3.1-7.7c-0.4-1.8-0.7-3.6-1-5.3c0-0.1-0.1-0.3-0.1-0.6c-0.3,0.4-0.5,0.7-0.7,0.9
				c-0.7,0.8-1.4,1.7-2.2,2.4c-2,1.5-4.2,1.8-6.5,0.8c-2.8-1.1-4.6-3.3-5.7-6.1c-0.9-2.3-1.2-4.7-1.4-7.2c0-0.3,0-0.7-0.1-1.2
				c-0.9,0.8-1.7,1.5-2.4,2.3c-0.1,0.1-0.1,0.5-0.1,0.8c0.5,3.6,0.5,7.2,0.3,10.9c-0.3,4.6-1.1,9.1-3,13.3c-0.5,1-1,2.1-1.6,3
				c-1.8,2.8-4.4,4.6-7.6,5.4c-2.7,0.7-5.3,0.2-7.7-1.2c-3.3-2-5.4-4.9-6.9-8.4c-0.4-1-0.8-2.1-1.2-3.3c-0.2,0.4-0.3,0.7-0.4,1
				c-1.3,2.8-2.5,5.6-3.9,8.4c-0.7,1.5-1.7,2.8-2.9,3.9c-3.6,3.2-8,3.2-11.5,0c-1.3-1.2-2.3-2.6-3.2-4.1c-1.8-3.1-2.9-6.6-3.6-10.1
				c-0.9-4.4-1.2-8.8-0.8-13.3c0.3-3.2,1-6.3,2.4-9.2c1.5-3.1,4-4.8,7.3-5.4c1.2-0.2,2.4,0,3.6,0.4c2.2,0.8,4.2,2,5.7,3.9
				c0.8,1,1.6,2.2,2.3,3.3c0.3,0.6,0.5,1.2,0.7,1.9c0.1,0.7-0.3,1.3-0.8,1.5c-0.5,0.2-0.9,0-1.3-0.6c-0.9-1.2-1.9-2.3-3-3.2
				c-0.8-0.7-1.7-1.2-2.7-1.5c-1.8-0.5-2.7-0.1-3.4,1.6c-1,2.1-1.6,4.4-1.9,6.7c-0.7,5.5-0.2,11,1.6,16.3c0.8,2.5,2.1,4.7,3.9,6.6
				c0.9,0.9,1.6,1.1,3,0.3c0.4-0.2,0.7-0.5,1-0.9c0.5-0.5,0.9-1.1,1.3-1.7c2.1-3.1,4.1-6.2,5.8-9.5c0.2-0.4,0.4-0.8,0.3-1.2
				c-0.3-4.1,0.4-8.1,1.6-12c0-0.1,0-0.2,0.1-0.3c-0.1-0.1-0.2-0.2-0.3-0.3c-3.7-3.3-5.8-7.5-6.6-12.4c-0.5-2.8-0.3-5.6,0.4-8.4
				c0.6-2.5,1.8-4.6,3.7-6.4c2.8-2.7,6.1-3.6,9.9-2.5c3.3,1,6.2,2.7,8.7,5.1c5,4.9,8.6,10.6,10.2,17.5c0.1,0.3,0.1,0.5,0.2,0.8
				c0.5,0,0.8-0.4,1.1-0.7c0.7-0.6,1.5-1,1.9-1.8c0.4-0.7,0.2-1.7,0.2-2.6c0.2-2.1,0.3-4.2,0.6-6.2c0.1-0.9,0.5-1.8,0.9-2.7
				c0.5-1.1,1.4-1.8,2.6-2.1c1.6-0.3,3,0.4,3.8,1.9c0.7,1.2,0.8,2.5,0.8,3.8c0,1.6,0,3.2-0.1,4.7c-0.1,3.2-0.2,6.4,0.3,9.6
				c0.3,2.2,1.1,4.3,1.9,6.3c0.5,1.1,1.2,1.3,2.1,0.4c0.6-0.6,1.2-1.3,1.6-2.1c0.7-1.4,1.2-2.8,1.7-4.2c0.2-0.4,0.2-0.9,0.2-1.4
				c0.2-4.6,0.6-9.2,1.7-13.7c0.4-1.5,0.9-2.9,1.5-4.4c0.4-1,1.1-1.8,2-2.4c1.8-1.2,3.7-0.7,4.7,1.3c0.6,1.2,0.6,2.5,0.5,3.8
				c-0.3,2.6-0.7,5.1-1,7.7c-0.4,3.9-0.8,7.8-0.7,11.7c0.1,5.3,1.4,10.3,3.7,15c0.4,0.7,0.8,1.5,1.3,2.1c1,1.2,1.9,1.2,3,0.2
				c0.7-0.6,1.3-1.4,1.8-2.1c1.1-1.6,1.7-3.4,2.4-5.2c1.9-5.4,3.1-11,3.7-16.7c0.3-2.9,0.4-5.8,0.4-8.7c0-0.5,0-1.1-0.1-1.7
				c-0.4,0-0.8,0-1.1,0.1c-6.4,0.9-9.9-3.6-10.9-7.9c-0.6-2.4-0.3-4.7,1-6.9c1.6-2.8,4.4-3.5,7.3-2c1.2,0.6,2.1,1.5,2.9,2.6
				c1.7,2.2,2.6,4.7,3.1,7.4C154.2,236.2,154.2,236.6,154.3,237z M85.3,249.4c1.1-0.4,1.9-0.8,2.8-1c2.2-0.5,4.2,0.7,4.7,3
				c0.2,0.8,0.1,1.7,0.1,2.5c-0.1,0.8-0.3,1.5-0.5,2.2c3.4,1.8,8.8,1.5,11.8-0.9c0-0.2-0.1-0.5-0.1-0.8c-0.5-1.8-0.9-3.5-1.4-5.2
				c-1.9-6.3-5.6-11.3-10.9-15.1c-1.5-1.1-3.3-1.7-5.2-1.6c-0.9,0-1.7,0.4-2.3,1.1c-1.3,1.4-1.8,3.1-1.9,5c-0.1,2.9,0.6,5.7,1.7,8.4
				C84.4,247.7,84.9,248.6,85.3,249.4z M90.2,262.6c0,0.1-0.1,0.2-0.1,0.2c-0.6,3.1-1.1,6.2-0.7,9.4c0.4,2.8,1.4,5.4,3.3,7.5
				c0.7,0.8,1.6,1.5,2.6,2.1c1.8,1,4,0.6,5.6-0.9c2.1-2,3.1-4.5,3.6-7.3c0.8-4.3,0.9-8.7,0.5-13c-0.1-0.6-0.1-1.2-0.2-1.8
				C96.5,263.2,95.7,262.6,90.2,262.6z M229.2,276.6c-0.4,0.1-0.6,0.2-0.8,0.3c-4.5,2-8,5.2-10.4,9.5c-1.4,2.5-2,5.2-2,8
				c0.1,2.1,0.5,4.1,1.8,5.8c0.6,0.8,1.3,1.5,2.3,1.9c1,0.4,1.8,0.3,2.6-0.4c0.9-0.7,1.5-1.7,2.1-2.7c0.9-1.5,1.4-3.2,1.8-4.9
				c1.1-4.5,1.7-9,2.2-13.6C229,279.3,229.1,278,229.2,276.6z M190.1,246.2c0,0,0.1,0,0.1,0c0.1-1.5,0.1-2.9,0.2-4.4
				c0-0.3,0-0.6-0.3-0.8c-2-1.4-5.7-1.6-7.1,1.7c-0.2,0.4-0.4,0.7-0.4,1.1c-0.3,1.3-0.7,2.5-0.8,3.8c-0.4,3.4-0.2,6.8,0.9,10.2
				c0.3,0.9,0.7,1.7,1.2,2.4c0.6,0.9,1,0.9,1.7,0.1c0.6-0.7,1.2-1.5,1.6-2.3c0.8-1.7,1.5-3.4,2.2-5.1c0.5-1.2,0.8-2.3,0.7-3.6
				C190.1,248.3,190.1,247.2,190.1,246.2z M268.9,264.5c0.4-0.3,0.6-0.5,0.9-0.6c1.1-0.7,2.2-0.9,3.4-0.3c1.2,0.7,1.5,1.8,1.5,3.1
				c0,0.2,0,0.5-0.1,0.7c-0.1,0.5-0.1,1-0.2,1.6c2.7,1.2,8,0,9.8-2.1c-1.1-3.6-3.4-6.9-6.2-9.1c-1.5-1.1-3.1-1.7-4.9-1.8
				c-2.7-0.2-5.5,2.4-5.2,5.2C268.1,262.3,268.3,263.4,268.9,264.5z M273.3,275.2c0,0.5-0.1,0.8-0.1,1.1c-0.1,3.7,1.3,6.9,3.3,10
				c0.1,0.2,0.3,0.4,0.5,0.6c1.2,1.1,2.1,1.3,3.4,0.4c0.8-0.5,1.6-1.2,2.2-2c0.7-1,1.3-2.1,1.7-3.2c1-2.6,1.3-5.3,1.1-8.1
				c0-0.6-0.1-1.1-0.1-1.9C281.8,275.2,277.7,275.6,273.3,275.2z M213.4,243.6c0.2,3,0.9,5.8,2.3,8.5c0.2,0.4,0.4,0.7,0.6,1
				c1,1.3,2,1.4,3.1,0.2c0.5-0.5,0.9-1.2,1.3-1.8c1-1.8,1.9-3.7,2.9-5.5c0.3-0.6,0.2-1-0.2-1.5c-1.5-1.7-3.3-3-5.3-4.1
				c-0.6-0.3-1.2-0.5-1.9-0.7c-1.3-0.4-2.1,0.1-2.5,1.4C213.6,241.8,213.5,242.7,213.4,243.6z M354,272.9c-1.6,1.7-3.3,4.2-4,6.2
				c-0.3,0.7-0.4,1.4-0.6,2.1c-0.2,1.3-0.1,2.5,0.5,3.7c1.3,2.3,4.3,2.5,5.8,0.3c0.4-0.6,0.7-1.3,0.8-2c0.4-1.5,0.1-3-0.2-4.5
				C356,276.6,355.1,274.8,354,272.9z M249.9,266.5c1.8-0.6,3.4-1.1,4.8-2c0.2-0.1,0.3-0.2,0.5-0.4c1.1-1,1.3-2.3,0.5-3.5
				c-0.4-0.7-1-1.2-1.7-1.5c-1-0.5-1.7-0.3-2.1,0.7c-0.8,1.7-1.4,3.5-1.7,5.3C250.1,265.5,250.1,265.9,249.9,266.5z M146.5,229.5
				c-0.4,0.8-0.4,0.9-0.3,1.6c0.4,2.7,2.3,4.2,4.6,5.3c0,0,0.1,0,0.1,0C150.8,233.6,148.7,230.2,146.5,229.5z"/>
			<path d="M373.2,271.6c0.8,0,1.8,0.5,2.5,1.6c0.2,0.3,0.3,0.5,0.5,0.8c1.9,2.7-0.4,6-2.8,6.5c-1,0.2-1.9,0-2.7-0.5
				c-1.7-1-3-4.2-1.6-6.5C370,272.2,371.2,271.5,373.2,271.6z"/>
		</g>
	</g>
	<g>
		<g>
			<path class="st33" d="M136,317.2c-0.5-1-1.1-1.9-1.8-2.5c-0.7-0.6-1.5-1.1-2.3-1.3c-0.8-0.3-1.6-0.4-2.3-0.5
				c-0.7-0.1-1.3-0.1-1.8-0.1c-0.5,0-0.7,0-0.8,0c0.4,2.4,0.6,4.8,0.6,7.3c0,0.5,0,0.9,0,1.4c0,0.3,0,0.6,0,1c0,0.1,0,0.3,0,0.4
				h-18.3c-5.3,0-10.5,0-15.8,0c-0.6,0-1-0.2-1.4-0.7c-1.1-1.4-2.4-2.6-3.5-4c-0.8-1-1.7-1.3-2.7-1.3c-1.4,0-2.9,0-4.3,0
				c-0.3,0-0.7-0.1-0.9,0.3c-0.2,0.5,0.2,0.8,0.4,1.1c0.1,0.1,0.2,0.2,0.3,0.4c1.1,1.2,2.3,2.4,3.4,3.6c0.1,0.1,0.3,0.3,0.5,0.7
				c-1.4,0-2.6,0-3.8,0c-0.5,0-0.9-0.1-1.2-0.5c-1.5-1.6-3-3.1-4.5-4.8c-1-1.2-2.1-1.4-3.4-1.3c-0.7,0-0.8,0.5-0.4,1.1
				c0.1,0.2,0.3,0.4,0.4,0.5c1.3,1.4,2.7,2.7,4,4.1c0.2,0.2,0.4,0.4,0.7,0.8c-1.3,0-2.4,0-3.4,0c-0.2,0-0.4-0.2-0.6-0.4
				c-0.5-0.6-1-1.2-1.5-1.8c-0.9-1.2-1.8-2.3-2.7-3.5c-0.4-0.5-0.9-0.8-1.5-0.9c-2.5,0-5-0.1-7.6-0.2c-0.4,0-1-0.1-1.2,0.5
				c-0.1,0.6,0.4,0.8,0.7,1.2c1.8,1.7,3.6,3.5,5.4,5.2c0.4,0.3,0.7,0.7,1.3,1.2c-0.2,0.1-0.4,0.2-0.5,0.3c-1.7,1.5-3.4,3-5.1,4.5
				c-0.6,0.5-1.2,1-1.8,1.6c-0.3,0.3-0.6,0.6-0.4,1.1c0.1,0.4,0.5,0.4,0.8,0.5h0.2c2.3,0,4.5-0.1,6.8-0.1c0.8,0,1.4-0.3,2-1
				c1.6-1.8,3.2-3.5,4.8-5.2c0.1-0.2,0.3-0.4,0.5-0.4c1,0,2-0.1,3.1,0c-0.3,0.4-0.5,0.7-0.7,0.9c-1,1.2-2,2.4-3.1,3.6
				c-0.2,0.2-0.4,0.5-0.6,0.8c-0.2,0.3,0,0.6,0.2,0.8c0.6,0.4,1.9,0.2,2.4-0.3c1.3-1.3,2.5-2.7,3.8-4c0.6-0.6,1.1-1.4,1.8-1.7
				c0.7-0.3,1.6-0.1,2.4-0.1c0.6,0,1.3,0,1.9,0c0,0.1,0,0.1,0.1,0.2c-0.3,0.3-0.6,0.6-0.9,0.9c-0.8,0.8-1.7,1.6-2.5,2.5
				c-0.2,0.2-0.4,0.5-0.6,0.8c-0.2,0.4-0.1,0.8,0.3,1c0.2,0.1,0.4,0.1,0.6,0.1c1.5,0.1,2.9,0.2,4.4,0.4c1.1,0.1,1.9-0.3,2.6-1.2
				c1-1.3,2.1-2.5,3.1-3.8c0.5-0.6,1-0.9,1.8-0.9h33.8c-0.1,1.7-0.3,3.4-0.5,5c1.8,0.1,3.5-0.1,4.9-0.6c0.6-0.2,1.2-0.6,1.8-1
				c0.6-0.4,1.1-1,1.6-1.6c0.3-0.5,0.6-1.1,0.9-1.8c0.1-0.2,0.1-0.4,0.2-0.6c0.1-0.5,0.2-1.1,0.3-1.7v0c0-0.1,0-0.3,0-0.4
				c0-0.4,0-0.8,0-1.2c0-0.4,0-0.8-0.1-1.1C136.6,319,136.4,318,136,317.2z M134.4,323.9c-0.1,0.5-0.3,0.9-0.5,1.3
				c-0.1,0.3-0.3,0.5-0.4,0.7c-0.4,0.6-0.9,1.1-1.4,1.4c-0.5,0.4-1.1,0.6-1.7,0.8c-0.1-1-0.2-2-0.2-3c0-0.8-0.1-1.6-0.1-2.4
				c0-0.1,0-0.3,0-0.4c0-0.3,0-0.6,0-0.9c0-0.5,0-1,0-1.5c0-1.8,0.1-3.5,0.3-5.1c0.7,0.2,1.4,0.5,1.9,0.9c0.5,0.4,1,0.9,1.3,1.5
				c0.4,0.6,0.6,1.2,0.8,1.9c0.1,0.3,0.1,0.6,0.2,0.9c0.1,0.4,0.1,0.8,0.1,1.2c0,0.4,0,0.8-0.1,1.2c0,0.1,0,0.3,0,0.4
				C134.5,323.3,134.5,323.6,134.4,323.9z"/>
		</g>
		<g>
			<path class="st33" d="M143.3,313c-0.7,0-1.5,0-2.3,0c-0.8,0-1.5-0.1-2.2-0.2c0.4,2.4,0.6,4.9,0.6,7.3c0,0.5,0,1,0,1.5
				c0,0.3,0,0.6,0,0.9c-0.1,2.6-0.3,5.3-0.7,7.9c0.7-0.1,1.3-0.1,2-0.2c0.6,0,1.2-0.1,1.9-0.1s1.3,0,2,0.1c0.7,0,1.5,0.1,2.3,0.2
				v-2.9c-0.9,0.1-1.8,0.3-2.6,0.3c-0.8,0.1-1.6,0.1-2.3,0.2c0-0.4-0.1-0.8-0.1-1.1c0-0.3-0.1-0.6-0.1-0.8c0-0.2,0-0.5-0.1-0.7
				c0-0.2,0-0.4,0-0.7c0.5,0,1,0.1,1.5,0.2c0.5,0.1,1,0.2,1.6,0.3v-2.8v-0.1c-0.2,0-0.3,0.1-0.5,0.1c-0.4,0.1-0.8,0.2-1.2,0.2
				c-0.5,0.1-1,0.1-1.5,0.2c0-0.1,0-0.3,0-0.4c0-0.6,0-1.2,0-1.7c0-0.2,0-0.4,0-0.6c0-0.4,0-0.9,0-1.3c0-0.6,0.1-1.2,0.1-1.8
				s0.1-1.2,0.2-1.8c0.7,0,1.5,0.1,2.3,0.2c0.8,0.1,1.7,0.2,2.6,0.3v-2.9c-0.4,0.1-0.9,0.1-1.5,0.2C144.7,313,144,313,143.3,313z"/>
		</g>
		<g>
			<path class="st33" d="M157.1,314.4c0.1,0.7,0.1,1.4,0.2,2.2c0,0.8,0.1,1.7,0.1,2.5v0.9c0,0.6,0,1.1,0,1.7c0,0.2,0,0.5,0,0.7
				c0,0.6-0.1,1.2-0.2,1.8c-0.1,0.8-0.3,1.5-0.5,2c-0.2,0.6-0.4,1.1-0.7,1.4c-0.3,0.3-0.7,0.5-1.1,0.5c-0.6,0-1.1-0.3-1.5-0.8
				c-0.4-0.6-0.7-1.3-0.9-2.2c-0.2-0.8-0.3-1.7-0.4-2.7c0-0.1,0-0.2,0-0.3c0-0.7-0.1-1.4,0-2.1c0-0.4,0-0.9,0-1.3
				c0-1.1,0.1-2.2,0.2-3.3c0.1-1.1,0.2-2,0.3-2.7h-3.5c0.2,1.2,0.3,2.5,0.4,3.9c0.1,1.2,0.1,2.3,0.2,3.5c0,0.1,0,0.3,0,0.5
				c0,0.7,0.1,1.3,0.1,1.9c0.1,0.6,0.1,1.2,0.2,1.7c0.2,1.2,0.4,2.2,0.8,3.1c0.4,0.9,0.8,1.6,1.5,2.1c0.6,0.5,1.5,0.8,2.5,0.9
				c0.9,0,1.7-0.2,2.3-0.8c0.6-0.5,1.1-1.3,1.4-2.2c0.4-0.9,0.6-2,0.8-3.2c0.1-0.6,0.2-1.1,0.2-1.7c0.1-0.7,0.1-1.4,0.2-2.1
				c0-0.1,0-0.2,0-0.3c0.1-1.2,0.2-2.4,0.2-3.6c0.1-1.3,0.2-2.5,0.4-3.7H157C157,313.2,157.1,313.8,157.1,314.4z"/>
		</g>
		<g>
			<path class="st33" d="M169,313c-0.7,0-1.3,0-2.1,0c-0.7,0-1.4,0-2.1,0c-0.7,0-1.2,0-1.8-0.1c-0.5,0-0.9-0.1-1.1-0.1v2.9
				c1.2-0.3,2.4-0.4,3.5-0.5c0.2,1.6,0.3,3.2,0.3,4.9c0,0.8,0,1.6,0,2.4v0.1c0,2.5-0.2,5.1-0.6,7.7h3.5c-0.3-2-0.5-4-0.6-5.9
				c0-0.6,0-1.2,0-1.8c0-2.5,0.1-4.9,0.4-7.4c1.1,0,2.3,0.2,3.5,0.5v-2.2v-0.7c-0.2,0-0.6,0.1-1.2,0.1C170.2,313,169.6,313,169,313z
				"/>
		</g>
		<g>
			<path class="st33" d="M178.2,313c-0.7,0-1.5,0-2.3,0c-0.8,0-1.5-0.1-2.2-0.2c0.1,0.5,0.1,0.9,0.2,1.4c0.3,2.5,0.5,4.9,0.4,7.4
				c0,2.8-0.2,5.6-0.6,8.4c0,0.1,0,0.3,0,0.4c0.1,0,0.3,0,0.4,0c0.5-0.1,1.1-0.1,1.6-0.1c0.6,0,1.2-0.1,1.9-0.1c0.4,0,0.8,0,1.3,0
				c0.2,0,0.5,0,0.7,0c0.7,0,1.5,0.1,2.3,0.2v-2.9c-0.1,0-0.1,0-0.2,0c-0.8,0.1-1.6,0.2-2.4,0.3c-0.8,0.1-1.6,0.1-2.3,0.2
				c0-0.4-0.1-0.8-0.1-1.1c0-0.3-0.1-0.6-0.1-0.8c0-0.2,0-0.5-0.1-0.7c0-0.2,0-0.4,0-0.7c0.5,0,1,0.1,1.5,0.2c0.5,0.1,1,0.2,1.6,0.3
				v-2.9c-0.6,0.1-1.1,0.3-1.6,0.3c-0.5,0.1-1,0.1-1.5,0.2c0-0.8,0-1.5,0-2.1c0-0.7,0-1.3,0.1-1.9c0-0.6,0.1-1.2,0.1-1.8
				c0-0.2,0-0.4,0-0.6c0-0.4,0.1-0.8,0.1-1.2c0.2,0,0.5,0,0.7,0c0.5,0,1.1,0.1,1.6,0.1c0.8,0.1,1.7,0.2,2.6,0.3v-2.5v-0.4
				c-0.4,0.1-0.9,0.1-1.5,0.2C179.7,313,179,313,178.2,313z"/>
		</g>
		<g>
			<path class="st33" d="M190.4,322.8c0.1-0.1,0.3-0.2,0.4-0.3c0.6-0.4,1.1-1,1.5-1.5c0.2-0.3,0.3-0.5,0.4-0.8
				c0.2-0.5,0.3-1,0.4-1.4c0.1-0.8-0.1-1.5-0.4-2.3s-0.8-1.4-1.5-2c-0.6-0.5-1.2-0.9-1.8-1.1c-0.6-0.2-1.2-0.4-1.8-0.4
				c-0.6-0.1-1.2-0.1-1.8,0c-0.6,0-1.2,0.1-1.7,0.1c0,0.3,0.1,0.6,0.1,0.8c0.3,2.6,0.5,5.2,0.5,7.8c0,1.1,0,2.1-0.1,3.2
				c-0.1,1.9-0.3,3.7-0.6,5.6h3.5c-0.2-1.2-0.3-2.3-0.4-3.3c-0.1-1-0.2-2.1-0.2-3.1c0.2,0,0.5-0.1,0.7-0.1c0.2,0,0.5-0.1,0.7-0.2
				c0.6,1,1,2.1,1.2,3.2c0.2,1.1,0.2,2.3,0.1,3.5h3.5c-0.2-1.5-0.5-2.9-1-4.2C191.6,324.9,191.1,323.7,190.4,322.8z M187.3,315
				c0.9,0.1,1.5,0.4,2.1,0.7c0.6,0.4,1,0.8,1.2,1.2c0.3,0.5,0.4,1,0.3,1.5c0,0.5-0.2,1-0.5,1.5c-0.1,0.1-0.1,0.2-0.2,0.2
				c-0.3,0.4-0.7,0.7-1.2,1c-0.6,0.4-1.3,0.6-2.2,0.7c0-1.3,0-2.5,0.1-3.6c0-0.3,0-0.5,0-0.8C187.1,316.6,187.2,315.8,187.3,315z"/>
		</g>
		<g>
			<path class="st33" d="M204.1,316.6c-0.6-1.3-1.2-2.3-2.1-2.9c-0.8-0.7-1.7-1-2.7-1c-1,0-1.9,0.3-2.7,1c-0.8,0.7-1.5,1.6-2.1,2.9
				c-0.4,1-0.7,2.2-0.8,3.5c0,0.4,0,0.9,0,1.4c0,0.3,0,0.6,0,1c0,0.3,0,0.7,0.1,1c0,0.7,0.2,1.4,0.3,2.1c0.2,0.7,0.4,1.3,0.7,2
				c0.3,0.6,0.7,1.2,1.1,1.6c0.5,0.4,1,0.8,1.5,1c0.6,0.2,1.2,0.3,1.8,0.3c0.6,0,1.2-0.1,1.8-0.3c0.6-0.2,1.1-0.5,1.5-1
				c0.5-0.4,0.9-1,1.2-1.6c0.3-0.6,0.5-1.3,0.7-2c0.2-0.7,0.3-1.4,0.3-2.1c0-0.3,0-0.7,0.1-1c0-0.3,0-0.6,0-1c0-0.5,0-0.9,0-1.4
				C204.8,318.8,204.5,317.6,204.1,316.6z M202.7,323.5c-0.1,0.7-0.2,1.3-0.5,1.9c-0.2,0.6-0.6,1.1-1.1,1.6
				c-0.5,0.4-1.1,0.7-1.8,0.7c-0.5,0-0.9-0.1-1.3-0.3c-0.4-0.2-0.7-0.5-1-0.8c-0.3-0.3-0.5-0.7-0.6-1.1c-0.2-0.4-0.3-0.8-0.4-1.3
				c-0.1-0.4-0.2-0.9-0.2-1.3c0-0.2,0-0.3,0-0.5c0-0.2,0-0.4,0-0.6c0-0.6,0-1.2,0.1-1.7c0.1-0.7,0.2-1.2,0.3-1.7
				c0.3-0.8,0.6-1.5,0.9-2c0.4-0.4,0.7-0.7,1.2-0.9c0.4-0.1,0.8-0.2,1-0.2c0.3,0,0.7,0.1,1.1,0.2c0.4,0.1,0.8,0.4,1.2,0.9
				c0.4,0.4,0.7,1.1,0.9,1.9c0.1,0.5,0.2,1.1,0.3,1.7c0,0.5,0.1,1.1,0.1,1.7c0,0.2,0,0.4,0,0.6C202.8,322.8,202.8,323.1,202.7,323.5
				z"/>
		</g>
		<g>
			<path class="st33" d="M230.6,316.6c-0.5-1.3-1.2-2.3-2.1-2.9c-0.8-0.7-1.7-1-2.7-1c-1,0-1.9,0.3-2.7,1c-0.8,0.7-1.5,1.6-2.1,2.9
				c-0.4,1-0.7,2.2-0.8,3.5c0,0.4,0,0.9,0,1.4c0,0.3,0,0.6,0,1c0,0.3,0,0.7,0.1,1c0.1,0.7,0.2,1.4,0.3,2.1s0.4,1.3,0.7,2
				c0.3,0.6,0.7,1.2,1.1,1.6c0.4,0.4,1,0.8,1.5,1c0.6,0.2,1.2,0.3,1.8,0.3c0.6,0,1.2-0.1,1.8-0.3c0.6-0.2,1.1-0.5,1.5-1
				c0.5-0.4,0.9-1,1.2-1.6c0.3-0.6,0.5-1.3,0.7-2c0.2-0.7,0.3-1.4,0.3-2.1c0-0.3,0-0.7,0.1-1c0-0.3,0-0.6,0-1c0-0.5,0-0.9,0-1.4
				C231.2,318.8,231,317.6,230.6,316.6z M229.2,323.5c-0.1,0.7-0.2,1.3-0.5,1.9c-0.2,0.6-0.6,1.1-1.1,1.6c-0.5,0.4-1.1,0.7-1.8,0.7
				c-0.5,0-0.9-0.1-1.3-0.3c-0.4-0.2-0.7-0.5-1-0.8c-0.3-0.3-0.5-0.7-0.6-1.1c-0.2-0.4-0.3-0.8-0.4-1.3c-0.1-0.4-0.1-0.9-0.2-1.3
				c0-0.2,0-0.3,0-0.5c0-0.2,0-0.4,0-0.6c0-0.6,0-1.2,0.1-1.7c0.1-0.7,0.2-1.2,0.3-1.7c0.3-0.8,0.6-1.5,0.9-2
				c0.4-0.4,0.7-0.7,1.2-0.9c0.4-0.1,0.8-0.2,1-0.2c0.3,0,0.6,0.1,1.1,0.2c0.4,0.1,0.8,0.4,1.2,0.9c0.4,0.4,0.7,1.1,0.9,1.9
				c0.1,0.5,0.2,1.1,0.3,1.7c0,0.5,0.1,1.1,0.1,1.7c0,0.2,0,0.4,0,0.6C229.2,322.8,229.2,323.1,229.2,323.5z"/>
		</g>
		<g>
			<path class="st33" d="M247.4,312.8h-3.5c-0.4,1.2-0.8,2.3-1.2,3.3c-0.4,1-0.8,1.8-1.1,2.5c-0.3,0.6-0.6,1.2-0.8,1.6
				c-0.4,0-0.8,0-1.2,0c-0.3-0.5-0.5-1-0.7-1.5c-0.4-0.8-0.8-1.7-1.2-2.7c-0.4-1-0.8-2.1-1.2-3.1H233c0.4,2.4,0.6,4.9,0.6,7.4
				c0,0.4,0,0.9,0,1.3c0,0.3,0,0.7,0,1c0,2.6-0.2,5.2-0.6,7.9h3.5c-0.3-1.9-0.5-3.8-0.6-5.9c0-0.6,0-1.3-0.1-2c0-0.8,0-1.5,0-2.3
				c0-0.7,0-1.5,0.1-2.2c0.4,0.8,0.8,1.5,1.2,2.2c0,0,0,0,0,0c0.4,0.7,0.7,1.3,1,2c0,0.1,0.1,0.2,0.1,0.3c0.3,0.6,0.6,1.1,0.8,1.7
				c0.3,0.6,0.7,1.3,1,2.1c0.5-0.9,0.9-1.7,1.2-2.4c0.2-0.4,0.4-0.9,0.6-1.3c0.1-0.2,0.2-0.5,0.3-0.7c0.3-0.6,0.6-1.1,0.8-1.6
				c0-0.1,0.1-0.1,0.1-0.2c0.3-0.6,0.7-1.3,1.1-2c0,0.8,0.1,1.5,0.1,2.2c0,0.8,0,1.6,0,2.3c0,0.6,0,1.3-0.1,1.9
				c-0.1,2.1-0.3,4-0.6,6h3.5c-0.4-2.6-0.6-5.2-0.6-7.9c0-0.2,0-0.5,0-0.8c0-0.5,0-1,0-1.6C246.8,317.7,247,315.2,247.4,312.8z"/>
		</g>
		<g>
			<path class="st33" d="M259.7,314.5c-0.2,0.5-0.4,1.1-0.7,1.7c-0.3,0.6-0.6,1.3-0.9,2.1c-0.2,0.5-0.5,1.1-0.9,1.8
				c-0.4,0-0.8,0-1.2,0c-0.2-0.5-0.5-1-0.7-1.4c-0.4-0.8-0.8-1.7-1.2-2.7c-0.4-1-0.8-2.1-1.2-3.3l-3.9,0c1.6,2.2,2.8,4.2,3.7,5.9
				c0.3,0.5,0.5,1,0.7,1.4c0.4,0.8,0.7,1.6,1,2.3c0.1,0.3,0.2,0.6,0.3,0.9c0.4,1.4,0.6,2.6,0.6,3.8c0,1.1-0.2,2.2-0.5,3.3h3.5
				c-0.3-1-0.5-2.1-0.5-3.2c0-1.1,0.2-2.4,0.6-3.7c0.1-0.3,0.2-0.6,0.3-0.9c0.3-0.7,0.6-1.5,1-2.3c0.2-0.5,0.5-0.9,0.7-1.4
				c0.9-1.7,2.2-3.7,3.7-6l-3.9,0C260.1,313.4,259.9,314,259.7,314.5z"/>
		</g>
		<g>
			<path class="st33" d="M281.8,322.5c-0.2-0.2-0.4-0.4-0.6-0.5c0.5-0.5,0.8-1.1,1-1.8c0,0,0,0,0,0c0.2-0.7,0.3-1.3,0.2-2
				c0-0.7-0.1-1.4-0.4-2.1c-0.2-0.7-0.5-1.3-0.9-1.8c-0.4-0.5-0.8-1-1.3-1.3c-0.5-0.3-1-0.5-1.6-0.5c-0.6,0-1.1,0.1-1.5,0.2
				c-0.4,0.1-0.8,0.3-1.2,0.6c-0.3,0.2-0.6,0.5-0.9,0.8c-0.2,0.3-0.4,0.6-0.6,0.9c-0.4,0.7-0.6,1.5-0.7,2.5h3.5
				c-0.1-0.6-0.1-1.2,0.2-1.7c0.2-0.5,0.5-0.8,0.9-0.9c0.4-0.1,0.8,0,1.2,0.3c0.4,0.3,0.7,1,0.9,2c0.1,0.3,0.1,0.7,0.1,1
				c0,0.3,0,0.7-0.2,1c-0.1,0.3-0.3,0.5-0.5,0.8c-0.1,0.1-0.2,0.2-0.3,0.2c-0.2,0.1-0.4,0.2-0.6,0.2c-0.3,0.1-0.6,0.1-0.9,0.1
				c-0.3,0-0.5-0.1-0.6-0.1v2.1v1.4c0.1,0,0.3,0,0.5,0c0.2,0,0.5,0,0.8,0c0.3,0,0.6,0,0.9,0.1c0.3,0.1,0.6,0.2,0.9,0.4
				c0.3,0.3,0.5,0.6,0.6,0.9c0,0.3,0,0.6,0,0.9c-0.1,0.3-0.2,0.5-0.3,0.8c-0.1,0.2-0.2,0.3-0.2,0.4c-0.4,0.4-0.8,0.7-1.3,0.8
				c-0.5,0.1-0.9,0-1.3-0.2c-0.4-0.2-0.7-0.6-0.9-1c-0.2-0.5-0.3-1.1-0.1-1.7h-3.5c0.1,0.8,0.3,1.5,0.6,2.1s0.6,1.1,1,1.6
				c0.4,0.4,0.9,0.8,1.3,1.1c0.5,0.3,1,0.4,1.6,0.5c0.7,0.1,1.4,0.1,2.1-0.2c0.6-0.2,1.2-0.6,1.7-1c0.5-0.4,0.9-1,1.2-1.6
				c0.3-0.6,0.5-1.2,0.5-1.9c0-0.7-0.1-1.3-0.4-2C282.5,323.2,282.2,322.8,281.8,322.5z"/>
		</g>
		<g>
			<path class="st33" d="M289.7,322.5c0-0.4,0-0.7,0-1.1c0-0.4,0-0.8,0-1.3c0-1.1,0-2.1,0-3.2c0-1.5,0.1-3,0.1-4.5
				c-0.1,0.1-0.4,0.3-0.7,0.5c-0.4,0.3-1,0.7-1.8,1.2c-0.8,0.6-2,1.3-3.5,2.3l2.2,2.7c0-0.1,0.1-0.3,0.3-0.5
				c0.2-0.2,0.3-0.4,0.5-0.6c0.2-0.2,0.3-0.3,0.4-0.4c0.1-0.1,0.2-0.2,0.2-0.2c0,0.2,0.1,0.7,0.1,1.5c0,0.3,0,0.7,0,1.1
				c0,0.6,0,1.3,0,2c0,0.1,0,0.2,0,0.3c0,1.1-0.1,2.3-0.2,3.6c-0.1,1.4-0.3,2.8-0.5,4.2h3.5c-0.2-1.5-0.4-3-0.5-4.5
				C289.7,324.7,289.7,323.6,289.7,322.5z"/>
		</g>
		<g>
			<path class="st33" d="M293.8,322.5C293.8,322.5,293.7,322.5,293.8,322.5c-0.1,0-0.2,0-0.2,0c-0.4,0-0.7,0.2-1,0.4
				c-0.3,0.3-0.4,0.6-0.4,1.1c0,0.4,0.1,0.8,0.4,1.1c0.3,0.3,0.6,0.4,1.1,0.4c0.4,0,0.8-0.1,1.1-0.4c0.3-0.3,0.4-0.7,0.4-1.1
				c0-0.4-0.1-0.8-0.4-1.1C294.5,322.6,294.2,322.5,293.8,322.5z"/>
		</g>
		<g>
			<path class="st33" d="M293.7,317.5c-0.4,0-0.8,0.1-1.1,0.4c-0.3,0.3-0.4,0.7-0.4,1.1c0,0.4,0.1,0.8,0.4,1.1c0,0,0.1,0.1,0.1,0.1
				c0.3,0.2,0.6,0.4,1,0.4c0.4,0,0.7-0.1,1-0.4c0,0,0.1-0.1,0.1-0.1c0.3-0.3,0.4-0.6,0.4-1.1c0-0.4-0.1-0.8-0.4-1.1
				C294.5,317.6,294.1,317.5,293.7,317.5z"/>
		</g>
		<g>
			<path class="st33" d="M217.9,320.1c0.1-2.4,0.3-4.9,0.7-7.4h-3.5c0.3,1.9,0.5,3.9,0.6,5.9c0,0.5,0,1,0.1,1.4c0,0.8,0,1.5,0,2.3
				c0,0.9,0,1.8-0.1,2.7c-0.5-0.9-1-1.8-1.4-2.7c-0.1-0.1-0.1-0.2-0.2-0.4c-0.3-0.7-0.7-1.3-1-2c-0.2-0.3-0.3-0.7-0.5-1
				c-0.5-1-0.9-2-1.3-3.1c-0.4-1.1-0.8-2.1-1.1-3.3h-3.5c0.4,2.4,0.6,4.9,0.6,7.4c0,0.4,0,0.9,0,1.3c0,0.3,0,0.7,0,1
				c0,2.6-0.2,5.2-0.6,7.9h3.5c-0.3-1.9-0.5-3.8-0.6-5.8c0-0.7-0.1-1.3-0.1-2c0-0.8,0-1.5,0-2.3c0-0.7,0-1.4,0.1-2.2
				c0.4,0.7,0.8,1.5,1.2,2.2c0.2,0.3,0.3,0.6,0.5,0.9c0.3,0.5,0.5,1,0.8,1.5c0.3,0.5,0.5,1,0.8,1.5c0.5,1,1,2,1.4,3.1
				c0.4,1,0.8,2.1,1.2,3.2h3.1c-0.4-2.6-0.6-5.2-0.6-7.9c0-0.3,0-0.5,0-0.8C217.8,321.2,217.9,320.7,217.9,320.1z"/>
		</g>
		<g>
			<path class="st33" d="M372.7,323.4c-0.2-0.1-0.4-0.3-0.7-0.4c-4.1-1.9-8.2-3.8-12.4-5.7c-0.6-0.3-1.2-0.4-1.7-0.5
				c-1-0.1-1.5,0.5-1.1,1.6c0.3,1,0.8,2,1.3,3c0.3,0.7,0.7,1.3,1.3,2.1h-1.1c-1.2,0-23.8,0-52.8,0c-0.1-0.3-0.3-0.7-0.6-1
				c-0.2-0.3-0.4-0.5-0.7-0.8c-0.6-0.5-1.4-0.9-2.4-1c-1-0.1-2.1,0.1-3.3,0.6c0-0.4,0-0.8,0-1.2c0.1-0.8,0.2-1.5,0.3-2.1
				c0.2-0.9,0.5-1.5,0.8-2c0.3-0.5,0.6-0.8,1-0.9c0.3-0.1,0.6-0.1,0.9,0c0.3,0.2,0.5,0.5,0.6,0.9c0.1,0.4,0.1,1,0,1.6h3.5
				c-0.2-1.2-0.5-2.1-1-2.9c-0.5-0.8-1.1-1.4-1.8-1.7c-0.7-0.3-1.4-0.5-2.2-0.3c-0.8,0.1-1.5,0.6-2.1,1.3c-0.7,0.7-1.2,1.8-1.6,3.1
				c-0.3,0.9-0.4,1.9-0.5,3.1c0,0.6-0.1,1.3,0,2c0,0.1,0,0.2,0,0.3c0,0.3,0,0.6,0.1,1c0,0.6,0.1,1.2,0.2,1.8c0,0.2,0,0.3,0.1,0.5
				c0.1,0.8,0.4,1.6,0.7,2.2c0.4,0.8,0.9,1.4,1.5,1.9c0.7,0.5,1.5,0.7,2.5,0.6c0.4-0.1,0.8-0.1,1.1-0.2c0.3-0.1,0.7-0.2,1-0.4
				c0.4-0.2,0.7-0.4,1.1-0.7c0.3-0.3,0.6-0.7,0.9-1.2c0.2-0.5,0.4-1.1,0.5-1.8c0-0.1,0-0.3,0-0.4c28.4,0,50.6,0,52.9,0
				c0.2,0,0.3,0.1,0.5,0.1c-0.8,1.2-1.5,2.4-2.2,3.6c-0.3,0.5-0.6,1.1-0.7,1.7c-0.3,1.1,0.2,1.8,1.2,1.7c0.3,0,0.5-0.1,0.8-0.2
				c3.8-1.2,7.5-2.8,11.1-4.5c0.8-0.4,1.6-0.8,2.3-1.3c0.4-0.3,0.9-0.7,1.2-1.1C373.7,324.7,373.6,323.9,372.7,323.4z M303.5,326.9
				c-0.2,0.4-0.5,0.8-1,1c-0.4,0.3-1,0.4-1.7,0.3c-0.5,0-0.9-0.3-1.2-0.7c-0.3-0.4-0.5-0.9-0.5-1.5c0-0.1,0-0.2,0-0.3
				c0-0.4,0.1-0.9,0.4-1.3c0.2-0.4,0.6-0.8,1.2-1c0.1,0,0.2-0.1,0.3-0.1c0.5-0.2,1-0.2,1.4,0c0.1,0,0.1,0.1,0.2,0.1
				c0.3,0.2,0.6,0.4,0.7,0.8c0.2,0.4,0.4,0.8,0.4,1.3c0,0.1,0,0.2,0,0.2C303.7,326.1,303.6,326.5,303.5,326.9z"/>
		</g>
	</g>
	<g>
		<path class="st34" d="M204.9,295.4c-0.2-0.1-0.4-0.3-0.6-0.4c-3.9-1.9-7.8-3.8-11.7-5.7c-0.5-0.3-1.1-0.4-1.6-0.5
			c-0.9-0.1-1.4,0.5-1,1.6c0.3,1,0.8,2,1.2,3c0.3,0.7,0.7,1.3,1.2,2.1c-0.5,0-0.8,0-1,0c-2.7,0-15.2,0-19.1,0c0-0.2,0.1-0.4,0.1-0.7
			c0.2-2.4-1-5-3.1-5.9c-1.4-0.6-3-0.5-4.3,0.3c-1.3,0.7-2.2,1.7-2.8,3.2c-0.8-2.3-3.1-3.8-5.4-3.5c-2.3,0.2-4.3,2.2-4.6,4.6
			c-0.1,0.7-0.1,1.4,0,2.1c-2.4,0-8.1,0-13,0c-0.5,0-0.9-0.2-1.3-0.7c-1.1-1.4-2.2-2.6-3.3-4c-0.7-1-1.6-1.3-2.6-1.3
			c-1.4,0-2.7,0-4.1,0c-0.3,0-0.7-0.1-0.8,0.3c-0.2,0.5,0.2,0.8,0.4,1.1c0.1,0.1,0.2,0.2,0.3,0.4c1.1,1.2,2.1,2.4,3.2,3.6
			c0.1,0.2,0.2,0.3,0.5,0.7c-1.3,0-2.4,0-3.5,0c-0.5,0-0.8-0.1-1.1-0.5c-1.4-1.6-2.9-3.1-4.2-4.8c-0.9-1.2-2-1.4-3.2-1.3
			c-0.6,0-0.8,0.5-0.4,1.1c0.1,0.2,0.3,0.4,0.4,0.5c1.2,1.4,2.5,2.7,3.8,4.1c0.2,0.2,0.3,0.4,0.7,0.8c-1.2,0-2.2,0-3.2,0
			c-0.2,0-0.4-0.3-0.5-0.4c-0.5-0.6-1-1.2-1.4-1.8c-0.9-1.2-1.7-2.4-2.5-3.5c-0.4-0.5-0.8-0.8-1.4-0.9c-2.4,0-4.8-0.1-7.1-0.2
			c-0.4,0-0.9-0.1-1.1,0.5c-0.1,0.6,0.3,0.8,0.6,1.1c1.7,1.7,3.4,3.5,5.1,5.2c0.3,0.3,0.7,0.7,1.2,1.2c-0.2,0.1-0.4,0.2-0.5,0.3
			c-1.6,1.5-3.2,3-4.8,4.5c-0.6,0.5-1.2,1-1.7,1.6c-0.3,0.3-0.5,0.6-0.4,1.1c0.1,0.4,0.5,0.4,0.8,0.5c0.1,0,0.1,0,0.2,0
			c2.1-0.1,4.2-0.1,6.4-0.1c0.8,0,1.3-0.3,1.9-1c1.5-1.8,3-3.5,4.5-5.2c0.1-0.2,0.3-0.4,0.5-0.4c0.9,0,1.9-0.1,3,0
			c-0.3,0.4-0.5,0.7-0.7,0.9c-1,1.2-1.9,2.4-2.9,3.6c-0.2,0.2-0.4,0.5-0.5,0.8c-0.2,0.3,0,0.6,0.2,0.8c0.5,0.4,1.8,0.2,2.2-0.3
			c1.2-1.3,2.4-2.7,3.6-4c0.6-0.6,1-1.4,1.7-1.7c0.7-0.3,1.5-0.1,2.3-0.1c0.6,0,1.2,0,1.8,0c0,0.1,0,0.1,0,0.2
			c-0.3,0.3-0.6,0.6-0.9,0.9c-0.8,0.8-1.6,1.6-2.3,2.5c-0.2,0.2-0.4,0.5-0.6,0.8c-0.2,0.4-0.1,0.8,0.3,1c0.2,0.1,0.4,0.1,0.6,0.1
			c1.4,0.1,2.8,0.2,4.1,0.4c1,0.1,1.8-0.3,2.5-1.2c1-1.3,2-2.5,3-3.8c0.5-0.6,1-0.9,1.7-0.9c4.3,0,9,0,13.5,0
			c0.2,0.5,0.5,0.9,0.8,1.4c1.2,1.7,2.7,3,4.1,4.4c1,1,2.4,2.3,3.3,3.7c0.5,0.7,1.4,0.7,1.9,0c0.7-1,1.4-2,2.4-2.8
			c1.4-1.1,2.4-2.3,3.7-3.5c1-0.9,1.8-1.9,2.4-3.1c5.4,0,15.3,0,20.4,0c0.1,0,0.3,0.1,0.5,0.1c-0.7,1.2-1.4,2.4-2,3.6
			c-0.3,0.5-0.5,1.1-0.7,1.7c-0.3,1.1,0.2,1.8,1.1,1.7c0.3,0,0.5-0.1,0.7-0.2c3.6-1.2,7.1-2.8,10.5-4.5c0.8-0.4,1.5-0.8,2.2-1.3
			c0.4-0.3,0.8-0.7,1.1-1.1C205.8,296.8,205.7,296,204.9,295.4z"/>
	</g>
	<path class="st34" d="M334.6,293.1c-3.1,0.5-5.5,3.2-6.9,6c-3-3.7-9.4-8-12.2-2.6c-1.7,3.3-0.8,7.8,1.4,10.6
		c3.1,4,8.2,5.9,11.2,9.9c0.5,0.6,1.4,0.6,1.8-0.1c3.1-5.6,11.8-9.3,11.1-16.4C340.7,297,338.9,292.4,334.6,293.1z"/>
	<path class="st34" d="M305.2,283.8c-1.6,0.1-2.9,1.3-3.8,2.6c-1.3-2-4.2-4.5-6-2c-1,1.5-0.9,3.9,0.1,5.4c1.3,2.2,3.7,3.4,5,5.6
		c0.2,0.3,0.7,0.4,0.9,0.1c1.9-2.6,6.4-3.9,6.5-7.6C308.1,286.1,307.4,283.6,305.2,283.8z"/>
</g>
</svg>
