<?xml version="1.0" encoding="utf-8"?>
<!-- Generator: Adobe Illustrator 21.1.0, SVG Export Plug-In . SVG Version: 6.00 Build 0)  -->
<svg version="1.1" id="Calque_1" xmlns="http://www.w3.org/2000/svg" xmlns:xlink="http://www.w3.org/1999/xlink" x="0px" y="0px"
	 viewBox="0 0 432 432" style="enable-background:new 0 0 432 432;" xml:space="preserve">
<style type="text/css">
	.st0{fill:#191464;}
	.st1{fill:#C82933;}
	.st2{fill:#E4C877;}
	.st3{fill:#B3B3B3;}
	.st4{fill:#342E8C;}
	.st5{fill:#CCCCCC;}
	.st6{fill:#F44244;}
	.st7{fill:#E6E6E6;}
	.st8{fill:#BD0725;}
	.st9{fill:#1A1A1A;}
	.st10{fill:#DA8F92;}
	.st11{fill:#F4D497;}
	.st12{fill:#F0A762;}
	.st13{fill:#8D4C36;}
	.st14{fill:#DAA18E;}
	.st15{fill:#E0C4BA;}
	.st16{fill:#DA9D8F;}
	.st17{fill:#70796B;}
	.st18{fill:#C5907E;}
	.st19{fill:#AAC69B;}
	.st20{fill:#B098A2;}
	.st21{fill:#2F3448;}
	.st22{fill:#8D1D11;}
	.st23{fill:#1B1E55;}
	.st24{fill:#B22931;}
	.st25{fill:#6E8BC4;}
	.st26{fill:#8B8286;}
	.st27{fill:#E3A8A3;}
	.st28{fill:#D7A392;}
	.st29{fill:#8B6E68;}
	.st30{fill:#C8A093;}
	.st31{fill:#333333;}
	.st32{fill:#B8B195;}
	.st33{fill:#864C38;}
	.st34{fill:#BA9490;}
	.st35{fill:#8D5948;}
	.st36{fill:#656E6E;}
	.st37{fill:#C6A687;}
	.st38{fill:#D6AA9C;}
	.st39{fill:#A06352;}
	.st40{fill:#ECBAA9;}
</style>
<g>
	<path class="st22" d="M217.8,125.9c0.2-0.3,0.3-0.4,0.4-0.6c5.1-9.8,12-18.2,20-25.7c3.5-3.3,7.2-6.3,11.2-9
		c8.5-5.8,17.7-9.3,27.8-10.9c4.4-0.7,8.9-1.1,13.4-0.8c6.4,0.3,12.7,1.4,18.8,3.4c7.1,2.3,14,5.1,20.4,9
		c11.5,7,20.1,16.6,26.1,28.7c4.2,8.5,6.8,17.5,8.1,26.9c1.2,8.1,1.4,16.2,1.2,24.3c-0.5,17.1-4.6,33.3-12.3,48.5
		c-5,9.9-11.7,18.5-19.7,26.1c-3.3,3.2-6.6,6.2-10.2,9.1c-5.8,4.6-11.8,9.1-17.8,13.5c-8.1,5.9-16.4,11.6-24.5,17.6
		c-8.4,6.2-16.9,12.5-24.7,19.4c-12.2,10.7-23.2,22.5-32.7,35.7c-1.2,1.7-2.3,3.5-3.4,5.2c-0.6,0.9-1.2,1.8-2.1,2.3
		c-1.3,0.8-2.7,0.5-3.3-0.9c-1.4-3.2-3.6-5.9-5.9-8.5c-8.7-9.6-17.7-18.9-27.2-27.7c-7.4-6.9-14.9-13.7-22.3-20.5
		c-9.3-8.5-19.1-16.3-29-24.1c-4.6-3.7-9.2-7.5-13.8-11.2c-7.9-6.6-15.4-13.7-21.9-21.8c-10-12.3-17.7-25.8-22.5-40.9
		c-2-6.3-3.4-12.7-4.1-19.3c-0.6-5.7-0.4-11.4,0.1-17.1c1-11.4,4.2-22.2,8.7-32.6c6.6-15.1,16.9-26.9,31-35.4
		c8.3-5,17.2-8.6,26.8-10.4c6.3-1.2,12.7-1.5,19.1-1c10.3,0.7,19.9,3.7,29.1,8.4c2.7,1.4,5.4,2.9,8.1,4.5
		c7.4,4.5,13.2,10.7,18.3,17.7c3.3,4.5,6,9.3,7.9,14.6C217,123.4,217.3,124.6,217.8,125.9z M279.3,135.7c-2.4,0.3-4,1.5-5.3,3.3
		c-1.2,1.6-1.9,3.4-2.3,5.3c-0.6,2.6-1.1,5.2-1.6,7.8c-0.2,1.2,0.4,1.8,1.5,1.4c2.2-0.6,4.4-0.8,6.6-0.5c1.7,0.2,3.4,0.3,5.2,0.3
		c2.1,0,3.9-0.9,5.4-2.3c0.2-0.2,0.4-0.3,0.5-0.4c0.2,0.8,0.3,1.5,0.5,2.1c0.1,0.5,0.4,0.9,1,1c0.6,0,0.8-0.4,1-0.8
		c0.2-0.4,0.4-0.9,0.7-1.3c0.8-1.3,2.3-1.8,3.8-1.3c1.2,0.4,2.2,1.2,2.8,2.3c0.9,1.9,1.1,3.9,0.2,5.8c-0.5,1-1,2-1.6,2.9
		c-2.6,4-6.1,7.1-10.3,9.4c-6,3.3-12.5,4.7-19.2,5.3c-4,0.3-8,0.2-12.1,0c-3.2-0.2-6.5-0.5-9.7-1.2c-3.9-0.7-7.6-2.1-11.3-3.4
		c-0.5-0.2-0.9-0.3-1.4-0.5c-0.4-0.1-0.9-0.1-1.1,0.4c-0.2,0.4,0,0.8,0.3,1c0.5,0.4,1.1,1,1.7,1.3c1.4,0.7,2.8,1.4,4.2,1.9
		c4.6,1.8,9.3,3.1,14.1,4.1c5.1,1.1,9.7,3.3,14.1,6.1c2.7,1.7,5.1,3.8,7.2,6.2c1.8,2.1,2.9,4.4,3.2,7.1c0.1,1.5,0.1,3,0.1,4.5
		c-0.1,1.4-0.6,2.6-1.7,3.4c-0.9,0.8-2,1.4-3,2.2c-0.3,0.2-0.7,0.4-1,0.6c-0.6,0.6-0.4,1.3,0.3,1.6c0.2,0.1,0.4,0.1,0.6,0.2
		c-0.5,0.6-1.1,1.1-1.5,1.7c-1.6,2.5-1.9,5.2-0.1,7.7c1.1,1.6,2.5,3.1,3.8,4.6c0.5,0.6,1.2,0.6,1.8,0.1c1.7-1.4,3.4-2.8,5.1-4.3
		c1.9-1.6,3.1-3.6,3.8-6c0.1-0.2,0.2-0.4,0.3-0.7c0.4,0.2,0.7,0.5,1,0.6c0.4,0.2,0.8,0.4,1.2,0.4c1,0.2,1.6-0.5,1.3-1.5
		c-0.1-0.4-0.3-0.9-0.6-1.2c-1.9-3.1-3.5-6.4-4.8-9.8c-1-2.5-2.1-5-3.4-7.3c-3.8-6.7-9.2-11.6-16.1-14.9c-0.3-0.1-0.6-0.3-0.9-0.5
		c0.4-0.2,0.7-0.2,1-0.2c2.8-0.2,5.7-0.2,8.5-0.5c5.7-0.7,11.3-1.5,17-2.3c6.4-0.9,12.8-1.5,19.3-1c4.9,0.4,9.6,1.3,14.1,3.2
		c7.7,3.3,13.3,8.8,16.9,16.3c1.3,2.7,2,5.6,1.4,8.6c-0.2,1-0.4,2-0.9,2.8c-1,1.8-3.1,2.5-5.4,2c-1.5-0.3-2.9-1-4-2
		c-0.4-0.4-0.8-0.7-1.4-0.4c-0.6,0.3-0.5,0.9-0.4,1.5c0.1,0.6,0.2,1.2,0.4,1.8c-0.1,0-0.2,0-0.2-0.1c-0.2-0.2-0.4-0.4-0.6-0.6
		c-2-2-4.1-3.8-6.6-5.3c-3.1-1.9-6.5-2.4-10-1.9c-2.3,0.3-4.4,1.1-6.4,2.1c-2.5,1.2-5,2.5-7.5,3.8c-1,0.5-2,0.9-3,1.4
		c-1,0.5-1.1,1.4-0.2,2.1c1.7,1.2,3,2.7,4.3,4.2c2.6,3.1,5.6,5.7,9.2,7.6c0.3,0.2,0.6,0.4,1,0.6c-0.5,0.3-1,0.5-1.4,0.8
		c-0.9,0.5-1,1.2-0.3,2c0.2,0.3,0.5,0.6,0.8,0.8c4.7,3.8,10,5,15.9,4c2.4-0.4,4.6-1.5,6.7-2.8c0.9-0.6,1.9-1.1,2.8-1.7
		c0.1,0.2,0.2,0.2,0.2,0.3c0.1,1.2,1.4,1.6,2.4,1.2c0.5-0.2,1-0.5,1.4-0.9c0.6-0.6,1-1.3,1.5-2.1c1.9-3.4,3.1-7.1,4.2-10.8
		c0.7-2.4,1.2-4.8,1.3-7.3c0.2-5.4-1-10.6-3.7-15.4c-4.3-7.7-10.8-13.1-19.1-16.1c-4.7-1.7-9.6-2.5-14.6-2.8
		c-5.7-0.3-11.4,0.1-17,0.8c-1.9,0.2-3.7,0.5-5.6,0.8c0.2-0.3,0.4-0.4,0.7-0.5c1.4-0.8,2.9-1.6,4.3-2.4c4.5-2.8,7.8-6.8,10.7-11.1
		c0.4-0.6,0.8-1.3,1.1-1.9c2.4-5.3,3.1-10.8,2-16.5c-0.9-4.4-3.2-8.1-6.9-10.8c-1.3-1-2.8-1.7-4.5-2c-1.4-0.2-2,0.3-2.2,1.7
		c0,0-0.1,0.1-0.1,0.1c0,0-0.1,0-0.1,0c-0.2-0.1-0.5-0.2-0.7-0.2c-2.1-0.8-4.2-1.1-6.4-0.6c-1.7,0.4-3.2,1-4.6,2
		c-1.1,0.8-1,1.7,0.1,2.4C278.8,135.4,279,135.6,279.3,135.7z M148.4,229.8c1,1,1.3,1,2.3,0.2c1.8-1.4,3.2-3,4.3-5
		c0.1-0.2,0.3-0.4,0.4-0.6c0.3,0.1,0.5,0.3,0.7,0.3c0.8,0.3,1.4,0,1.5-0.9c0-0.2,0-0.4,0-0.6c-0.3-2.9,0.3-5.7,1.5-8.3
		c1.4-3,2.5-6.1,3.2-9.3c0.8-3.5,1.7-7.1,3.1-10.4c2.2-5.1,5.6-9.1,10.7-11.3c4.1-1.8,8.3-2.5,12.7-2.2c2.4,0.2,4.7,0.5,7,0.8
		c0.6,0.1,1.2,0.1,1.8,0.1c0.2,0,0.6-0.3,0.6-0.4c0-0.2-0.2-0.5-0.4-0.7c-0.2-0.2-0.4-0.2-0.7-0.3c-1.8-0.9-3.7-1.3-5.7-1.6
		c-5.1-0.8-10.1-0.6-15,1.2c-4.8,1.7-9,4.5-12.7,7.8c-2.1,1.9-4.1,3.7-6.2,5.6c-2.2,2-4.7,3.4-7.5,4.4c-3.5,1.2-6.8,0.8-9.8-1.4
		c-0.8-0.6-1.4-1.3-1.8-2.2c-0.3-1-0.7-1.9-0.8-2.9c-0.2-1.8-0.2-3.7-0.3-5.5c0-0.4,0-0.8-0.1-1.2c-0.3-0.9-1-1.1-1.7-0.5
		c-0.2,0.2-0.4,0.3-0.7,0.6c0-2.3-0.8-4.1-2.3-5.6c-1.3-1.2-2.7-2-4.4-2.4c-2.6-0.6-5.3-0.6-8-0.4c-1.6,0.1-2.1,1-1.8,2.6
		c0.2,0.9,0.5,1.9,0.6,2.8c0.2,2,0.3,4,0.4,6c0.1,2.5,0.9,4.7,2.7,6.5c0.1,0.1,0.2,0.3,0.4,0.4c-0.4,0.1-0.7,0.2-0.9,0.3
		c-0.4,0.2-0.8,0.5-0.9,1c-0.1,0.6,0.2,1,0.7,1.2c0.4,0.2,0.8,0.4,1.2,0.5c3.7,1.4,7.5,2.6,11.5,3.3c3.8,0.7,7.6,0.9,11.5,0.5
		c0.6-0.1,1.2-0.2,1.8-0.3c-0.1,0.2-0.3,0.3-0.4,0.4c-5.5,3.3-11.4,5.4-17.9,6c-4.9,0.4-9.6-0.1-14.3-1.7c-3.4-1.2-5.8-3.5-7.8-6.4
		c-0.6-1-1-2-1.1-3.2c-0.2-1.9-0.1-3.7,0.4-5.6c0.4-1.2,0.7-2.4,1.2-3.6c0.7-1.8,1.6-3.6,2.3-5.5c0.3-0.9,0.6-1.8,0.6-2.8
		c0.1-1.5-1-2.1-2.3-1.3c-0.5,0.3-1,0.6-1.5,0.9c0-0.2,0-0.3,0-0.4c0.3-0.6,0.6-1.3,1-1.9c2.3-4.5,2.8-9.2,1.8-14.1
		c-1.1-5.3-4.2-9-9.4-10.8c-0.9-0.3-1.9-0.6-2.8-0.8c-2.3-0.4-4.6-0.8-6.9-1.2c-1.6-0.3-2.4,0.3-2.7,1.9c-0.2,1.1-0.3,2.2-0.6,3.2
		c-0.8,3.9-2.4,7.6-4.2,11.1c-0.8,1.4-1.5,2.9-2.1,4.4c-1.7,4.2-1.6,8.4,0.1,12.6c0.1,0.2,0.1,0.3,0.2,0.5c-0.5,0.1-1,0.1-1.5,0.2
		c-0.8,0.2-1.2,0.9-0.9,1.7c0.2,0.4,0.4,0.8,0.7,1.2c2.3,3.4,5,6.3,8.3,8.7c0.3,0.2,0.6,0.5,0.9,0.7c-0.2,0.2-0.3,0.4-0.5,0.5
		c-0.4,0.4-0.7,0.8-1,1.2c-0.7,1-0.2,1.9,1,2c0.4,0,0.8,0,1.2,0c1.4,0.1,2.9,0.1,4.3,0.3c3.8,0.6,7.2,2.2,10.4,4.2
		c3.6,2.3,7.5,3.7,11.5,5.2c0.5,0.2,1,0.3,1.5,0.4c6.8,1.8,13.6,1.4,20.4-0.5c6.8-2,12.8-5.5,18.2-10c2.6-2.2,5.2-4.6,7.7-6.9
		c0.2-0.2,0.5-0.4,0.8-0.6c-0.3,1.1-0.7,2.1-1.1,3.2c-1.2,3.4-2,6.8-2.8,10.3c-0.5,2.5-1.2,4.9-2.4,7.2c-1.5,3-4.8,5-8.5,4.2
		c-1.1-0.2-2.1-0.6-3.2-0.8c-0.5-0.1-1-0.2-1.5-0.2c-0.8,0.1-1.1,0.6-0.9,1.4c0,0.1,0.1,0.2,0.1,0.4c-0.8-0.1-1.5-0.3-2.3-0.3
		c-0.7,0-1.5-0.1-2.2,0c-6.5,0.9-12,6.8-12.7,13.3c-0.1,1.2,0.4,1.8,1.6,1.7c0.8,0,1.7-0.2,2.5-0.1c2.1,0.1,4.2,0.3,6.3,0.5
		c1.7,0.2,3.5,0.3,5.2,0C144.6,232.6,146.6,231.5,148.4,229.8z M267.4,230.5c-0.1-0.6-0.3-1.2-0.4-1.8c-0.6-2.5-1.7-4.7-3.6-6.5
		c-2.4-2.2-5.6-2-7.7,0.3c-0.6,0.6-1,1.4-1.4,2.1c-0.7,1.6-0.8,3.2-0.4,4.9c0.7,3,2.4,5.2,5.6,6c1.5,0.4,3,0.1,4.5-0.4
		c0.4-0.1,0.7-0.2,1.2-0.4c0.1,0.6,0.1,1.2,0.1,1.7c0.1,4.5-0.3,8.9-1.2,13.3c-0.5,2.4-1.2,4.9-2.5,7c-0.5,0.8-1.1,1.5-1.8,2.2
		c-0.6,0.6-1,0.6-1.7,0.1c-2-1.6-2.9-3.8-3.4-6.2c0.5-0.1,0.9-0.3,1.3-0.4c1.4-0.5,2.7-1.2,3.7-2.4c1.1-1.3,1.7-2.8,1.6-4.6
		c-0.3-2.8-3-5.4-5.8-5.6c-1.9-0.1-3.3,0.7-4.5,2c-1.3,1.5-2.1,3.2-2.6,5c-0.9,3.5-0.7,6.9,0.6,10.2c0.2,0.6,0.4,1.1,0.2,1.7
		c-0.7,3.4-1.4,6.8-2.1,10.3c-0.2,0.9-0.5,1.7-0.8,2.6c-0.1,0-0.2,0-0.3,0c-0.1-0.5-0.3-1-0.4-1.6c-0.4-3.4-0.7-6.7-1.1-10.1
		c-0.1-1.3-0.3-2.6-0.6-3.9c-0.4-1.5-1.1-2.8-2.2-3.9c-1.5-1.4-3.3-1.4-4.9-0.1c-0.5,0.5-1,1.1-1.4,1.7c-0.9,1.3-1.5,2.6-2,4.1
		c-0.1,0.3-0.2,0.6-0.4,1.1c-0.1-0.2-0.1-0.3-0.1-0.4c-0.1-2-0.3-4.1-0.4-6.1c-0.2-2.5-0.4-4.9-0.6-7.4c-0.2-1.8-0.6-3.6-1.5-5.1
		c-0.3-0.6-0.7-1.1-1.2-1.6c-1.1-0.9-2.4-0.6-3,0.7c-0.3,0.6-0.5,1.2-0.5,1.8c-0.1,1.7-0.2,3.5-0.1,5.2c0.2,4.4,0.5,8.7,0.8,13.1
		c0.2,3.4,0.6,6.8,1.5,10.1c0.4,1.5,0.9,3,1.5,4.4c0.2,0.6,0.7,1.1,1.1,1.5c1.2,0.9,2.7,0.4,3.1-1c0.1-0.6,0.2-1.2,0.2-1.8
		c0.2-2.9,0.4-5.8,1-8.6c0.5-2.1,1-4.3,2.1-6.2c0.2-0.4,0.6-0.9,0.8-1.3c0.2,0.4,0.3,0.7,0.3,1.1c0.1,2.6,0.3,5.3,0.5,7.9
		c0.1,1.8,0.4,3.6,1.2,5.3c0.8,1.7,1.9,3.3,3.5,4.4c2.3,1.6,4.6,1,5.7-1.6c0.3-0.8,0.6-1.7,0.8-2.5c0.5-2.8,1-5.6,1.5-8.4
		c0.1-0.3,0.1-0.6,0.2-0.8c1,0.8,1.8,1.6,2.8,2.3c2.7,1.8,5.9,1.4,8.2-0.9c1-1,1.7-2.1,2.2-3.3c0.6-1.6,1.2-3.3,1.7-5
		c1.1-4.4,1.4-8.9,1.7-13.4c0.2-2.5,0.1-5.1,0.2-7.8c0.9-0.3,1.9-0.6,2.9-0.8c2.4-0.5,3.6,0.3,4,2.8c0,0.2,0,0.4,0.1,0.6
		c0.4,3.2,0.3,6.3,0.2,9.5c-0.1,4.4-0.4,8.9,0.2,13.3c0.3,2.2,0.7,4.5,1.7,6.5c0.6,1.4,1.5,2.5,2.8,3.4c1.8,1.2,3.7,1.3,5.4,0
		c0.8-0.6,1.6-1.4,2.2-2.3c0.9-1.3,1.7-2.7,2.4-4.1c1.8-4.2,3.4-8.5,5.1-12.8c0.2-0.6,0.4-1.2,0.5-1.8c0.1-0.6,0-1.2-0.2-1.8
		c-0.1-0.5-0.6-0.8-1.1-0.8c-0.5,0-0.9,0.3-1.2,0.8c-0.3,0.7-0.6,1.4-0.8,2.1c-1.3,3.4-2.6,6.8-4,10.2c-0.6,1.4-1.4,2.7-2.1,4
		c-0.4,0.7-1,1.3-1.5,2c-0.9-0.4-1-0.4-1.2-1.2c-0.3-1.1-0.6-2.2-0.8-3.3c-0.6-3.5-0.7-6.9-0.6-10.4c0.1-2.8,0.2-5.6,0.1-8.5
		c0-2.8-0.6-5.5-2.2-7.9c-1.8-2.6-4.1-3.9-7.3-3.5C270.7,229.7,269.1,230.1,267.4,230.5z M238.8,141.8c0.1,0.2,0.1,0.2,0.1,0.2
		c0,0.3,0,0.6,0.1,1c0.3,3.9,1.3,7.5,3.6,10.7c0.9,1.3,1.9,2.4,3.2,3.3c1.9,1.3,4,1.8,6.3,1.4c2.3-0.4,4.2-1.5,6-3
		c1.7-1.5,3.2-3.3,4.5-5.2c2.1-3,3.9-6.2,5.4-9.6c0.9-2.1,1.6-4.2,2.4-6.3c0.1-0.4,0.2-0.8,0.2-1.1c0-0.6-0.4-1-0.9-1.2
		c-0.5-0.2-1,0.1-1.3,0.5c-0.2,0.3-0.4,0.7-0.6,1c-1.9,4.5-4.3,8.6-7.1,12.6c-1.2,1.8-2.6,3.4-4.2,4.7c-0.8,0.6-1.7,1.2-2.6,1.6
		c-1.3,0.6-2.6,0.4-3.8-0.5c-3.9-3-4.6-7.2-4.4-11.7c0.4-0.1,0.6-0.3,0.9-0.4c2.6-1,5-2.5,7-4.5c1.4-1.3,2.4-2.9,3-4.7
		c1.2-3.7-1.3-8.8-6.7-8.2c-2.5,0.3-4.5,1.5-6.1,3.4c-1.1,1.3-1.9,2.8-2.5,4.4c-1.1,2.6-1.8,5.4-2.1,8.2c-0.1,0.4-0.1,0.7-0.6,0.8
		c-2.2,0.5-4.5,0.9-6.7,0.2c-1.5-0.4-3-0.9-4.4-1.4c-1.8-0.7-2.9-0.1-3.4,1.8c-0.2,0.8-0.2,1.7-0.3,2.5c-0.3,2.8-0.6,5.7-1,8.5
		c-0.6,4.5-1.1,9-1.8,13.4c-0.6,4.3-1.4,8.5-2.1,12.7c-0.3,1.6-0.8,3.1-1.3,4.9c-0.2-0.5-0.4-0.7-0.4-0.9c-0.4-1-0.8-2.1-1-3.1
		c-1.9-6.9-2.7-14-2.9-21.1c-0.2-5.5-0.2-11.1-0.2-16.6c0-1.2-0.1-2.3-0.2-3.5c-0.1-0.7-0.4-1.5-0.7-2.1c-1-1.7-3-1.8-4.2-0.2
		c-0.4,0.6-0.8,1.3-0.9,2c-0.3,1.2-0.4,2.4-0.4,3.7c-0.3,7.4-0.2,14.9,0.4,22.3c0.4,5.3,1.1,10.5,2.4,15.7c0.5,1.9,1.2,3.8,1.9,5.6
		c0.7,1.7,1.9,3.1,3.5,4c1.9,1.1,3.8,0.8,5-0.9c0.6-0.8,1.1-1.8,1.4-2.8c0.5-1.5,0.8-3.1,1.1-4.7c0.5-3.2,0.9-6.5,1.4-9.7
		c0.7-5.2,1.4-10.3,2-15.5c0.4-3.5,0.7-6.9,1.1-10.4c0.1-0.8,0.2-1.6,0.3-2.5C230.8,142.6,234.8,143.1,238.8,141.8z M158.2,240.3
		c-0.3-0.4-0.5-0.8-0.8-1.1c-1.2-1.5-2.5-2.9-4.3-3.7c-2.9-1.3-5.7-0.8-8,1.4c-1.2,1.1-2,2.5-2.5,4c-1.6,4.3-1.4,8.5,0.2,12.7
		c1,2.6,2.9,4.5,5.6,5.4c1.3,0.5,2.6,0.4,3.9-0.1c1.5-0.6,2.7-1.7,3.6-3c0.4-0.6,0.9-1.3,1.4-2c0,0.4,0.1,0.5,0.1,0.7
		c0.3,3.2,0.9,6.4,2.1,9.5c0.8,2,1.8,3.9,3.3,5.5c0.9,0.9,1.9,1.5,3.2,1.8c1.4,0.3,2.7-0.2,3.4-1.5c0.5-0.8,0.9-1.6,1.1-2.5
		c0.5-2.1,0.9-4.1,1.3-6.2c0.2-1,0.3-2,0.5-3.1c0.4,0.5,0.6,0.9,0.8,1.2c0.5,0.6,1,1.3,1.6,1.8c0.8,0.7,1.7,1,2.8,0.6
		c1-0.4,1.5-1.2,1.6-2.3c0.1-1.4,0.3-2.9,0.4-4.3c0.4-4.1,1.1-8.1,2.6-12c0.6-1.6,1.5-3,2.2-4.5c0.2-0.3,0.5-0.6,0.8-0.9
		c0.1,0,0.1,0.1,0.2,0.1c0.3,2.9,0.6,5.8,0.7,8.6c0.3,5.3,0.6,10.6,0.9,16c0.2,3.9,0.8,7.8,1.6,11.6c0.2,1,0.7,1.9,1.3,2.6
		c1.3,1.5,3.4,1.2,4.1-0.6c0.4-0.9,0.6-1.8,0.5-2.8c-0.2-2.3-0.3-4.6-0.5-7c-0.3-4.8-0.7-9.6-1-14.5c-0.2-3-0.3-5.9-0.7-8.9
		c-0.2-1.6-0.6-3.2-1-4.7c-0.4-1.4-1.2-2.7-2.2-3.7c-1.8-1.8-4.2-1.7-5.8,0.2c-0.4,0.5-0.8,1-1.1,1.6c-2,3.3-3.2,7-4.2,10.7
		c-0.3,1-0.5,2-0.7,3c-0.2-0.3-0.3-0.6-0.4-0.9c-0.3-1.7-0.5-3.5-0.9-5.2c-0.2-1.1-0.5-2.3-0.9-3.4c-0.3-0.7-0.7-1.5-1.2-2.1
		c-1.4-1.6-3.2-1.3-4.2,0.6c-0.2,0.3-0.3,0.7-0.4,1.1c-0.1,1-0.2,2.1-0.1,3.1c0.4,3.5,1,7,1.5,10.5c0.1,0.4,0.1,0.9,0,1.4
		c-0.2,1.5-0.5,3.1-0.8,4.6c-0.5,2.2-1.1,4.5-1.7,6.7c-0.2,0.7-0.5,1.5-1.1,2c-0.7-0.4-0.9-1.1-1.2-1.8c-0.8-1.9-1.3-3.9-1.5-5.9
		c-0.5-4.2-0.7-8.5-0.6-12.8c0-1.4,0.2-2.8,0.1-4.2c0-1.2-0.1-2.3-0.4-3.4c-0.3-1.1-0.9-2.1-2.2-2.3c-1.3-0.2-2.1,0.7-2.7,1.7
		C158.6,239.6,158.4,239.9,158.2,240.3z M156.1,164.9c0-0.6-0.1-1.1-0.1-1.6c0.1-5.1,0.1-10.2,0.2-15.3c0.2-5.4,0.4-10.8,0.8-16.2
		c0.2-3.8,0.6-7.5,0.9-11.3c0.2-2.2,0.4-4.4,0.5-6.6c0-0.7-0.1-1.4-0.3-2.1c-0.4-1.1-1.2-1.8-2.4-2c-1.2-0.1-2.2,0.3-2.9,1.4
		c-0.4,0.6-0.6,1.3-0.7,2c-0.3,1.3-0.5,2.7-0.6,4.1c-0.8,7.3-1.4,14.6-1.7,21.9c-0.4,8.3-0.6,16.6-0.5,25c0,1-0.1,2-0.2,3
		c-0.4,0.2-0.8,0.3-1.2,0.5c-1.7,0.8-3.5,1.5-5.2,2.3c-0.6,0.3-1.2,0.8-1.6,1.3c-0.5,0.5-0.6,1.2-0.3,1.9c0.4,0.7,1,0.9,1.7,0.8
		c0.6-0.1,1.2-0.2,1.7-0.4c7.6-2.6,15.3-5,22.8-8c3.2-1.2,6.4-2.4,9.6-3.7c1.1-0.4,2-1.2,2.9-1.8c0.6-0.4,0.7-1,0.4-1.5
		c-0.3-0.5-0.8-0.6-1.5-0.4c-0.3,0.1-0.5,0.2-0.8,0.2c-1.1-0.1-2.2,0.2-3.2,0.6c-5.6,1.8-11.2,3.7-16.8,5.5
		C157.2,164.5,156.7,164.7,156.1,164.9z M215.8,236.3c0,0.2,0,0.4,0,0.6c0,4-0.1,8-0.1,12c0.1,3.9,0.2,7.8,0.4,11.7
		c0.2,4.1,0.4,8.2,0.7,12.3c0.5,5.7,1,11.4,2.1,17c0.2,0.8,0.3,1.7,0.7,2.4c0.5,1.2,1.6,1.8,2.6,1.6c1-0.2,1.7-1.1,1.8-2.5
		c0.1-0.8,0-1.6-0.1-2.4c-0.2-2.4-0.6-4.7-0.7-7.1c-0.3-4.8-0.5-9.6-0.7-14.4c-0.4-10.4-0.5-20.9-0.3-31.3c0-0.3,0-0.6,0-0.9
		c0.3-0.1,0.6-0.2,0.9-0.2c1.7-0.3,3.5-0.6,5.2-0.9c3.4-0.7,6.8-1.4,10.3-2.1c0.5-0.1,1.1-0.4,1.5-0.7c0.5-0.3,0.7-0.7,0.6-1.3
		c-0.1-0.5-0.5-0.9-1-0.9c-0.5-0.1-1.1-0.1-1.6,0.1c-4.7,1-9.5,1.8-14.3,2.3c-0.6,0.1-1.2,0.1-1.8,0.2c-0.1-0.3-0.1-0.5-0.1-0.7
		c-0.2-0.7-0.4-1.5-0.7-2.2c-0.9-1.7-2.9-1.7-3.9-0.1c-0.3,0.5-0.5,1.1-0.7,1.7c-0.2,0.6-0.3,1.3-0.4,2c-0.4,0.1-0.9,0.1-1.3,0.2
		c-1,0.2-2,0.2-3,0.5c-0.7,0.2-1.4,0.4-2.1,0.7c-0.6,0.2-1,0.6-1,1.4c0.1,0.6,0.6,0.9,1.4,1c0.2,0,0.5,0,0.7,0
		C212.5,236.3,214,236.3,215.8,236.3z M203.1,143.1c0-0.7,0-1.5,0-2.2c-0.1-1.9-0.2-3.7-1-5.5c-1.1-2.6-3-4.2-5.8-4.4
		c-1.7-0.2-3.3,0.4-4.7,1.3c-2.3,1.4-4.2,3.2-5.6,5.5c-2.5,4-3.8,8.3-4,13c-0.2,3,0.2,6,1.4,8.8c0.9,2.1,2.2,3.8,4.1,5
		c2.8,1.9,6.3,1.6,8.8-0.7c0.5-0.5,1-1.1,1.5-1.6c1.7-2.1,2.8-4.5,3.5-7.1C202.4,151.2,202.9,147.2,203.1,143.1z M220.8,212.9
		c-0.1,0-0.1,0-0.2,0c-0.5-1.1-1.1-2.1-1.5-3.2c-1.2-2.8-2.3-5.6-3.4-8.3c-0.7-1.6-1.5-3.2-2.6-4.6c-0.8-1-1.7-1.9-2.9-2.4
		c-1.9-0.8-3.7-0.1-4.5,1.8c-0.1,0.3-0.3,0.7-0.3,1c-0.1,0.9-0.2,1.8-0.2,2.7c0.1,6,0.1,11.9,0.2,17.9c0,0.4,0,0.8,0.1,1.3
		c0.2,1,0.7,1.6,1.4,1.6c0.7,0,1.3-0.6,1.5-1.7c0.1-0.8,0.2-1.7,0.2-2.5c0-4.4,0-8.9,0-13.3c0-0.3-0.1-0.7,0.2-1.2
		c0.2,0.5,0.4,0.8,0.5,1.2c0.7,1.7,1.4,3.4,2,5.1c1.2,3.2,2.6,6.3,4.3,9.3c0.5,0.9,1.1,1.7,1.7,2.6c0.6,0.9,1.5,1.5,2.5,1.9
		c2.3,0.8,4.2-0.3,4.7-2.7c0.1-0.7,0.2-1.4,0.2-2.1c0-3.6,0-7.2,0-10.8c0-2.5-0.1-5-0.2-7.5c0-1-0.2-2-0.4-3
		c-0.2-0.9-0.8-1.3-1.6-1.3c-0.7,0.1-1.2,0.6-1.3,1.6c0,0.4,0,0.8,0,1.2c0,0.4,0.1,0.8,0.1,1.2c-0.1,4.5-0.1,9-0.2,13.4
		C221,212.4,220.9,212.7,220.8,212.9z M201.5,206.2c-0.1-1.5-0.2-3-0.4-4.5c-0.3-2-0.8-3.9-1.9-5.6c-1.4-2.1-3.2-3.3-5.8-3.2
		c-2.7,0.1-5,1.3-6.7,3.4c-1,1.3-1.9,2.7-2.5,4.1c-2.4,5.2-2.3,10.5-0.3,15.9c0.6,1.6,1.5,3,2.7,4.1c1.8,1.6,3.9,2.5,6.4,2.2
		c1.9-0.3,3.5-1.3,4.7-2.8c1.2-1.5,2-3.2,2.6-5.1C201.1,211.9,201.4,209.1,201.5,206.2z M234.9,207.6c-0.1-0.3-0.1-0.4-0.2-0.5
		c-0.2-3.3-0.3-6.6,0-9.9c0.1-0.6,0.3-0.9,0.9-1c0.9-0.2,1.8-0.3,2.7-0.4c0.4-0.1,0.8-0.1,1.1-0.3c0.8-0.4,0.9-1.3,0.2-1.8
		c-0.3-0.2-0.8-0.4-1.2-0.5c-1.6-0.2-3.2-0.3-4.8-0.4c-1.1-0.1-2,0.4-2.8,1c-1.5,1.2-2.3,2.7-2.6,4.5c-0.2,1.8-0.4,3.7-0.3,5.5
		c0.1,3.3,0.4,6.7,0.7,10c0.2,2,0.5,4.1,1.2,6c1.3,3.4,3.8,4.7,7.2,3.8c1.5-0.4,2.9-0.8,4.4-1.3c0.6-0.2,1.3-0.4,1.9-0.7
		c0.8-0.4,1.1-0.9,0.9-1.6c-0.1-0.6-0.7-1.1-1.5-1.1c-0.8,0-1.6,0-2.3,0c-0.7,0-1.4,0-2.1,0c-1.1-0.1-2.1-0.9-2.3-2
		c-0.3-1.7-0.6-3.4-0.8-5.1c0-0.2,0-0.3,0.1-0.5c0.1,0,0.2-0.1,0.3-0.1c1.1-0.1,2.2-0.2,3.3-0.3c0.5-0.1,1-0.1,1.5-0.3
		c0.7-0.2,1.1-0.8,1.1-1.4c0-0.6-0.5-1.2-1.2-1.3c-0.5-0.1-1.1-0.2-1.7-0.2C237.3,207.5,236.1,207.6,234.9,207.6z M211.4,250.7
		c0-0.6,0-1.3,0-1.9c-0.2-2.4-0.6-4.8-1.7-6.9c-0.7-1.5-1.8-2.5-3.4-3c-1.7-0.6-3.3-0.3-4.6,1c-0.3,0.2-0.6,0.4-0.8,0.7
		c-0.7,0.8-1.6,1.6-2.2,2.6c-2.6,4.5-3.1,9.3-1.7,14.3c0.7,2.4,2,4.4,4.2,5.7c2.5,1.5,5.2,1,7.1-1.2c0.9-1.1,1.5-2.4,2-3.7
		C211.2,255.8,211.5,253.3,211.4,250.7z"/>
	<g>
		<path class="st10" d="M215,359.9c0.8-0.8,1.6-1.5,2.3-2.3c2.8-3.3,6-6,9.3-8.8c0.4-0.4,0.9-0.6,1.5-0.8c1.1-0.4,2.2-0.1,3,0.8
			c0.8,0.9,0.9,1.9,0.4,3c-0.3,0.6-0.7,1.1-1.2,1.6c-2.9,2.7-5.8,5.4-8.5,8.4c-1.1,1.2-2.3,2.3-3.5,3.3c-0.6,0.5-1.4,1-2.2,1.3
			c-1.7,0.7-3.3,0.3-4.6-1c-0.5-0.5-1-1.1-1.4-1.7c-5.3-8-11.5-15.3-17.9-22.4c-5.8-6.4-11.6-12.7-17.6-19
			c-5.7-6-12.1-11.3-18.4-16.8c-5.9-5.2-12.2-9.8-18.3-14.5c-7-5.4-14.1-10.6-20.8-16.3c-7.1-6.1-13.9-12.4-20.7-18.8
			c-14.5-13.9-25.3-30.3-33.3-48.7c-3.6-8.3-5.9-17-7.3-25.9c-1.2-7.8-1.8-15.7-1.5-23.6c0.6-17.6,5.1-34,13.8-49.4
			c3-5.2,6.8-9.8,11-14c5.4-5.3,11.3-10,17.8-14c6.3-4,13.1-6.8,20.2-9c6.7-2.1,13.5-3.7,20.4-4.7c6.3-0.9,12.6-1.3,18.9-0.9
			c10.1,0.5,19.8,2.5,29.1,6.4c7.2,3,13.8,7.2,19.9,12c3,2.4,5.8,5,8.3,7.8c2.3,2.7,4.2,5.6,5.5,8.9c0.1,0.3,0.3,0.6,0.6,1.1
			c0-0.1,0-0.3,0.1-0.4c3.3-5.2,7.5-9.6,12.2-13.6c6.6-5.7,13.8-10.2,22-13.3c5.1-1.9,10.2-3.5,15.5-4.5c7.2-1.3,14.5-1.9,21.8-1.5
			c11.2,0.6,22,3.1,32.2,7.9c4.9,2.3,9.7,4.7,14.2,7.5c5.6,3.5,11,7.4,15.6,12.3c8.8,9.2,15.7,19.5,19.8,31.6
			c2.1,6.2,3.5,12.7,4.2,19.2c0.8,7.3,1,14.7,0.8,22.1c-0.1,4.4-0.7,8.9-1.4,13.3c-1.4,9.4-3.8,18.7-6.9,27.7
			c-2.6,7.5-6.3,14.5-10.6,21.2c-2.3,3.5-4.5,7-7,10.3c-3.6,4.9-7.9,9.3-12.4,13.5c-7.6,6.9-15.4,13.5-23.8,19.4
			c-1.8,1.3-3.6,2.8-5.3,4.2c-0.6,0.5-1.3,0.9-2.1,1c-1,0.2-1.8,0-2.5-0.8c-0.6-0.8-0.6-1.6-0.3-2.5c0.3-0.7,0.8-1.3,1.5-1.8
			c6.9-5.3,13.9-10.5,20.5-16.2c3.8-3.3,7.5-6.6,11.1-10.1c5-4.8,9.3-10.2,13-16.1c2.6-4.1,5.1-8.2,7.4-12.5
			c3.1-5.8,5.6-11.7,7.6-18c2.2-6.9,3.9-13.9,5.1-21.1c0.3-2.1,0.6-4.3,0.7-6.4c0.3-5.4,0.7-10.8,0.6-16.2c0-6.9-0.6-13.8-2.2-20.5
			c-2.8-12.2-8.2-23-16.3-32.5c-5.4-6.3-11.6-11.7-18.7-16c-5.4-3.3-10.9-6.3-16.6-8.9c-6.4-2.9-13.1-4.7-20-5.7
			c-6.1-0.9-12.3-1.1-18.5-0.8c-6.6,0.3-13,1.8-19.2,3.9c-5.5,1.8-10.8,4.1-15.6,7.3c-3.6,2.4-7,5-10.3,7.7
			c-4.6,3.8-8.6,8.2-12.5,12.6c-0.7,0.8-1.5,1.6-2.3,2.4c-1.6,1.4-3.3,1.1-4.4-0.8c-0.6-0.9-1.1-1.9-1.6-2.9
			c-2.6-5.2-6.3-9.5-10.6-13.2c-6.5-5.6-13.7-10.3-21.7-13.5c-6.7-2.7-13.7-4.4-20.9-5.3c-10-1.2-19.9-0.5-29.8,1.4
			c-6.2,1.2-12.3,3-18.3,5.2c-7.9,3-15,7.3-21.7,12.5c-3.1,2.4-6.1,5-9,7.7c-5,4.8-9,10.3-12.1,16.5c-3.8,7.8-6.9,15.8-8.6,24.3
			c-0.9,4.2-1.5,8.5-1.8,12.8c-0.3,4-0.6,8.1-0.5,12.2c0.2,6.9,1.2,13.6,2.5,20.4c2.9,14.7,8.9,27.9,16.9,40.5
			c7,11.1,15.4,20.9,25,29.7c6.5,6,13,12.1,19.9,17.6c5.8,4.6,11.6,9.1,17.5,13.5c9.5,7.2,18.5,15,27.4,23
			c5.5,4.9,10.7,10,15.6,15.4c5.1,5.6,10.2,11.1,15.2,16.8c4.1,4.7,8.2,9.5,11.8,14.6C213,357,213.9,358.4,215,359.9z"/>
		<g>
			<path class="st10" d="M253.8,326.5c-0.6,0.8-1.2,1.5-1.8,2.3c0.4,0.3,0.7,0.6,1.1,1c0.3,0.3,0.7,0.6,1,1c0.4,0.6,0.4,1.4,0,1.9
				c-0.4,0.6-1.2,0.8-1.9,0.5c-0.4-0.2-0.8-0.4-1.1-0.6c-2.8-2-5.4-4.2-7.8-6.7c-0.6-0.6-1-1.2-1.5-1.9c-0.4-0.6-0.5-1.2,0-1.8
				c0.5-0.5,1.1-0.6,1.7-0.3c0.5,0.2,1,0.5,1.4,0.8c1.5,1.2,2.9,2.4,4.4,3.7c0.5,0.4,0.9,0.8,1.4,1.3c0.6-0.7,1.2-1.4,2-2.3
				c-0.2-0.2-0.5-0.3-0.7-0.5c-1.4-1.2-2.8-2.5-4.2-3.8c-0.7-0.6-1.2-1.4-1.7-2.1c-0.4-0.7-0.4-1.3,0.1-1.8c0.5-0.5,1.2-0.6,1.8-0.3
				c0.9,0.5,1.8,1.1,2.6,1.7c1.5,1.2,2.9,2.5,4.3,3.8c1.1,1,2.2,2,3.3,2.9c0.2,0.1,0.3,0.3,0.5,0.4c0.6,0.7,0.7,1.6,0.2,2.2
				c-0.5,0.6-1.4,0.8-2.2,0.4c-0.3-0.2-0.6-0.4-0.9-0.6c-0.3-0.2-0.6-0.5-0.9-0.7C254.5,327,254.2,326.8,253.8,326.5z"/>
			<path class="st10" d="M255.4,317.6c0.2,0.2,0.4,0.4,0.7,0.6c1.5,1.3,3,2.5,4.5,3.8c0.3,0.2,0.6,0.5,0.8,0.8
				c0.1,0.3,0.1,0.7-0.1,1c-0.2,0.2-0.6,0.3-0.9,0.3c-0.4-0.1-0.7-0.3-1-0.5c-2.9-2.3-5.6-4.8-8.2-7.4c-1-1-0.7-2,0.6-2.6
				c1.3-0.6,2.6-0.5,3.9-0.1c1.8,0.5,3.5,1.1,5.2,1.7c1,0.3,2,0.6,3,0.9c0-0.1,0.1-0.1,0.1-0.2c-0.3-0.4-0.6-0.8-1-1.2
				c-1.8-1.8-3.6-3.5-5.4-5.3c-0.2-0.2-0.5-0.5-0.7-0.8c-0.4-0.8,0.2-1.6,1-1.4c0.4,0.1,0.7,0.3,1,0.5c2.6,2.2,5.1,4.5,7.2,7.1
				c0.4,0.5,0.8,1.2,1.1,1.8c0.6,1.3,0.2,2.3-1,3.1c-1,0.6-2.1,0.7-3.2,0.4c-2.1-0.6-4.2-1.3-6.3-1.9c-0.5-0.1-0.9-0.3-1.4-0.4
				C255.5,317.6,255.5,317.6,255.4,317.6z"/>
			<path class="st10" d="M235.4,330.3c0-3,2.1-4.8,5.1-4c0.7,0.2,1.3,0.4,2,0.8c2.3,1.3,4.3,3.1,5.8,5.3c0.7,1,1.2,2.1,1.4,3.3
				c0.3,2-0.8,3.6-2.7,4.1c-1.2,0.3-2.4,0.2-3.5-0.1c-3.6-1.1-6-3.4-7.4-6.8C235.7,331.9,235.6,331.1,235.4,330.3z M239.4,328.1
				c-1.2,0.1-1.4,0.4-1.1,1.5c0.2,0.8,0.5,1.5,1.1,2.1c0.7,0.8,1.4,1.6,2.2,2.3c1,1,2.2,1.8,3.5,2.2c0.5,0.2,1,0.2,1.4,0.3
				c0.7,0,1-0.3,0.8-1c-0.2-0.7-0.4-1.4-0.8-1.9c-1.4-2.2-3.2-3.8-5.5-4.9C240.5,328.4,239.9,328.3,239.4,328.1z"/>
			<path class="st10" d="M231,337.8c-0.2,0.1-0.5,0.4-0.8,0.5c-0.7,0.3-1.3-0.1-1.2-0.8c0-0.4,0.2-0.8,0.4-1.1
				c0.8-1.1,1.7-2.1,2.5-3.1c0.1-0.1,0.3-0.3,0.4-0.3c0.3-0.1,0.8-0.2,1,0c0.2,0.2,0.4,0.6,0.3,0.9c-0.1,0.4-0.3,0.8-0.5,1.2
				c2.6,1.3,4.6,3.3,6.5,5.3c0.9,0.9,1.5,2,2.1,3.1c0.3,0.6,0.5,1.4,0.5,2.1c0,2.1-1.9,3.5-4,2.8c-1.5-0.5-2.5-1.5-3.5-2.7
				c-0.1-0.2-0.1-0.6,0-0.7c0.1-0.1,0.5-0.2,0.7-0.1c0.4,0.2,0.8,0.5,1.2,0.7c0.5,0.3,0.9,0.5,1.4,0.8c0.4,0.2,0.8,0.3,1.2-0.3
				c-0.4-0.5-0.7-1.1-1.2-1.5c-1.2-1.2-2.5-2.5-3.8-3.7C233.4,340,232.2,338.9,231,337.8z"/>
			<path class="st10" d="M291.9,289.2c1.6,0.1,2.7,0.9,3.7,1.9c1,1.1,1.4,2.4,0.9,3.9c-0.5,1.4-1.5,2.3-3,2.6
				c-0.7,0.1-1.5,0-2.2-0.3c-0.4-0.2-0.6-0.5-0.6-0.9c0-0.4,0.3-0.7,0.7-0.9c0.3-0.1,0.6-0.2,0.9-0.3c1.4-0.6,1.7-1.9,0.7-3
				c-0.3-0.3-0.6-0.6-1-0.8c-0.6-0.4-1.1-0.3-1.6,0.1c-0.2,0.2-0.5,0.4-0.7,0.6c-0.4,0.3-0.9,0.3-1.3,0c-0.4-0.3-0.5-0.7-0.4-1.2
				c0.2-0.7,0.3-1.4,0.4-2.1c0-0.5,0-1-0.2-1.4c-0.2-0.6-0.9-1-1.3-0.9c-0.4,0.1-0.9,0.6-0.9,1.3c0,0.3,0.1,0.7,0,1.1
				c0,0.2-0.2,0.7-0.3,0.7c-0.3,0-0.6-0.1-0.8-0.3c-0.2-0.2-0.4-0.6-0.5-0.9c-0.4-1.3-0.1-2.5,0.8-3.5c0.9-1,2.1-1.3,3.4-1
				c2.1,0.5,3.4,2.2,3.3,4.4C291.9,288.6,291.9,288.8,291.9,289.2z"/>
			<path class="st10" d="M279.2,298.7c0.2,0,0.3,0,0.5,0c3.1,0.2,4.9,3.1,3.7,6c-0.5,1.3-1.9,2.2-3.3,2.3c-0.2,0-0.4,0-0.6-0.1
				c-0.4-0.1-1-0.2-1-0.8c0-0.6,0.5-0.7,0.9-0.8c0.9-0.1,1.2-0.8,1.3-1.6c0-0.5-0.1-1.1-0.3-1.6c-0.5-1.2-1.7-1.5-2.8-0.9
				c-0.4,0.2-0.7,0.5-1,0.7c-0.4,0.3-0.9,0.3-1.3,0c-0.4-0.3-0.4-0.8-0.2-1.3c0.1-0.3,0.3-0.6,0.4-0.9c0.1-0.6,0.3-1.3,0.2-1.9
				c0-0.4-0.4-0.9-0.7-1.2c-0.4-0.4-1-0.5-1.6-0.3c-0.6,0.3-0.8,0.8-0.8,1.4c0,0.3,0.1,0.6,0.1,0.8c0,0.3,0.1,0.7-0.3,0.8
				c-0.3,0-0.6-0.1-0.8-0.3c-0.6-0.7-0.8-1.5-0.7-2.4c0.2-1.8,1.5-3,3.4-3.1c1.7-0.1,3.8,0.5,4.6,2.8
				C279.1,297.2,279.1,298,279.2,298.7z"/>
			<path class="st10" d="M297.1,284.6c0.7-0.6,1.3-1.2,1.9-1.7c-0.2-0.3-0.4-0.6-0.6-0.9c-0.6-0.9-1.2-1.7-1.8-2.6
				c-0.2-0.3-0.4-0.7-0.5-1c-0.2-0.7-0.1-1.2,0.3-1.6c0.6-0.4,1.1-0.2,1.6,0.1c0.6,0.5,1.1,0.9,1.6,1.5c1.9,2.2,3.7,4.5,5.5,6.7
				c0.3,0.3,0.5,0.7,0.6,1.1c0.2,1.1-0.9,2-1.9,1.5c-0.4-0.2-0.8-0.5-1.1-0.8c-0.9-1-1.8-2-2.8-3.1c-0.4,0.5-0.7,0.9-1,1.3
				c-1.4,2.2-3.3,1.9-4.6,0c-0.7-0.9-1.3-1.9-1.8-2.9c-0.5-0.9-0.3-1.7,0.2-2.1c0.6-0.4,1.4-0.4,2.1,0.4c0.6,0.6,1.1,1.3,1.5,2
				C296.5,283.2,296.7,283.8,297.1,284.6z"/>
			<path class="st10" d="M266.5,303c-0.1,0.7-0.1,1.1-0.1,1.5c-0.1,0.4-0.3,0.7-0.7,0.8c-0.4,0.1-0.8-0.2-1-0.5
				c-0.2-0.3-0.3-0.6-0.3-0.9c-0.1-1-0.2-2-0.2-2.9c0-1.3,1-2.1,2.3-1.9c0.6,0.1,1.2,0.3,1.7,0.6c1.1,0.7,2.2,1.5,3.1,2.4
				c1.7,1.6,3.3,3.2,4.9,4.8c0.4,0.4,0.7,0.8,0.9,1.3c0.3,0.7,0.1,1.3-0.4,1.9c-0.5,0.5-1.1,0.8-1.8,0.5c-0.5-0.2-0.9-0.4-1.3-0.7
				c-0.8-0.7-1.6-1.4-2.3-2.2c-1.4-1.3-2.7-2.7-4-4C267,303.4,266.8,303.3,266.5,303z"/>
			<path class="st10" d="M285.4,295c0.7,0,1.5,0.9,1.6,1.7c0,0.7-0.6,1.5-1.3,1.5c-0.8,0-1.5-0.6-1.5-1.4
				C284,295.8,284.6,295,285.4,295z"/>
			<path class="st10" d="M281.6,290.5c0.8,0,1.4,0.6,1.4,1.4c0,0.9-0.6,1.5-1.4,1.5c-0.8,0-1.5-0.7-1.5-1.5
				C280.1,291.2,280.8,290.5,281.6,290.5z"/>
		</g>
	</g>
	<path class="st22" d="M264.6,231.3c-3.4,0.9-5.1-1.5-5.5-3.8c-0.1-0.9-0.1-1.8,0.3-2.7c0.3-0.7,0.6-0.8,1.3-0.5
		c0.9,0.3,1.5,1,2,1.7c1.1,1.5,1.6,3.3,1.9,5.1C264.7,231.1,264.6,231.2,264.6,231.3z"/>
	<path class="st22" d="M254.4,250.4c0-2,0.1-3.9,0.6-5.8c0.3-1,0.8-1.5,2.2-0.9c1.2,0.5,1.9,1.9,1.6,3.1c-0.2,1.1-0.8,2-1.8,2.6
		C256.2,249.9,255.4,250.3,254.4,250.4z"/>
	<path class="st22" d="M246.3,137c0.1-0.5,0.1-0.9,0.2-1.3c0.5-1.9,1-3.7,1.5-5.6c0.3-1,0.7-1.9,1.4-2.7c0.2-0.2,0.3-0.4,0.5-0.5
		c0.9-0.8,2.2-1,3-0.5c1.1,0.6,1.7,1.8,1.4,3.1c-0.2,0.7-0.4,1.5-0.9,2.1c-0.6,0.9-1.3,1.7-2.1,2.4C250,135.3,248.2,136.2,246.3,137
		z"/>
	<path class="st22" d="M147.9,244.8c0.1-1.2,0.2-2.3,0.4-3.5c0.1-0.7,0.5-1.3,0.8-1.9c0.5-0.9,1.4-1.2,2.4-0.9
		c0.8,0.3,1.6,0.7,2.2,1.2c1.6,1.2,2.6,2.9,3.5,4.6c0.1,0.1,0.1,0.3,0.1,0.4c-0.1,1.3,0.1,2.7-0.6,3.9c-0.7,1.3-1.4,2.6-2.2,3.8
		c-0.3,0.5-0.8,0.9-1.2,1.3c-1.1,0.9-2.1,0.9-3-0.2c-0.5-0.6-0.9-1.3-1.2-2C148.3,249.4,148.1,247.1,147.9,244.8z"/>
	<path class="st22" d="M199.4,141.6c0,4-0.6,8-2.1,11.8c-0.7,1.9-1.7,3.6-3.2,5c-1.3,1.2-2.1,1.7-3.7-0.4c-1.1-1.5-1.4-3.3-1.5-5.1
		c-0.2-2.6,0.2-5.1,0.7-7.7c0.3-1.6,0.6-3.1,1-4.6c0.4-1.2,1-2.3,1.5-3.5c0.5-1,1.3-1.6,2.2-2.1c2-1.1,4,0.1,4.5,1.6
		c0.3,0.9,0.5,1.8,0.6,2.7C199.4,140.1,199.4,140.8,199.4,141.6z"/>
	<path class="st22" d="M198,205.7c-0.1,2.5-0.4,4.9-1.2,7.3c-0.4,1.1-1,2.1-1.6,3.1c-0.2,0.3-0.5,0.6-0.8,0.8
		c-0.7,0.6-1.5,0.5-2.2-0.1c-1.3-1.2-2.2-2.7-2.6-4.4c-0.7-2.6-0.7-5.3-0.5-8c0.1-1.5,0.4-3,0.9-4.4c0.3-0.7,0.6-1.4,1.1-2.1
		c0.3-0.4,0.8-0.9,1.2-1.1c1.4-0.7,2.7-0.6,3.6,0.8c1,1.4,1.5,2.9,1.7,4.5C197.8,203.3,197.9,204.5,198,205.7z"/>
	<path class="st22" d="M205,259c-0.7-0.5-1-1.3-1.2-2.1c-0.4-1.4-0.7-2.7-0.9-4.1c-0.3-2.6-0.4-5.1,0.1-7.7c0.2-1.1,0.6-2.2,1.4-3
		c0.4-0.4,0.7-0.5,1.1-0.1c0.4,0.4,0.9,0.8,1.2,1.3c0.6,1.1,0.9,2.4,1.1,3.6c0.5,3.4,0.1,6.7-1.2,9.9
		C206.3,257.6,205.9,258.5,205,259z"/>
</g>
</svg>
