<?xml version="1.0" encoding="iso-8859-1"?>
<!-- Generator: Adobe Illustrator 19.0.0, SVG Export Plug-In . SVG Version: 6.00 Build 0)  -->
<svg version="1.1" id="Capa_1" xmlns="http://www.w3.org/2000/svg" xmlns:xlink="http://www.w3.org/1999/xlink" x="0px" y="0px"
	 viewBox="0 0 512 512" style="enable-background:new 0 0 512 512;" xml:space="preserve">
<g>
	<g>
		<g>
			<path d="M487.421,229.784c3.097-2.01,6.002-4.347,8.642-7.01c10.316-10.311,16.051-24.338,15.915-38.923
				c-0.085-24.384-41.717-86.837-58.037-96.181c-4.32-2.902-9.901-3.141-14.453-0.619c-4.539,2.852-7.1,8.004-6.635,13.344
				c0.008,2.184-0.012,4.257-0.049,6.272H330.687V64c5.891,0,10.667-4.776,10.667-10.667V10.667C341.354,4.776,336.578,0,330.687,0
				h-320C4.796,0,0.02,4.776,0.02,10.667v42.667C0.02,59.224,4.796,64,10.687,64v288c0,5.891,4.776,10.667,10.667,10.667h60.533
				L43.103,498.411c-0.27,0.948-0.407,1.929-0.408,2.915c-0.004,5.891,4.768,10.67,10.659,10.674H96.02
				c4.763-0.003,8.946-3.164,10.251-7.744L122.344,448h96.686l16.073,56.256c1.305,4.58,5.488,7.741,10.251,7.744h42.667
				c0.986-0.001,1.967-0.138,2.915-0.408c5.666-1.614,8.95-7.516,7.336-13.181l-38.784-135.744h60.533
				c5.891,0,10.667-4.776,10.667-10.667V234.667h98.256l-7.654,95.147c-0.021,0.263-0.033,0.527-0.034,0.792
				c-0.025,4.246,2.441,7.915,6.022,9.653l9.991,150.409c0.622,11.77,10.211,21.071,21.995,21.333h0.075
				c11.804-0.181,21.418-9.538,21.92-21.333l8.902-150.222c3.839-1.879,6.331-5.967,5.946-10.482L487.421,229.784z M473.844,320.16
				l-30.357-0.149l6.638-82.666c2.827,0.505,5.727,0.802,8.69,0.853h0.213c2.581,0.001,5.143-0.191,7.665-0.565L473.844,320.16z
				 M481.023,207.691c-5.815,5.875-13.739,9.179-22.005,9.173H458.9c-7.823-0.202-14.947-3.11-20.497-7.809
				c11.61-4.524,21.781-12.468,29.009-23.039c7.565-8.738,12.335-13.845,19.669-15.059c2.253,5.347,3.606,9.883,3.606,12.979
				C490.792,192.832,487.309,201.395,481.023,207.691z M477.146,151.508c-11.473,3.941-18.984,12.599-25.862,20.546
				c-7.051,8.146-13.372,15.435-23.91,18.461c-0.466-2.261-0.709-4.603-0.687-7.005c-0.011-4.021,0.608-4.555,4.683-8.288
				c10.24-9.376,20.267-21.781,22.4-58.443C460.929,125.729,469.859,138.897,477.146,151.508z M416.959,159.488
				c-0.322,0.242-0.629,0.498-0.939,0.752V160h-74.667v21.333h64.034c-0.037,0.75-0.056,1.504-0.034,2.261
				c-0.042,10.957,3.168,21.172,8.717,29.739H218.687c-8.837,0-16-7.163-16-16s7.163-16,16-16c5.891,0,10.667-4.776,10.667-10.667
				c0-5.891-4.776-10.667-10.667-10.667h-64c-8.837,0-16-7.163-16-16s7.163-16,16-16h276.63
				C428.422,148.962,421.996,154.872,416.959,159.488z M21.353,21.333H320.02v21.333H21.353V21.333z M87.977,490.667h-20.48
				l36.565-128h20.48L87.977,490.667z M128.439,426.667l18.286-64h47.924l18.286,64H128.439z M273.876,490.667h-20.48l-36.565-128
				h20.48L273.876,490.667z M309.353,341.333h-64h-42.667h-64H96.02h-64V64h277.333v42.667H154.687
				c-20.619,0-37.333,16.715-37.333,37.333s16.715,37.333,37.333,37.333h30.272c-2.371,5-3.602,10.464-3.602,15.997
				c-0.002,20.619,16.712,37.335,37.33,37.336h90.667V341.333z M459.359,490.667c-0.139,0-0.715-0.459-0.779-1.44l-9.801-147.816
				l19.915,0.091l-8.706,147.927C459.935,490.325,459.444,490.667,459.359,490.667z"/>
			<rect x="298.687" y="160" width="21.333" height="21.333"/>
			<path d="M74.687,266.667H53.353v42.667c0,5.891,4.776,10.667,10.667,10.667h42.667v-21.333h-32V266.667z"/>
			<rect x="128.02" y="298.667" width="21.333" height="21.333"/>
		</g>
	</g>
</g>
<g>
</g>
<g>
</g>
<g>
</g>
<g>
</g>
<g>
</g>
<g>
</g>
<g>
</g>
<g>
</g>
<g>
</g>
<g>
</g>
<g>
</g>
<g>
</g>
<g>
</g>
<g>
</g>
<g>
</g>
</svg>
