<?xml version="1.0" encoding="iso-8859-1"?>
<!-- Generator: Adobe Illustrator 19.0.0, SVG Export Plug-In . SVG Version: 6.00 Build 0)  -->
<svg version="1.1" id="Capa_1" xmlns="http://www.w3.org/2000/svg" xmlns:xlink="http://www.w3.org/1999/xlink" x="0px" y="0px"
	 viewBox="0 0 512 512" style="enable-background:new 0 0 512 512;" xml:space="preserve">
<g>
	<g>
		<g>
			<path d="M458.667,192v-21.333h-53.333h-41.688c4.258-18.975,21.563-32.801,41.688-32c5.891,0,10.667-4.776,10.667-10.667V85.333
				c0-61.024,21.611-64,21.333-64c5.891,0,10.667-4.776,10.667-10.667C448,4.776,443.224,0,437.333,0H202.667
				C196.776,0,192,4.776,192,10.667c0,5.891,4.776,10.667,10.667,10.667c13.867,0,21.333,37.173,21.333,64V128
				c0,5.891,4.776,10.667,10.667,10.667c1.578,0,35.429,0.397,41.678,32h-41.678h-45.005l-17.635-70.541
				C184.022,92.574,192,79.222,192,64c0-21.973-16.619-64-42.667-64c-26.048,0-42.667,42.027-42.667,64
				c0,15.222,7.978,28.574,19.974,36.125l-17.635,70.541h-2.339H53.333V192h10.978c1.963,35.125,13.357,67.726,31.688,95.324V480
				c0,17.673,14.327,32,32,32h256c17.673,0,32-14.327,32-32V287.324c18.332-27.598,29.725-60.199,31.688-95.324H458.667z M224,192
				v21.333H117.333V192h64H224z M117.333,234.667H224v10.667c-0.001,3.636,0.618,7.245,1.83,10.673
				c5.891,16.662,24.174,25.394,40.837,19.503V288c0,17.673,14.327,32,32,32c17.673,0,32-14.327,32-32v-33.824
				c3.428,1.212,7.037,1.831,10.673,1.83c13.932-0.003,25.777-8.911,30.168-21.339h23.159v46.167
				C363.689,323.929,313.125,352,256,352s-107.689-28.071-138.667-71.167V234.667z M394.667,213.333h-21.333V192h21.333V213.333z
				 M256,21.333v32h21.333v-32h21.333v21.333H320V21.333h87.328c-8.049,16.696-12.396,34.885-12.832,53.333H245.071
				c-1.036-18.323-5.18-36.363-12.303-53.333H256z M245.333,118.24V96h149.333v22.24c-28.046,3.236-49.563,25.305-52.94,52.427
				h-43.454C294.896,143.545,273.379,121.476,245.333,118.24z M266.667,192v21.333H288V192h64v32
				c0,5.891-4.776,10.667-10.667,10.667c-5.891,0-10.667-4.776-10.667-10.667s-4.776-10.667-10.667-10.667
				s-10.667,4.776-10.667,10.667v64c0,5.891-4.776,10.667-10.667,10.667c-5.891,0-10.667-4.776-10.667-10.667v-42.667
				c0-5.891-4.776-10.667-10.667-10.667c-5.891,0-10.667,4.776-10.667,10.667c0,5.891-4.776,10.667-10.667,10.667
				s-10.667-4.776-10.667-10.667V192H266.667z M128.062,65.23c5.566,1.41,10.81,3.997,15.351,7.645
				c5.26,3.992,11.095,7.069,17.259,9.173c-3.288,2.07-7.167,3.286-11.339,3.286C137.966,85.333,128.703,76.436,128.062,65.23z
				 M149.333,21.333c7.779,0,20.662,25.395,21.302,41.445c-5.578-1.408-10.832-3.999-15.382-7.653
				c-6.847-5.196-14.663-8.857-22.92-10.813C136.935,32.263,144.231,21.333,149.333,21.333z M146.997,106.667h4.672l16,64h-36.672
				L146.997,106.667z M85.675,192H96v48.831C90.288,225.477,86.728,209.078,85.675,192z M394.667,480
				c0,5.891-4.776,10.667-10.667,10.667H128c-5.891,0-10.667-4.776-10.667-10.667V313.993
				c34.945,36.515,84.145,59.277,138.667,59.34c54.521-0.064,103.721-22.825,138.667-59.34V480z M416,240.831V192h10.325
				C425.272,209.078,421.712,225.477,416,240.831z"/>
			<path d="M160,416h-21.333v42.667c0,5.891,4.776,10.667,10.667,10.667H192V448h-32V416z"/>
			<rect x="213.333" y="448" width="21.333" height="21.333"/>
			<rect x="309.333" y="117.333" width="21.333" height="21.333"/>
		</g>
	</g>
</g>
<g>
</g>
<g>
</g>
<g>
</g>
<g>
</g>
<g>
</g>
<g>
</g>
<g>
</g>
<g>
</g>
<g>
</g>
<g>
</g>
<g>
</g>
<g>
</g>
<g>
</g>
<g>
</g>
<g>
</g>
</svg>
