<?xml version="1.0" encoding="iso-8859-1"?>
<!-- Generator: Adobe Illustrator 19.0.0, SVG Export Plug-In . SVG Version: 6.00 Build 0)  -->
<svg version="1.1" id="Capa_1" xmlns="http://www.w3.org/2000/svg" xmlns:xlink="http://www.w3.org/1999/xlink" x="0px" y="0px"
	 viewBox="0 0 512 512" style="enable-background:new 0 0 512 512;" xml:space="preserve">
<g>
	<g>
		<path d="M207.2,292.459l-8-16c-0.852-1.685-2.267-3.018-4-3.768l-53.12-22.976l-4.275-13.251
			C151.645,225.278,160,206.721,160,184.035v-16v-48c0-2.122-0.844-4.156-2.344-5.656C142.713,101.736,123.555,95.187,104,96.035
			c-19.555-0.848-38.712,5.702-53.656,18.344c-1.5,1.5-2.344,3.534-2.344,5.656v48v16c0,22.673,8.345,41.221,22.169,52.409
			l-4.281,13.271L12.84,272.691c-1.733,0.75-3.148,2.083-4,3.768l-8,16c-0.554,1.111-0.841,2.335-0.84,3.576v120h16V297.923
			l5.848-11.704l48.165-20.859L96,291.347v44.688h16v-44.688l25.984-25.984l48.168,20.856L192,297.923v118.112h16v-120
			C208.014,294.797,207.74,293.573,207.2,292.459z M64,123.763c11.731-8.097,25.754-12.209,40-11.728
			c14.245-0.483,28.268,3.625,40,11.72v35.125c-4-1.052-8-3.053-8-6.845c0-4.418-3.582-8-8-8H80c-4.418,0-8,3.582-8,8
			c0,3.792-4,5.792-8,6.845V123.763z M104,276.723l-22.698-22.698l3.043-9.463c6.013,2.26,12.604,3.473,19.655,3.473
			c7.043,0,13.627-1.21,19.635-3.466l3.053,9.465L104,276.723z M104,232.035c-29.52,0-40-25.856-40-48v-8.744
			c9.621-0.924,18.114-6.67,22.552-15.256h34.896c4.438,8.586,12.931,14.332,22.552,15.256v8.744
			C144,206.179,133.52,232.035,104,232.035z"/>
	</g>
</g>
<g>
	<g>
		<rect x="40" y="368.038" width="16" height="48"/>
	</g>
</g>
<g>
	<g>
		<rect x="152" y="368.038" width="16" height="48"/>
	</g>
</g>
<g>
	<g>
		<path d="M504,144.035H184v16h248v48H184v16h320c4.418,0,8-3.582,8-8v-64C512,147.616,508.418,144.035,504,144.035z M496,208.035
			h-48v-48h48V208.035z"/>
	</g>
</g>
<g>
	<g>
		<path d="M504,248.035H232v16h200v48H232v16h272c4.418,0,8-3.582,8-8v-64C512,251.616,508.418,248.035,504,248.035z M496,312.035
			h-48v-48h48V312.035z"/>
	</g>
</g>
<g>
	<g>
		<rect x="232" y="360.038" width="16" height="16"/>
	</g>
</g>
<g>
	<g>
		<rect x="440" y="392.038" width="16" height="16"/>
	</g>
</g>
<g>
	<g>
		<rect x="264" y="360.038" width="240" height="16"/>
	</g>
</g>
<g>
	<g>
		<rect x="232" y="392.038" width="192" height="16"/>
	</g>
</g>
<g>
	<g>
		<rect x="184" y="176.038" width="224" height="16"/>
	</g>
</g>
<g>
	<g>
		<rect x="232" y="280.038" width="176" height="16"/>
	</g>
</g>
<g>
</g>
<g>
</g>
<g>
</g>
<g>
</g>
<g>
</g>
<g>
</g>
<g>
</g>
<g>
</g>
<g>
</g>
<g>
</g>
<g>
</g>
<g>
</g>
<g>
</g>
<g>
</g>
<g>
</g>
</svg>
