<?xml version="1.0" encoding="utf-8"?>
<!-- Generator: Adobe Illustrator 22.0.1, SVG Export Plug-In . SVG Version: 6.00 Build 0)  -->
<svg version="1.1" id="Calque_1" xmlns="http://www.w3.org/2000/svg" xmlns:xlink="http://www.w3.org/1999/xlink" x="0px" y="0px"
	 viewBox="0 0 432 432" style="enable-background:new 0 0 432 432;" xml:space="preserve">
<style type="text/css">
	.st0{fill:#940808;}
	.st1{fill:#E56B6B;}
	.st2{fill:#1A1A1A;}
	.st3{fill:#DD5151;}
	.st4{fill:#6B313C;}
	.st5{fill:#B65165;}
	.st6{fill:#EB899F;}
	.st7{fill:#9C0000;}
	.st8{fill:#4D4D4D;}
	.st9{fill:#C4924B;}
	.st10{fill:#333333;}
	.st11{fill-rule:evenodd;clip-rule:evenodd;fill:#9C0000;}
	.st12{fill:#F68484;}
	.st13{fill:#AB1F1F;}
	.st14{fill:#A45F6F;}
	.st15{fill:#DEB0B0;}
	.st16{fill:#BA3434;}
	.st17{fill:#A57B7C;}
	.st18{fill:#F2F2F2;}
	.st19{fill:#EC1C24;}
	.st20{fill:#A54550;}
	.st21{fill:#FFFFFF;}
	.st22{fill:#AE5B65;}
	.st23{fill:#F5D3D1;}
	.st24{fill:#687A6E;}
	.st25{fill:#231F20;}
	.st26{fill-rule:evenodd;clip-rule:evenodd;fill:#333333;}
	.st27{fill:#F4E6E5;}
	.st28{fill:#EFBB75;}
	.st29{fill:#D8A160;}
	.st30{fill:#EFDDCA;}
	.st31{fill:#A55B6A;}
	.st32{fill:#92A182;}
	.st33{fill:#CCCCCC;}
	.st34{fill:#944E3C;}
	.st35{fill:#C1272D;}
	.st36{fill:#C67B32;}
	.st37{fill:#72696D;}
	.st38{fill:#E3A8A4;}
	.st39{fill:#9FC8C2;}
	.st40{fill:#8B8285;}
	.st41{fill:#71796C;}
	.st42{fill-rule:evenodd;clip-rule:evenodd;fill:#E9C8C3;}
	.st43{fill:#C06666;}
	.st44{fill:#96A4A5;}
	.st45{fill:#C53C3C;}
	.st46{fill:#EA6B74;}
	.st47{fill:#406D8F;}
	.st48{fill:#77A3C0;}
	.st49{fill:#F25850;}
	.st50{fill:#253245;}
	.st51{fill:#FFAA96;}
	.st52{fill:#E0C8A4;}
	.st53{fill:#39ABA9;}
	.st54{fill:#F6DE96;}
	.st55{fill:#F1D2CD;}
	.st56{fill:#E8C3C3;}
	.st57{fill:#AB2130;}
	.st58{fill:#982A3A;}
	.st59{fill:#E19F78;}
	.st60{fill:#FEDED2;}
	.st61{fill:#FFB0A1;}
	.st62{fill:#DB3434;}
	.st63{fill:#C76B6A;}
	.st64{fill:#E05E90;}
	.st65{fill:#CE9F5C;}
	.st66{fill:#FF8D71;}
	.st67{fill:#B75041;}
	.st68{fill:#FCE4B6;}
	.st69{fill:#B24A58;}
	.st70{fill:#3C0303;}
	.st71{fill:#8B1111;}
	.st72{fill:#B02121;}
	.st73{fill:#29285B;}
	.st74{fill:#E6E6E6;}
	.st75{fill:#D59D79;}
	.st76{fill:#F0C880;}
	.st77{fill:#B3B3B3;}
	.st78{fill:#C6C6C6;}
	.st79{fill:#A6A6A6;}
	.st80{fill:#603813;}
	.st81{fill:#BC2A34;}
	.st82{fill:#999966;}
	.st83{fill:#666633;}
	.st84{fill:#CC6666;}
	.st85{fill:#663333;}
	.st86{fill-rule:evenodd;clip-rule:evenodd;fill:#FEDED2;}
	.st87{fill:#534741;}
</style>
<g>
	<g>
		<g>
			<g>
				<path class="st61" d="M161.1,156.6c1.4,7.6,3.7,14.5,8.1,20.7c0.6,0.9,1.4,1.7,2.1,2.6c0.3,0.3,0.5,0.7,0.7,1.1
					c0.3,0.9-0.3,1.7-1.2,1.6c-0.6,0-1.1-0.3-1.6-0.6c-0.7-0.4-1.3-1-1.8-1.5c-3.1-2.9-5.1-6.5-6.6-10.4c-1.9-4.7-3.3-9.6-3.8-14.7
					c-0.9-9.9,1.2-19.1,7.2-27.1c2.1-2.8,4.6-5.1,7.9-6.5c2.7-1.2,5.5-1.6,8.4-1.1c3.7,0.7,6.3,2.9,7.8,6.4c0.5,1.1,0.6,2.4,0.5,3.6
					c-0.4,4.1-3.7,7.9-7.6,8.7c-3.3,0.7-6.8-1.5-7.6-4.8c-0.8-3.5,2.3-6.9,6-5.9c0.2,0.1,0.5,0.1,0.7,0.2c1,0.5,1.4,1.3,1.3,2.3
					c-0.2,0.9-1.1,1.6-2.1,1.6c-0.3,0-0.6-0.1-0.9-0.1c-0.7,0-0.9,0.4-0.8,1c0.3,1.1,1.6,1.9,2.7,1.6c2-0.6,3.9-2.9,4.1-5
					c0.1-1.1-0.2-2-0.8-2.8c-1.4-1.8-3.2-2.7-5.5-2.7c-2.9,0-5.5,1.1-7.7,3c-1.8,1.5-3.2,3.3-4.4,5.3c-3.5,5.7-5.1,11.9-5,18.5
					C160.9,153.4,161,155.1,161.1,156.6z"/>
				<path class="st61" d="M194.8,170.1c0.3,1.7,0.6,3.4,0.9,5.1c0.1,0.3,0.1,0.6,0.1,1c0,0.5-0.1,1-0.5,1.2c-0.5,0.3-1,0.2-1.4-0.1
					c-0.5-0.5-1.1-1-1.4-1.6c-0.4-0.9-0.8-1.8-1-2.7c-1.6-5.9-2.1-11.9-1.7-18c0.2-3.3,0.6-6.5,1.6-9.7c0.6-1.9,1.3-3.7,2.3-5.3
					c0.8-1.3,1.7-2.4,2.8-3.4c2.7-2.4,5.8-2.9,9.2-1.8c3,1.1,5.3,3,6.5,6.1c1.3,3.2-0.3,8.4-4.7,9.7c-3.8,1.1-6.9-1.9-6.2-5.8
					c0.2-0.9,0.9-1.5,1.8-1.6c0.8,0,1.6,0.4,1.9,1.3c0.2,0.5,0.3,1,0.4,1.5c0.1,0.5,0.4,0.6,0.9,0.5c0.2-0.1,0.5-0.2,0.7-0.3
					c1.3-0.9,1.9-3,1-4.3c-1.3-2.1-3.1-3.4-5.6-3.4c-1.1,0-2,0.4-2.9,1.1c-1.5,1.2-2.5,2.8-3.3,4.6c-1.2,2.8-1.8,5.8-2.1,8.8
					C193.7,158.3,193.7,163.3,194.8,170.1z"/>
			</g>
			<g>
				<path class="st66" d="M156,310.6c-1.8,0.5-3.6,1-5.4,1.6c-4.2,1.3-8.5,2.4-12.9,2.8c-3.2,0.3-6.5,0.3-9.6-0.6
					c-2-0.6-3.9-1.5-5.5-2.9c-2.8-2.4-3.9-5.4-3.2-9c0.4-2.2,1.4-4.1,2.7-5.8c1.7-2.3,3.8-4.2,6.1-6c4.6-3.4,9.6-6.1,14.8-8.4
					c5.5-2.4,11.1-4.3,17-5.8c5-1.2,10-1.9,15.2-1.3c1.2,0.2,2.5,0.4,3.7,0.7c3.2,0.8,5.5,2.9,7.1,5.8c1.2,2.3,1.9,4.7,2.4,7.3
					c1.2,7.3,1.3,14.7,0.6,22.1c-1,11-3.1,21.7-6.9,32.1c-1.6,4.4-3.5,8.8-6.1,12.7c-1.7,2.5-3.6,4.9-5.8,7
					c-2.4,2.2-5.1,3.7-8.4,4.1c-3,0.4-5.8-0.3-8.2-2.2c-4.2-3.3-7.1-7.5-8.6-12.6c-1.4-4.9-1.3-9.8-0.4-14.8
					c1.4-7.7,4.3-14.8,8.4-21.5c1.1-1.8,2.2-3.5,3.3-5.2C156,310.7,156,310.7,156,310.6z"/>
				<path class="st67" d="M123.3,250.7c-0.3-0.2-0.5-0.4-0.8-0.6c-4.7-3.6-9.3-7.1-13.7-11c-5-4.4-9.5-9.3-13.3-14.8
					c-4.2-6.1-7.2-12.7-8.4-20.1c-0.5-3.4-0.6-6.9-0.1-10.3c0.2-1.1,0.4-2.1,0.7-3.1c1.4-4.9,4.7-8,9.4-9.8
					c3.7-1.5,7.6-1.7,11.6-1.3c6,0.7,11.6,2.6,16.9,5.5c10.2,5.4,19,12.4,26.8,20.9c4.4,4.8,8.8,9.7,12.5,15.1c2.1,3,4,6,5.9,9.1
					c3.3,5.2,6.1,10.7,8.9,16.2c3.7,7.3,5.7,15,5,23.2c-0.1,1.2-0.2,2.5-0.5,3.7c-1,5.5-3.9,9.8-8.5,13.1c-3.3,2.3-6.8,4.1-10.5,5.5
					c-11.8,4.6-24,7.2-36.6,7.8c-8.2,0.4-16.4-0.4-24.3-2.7c-5.3-1.6-10.4-3.7-15.1-6.6c-4.1-2.5-7.7-5.6-10.7-9.4
					c-2-2.6-3.5-5.4-4.2-8.7c-1.1-5.4,0.5-10,4.1-14c2.1-2.4,4.7-4.1,7.5-5.6c6.1-3.3,12.6-4.4,19.4-4.4c5.7,0,11.3,0.9,16.8,2.4
					c0.3,0.1,0.6,0.2,1,0.2C123.2,250.8,123.2,250.8,123.3,250.7z"/>
			</g>
			<path class="st68" d="M178.1,225c-1.5-0.8-2.9-1.5-4.3-2.4c-8.2-5.2-12.8-12.7-13.8-22.2c-0.8-7.7,1.7-14.2,7.6-19.3
				c5.2-4.4,11.1-7.3,18-7.9c11.4-1,20.1,4.5,24.5,13.3c1.5,3.1,1.9,6.4,1.6,9.8c-1,10-5.2,18.4-12.6,25.2c-1.4,1.3-3.1,2.2-4.7,3.3
				c-0.2,0.2-0.5,0.3-0.8,0.5c0.3,0.7,0.5,1.3,0.8,1.9c1.7,4.3,3.1,8.8,4.4,13.2c1.6,5.8,3.1,11.6,4.2,17.5
				c1.3,6.7,2.5,13.5,3.2,20.3c0.7,6.7,1.3,13.3,1.8,20c0.4,5.3,0.5,10.6,0.6,15.9c0.1,5.8-0.1,11.5-0.5,17.3
				c-0.3,3.3-0.7,6.7-1.4,9.9c-0.3,1.3-0.6,2.6-1.3,3.8c-0.9,1.4-2.2,2.2-3.9,2c-1-0.1-1.8-0.6-2.6-1.3c-1.1-1-1.8-2.1-2.6-3.3
				c-1.4-2.4-2.5-4.9-3.5-7.5c-1.2-3.1-2.4-6.1-3.5-9.2c-1.5-4.4-2.7-8.8-3.7-13.3c-2.7-11.6-4.5-23.4-5.8-35.3
				c-0.8-6.7-1.4-13.3-1.9-20c-0.8-9.4-0.9-18.8-0.2-28.2C177.9,227.6,178,226.3,178.1,225z"/>
			<path d="M188.8,186.7c-0.6,0.7-0.6,0.6-1.3,0.2c-0.6-0.4-1.2-0.7-1.8-1c-0.4-0.2-0.8-0.3-1.2-0.2c-0.1,0-0.3,0.1-0.3,0.2
				c0,0.2,0.1,0.2,0.2,0.3c0.5,0.3,0.9,0.8,1.2,1.3c0.2,0.4,0.6,0.7,0.9,1.1c0.2,0.1,0.2,0.2,0.1,0.4c-0.4,0.7-0.4,0.7-1.2,0.4
				c-0.6-0.2-1.2-0.4-1.9-0.6c-0.3-0.1-0.6-0.1-0.9,0c-0.1,0-0.2,0.1-0.2,0.2c0,0.1,0,0.2,0.1,0.2c0.1,0.1,0.3,0.1,0.4,0.2
				c0.9,0.3,1.7,0.8,2.4,1.3c0.2,0.1,0.2,0.2,0.1,0.4c-0.1,0.4-0.2,0.9-0.3,1.4c-0.1,0.5,0,0.7,0.5,0.9c1,0.4,2.1,0,2.7-0.8
				c0.6-0.8,1.2-1.7,1.7-2.6c0.6-1.1,1.4-1.9,2.4-2.6c0.1-0.1,0.3-0.2,0.4-0.3c1.1-0.7,2.3-0.8,3.5-0.4c1.8,0.7,3.3,1.7,4.6,3.2
				c0.7,0.8,1.2,1.6,1.7,2.5c0.1,0.2,0.2,0.4,0.4,0.7c0.3,0.4,0.6,0.5,1.1,0.4c0.4-0.1,0.6-0.4,0.7-0.9c0.1-0.5-0.1-1-0.2-1.5
				c-0.4-1.2-1.1-2.3-2.1-3.1c-2.5-2.3-5.4-3.4-8.8-3c-1,0.1-2,0.4-3,0.8c-0.3,0.1-0.5,0.1-0.7-0.1c-0.4-0.4-0.9-0.7-1.4-1
				c-0.5-0.3-1-0.5-1.4-0.9c-0.3-0.2-0.6-0.2-0.9-0.2c-0.3,0.1-0.3,0.2-0.2,0.5c0.5,0.6,0.9,1.3,1.5,1.8
				C188.1,186.1,188.5,186.4,188.8,186.7z"/>
		</g>
		<g>
			<g>
				<path class="st66" d="M270.9,156.6c-1.4,7.6-3.7,14.5-8.1,20.7c-0.6,0.9-1.4,1.7-2.1,2.6c-0.3,0.3-0.5,0.7-0.7,1.1
					c-0.3,0.9,0.3,1.7,1.2,1.6c0.6,0,1.1-0.3,1.6-0.6c0.7-0.4,1.3-1,1.8-1.5c3.1-2.9,5.1-6.5,6.6-10.4c1.9-4.7,3.3-9.6,3.8-14.7
					c0.9-9.9-1.2-19.1-7.2-27.1c-2.1-2.8-4.6-5.1-7.9-6.5c-2.7-1.2-5.5-1.6-8.4-1.1c-3.7,0.7-6.3,2.9-7.8,6.4
					c-0.5,1.1-0.6,2.4-0.5,3.6c0.4,4.1,3.7,7.9,7.6,8.7c3.3,0.7,6.8-1.5,7.6-4.8c0.8-3.5-2.3-6.9-6-5.9c-0.2,0.1-0.5,0.1-0.7,0.2
					c-1,0.5-1.4,1.3-1.3,2.3c0.2,0.9,1.1,1.6,2.1,1.6c0.3,0,0.6-0.1,0.9-0.1c0.7,0,0.9,0.4,0.8,1c-0.3,1.1-1.6,1.9-2.7,1.6
					c-2-0.6-3.9-2.9-4.1-5c-0.1-1.1,0.2-2,0.8-2.8c1.4-1.8,3.2-2.7,5.5-2.7c2.9,0,5.5,1.1,7.7,3c1.8,1.5,3.2,3.3,4.4,5.3
					c3.5,5.7,5.1,11.9,5,18.5C271.1,153.4,271,155.1,270.9,156.6z"/>
				<path class="st66" d="M237.2,170.1c-0.3,1.7-0.6,3.4-0.9,5.1c-0.1,0.3-0.1,0.6-0.1,1c0,0.5,0.1,1,0.5,1.2c0.5,0.3,1,0.2,1.4-0.1
					c0.5-0.5,1.1-1,1.4-1.6c0.4-0.9,0.8-1.8,1-2.7c1.6-5.9,2.1-11.9,1.7-18c-0.2-3.3-0.6-6.5-1.6-9.7c-0.6-1.9-1.3-3.7-2.3-5.3
					c-0.8-1.3-1.7-2.4-2.8-3.4c-2.7-2.4-5.8-2.9-9.2-1.8c-3,1.1-5.3,3-6.5,6.1c-1.3,3.2,0.3,8.4,4.7,9.7c3.8,1.1,6.9-1.9,6.2-5.8
					c-0.2-0.9-0.9-1.5-1.8-1.6c-0.8,0-1.6,0.4-1.9,1.3c-0.2,0.5-0.3,1-0.4,1.5c-0.1,0.5-0.4,0.6-0.9,0.5c-0.2-0.1-0.5-0.2-0.7-0.3
					c-1.3-0.9-1.9-3-1-4.3c1.3-2.1,3.1-3.4,5.6-3.4c1.1,0,2,0.4,2.9,1.1c1.5,1.2,2.5,2.8,3.3,4.6c1.2,2.8,1.8,5.8,2.1,8.8
					C238.3,158.3,238.3,163.3,237.2,170.1z"/>
			</g>
			<g>
				<path class="st60" d="M276,310.6c1.8,0.5,3.6,1,5.4,1.6c4.2,1.3,8.5,2.4,12.9,2.8c3.2,0.3,6.5,0.3,9.6-0.6
					c2-0.6,3.9-1.5,5.5-2.9c2.8-2.4,3.9-5.4,3.2-9c-0.4-2.2-1.4-4.1-2.7-5.8c-1.7-2.3-3.8-4.2-6.1-6c-4.6-3.4-9.6-6.1-14.8-8.4
					c-5.5-2.4-11.1-4.3-17-5.8c-5-1.2-10-1.9-15.2-1.3c-1.2,0.2-2.5,0.4-3.7,0.7c-3.2,0.8-5.5,2.9-7.1,5.8c-1.2,2.3-1.9,4.7-2.4,7.3
					c-1.2,7.3-1.3,14.7-0.6,22.1c1,11,3.1,21.7,6.9,32.1c1.6,4.4,3.5,8.8,6.1,12.7c1.7,2.5,3.6,4.9,5.8,7c2.4,2.2,5.1,3.7,8.4,4.1
					c3,0.4,5.8-0.3,8.2-2.2c4.2-3.3,7.1-7.5,8.6-12.6c1.4-4.9,1.3-9.8,0.4-14.8c-1.4-7.7-4.3-14.8-8.4-21.5
					c-1.1-1.8-2.2-3.5-3.3-5.2C276,310.7,276,310.7,276,310.6z"/>
				<path class="st61" d="M308.7,250.7c0.3-0.2,0.5-0.4,0.8-0.6c4.7-3.6,9.3-7.1,13.7-11c5-4.4,9.5-9.3,13.3-14.8
					c4.2-6.1,7.2-12.7,8.4-20.1c0.5-3.4,0.6-6.9,0.1-10.3c-0.2-1.1-0.4-2.1-0.7-3.1c-1.4-4.9-4.7-8-9.4-9.8
					c-3.7-1.5-7.6-1.7-11.6-1.3c-6,0.7-11.6,2.6-16.9,5.5c-10.2,5.4-19,12.4-26.8,20.9c-4.4,4.8-8.8,9.7-12.5,15.1
					c-2.1,3-4,6-5.9,9.1c-3.3,5.2-6.1,10.7-8.9,16.2c-3.7,7.3-5.7,15-5,23.2c0.1,1.2,0.2,2.5,0.5,3.7c1,5.5,3.9,9.8,8.5,13.1
					c3.3,2.3,6.8,4.1,10.5,5.5c11.8,4.6,24,7.2,36.6,7.8c8.2,0.4,16.4-0.4,24.3-2.7c5.3-1.6,10.4-3.7,15.1-6.6
					c4.1-2.5,7.7-5.6,10.7-9.4c2-2.6,3.5-5.4,4.2-8.7c1.1-5.4-0.5-10-4.1-14c-2.1-2.4-4.7-4.1-7.5-5.6c-6.1-3.3-12.6-4.4-19.4-4.4
					c-5.7,0-11.3,0.9-16.8,2.4c-0.3,0.1-0.6,0.2-1,0.2C308.8,250.8,308.8,250.8,308.7,250.7z"/>
			</g>
			<path class="st68" d="M253.9,225c1.5-0.8,2.9-1.5,4.3-2.4c8.2-5.2,12.8-12.7,13.8-22.2c0.8-7.7-1.7-14.2-7.6-19.3
				c-5.2-4.4-11.1-7.3-18-7.9c-11.4-1-20.1,4.5-24.5,13.3c-1.5,3.1-1.9,6.4-1.6,9.8c1,10,5.2,18.4,12.6,25.2
				c1.4,1.3,3.1,2.2,4.7,3.3c0.2,0.2,0.5,0.3,0.8,0.5c-0.3,0.7-0.5,1.3-0.8,1.9c-1.7,4.3-3.1,8.8-4.4,13.2
				c-1.6,5.8-3.1,11.6-4.2,17.5c-1.3,6.7-2.5,13.5-3.2,20.3c-0.7,6.7-1.3,13.3-1.8,20c-0.4,5.3-0.5,10.6-0.6,15.9
				c-0.1,5.8,0.1,11.5,0.5,17.3c0.3,3.3,0.7,6.7,1.4,9.9c0.3,1.3,0.6,2.6,1.3,3.8c0.9,1.4,2.2,2.2,3.9,2c1-0.1,1.8-0.6,2.6-1.3
				c1.1-1,1.8-2.1,2.6-3.3c1.4-2.4,2.5-4.9,3.5-7.5c1.2-3.1,2.4-6.1,3.5-9.2c1.5-4.4,2.7-8.8,3.7-13.3c2.7-11.6,4.5-23.4,5.8-35.3
				c0.8-6.7,1.4-13.3,1.9-20c0.8-9.4,0.9-18.8,0.2-28.2C254.1,227.6,254,226.3,253.9,225z"/>
			<path d="M243.2,186.7c0.6,0.7,0.6,0.6,1.3,0.2c0.6-0.4,1.2-0.7,1.8-1c0.4-0.2,0.8-0.3,1.2-0.2c0.1,0,0.3,0.1,0.3,0.2
				c0,0.2-0.1,0.2-0.2,0.3c-0.5,0.3-0.9,0.8-1.2,1.3c-0.2,0.4-0.6,0.7-0.9,1.1c-0.2,0.1-0.2,0.2-0.1,0.4c0.4,0.7,0.4,0.7,1.2,0.4
				c0.6-0.2,1.2-0.4,1.9-0.6c0.3-0.1,0.6-0.1,0.9,0c0.1,0,0.2,0.1,0.2,0.2c0,0.1,0,0.2-0.1,0.2c-0.1,0.1-0.3,0.1-0.4,0.2
				c-0.9,0.3-1.7,0.8-2.4,1.3c-0.2,0.1-0.2,0.2-0.1,0.4c0.1,0.4,0.2,0.9,0.3,1.4c0.1,0.5,0,0.7-0.5,0.9c-1,0.4-2.1,0-2.7-0.8
				c-0.6-0.8-1.2-1.7-1.7-2.6c-0.6-1.1-1.4-1.9-2.4-2.6c-0.1-0.1-0.3-0.2-0.4-0.3c-1.1-0.7-2.3-0.8-3.5-0.4
				c-1.8,0.7-3.3,1.7-4.6,3.2c-0.7,0.8-1.2,1.6-1.7,2.5c-0.1,0.2-0.2,0.4-0.4,0.7c-0.3,0.4-0.6,0.5-1.1,0.4
				c-0.4-0.1-0.6-0.4-0.7-0.9c-0.1-0.5,0.1-1,0.2-1.5c0.4-1.2,1.1-2.3,2.1-3.1c2.5-2.3,5.4-3.4,8.8-3c1,0.1,2,0.4,3,0.8
				c0.3,0.1,0.5,0.1,0.7-0.1c0.4-0.4,0.9-0.7,1.4-1c0.5-0.3,1-0.5,1.4-0.9c0.3-0.2,0.6-0.2,0.9-0.2c0.3,0.1,0.3,0.2,0.2,0.5
				c-0.5,0.6-0.9,1.3-1.5,1.8C243.9,186.1,243.5,186.4,243.2,186.7z"/>
		</g>
	</g>
	<g>
		<g>
			<path class="st66" d="M199.3,66.4c7.6-4.7,14.4,1.7,18,8.7c5.4-7.4,15.9-9.6,24.4-4c14.7,9.7,4.4,30.4-5.8,39.3
				c-5.3,4.7-11.3,7.2-17.8,9.1l-4.2,1.1l-3-2.8c-3.7-3.6-7.3-7.4-10.5-11.6C193.2,96.9,185.9,74.6,199.3,66.4z"/>
		</g>
	</g>
</g>
</svg>
