<?xml version="1.0" encoding="utf-8"?>
<!-- Generator: Adobe Illustrator 21.1.0, SVG Export Plug-In . SVG Version: 6.00 Build 0)  -->
<svg version="1.1" id="Calque_1" xmlns="http://www.w3.org/2000/svg" xmlns:xlink="http://www.w3.org/1999/xlink" x="0px" y="0px"
	 viewBox="0 0 432 432" style="enable-background:new 0 0 432 432;" xml:space="preserve">
<style type="text/css">
	.st0{fill:#343434;}
	.st1{fill:#ADCA60;}
	.st2{fill:#6EABC7;}
	.st3{fill:#EC6350;}
	.st4{fill:#EF8E81;}
	.st5{fill:#1B1B1B;}
	.st6{fill:#D2CE75;}
	.st7{fill:#F3C559;}
	.st8{fill:#AE5237;}
	.st9{fill:#73543B;}
	.st10{fill:#020203;}
	.st11{fill:#E4E0DF;}
	.st12{fill:#C1BB63;}
	.st13{fill:#F6D9D3;}
	.st14{fill:#EFAA9C;}
	.st15{fill:#F2C559;}
	.st16{fill:#303D46;}
	.st17{fill:#5A676E;}
	.st18{fill:#E46459;}
	.st19{fill:#A1263C;}
	.st20{fill:#483B3E;}
	.st21{fill:#DE9F84;}
	.st22{fill:#8B936E;}
	.st23{fill:#9A8E7C;}
	.st24{fill:#7E8D66;}
	.st25{fill:#D3C0AF;}
	.st26{fill:#6C2C3D;}
	.st27{fill:#A4BED3;}
	.st28{fill:#9FB187;}
	.st29{fill:#FAD5D2;}
	.st30{fill:#D7A2AE;}
	.st31{fill:#4E4D4D;}
	.st32{fill:#B84645;}
	.st33{fill:#756357;}
	.st34{fill:#9FAF88;}
	.st35{fill:#A08155;}
	.st36{fill:#EED0C6;}
	.st37{fill:#D4A77E;}
	.st38{fill:#CDC5BB;}
	.st39{fill:#9F4843;}
	.st40{fill:#D09F99;}
	.st41{fill-rule:evenodd;clip-rule:evenodd;fill:#A08155;}
	.st42{fill:#AE4759;}
	.st43{fill:#C9868F;}
	.st44{fill:#7F8D62;}
	.st45{fill:#D27F8E;}
	.st46{fill:#C69390;}
	.st47{fill:#9A9999;}
	.st48{fill:#B68368;}
	.st49{fill:#6D1F1F;}
	.st50{fill:#D2B6B4;}
	.st51{fill:#A7909E;}
	.st52{fill:#F8BD93;}
	.st53{fill:#397D59;}
	.st54{fill:#C4CEB3;}
	.st55{fill:#93A477;}
	.st56{fill:#D18B2E;}
	.st57{fill:#3C3C3B;}
	.st58{fill:#575756;}
	.st59{fill:#E6007E;}
	.st60{fill:none;}
	.st61{fill:#F9B233;}
	.st62{fill:#85CBCA;}
	.st63{fill:#E99F2B;}
	.st64{fill-rule:evenodd;clip-rule:evenodd;fill:#F9B233;}
	.st65{fill:#D60B52;}
	.st66{fill:#F4DCB5;}
	.st67{fill:#E58096;}
	.st68{fill:#E94865;}
	.st69{fill:#C21F4A;}
	.st70{fill:#C6C6C6;}
	.st71{fill:#DAA8CE;}
	.st72{fill:#F59F61;}
	.st73{fill:#E9E4AC;}
	.st74{fill:#E8375E;}
	.st75{fill:#833B12;}
	.st76{fill:#BB5D1C;}
	.st77{fill:#D17A3F;}
	.st78{fill:#DE184E;}
	.st79{fill:#D98892;}
	.st80{fill:#45553F;}
	.st81{fill:#517861;}
	.st82{fill:#A63070;}
	.st83{fill:#932065;}
	.st84{fill:#598967;}
	.st85{fill:#679275;}
	.st86{fill:#9A9A9A;}
	.st87{fill:#D8A49D;}
	.st88{fill:#D48A57;}
	.st89{fill:#E8BB98;}
	.st90{fill:#BA6F68;}
	.st91{fill:#924642;}
	.st92{fill:#E8C5AF;}
	.st93{fill:#D1906C;}
	.st94{fill:#C47C5C;}
	.st95{fill:#A2AD74;}
	.st96{fill:#F4EBD8;}
	.st97{fill:#C8A464;}
	.st98{fill:#F4A3A3;}
	.st99{fill:#F4CA71;}
	.st100{fill:#18223C;}
	.st101{fill:#E5B642;}
	.st102{fill:#224422;}
	.st103{fill:#245727;}
	.st104{fill:#386C38;}
	.st105{fill:#C54923;}
	.st106{fill:#264239;}
	.st107{fill:#C1292E;}
	.st108{fill:#D39812;}
	.st109{fill:#A67D52;}
	.st110{fill:#715640;}
	.st111{fill:#AB4B58;}
	.st112{fill:#67482E;}
	.st113{fill:#E7E6E6;}
	.st114{fill:#3C5259;}
	.st115{fill:#544842;}
	.st116{fill:#7DAD91;}
	.st117{fill:#5D9373;}
	.st118{fill-rule:evenodd;clip-rule:evenodd;fill:#C57B39;}
	.st119{fill:#C57B39;}
	.st120{fill:#B4DEF0;}
	.st121{fill:#923951;}
</style>
<g>
	<g>
		<g>
			<g>
				<path class="st54" d="M234.7,347.5c-23.5-1.4-29.4-8.1-30.4-5.2c-1.1,3,21.2,6.9,28.8,7.3c-23.1,3.2-32.9,10.5-39.9,10
					c-1.2-0.1-1.6,1.3-0.4,1.8c23.6,11.1,54.1,6.4,76.6-15.4c10.9-3,21.2-7.9,30.6-14.2c-0.1,0.1-26.1,33.4-21.4,32
					c6.9-1.8,13.2-4.9,18.8-8.8c16-11.2,25.4-28.5,28.3-48c5.5-7.5,10.3-16.3,12.6-22.2c-2.1,9.7-5,32-5.3,36
					c-0.1,0.9-0.1,1.7-0.1,2.6c0,4.2,0.3,8.4-2,12.6c-0.7,1.3,0.6,2.4,1.8,1.3c40.3-35.9,17.3-94.8,12.7-92.9
					c-3.4-1.1-49.4,55.3-49.4,55.8c-4.5,4.6,29.3-0.1,44.4-28.7c-5,18.1-14.7,33.7-25.1,44.3c-6.4,2.5-5.8-1.5-30.7,2.5
					c-0.1,0-29.4,8.1-29.5,8.2c-5.4,1.2,20.5,12.7,43.5,3.4c-11.8,8-25.2,13.5-39.1,16c-6.3-1.6-11.4-12-43.8-24
					c-12.4-4.6-14.5-6.8-15.1-6.7C195.4,312.5,208.2,339.8,234.7,347.5z"/>
			</g>
			<g>
				<path class="st54" d="M147.1,160.4c-16.8-1.6-34.7,5.3-44.4,15.2c5.5-8.3,12.1-15.8,19.7-22.2c1.1-0.9-0.4-2.6-1.4-1.7
					c-0.1,0.1-5.7,5.2-5.4,4.9c-5.4,5.3-9.8,10.6-13.9,16.6c6.4-14.9,9.9-37.4,11.4-39.5c0.7-1-0.3-2-1.4-1.3
					c-21.1,14.8-32.6,43-24.9,74c-2.7,11-3.8,22.4-2.9,33.7c-2.1-6.5-4-10.3-7.4-18.1c-0.6-1.3-1.1-2.5-1.7-3.7
					c-0.6-1.2-1.3-2.4-2-3.6c-0.9-1.4-1.8-2.7-2.5-4.1c-0.8-1.4-1.4-3-1.5-4.8c-0.1-1.2-1.5-1.3-1.8-0.1c-1.8,6.8-2.4,13.9-1.8,20.6
					c1.7,19.5,12.6,37.6,27.4,48.5c4,9,9.7,18,13,22c-39.6-31.7-37.2-26.3-40.8-32c-4.6-8-1.4,24.1,26.7,44.3
					c18.4,13.3,45.1,17.1,45.4,14c0.1-0.1-5.6-29.1-17.4-54.4c-6.4-13.7-5.4-15.8-6.3-16.3c-2.1-6.5-14,26.8,2.7,52.8
					c-12.1-12.2-21.1-27.4-25.8-43.9c3.4-8.8,2.5-5.2,5.7-11.1c7.4-13.6,15.5-45.6,15.1-46.4c1.7-5.1-21.1,11.1-24.6,36
					c-1-14.2,0.9-28.5,5.6-41.9c4.9-5.3,14.3-2.3,42.7-25.9c4.2-3.5,8.5-6.9,13.1-9.4c0.2-0.1,0.3-0.2,0.3-0.4
					C148.3,161.9,148.1,160.5,147.1,160.4z"/>
			</g>
			<g>
				<path class="st55" d="M321.8,148c2.8,5.6,5,10.9,6.8,17.3c7.2,25.9,6.2,4.5-4.2-17c18.4,23.2,25.5,23.1,28.5,29.6
					c4.4,9.5,3.4-43.9-49.9-59.1c-8-7.9-17.9-14.7-27.6-19.4c19.4,4.6,32.2,1.6,37.4,4c6.5,3.1-9.2-15.8-35.1-18.9
					c-13-1.6-24.5,0.3-36.5,5c-9.6-1.1-17.2-0.7-25.5,0.3c35.6-11.2,39.8-19.3,48-19.3c1.5,0,1.7-1.7,0.2-2.2
					c-51.4-16.8-90.7,32.5-86.8,35.5c0.8,3.8,73,14.9,73,14.9c6.4,1.6-16-25.9-47.1-24.1c16.1-4.2,33.4-4.6,50.9-0.4
					c6.3,16.2,39.2,46.8,39.3,46.8c3.6,3.9,0.7-24.1-18.8-39.4c12.8,6.2,24.2,15.1,33.5,25.9c1.8,6-4.7,15.5,1.1,49.9
					c0.9,5.3,1.7,10.7,1.6,16c0,0.2,0.1,0.3,0.2,0.5C311.3,199.4,328.4,174.1,321.8,148z"/>
			</g>
		</g>
		<g>
			<g>
				<path class="st52" d="M170.1,331.7C170.1,331.6,170.1,331.6,170.1,331.7c0.6-1,0.7-2.1,0.8-3.6c0.3-3-1.9-5.8-4.9-5.9
					C157.7,321.8,163.4,341.4,170.1,331.7z"/>
				<path class="st52" d="M162.7,321.5c2.1-1.3,6.1-1.6,8.3,0c0,0,0.1,0,0.1,0.1c5.1-1.1,6.5-0.6,9.4,0.5c0.5-1,1.3-4.5,1.4-6.8
					c0.1-1.6-1-3.1-2.6-3.5C173.5,310.5,162.3,309.8,162.7,321.5z"/>
				<path class="st52" d="M173.1,323.3c13.3,19.2-6.5,19.1-4.8,19.7C181.6,349.6,192.6,321,173.1,323.3z"/>
				<path class="st52" d="M173.1,326.5c0.1,3.3-1.3,8.5-4.6,9c0,0,0,0,0,0c-6.5,2.1-7.8-5.9-8.3-6.8c-0.3-2.3,0-2.6-0.8-3.3
					c-1.1-1-10.4-3.7-3.5,5.8c1,1.3,0.9,2.7,0.8,3.9C156,343.7,181.5,343.3,173.1,326.5z"/>
				<path class="st52" d="M153.5,322.6c5-0.6,6.2,0.9,7.2,1.4c0.1-0.2,0.2-0.4,0.3-0.6c-0.5-3.3,0.1-6.9,1.5-9.5
					C152.7,312,152.1,320.8,153.5,322.6z"/>
				<path class="st52" d="M183,320.6c-0.3,1.1-0.4,1.6-0.4,2c5.4,3.8,5.3,14.9-4.4,21.8c-2.2,1.5-4.7,1.1-12,0.4
					c-0.6,1.7-1.8,4.6-6.6,6.6c10.3,14.2,25.6-5.6,35.3-9.3c1.3-0.5,3.4-1.3,4-1.8C190.6,334.8,195.8,320.6,183,320.6z"/>
				<path class="st52" d="M164.5,343.5c-0.2-0.2-0.4-0.4-0.5-0.6c-2.3,0-5-3.1-7.3-4c-3.5-1.3-1-4.7-2.4-6.6c-1.7-2.3-3.9-7-2.5-9.6
					c-0.8-1.9-0.3-10.6,9.1-10.2c0.6,0,1.6,0.1,2.2,0c0.3-0.4,0.6-0.8,0.9-1.1c-1.6-2.7-7.2-3.5-10.4-3.7
					c-8.5,3.3-17.5,17.6-4.4,21.3C129.1,344.4,158,362.5,164.5,343.5z"/>
				<path class="st52" d="M182.9,311c2.8,2,1.5,3.1,1,7.4c2.4,0.4,6.3,1.9,8.5,4.5c5.1-15,1.5-15.9-5.4-18
					c-4.4-1.3-10.3-6.5-11.4,1.9c-2.5-0.8-10.7-16.5-19.8-0.7c4.3,0.5,7.6,1.8,9.8,3.9C169.3,308.1,181,309.6,182.9,311z"/>
			</g>
			<g>
				<path class="st52" d="M340.5,216.7C340.5,216.6,340.5,216.6,340.5,216.7c0.6-1,0.7-2.1,0.8-3.6c0.3-3-1.9-5.8-4.9-5.9
					C328,206.8,333.8,226.4,340.5,216.7z"/>
				<path class="st52" d="M333.1,206.5c2.1-1.3,6.1-1.6,8.3,0c0,0,0.1,0,0.1,0.1c5.1-1.1,6.5-0.6,9.4,0.5c0.5-1,1.3-4.5,1.4-6.8
					c0.1-1.6-1-3.1-2.6-3.5C343.8,195.5,332.6,194.8,333.1,206.5z"/>
				<path class="st52" d="M343.4,208.3c13.3,19.2-6.5,19.1-4.8,19.7C351.9,234.6,362.9,206,343.4,208.3z"/>
				<path class="st52" d="M343.5,211.5c0.1,3.3-1.3,8.5-4.6,9c0,0,0,0,0,0c-6.5,2.1-7.8-5.9-8.3-6.8c-0.3-2.3,0-2.6-0.8-3.3
					c-1.1-1-10.4-3.7-3.5,5.8c1,1.3,0.9,2.7,0.8,3.9C326.4,228.7,351.9,228.3,343.5,211.5z"/>
				<path class="st52" d="M323.8,207.6c5-0.6,6.2,0.9,7.2,1.4c0.1-0.2,0.2-0.4,0.3-0.6c-0.5-3.3,0.1-6.9,1.5-9.5
					C323,197,322.4,205.8,323.8,207.6z"/>
				<path class="st52" d="M353.3,205.6c-0.3,1.1-0.4,1.6-0.4,2c5.4,3.8,5.3,14.9-4.4,21.8c-2.2,1.5-4.7,1.1-12,0.4
					c-0.6,1.7-1.8,4.6-6.6,6.6c10.3,14.2,25.6-5.6,35.3-9.3c1.3-0.5,3.4-1.3,4-1.8C361,219.8,366.2,205.6,353.3,205.6z"/>
				<path class="st52" d="M334.9,228.5c-0.2-0.2-0.4-0.4-0.5-0.6c-2.3,0-5-3.1-7.3-4c-3.5-1.3-1-4.7-2.4-6.6c-1.7-2.3-3.9-7-2.5-9.6
					c-0.8-1.9-0.3-10.6,9.1-10.2c0.6,0,1.6,0.1,2.2,0c0.3-0.4,0.6-0.8,0.9-1.1c-1.6-2.7-7.2-3.5-10.4-3.7
					c-8.5,3.3-17.5,17.6-4.4,21.3C299.5,229.4,328.4,247.5,334.9,228.5z"/>
				<path class="st52" d="M353.2,196c2.8,2,1.5,3.1,1,7.4c2.4,0.4,6.3,1.9,8.5,4.5c5.1-15,1.5-15.9-5.4-18
					c-4.4-1.3-10.3-6.5-11.4,1.9c-2.5-0.8-10.7-16.5-19.8-0.7c4.3,0.5,7.6,1.8,9.8,3.9C339.7,193.1,351.3,194.6,353.2,196z"/>
			</g>
			<g>
				<path class="st52" d="M151.8,131.3C151.8,131.3,151.8,131.3,151.8,131.3c0.6-1,0.7-2.1,0.8-3.6c0.3-3-1.9-5.8-4.9-5.9
					C139.4,121.4,145.1,141,151.8,131.3z"/>
				<path class="st52" d="M144.4,121.2c2.1-1.3,6.1-1.6,8.3,0c0,0,0.1,0,0.1,0.1c5.1-1.1,6.5-0.6,9.4,0.5c0.5-1,1.3-4.5,1.4-6.8
					c0.1-1.6-1-3.1-2.6-3.5C155.1,110.2,143.9,109.5,144.4,121.2z"/>
				<path class="st52" d="M154.8,123c13.3,19.2-6.5,19.1-4.8,19.7C163.3,149.3,174.2,120.7,154.8,123z"/>
				<path class="st52" d="M154.8,126.1c0.1,3.3-1.3,8.5-4.6,9c0,0,0,0,0,0c-6.5,2.1-7.8-5.9-8.3-6.8c-0.3-2.3,0-2.6-0.8-3.3
					c-1.1-1-10.4-3.7-3.5,5.8c1,1.3,0.9,2.7,0.8,3.9C137.7,143.3,163.2,143,154.8,126.1z"/>
				<path class="st52" d="M135.1,122.2c5-0.6,6.2,0.9,7.2,1.4c0.1-0.2,0.2-0.4,0.3-0.6c-0.5-3.3,0.1-6.9,1.5-9.5
					C134.3,111.7,133.7,120.5,135.1,122.2z"/>
				<path class="st52" d="M164.6,120.2c-0.3,1.1-0.4,1.6-0.4,2c5.4,3.8,5.3,14.9-4.4,21.8c-2.2,1.5-4.7,1.1-12,0.4
					c-0.6,1.7-1.8,4.6-6.6,6.6c10.3,14.2,25.6-5.6,35.3-9.3c1.3-0.5,3.4-1.3,4-1.8C172.3,134.4,177.5,120.2,164.6,120.2z"/>
				<path class="st52" d="M146.2,143.2c-0.2-0.2-0.4-0.4-0.5-0.6c-2.3,0-5-3.1-7.3-4c-3.5-1.3-1-4.7-2.4-6.6c-1.7-2.3-3.9-7-2.5-9.6
					c-0.8-1.9-0.3-10.6,9.1-10.2c0.6,0,1.6,0.1,2.2,0c0.3-0.4,0.6-0.8,0.9-1.1c-1.6-2.7-7.2-3.5-10.4-3.7
					c-8.5,3.3-17.5,17.6-4.4,21.3C110.8,144,139.7,162.1,146.2,143.2z"/>
				<path class="st52" d="M164.6,110.6c2.8,2,1.5,3.1,1,7.4c2.4,0.4,6.3,1.9,8.5,4.5c5.1-15,1.5-15.9-5.4-18
					c-4.4-1.3-10.3-6.5-11.4,1.9c-2.5-0.8-10.7-16.5-19.8-0.7c4.3,0.5,7.6,1.8,9.8,3.9C151,107.8,162.6,109.3,164.6,110.6z"/>
			</g>
		</g>
	</g>
	<g>
		<g>
			<path class="st10" d="M168.3,194.3c0,2.1-0.7,4.2-2.1,6.4c-1.3,2.1-3,3.8-5,5c-1.7,1-3.3,1.6-4.8,1.6c-0.4,0-0.9,0-1.3-0.1
				c-2.9-0.7-4.4-0.8-4.4-0.8c-1.1-0.1-1.5-0.1-1.7-0.1c-0.4,0-0.6-0.2-0.6-0.5c0-0.4,0.2-0.6,0.5-0.6c0,0,0,0,0.1,0
				c0-1.9-0.1-4.8-0.2-8.6c0-1.7-0.1-3.1-0.1-4c-0.1-4.5-0.1-8.6,0.2-13.2c-0.3,0-0.6-0.1-0.6-0.5c-0.1-0.3,0.1-0.6,0.5-0.7
				c7.4-1.2,10-0.8,12,1c0.9,0.8,1.5,1.9,1.7,3c0.2,1.3-0.1,2.6-1,3.9c-0.4,0.6-0.9,1.2-1.5,1.7c1-0.2,1.9-0.2,2.6-0.1
				c1,0.1,1.9,0.4,2.7,1C167.3,190,168.3,191.9,168.3,194.3z M167.1,194.3c0-2-0.8-3.5-2.5-4.7c-1.2-0.8-2.7-1-4.7-0.6
				c-0.9,0.2-1.8,0.5-2.6,0.9c-0.2,0.1-0.5,0.3-0.8,0.4l-1.9,1.1c-0.1,0-0.1,0.1-0.2,0.1c0,0.1,0,0.2,0,0.3c0,0-0.2,6-0.2,6
				c0,0.4,0,1.3,0.1,2.7c0,0.3,0,0.6,0,0.9c0,0,0,0,0,0c0,1.2,0.1,2.1,0,2.8c0,0.3,0,1,0,1.5c0.3,0.1,0.6,0.2,0.9,0.3
				c1.7,0.3,3.5-0.1,5.4-1.3c1.8-1.1,3.4-2.7,4.6-4.7C166.5,198.1,167.2,196.1,167.1,194.3z M154.5,178.8c0.2,1.2,0.3,4.4,0.1,9.6
				c0,0.6,0,1.2-0.1,1.8c0.6-0.4,1.1-0.6,1.5-0.9c0.5-0.3,0.8-0.5,0.9-0.6c1.7-1.1,2.9-2.2,3.6-3.3c0.7-1.1,1-2.1,0.8-3.1
				c-0.1-0.9-0.6-1.7-1.3-2.3c-0.7-0.7-1.6-1.1-2.7-1.3C156.4,178.5,155.4,178.5,154.5,178.8z"/>
			<path class="st10" d="M171.2,193.8c-0.1-3.2-0.1-5.9,0-8c0.1-2.7,0-3.9,0.6-6.1c0.4-1.4,9.2-1.3,9.9-1.3c0.4,0,0.9,0.1,1.7,0.1
				c1.2,0,2.1,0.1,2.7,0.1c0.4,0,0.6,0.2,0.6,0.6c0,0.4-0.2,0.6-0.6,0.6c-0.6,0-1.5,0-2.8-0.1c-0.7,0-1.3-0.1-1.6-0.1
				c-1.5,0-2.8,0-3.8,0.1c0,0.1,0,0.1,0,0.2v0.2c0,0,0,0,0,0.1l0,0.1c0,3.6-0.1,18.5-0.2,19.8c0,0,0.1,0,0.1,0c3.7,0.1,5,0,5.6,0
				c0.4,0,0.6,0.2,0.6,0.6s-0.2,0.6-0.6,0.6c-0.7,0-2.3,0.1-5.7-0.1c0,0,0,0,0,0c0,1.7,0,3.3,0,4.9c0,0,0,0.1,0,0.1
				c0.7-0.1,1.6-0.2,2.5-0.2c0.7,0,1.7,0,3.1,0h0.1c2.2,0,3.8,0,4.9-0.2c0.2,0,0.3,0,0.4,0.1c0.1,0.1,0.2,0.2,0.2,0.4
				c0,0.4-0.2,0.6-0.5,0.6c-1.1,0.2-2.8,0.2-5,0.2h-0.1c-1.4,0-2.4,0-3.1,0c-0.9,0-7.4,0.4-8.1,0c-0.6-0.1-0.4-1.1-0.7-8.8
				C171.3,196.4,171.2,195,171.2,193.8z"/>
			<path class="st10" d="M194.8,206.3c-1.5-0.8-2.4-2-2.9-3.5c-0.3-1-0.4-2.2-0.2-3.6c0-0.5,0.2-1.1,0.3-2c0.2-0.9,0.3-1.5,0.3-1.9
				c0-0.2,0.1-0.3,0.2-0.4c0.1-0.1,0.3-0.1,0.4-0.1c0.2,0,0.3,0.1,0.4,0.2c0.1,0.1,0.1,0.2,0.1,0.4c0,0.4-0.1,1-0.3,1.9
				c-0.1,0.9-0.3,1.5-0.3,2c-0.1,1.3-0.1,2.3,0.1,3.2c0.4,1.2,1.1,2.2,2.3,2.8c2.3,1.3,4.3,0.5,5.3-1.4c0.6-1,1-2.5,1.1-4.2
				c0.1-1.5,0.1-3.1-0.2-4.7c-0.5-2.9-1.4-3.9-2-4.5c-0.2-0.2-0.5-0.4-0.8-0.6c-0.1-0.1-0.1-0.1-0.2-0.1c-0.1-0.1-0.2-0.1-0.2-0.1
				c-0.2-0.2-0.3-0.2-0.4-0.3c-0.6-0.5-1.1-0.9-1.5-1.2c-1.2-1-2-1.9-2.5-2.8c-0.4-0.7-0.6-1.4-0.7-2.1l0-0.2c0-0.4,0.1-0.8,0.2-1.1
				c0.3-1.1,0.9-2.1,1.8-2.9c0-0.1,0.1-0.1,0.2-0.2c0.7-0.6,1.6-1.1,2.5-1.3c1.1-0.4,2.3-0.4,3.3,0c1.1,0.4,1.9,1.1,2.5,2.1
				c0.5,0.9,0.8,2.2,1,3.9c0,0.3,0.1,0.7,0.1,1.4c0.1,0.7,0.1,1.3,0.1,1.6c0,0.2,0,0.3-0.1,0.4c-0.1,0.1-0.2,0.2-0.4,0.2
				c-0.2,0-0.3,0-0.4-0.1c-0.1-0.1-0.2-0.2-0.2-0.4c-0.1-0.3-0.1-0.9-0.2-1.7c-0.1-0.6-0.1-1.1-0.1-1.4c-0.2-1.5-0.5-2.7-0.9-3.4
				c-0.4-0.7-0.9-1.2-1.6-1.5h-0.1c-0.8-0.1-1.4,0.3-1.9,1.1c-0.5,0.9-0.8,2.1-0.9,3.6c-0.1,1.4,0,2.7,0.4,3.9
				c0.5,1.9,2.5,3.1,4,4.7c0.9,0.9,1.6,1.8,2.2,2.7c1.3,2.2,1.7,4.6,1.2,7.2c0,0,0,0.1,0,0.2c0,0.1,0,0.1,0,0.2
				c-0.3,1.5-1.2,2.7-2.6,3.6c-1.2,0.8-2.7,1.3-4.3,1.4c-0.2,0-0.3,0-0.5,0C197.3,207.2,196,206.9,194.8,206.3L194.8,206.3z"/>
			<path class="st10" d="M215.4,178.5c0.4,0,0.8,0,1.1,0c0.1,0,0.2,0,0.2,0h1.3c1.6,0,2.8,0.1,3.6,0.1c0.4,0,0.6,0.2,0.6,0.6
				c0,0.4-0.2,0.6-0.6,0.6c-0.8,0-2.1,0-3.7-0.1h-0.2v0.9l-0.1,3.1c-0.1,1.7-0.2,4.8-0.5,9.3c0,0.3-0.5,13.6-0.8,13.8
				c-0.3,0.3-0.9,0.4-1.8,0.4c-0.1,0-0.3,0-0.5,0c-0.2,0-0.5-0.1-0.8-0.1c-0.5,0-0.8-0.1-0.9-0.1c-0.4,0-0.6-0.2-0.6-0.6
				c0,0,0.1-15.7,0.1-15.7c0-4.1,0.2-7.9,0.4-11.1c-0.9,0-1.8,0.1-2.6,0.1c-0.2,0-0.3,0-0.4-0.1c-0.1-0.1-0.2-0.2-0.2-0.4
				c0-0.2,0-0.3,0.1-0.4c0.1-0.1,0.2-0.2,0.4-0.2c0,0,0,0,0,0C211.3,178.6,213.2,178.5,215.4,178.5z"/>
			<path class="st10" d="M235.7,179.8v-0.1c-0.1-0.3,0.1-0.5,0.4-0.6c0.6-0.2,1.5-0.4,2.6-0.5c0.6-0.1,4.7-0.3,6.5,0.4
				c1.3,0.5,2.5,1.2,3.5,2c2.5,2,4,4.3,4.5,6.9c0.4,2.2,0.1,4.7-1,7.2c-0.9,2.1-2.4,4.4-4.3,6.6c-1.5,1.8-3.3,3.6-5.4,5.4
				c-0.3,0.3-3.6,0-5.4,0C236.8,207.1,236.1,183.8,235.7,179.8C235.7,179.8,235.7,179.8,235.7,179.8L235.7,179.8z M242,179.5
				c0,0.1,0,0.3,0.1,0.5c0,0.4,0.1,1,0.1,1.8c0,1,0.1,2.8,0.2,5.4v0.9c0,3.7,0.1,6.1,0.2,7.3c0,0.6,0.2,2.5,0.3,5.7
				c0.1,1.6,0.1,2.7,0.2,3.6v0.7c1.6-1.4,3-2.9,4.2-4.4c1.8-2.2,3.2-4.3,4.1-6.3c1-2.4,1.3-4.6,0.9-6.6c-0.4-2.3-1.8-4.4-4.1-6.2
				c-1-0.8-2.1-1.4-3.3-1.9C243.8,179.6,242.8,179.4,242,179.5z"/>
			<path class="st10" d="M262.1,207c-0.4,0.2-1.1,0.3-1.9,0.3c-0.3,0-0.6,0-0.9,0c-0.2,0-0.5,0-0.9,0c-0.7-0.1-1.2-0.1-1.5-0.1
				c-1.8,0,2-7.1,5.1-15.6c0-0.1,0-0.1,0.1-0.2c0.1-0.3,0.3-0.7,0.4-1v0c0,0,0-0.1,0-0.1c0.4-1.1,0.8-2.1,1.1-3.1
				c0-0.1,0-0.1,0.1-0.2c0.3-0.9,0.6-1.9,0.9-2.8c0,0,0-0.1,0-0.1c0,0,0,0,0,0c0.6-1.8,1.2-3.7,1.7-5.5c0-0.1,0-0.1,0.1-0.2
				c0-0.3,0.2-0.4,0.5-0.4c0.1-0.1,0.4,0,0.8-0.1c0.2,0,0.3,0,0.4,0c0.3,0,0.6,0,0.9,0c0.6,0,1,0,1.4,0c0.2,0,0.4,0.1,0.6,0.1
				c0,0,0.1,0,0.2,0h0.1c0,0,0,0,0.1,0c0.3,0.1,0.5,5.6,0.6,6c0.9,6.5,2.4,17.5,2.4,21.8c0,0.4-0.2,0.6-0.6,0.6
				c-0.4,0-0.6-0.2-0.6-0.6c0-0.9-0.1-2.2-0.4-3.9c-2.9,0-8.5,0.2-8.5,0.2c-0.2,0.7,0-0.1-1.3,4.4c0,0,0,0,0,0
				C262.6,206.6,262.4,206.9,262.1,207z M272.3,200.5l0-0.2c0,0-1.3-12.1-1.8-16.3c-0.1-0.3-0.1-0.6-0.1-0.9
				c-0.6,2.2-1.4,4.6-2.2,7.1c-0.8,2.3-1.9,5.5-3.4,9.6l-0.1,0.1c0,0.1-0.1,0.3-0.2,0.5c0,0.1-0.1,0.2-0.1,0.3
				C264.4,200.7,269.6,200.5,272.3,200.5z"/>
			<path class="st10" d="M290.1,190.1c1.1,2.3,1.1,14.8,1.1,15.4c0,2.1-4.1,1.8-4.8,1.6c-0.7-0.2-0.5-0.3-0.6-5v-2.1
				c0-2.8,0-5.1,0-6.9l0,0c-0.1-0.1-0.2-0.3-0.3-0.4c-0.3-0.3-0.6-0.8-1-1.4c-0.7-1.1-1.7-2.5-2.8-4.2c-4.5-7-7-8.6-1.7-8.9
				c1.1-0.1,1.9,0,2.4,0.2c0.1,0,0.2,0.1,0.3,0.3c0.1,0.1,0.2,0.2,0.3,0.4c0.2,0.3,0.5,0.7,0.9,1.3c0.5,0.7,1,1.4,1.5,2.2l0,0
				c0.4,0.5,0.7,1.1,1,1.6c1,1.6,1.9,2.9,2.6,4c0.2,0.3,0.4,0.6,0.6,0.9c1-2,2.6-6.1,3.3-7.4c0.6-1.2,1.1-2.2,1.8-3.1
				c0.1-0.2,0.2-0.2,0.4-0.3c0.1,0,0.3,0,0.4,0.1c0.3,0.2,0.3,0.5,0.1,0.8c-0.5,0.9-1.1,1.9-1.6,3
				C292.6,184.4,291.5,187.6,290.1,190.1z"/>
		</g>
		<path class="st10" d="M287.7,232.4c-2-8.2-3.6-3.6-14.5-4.7c1.2-12.4-10.9-16.5-15.3-8.9c-3.6,6.1,3.3,10,10.2,11.4
			c-1.5,3.9-9.2,37.3-22.4,38.9c-5.3,0.6-9.1-6.7-6-30.2c0.2-1.1,0.2-1.1,1.5-1c2.9,0.2,5.7-0.3,8.3-1.4c3-1.4,4-3.4,3.3-6.6
			c-0.8-3.3-2.6-6-5.4-7.9c-3.7-2.6-8.1-2.3-11.5,0.7c-2,1.7-3.4,3.9-4.4,6.4c-1.9,4.7-2.6,9.7-2.9,14.4c0,0.7-0.1,1.4-0.1,2.1
			c-3.6,0.8-7.3,0.7-11,0c-1.8-0.3-3.3-1.1-4.9-1.9c-0.7-0.4-0.9-0.8-0.7-1.6c0.4-1.8,0.7-3.5,1-5.3c0.6-4.8,0.6-9.6-0.5-14.4
			c-0.3-1.5-0.9-2.9-1.6-4.2c-1.5-2.6-3.9-3.4-6.6-2.1c-2.6,1.1-4.1,3.3-4.7,5.9c-2.1,8.7,0.5,16.1,7.1,22.1
			c0.9,0.8,1.1,1.4,0.8,2.4c-1.1,4.2-2.2,8.3-3.7,12.3c-0.9,2.4-1.8,4.7-3.3,6.8c-0.5,0.7-1,1.5-1.7,1.9c-0.5-0.4-0.6-0.9-0.8-1.3
			c-1.2-3-2.2-6-3.1-9.1c-2.2-7.5-4.3-15-6.6-22.4c-1-3.4-2.1-6.7-3.4-9.9c-0.5-1.4-1.1-2.7-2.2-3.7c-1.1-1.1-2.3-1.5-3.8-1
			c-1.5,0.5-2,1.6-2,3.1c-0.1,1.5,0,3,0.1,4.5c0.8,7,2.5,13.7,4.6,20.4c-1.9,3-3.8,6.1-5.7,9.1c-1.6,2.5-3.4,5-5.4,7.3
			c-1.7,2-3.6,3.8-6,4.9c-1.6,0.8-3.2,1.4-5,1c-3-0.6-4.9-2.5-5.9-5.3c-2.8-8-3.4-16.3-2.1-24.6c0.2-1.1,0.2-1.1,1.5-1
			c2.9,0.2,5.7-0.3,8.3-1.4c3-1.3,4-3.4,3.3-6.6c-0.8-3.3-2.6-6-5.4-7.9c-3.7-2.6-8.1-2.3-11.5,0.7c-2,1.7-3.4,3.9-4.4,6.4
			c-1.9,4.7-2.6,9.7-2.9,14.4c-0.2,4.3,0,8.4,0.7,12.5c1.2,7.2,5,12.5,11.7,15.4c5.7,2.5,11.1,1.6,16-2.1c1.7-1.3,3.1-2.8,4.5-4.4
			c3.8-4.4,6.6-9.5,9.6-14.4c1.3,3.7,2.8,7.3,4.7,10.7c1.7,3.1,3.8,5.9,6.6,8.1c2.8,2.3,5.6,2,8-0.7c1.2-1.4,2.2-3.1,3-4.8
			c1.4-3,2.5-6.1,3.6-9.3c1-2.9,1.6-5.9,2.5-9.1c3.2,1.5,6.3,2,9.6,2.3c2.7,0.2,5.3,0.1,7.9-0.4c0.1,2.5,0.3,5,0.7,7.4
			c2.9,14.7,9.1,19,15.4,18c18.6-2.9,24.8-37.9,26.7-43.2c5.6,0.9,5.8,0.1,8.6,0c-0.9,12.1-7.1,33.1,3.9,38.8
			c7.8,4.1,13.3-2.2,17.3-10.1c0.8-1.6,3.9-6.2,2-7.8c-2.5-2.1-2.4,3.8-8.4,11.4C281.1,280.4,289.6,240.4,287.7,232.4z M243.2,226.7
			c1.2-2.2,2.5-2.3,4.3-0.5c1,1.1,1.7,2.3,1.9,3.8c0.2,1.4-0.3,2.4-1.5,3c-2.2,1.2-4.6,1.7-7.3,1.6
			C241.2,231.8,241.9,229.1,243.2,226.7z M154.7,228c1.2-2.2,2.5-2.3,4.3-0.5c1,1.1,1.7,2.3,1.9,3.8c0.2,1.4-0.3,2.4-1.5,3
			c-2.2,1.2-4.6,1.7-7.3,1.6C152.8,233,153.5,230.4,154.7,228z M208.8,239.2c0,0.2-0.2,0.4-0.3,0.8c-0.7-0.5-1-1.1-1.3-1.7
			c-2.6-4.9-3.6-10.1-2.4-15.6c0.2-1.1,0.6-2.1,1.3-3c0.8-1,1.1-1,1.6,0.1c0.9,1.6,1.4,3.4,1.6,5.2
			C209.9,229.8,209.7,234.5,208.8,239.2z M267.3,227c-1.8-0.4-3.5-1.1-5-2.1c-1.9-1.3-2.1-3.6-0.5-5.7c1.5-1.9,3.6-2.2,5.4-0.7
			c2,1.7,2.9,3.8,2.8,6.5C269.8,227.9,269.7,227.5,267.3,227z"/>
	</g>
</g>
</svg>
