<?xml version="1.0" encoding="utf-8"?>
<!-- Generator: Adobe Illustrator 21.0.0, SVG Export Plug-In . SVG Version: 6.00 Build 0)  -->
<svg version="1.1" id="Calque_1" xmlns="http://www.w3.org/2000/svg" xmlns:xlink="http://www.w3.org/1999/xlink" x="0px" y="0px"
	 viewBox="0 0 432 432" style="enable-background:new 0 0 432 432;" xml:space="preserve">
<style type="text/css">
	.st0{fill:#C77C30;}
	.st1{fill:#D6678E;}
	.st2{fill:#662483;}
	.st3{fill:#A071AF;}
	.st4{fill:#CB7B26;}
	.st5{fill:#936037;}
	.st6{fill:#4EBBB9;}
	.st7{fill:#00A19A;}
	.st8{fill:#2FAC66;}
</style>
<g>
	<g>
		<path d="M218.1,205.8c1.7-0.5,2.7-1.6,3.7-2.7c4-4.6,6.9-9.9,9.1-15.6c1.6-4.2,3.1-8.5,4.6-12.8c0.3-0.8,0.3-1.5-0.5-2.2
			c-1.6-1.4-3.1-2.9-4.5-4.5c-2.7-3.2-5.5-6.2-7.5-10c-1.1-2.1-1.9-4.2-2.5-6.4c-0.9-3.3-0.7-6.6,0.7-9.7c1.1-2.3,2.5-4.3,4.7-5.6
			c2.8-1.7,5.5-1.3,8.1,0.5c3.1,2.1,4.6,5.2,5.6,8.7c1.3,4.9,2.1,9.9,1.6,15c0,0.3,0.1,0.6,0.3,0.8c0.7,0.7,1.4,1.4,2.2,2.1
			c3.3,3.2,6.7,6.5,9.9,9.7c2.3,2.3,4.5,4.6,6.9,6.9c1.4-1.2,2.8-2.6,4.3-3.9c4.2-3.5,8.3-7.1,12.6-10.6c2.2-1.7,4.5-3.2,6.8-4.8
			c0.2-0.1,0.4-0.4,0.4-0.6c0.1-2,0.1-4,0.1-5.9c0-1.7,0-3.4,0-5.2c0-1.7,0-1.8-1.7-2.5c-2.7-1.1-5.4-2.1-8.3-2.2
			c-5.3-0.2-10.2,1.2-14.4,4.5c-0.3,0.2-0.5,0.6-0.7,0.9c-0.6,0.7-1.4,0.9-2.1,0.5c-0.7-0.4-1.1-1.3-0.7-2.2c0.6-1,1.3-2,2.1-2.8
			c2.4-2.4,5.5-3.5,8.7-4.4c5.4-1.5,10.7-1.1,15.9,0.6c0.3,0.1,0.7,0.2,1.1,0.4c0.1-1.9,0.1-3.7,0.2-5.4c0.1-2.2,0.1-4.3,0.3-6.5
			c0.2-2.2,0.5-4.3,0.9-6.4c0.4-2.2,1.5-4,3.3-5.3c1.1-0.8,2.2-0.8,3.3-0.1c2,1.2,3.1,2.9,3.6,5.1c1,4.2,0.9,8.5,0.9,12.8
			c0,3.5,0,7.1-0.1,10.6c0,0.7,0.2,1,0.9,1.3c4.7,2,9.5,3.7,14.7,4.2c3.6,0.3,7.2,0.3,10.5-1.6c2.6-1.5,4.2-3.8,5.3-6.5
			c1.3-3.3,1.6-6.7,0.3-10.1c-0.8-2.1-2.2-3.9-4.1-5.2c-2.1-1.4-4.4-1-6.2,1c-1.7,1.9-2.7,4.1-2.2,6.8c0.1,0.7,0.1,1.5,0.2,2.2
			c0.1,0.9-0.4,1.8-1.2,2c-0.9,0.3-1.5-0.2-2-0.9c-4.8-6.8,0.6-14.8,6.4-16c3.5-0.8,6.4,0.6,8.9,3c4.1,3.9,5.3,8.7,4.7,14.2
			c-0.5,3.8-1.9,7.1-4.6,9.9c-2.8,2.8-6.2,4.5-10,5.1c-4.6,0.8-9.2,0.3-13.7-0.9c-2.5-0.6-5-1.4-7.6-2.1c-0.1,0.5-0.2,1.1-0.2,1.7
			c0.1,3.2,0.2,6.4,0.3,9.6c0.1,6.6,0,13.2,0.1,19.8c0.1,3.9,0.4,7.7,0.6,11.6c0.2,2.9,0.2,5.8,0.5,8.7c0.3,3.4,0.7,6.8,1.3,10.2
			c0.4,1.8,0.9,3.7,2.3,5.2c0.8,1,1.6,1.2,2.8,0.7c1.8-0.8,3.3-2.1,4.4-3.7c2.6-4,4.5-8.2,5.4-12.9c0.7-4.2,1.3-8.4,1.9-12.7
			c0-0.3,0-0.6-0.1-0.9c-0.1-1,0.3-1.7,1-1.9c0.8-0.2,1.7,0.1,2,1c0.3,1.1,0.5,2.2,0.4,3.3c-0.3,3.9-0.6,7.8-1.2,11.7
			c-0.9,5.6-2.5,10.9-6.1,15.4c-1.4,1.7-2.7,3.5-4.8,4.6c-3.1,1.6-6.1,1.8-9.1,0c-2.6-1.5-4.5-3.7-6.1-6.3c-1.9-3-3.3-6.3-4.4-9.7
			c-1.3-4.2-2.4-8.5-2.8-13c-0.3-3.6-0.4-7.2-0.5-10.8c-0.1-4.7-0.1-9.4-0.2-14.2c0-2,0-4,0-6.3c-8,6-15.3,12.2-22.5,18.6
			c2,3.3,3.8,6.6,5,10.2c1.5,4.4,1.6,8.9,0.3,13.3c-1,3.3-2.8,6.1-6.3,7.3c-4.2,1.4-8.2,0-10.6-3.7c-2.1-3.3-2.3-6.8-1.7-10.5
			c0.6-3.6,2-6.8,3.8-10c-4.7-4.3-9.4-8.7-14-13c-0.9,2.9-1.7,5.7-2.7,8.5c-2.5,6.8-5.6,13.3-10.1,19c-1.8,2.2-3.8,4.3-6.4,5.7
			c-2.5,1.3-5.3,1.3-7.6-0.8c-2.2-2-3.6-4.6-4.7-7.3c-1.6-3.9-2-8-2.1-12.2c-0.1-3.5,0-7,0-10.5c-0.8,1.5-1.7,3-2.5,4.6
			c-2.7,4.8-5.3,9.6-8.2,14.3c-1.1,1.9-2.6,3.6-4.2,5c-2.5,2.2-5.4,1.4-7.5-0.7c-2.8-2.8-4.5-6.4-5.8-10.1
			c-1.5-4.2-2.3-8.5-2.4-12.9c0-1.8,0-3.6,0-5.6c-1.2,0.9-2.3,1.6-3.3,2.4c-3.6,2.7-7.1,5.4-10.7,8.1c-0.5,0.4-1,0.8-1.5,1.2
			c-0.2,0.3-0.4,0.7-0.4,1c0.6,5.4,1.4,10.7,1.4,16.1c0,4-0.3,7.9-1.1,11.7c-0.8,4.1-2,8-3.9,11.8c-1.6,3.1-3.6,5.9-6.3,8.3
			c-2.6,2.3-5.5,3.8-9.1,3.3c-3-0.4-5.3-2-6.9-4.5c-3-4.7-3.1-9.8-2.2-15.1c1.1-6.1,4-11.4,7.8-16.1c2.4-3,5.1-5.7,7.6-8.6
			c0.3-0.4,0.6-1,0.5-1.4c-0.3-2.6-0.6-5.2-1-7.8c-0.7-4.7-1.5-9.4-2.4-14.2c-0.4-2.3-0.9-4.6-1.4-6.8c-0.1-0.6-0.2-1.2-0.4-2
			c-0.9,1.4-1.6,2.6-2.5,3.8c-3.4,5.1-7.4,9.5-12.8,12.5c-4.1,2.4-8.5,3.9-13.4,3.8c-6.8-0.1-13.6-5.1-14.7-12.8
			c-0.7-5.1,0.5-9.7,3.2-14c2.4-3.8,5.6-6.7,9.8-8.3c4-1.5,8.5-0.7,11.1,2c2.1,2.2,3.1,4.6,2.4,7.7c-0.3,1.4-0.5,2.8-0.8,4.2
			c-0.1,0.5-0.4,1.1-0.8,1.3c-0.5,0.3-1.2,0.4-1.7,0.2c-0.4-0.2-0.8-0.9-0.8-1.3c0-1.3,0.1-2.6,0.2-3.8c0.3-2.7-0.4-5-2.6-6.6
			c-2.4-1.7-5-1.5-7.6-0.2c-3.9,2-6.5,5.2-8.2,9.2c-1.4,3.4-1.8,6.9-0.8,10.5c1.1,4.3,5.7,8,10,8c4.6,0,8.5-1.7,12.1-4.3
			c3.7-2.6,6.7-5.9,9.4-9.5c1.6-2.1,2.7-4.5,4-6.8c1.3-2.1,2.4-4.3,3.8-6.4c0.6-0.9,1.6-1.6,2.6-2.1c1.7-0.8,3.1,0.1,4.4,1
			c2.4,1.7,3.5,4.4,4.5,7c0.8,2,1.4,4.1,1.9,6.2c0.8,3.1,1.5,6.3,2.1,9.4c0.6,3.3,1.1,6.6,1.7,9.9c0,0.1,0.1,0.2,0.2,0.5
			c0.5-0.4,0.9-0.7,1.3-1c4.8-3.6,9.6-7.3,14.4-10.9c0.5-0.4,0.7-0.8,0.8-1.5c0.4-3.3,0.9-6.6,1.5-9.9c0.3-1.6,1.3-2.8,2.5-3.9
			c1.9-1.7,4.9-1.3,6.4,0.8c1.2,1.8,1.8,3.8,1.9,6c0.1,4-0.1,8,0,12c0,2.6,0.2,5.2,0.3,7.8c0.1,4.2,0.1,8.4,0.2,12.5
			c0,1.6,0.3,3.3,0.5,5c1.5-0.5,2.4-1.5,3-2.5c2.9-4.6,5.7-9.2,8.5-13.8c1.5-2.5,3-5.1,4.4-7.7c0.8-1.4,1.6-2.7,2.2-4.2
			c0.4-1.1,0.5-2.4,0.7-3.7c0.2-1.8,0.9-3.4,1.9-4.9c2.2-3.1,6.7-2.5,8.4,1c1.2,2.5,1.3,5,1.2,7.7c-0.2,4.9-0.5,9.8-0.6,14.7
			c-0.1,3.3,0.3,6.5,0.4,9.8c0.1,3.1,0,6.1,0,9.2C218,204.9,218.1,205.3,218.1,205.8z M147.1,196.4c-0.1-0.1-0.2-0.1-0.3-0.2
			c-0.1,0.2-0.2,0.4-0.3,0.6c-2.2,2.7-4.6,5.3-6.7,8.1c-3.1,4.1-5.5,8.5-6.4,13.7c-0.7,4.1-0.7,8.1,1.5,11.9
			c1.5,2.7,5.2,3.6,7.6,1.9c2.2-1.6,3.7-3.8,4.5-6.4c1.5-4.6,1.4-9.3,1.1-14c-0.2-2.9-0.3-5.9-0.5-8.8
			C147.5,200.8,147.3,198.6,147.1,196.4z M255.5,191.7c-0.1,0-0.3,0.1-0.4,0.1c-1.8,3.5-3.2,7.1-2.9,11.1c0.1,1.8,0.5,3.5,1.6,5
			c1,1.3,2.3,1.9,4,1.8c1.7-0.1,2.4-1.3,2.8-2.7c0.1-0.5,0.2-0.9,0.3-1.4c0.5-3-0.2-5.8-1.6-8.4
			C258.2,195.3,256.8,193.6,255.5,191.7z M237.8,157.4c0.1-0.1,0.2-0.1,0.3-0.2c0-0.1,0.1-0.2,0.1-0.4c0-3.8-0.5-7.6-2-11.1
			c-1-2.3-2.1-4.4-4.5-5.5c-0.9-0.4-1.3-0.2-1.3,0.8c0,0.2,0,0.4,0.1,0.7c0.9,4.4,2.4,8.6,4.9,12.3
			C236,155.3,236.9,156.3,237.8,157.4z"/>
		<g>
			<path d="M81.3,275.9c0.9-1.6,1.7-3.3,2.8-4.9c1.9-2.7,3.8-5.4,5.9-8c1.9-2.4,5.6-2.7,8.1-0.9c2.1,1.6,3.7,3.6,4.6,6.1
				c0.7,1.8,1.2,3.7,1.9,5.6c0.8-2,1.5-4.1,2.3-6.1c3.1-7.7,7.3-14.7,12.6-21.1c1.3-1.6,2.8-3,4.8-3.7c2.1-0.7,4-0.2,5.7,1.1
				c2,1.5,3.1,3.7,3.9,6.1c1.1,3.6,1.3,7.3,1.3,11.1c0,2.5-0.2,5-0.3,7.5c-0.1,2.9-0.1,5.7-0.3,8.6c-0.2,2.4-0.6,4.7-0.8,7
				c-0.4,4.3-0.8,8.6-1.3,13c0,0.1,0,0.2,0.3,0.4c0.7-1.5,1.4-2.9,2-4.4c2.9-7,5.7-13.9,8.7-20.9c0.7-1.8,1.1-3.5,1-5.4
				c-0.1-3.1,0.1-6.1,1.2-9.1c0.9-2.3,1.6-4.7,2.8-6.8c1.9-3.4,4.6-6.2,8.5-7.7c3.9-1.5,7.6-1.1,10.8,1.5c2.7,2.1,4,5,3.8,8.5
				c0,0.9-0.4,1.5-1.3,1.6c-0.9,0.1-1.4-0.4-1.7-1.2c-0.9-2.5-2.6-3.9-4.8-4c-1.3,0-2.5,0.4-3.3,1.5c-1.9,2.4-2.9,5.1-3.7,8
				c-1.5,5.9-2,11.8-2.2,17.8c-0.1,2.5,0.3,6.1,1.3,7.6c1.8-1.2,3-2.9,4.1-4.6c2.6-4,5.1-8.1,7.7-12.1c1.2-1.9,2.6-3.7,4-5.5
				c1.4-1.7,3.1-2.6,5.3-1.9c0.9,0.3,1.9,0.8,2.6,1.6c1.6,1.9,2.7,4,3,6.6c0.7,5.1,0.4,10.3,0.4,15.4c0,2.4,0.2,4.7,0.2,7.1
				c0,3.3-0.1,6.5-0.2,9.8c0,1.7-0.1,3.4-0.2,5.2c0,0.3,0.1,0.6,0.2,0.9c0.1,0,0.2,0.1,0.3,0.1c0.5-0.9,1.2-1.8,1.6-2.7
				c1.6-4.2,3.3-8.3,4.6-12.6c1.5-4.6,2.7-9.3,3.8-14c1.7-7.3,3.3-14.7,3.8-22.2c0.2-3,0-6,0-9c-1.7,0-3.3,0.1-4.9,0
				c-5.7-0.5-7.8-5.3-7.5-9.4c0.1-1.7,0.5-3.3,1.3-4.7c1.8-3.2,5.1-3.4,7.7-1.5c2.3,1.7,3.6,4.1,4.6,6.7c0.7,1.9,1.1,3.8,1.7,5.9
				c1.6-0.4,3.3-0.8,5-1.3c2-0.5,3.9-1.2,6-0.7c3,0.6,5.3,2.3,6.7,5c1.3,2.3,1.9,4.9,1.9,7.6c0,4.7,0,9.4-0.2,14.2
				c-0.2,3.5-0.9,6.9-1,10.4c-0.2,4.1-1.5,8-2.2,12c-0.2,1.2-0.3,2.5-0.2,3.7c0,1,0.3,1.1,1.2,0.7c2.3-1.1,3.9-2.8,5.5-4.7
				c3.6-4.3,6.1-9.3,8.2-14.5c3.1-7.5,5.4-15.1,6.4-23.2c0.1-0.9,0.5-2.1,0.1-2.7c-0.4-0.6-1.6-0.7-2.5-0.9c-3.1-0.9-5.9-2.3-7.9-5
				c-2.6-3.6-3.5-7.6-1.7-11.9c0.8-1.9,2-3.4,4-4.1c2.4-0.8,4.2,0.1,5.8,1.7c3.4,3.3,4.9,7.4,5.2,12c0.1,1.7,0.2,3.3,0.3,5
				c2,0.4,4.1,0.7,6,1.3c2.6,0.8,5.3,1.6,7.1,3.9c1.3,1.6,2.1,3.4,2.6,5.4c1,4.3,1.1,8.7,0.8,13.1c-0.3,3.1-0.6,6.2-0.9,9.2
				c-0.1,0.9-0.1,1.8-0.2,2.7c-0.3,3-0.6,6-0.9,9c-0.4,3.3-0.9,6.6-1.4,9.8c-0.3,2.1-0.6,4.2-0.9,6.3c0,0.2,0,0.4,0,0.6
				c0.1,0.1,0.2,0.1,0.3,0.2c1-1.2,2.1-2.2,2.9-3.5c2.6-4.4,5.2-8.7,7.5-13.2c2.9-5.5,5.6-11.1,8.3-16.7c0.3-0.7,0.5-1.4,0.5-2.2
				c0.2-4.3,0.3-8.6,0.7-12.9c0.3-2.9,0.9-5.7,2.8-8.1c1.1-1.4,2.4-2.4,4.2-2.1c1.7,0.2,2.8,1.4,3.5,3c1.3,2.8,1.4,5.7,1.4,8.7
				c0,3.3,0.1,6.6,0,10c-0.1,3.3-0.4,6.7-0.6,10c-0.1,1.4-0.2,2.8-0.2,4.2c0,4.1,0,8.3,0,12.4c0,0.7,0.3,1.4,0.5,2.2
				c1.5-0.8,2.3-2,3-3.2c2.9-5.2,4.9-10.8,7.1-16.3c0.3-0.7,0.5-1.5,0.9-2.1c0.9-1.6,0.6-3.3,0.4-5c-0.2-3.1-0.4-6.2-0.3-9.3
				c0.2-3.7,0.5-7.5,1.5-11.1c1.2-4.1,2.8-7.9,6.3-10.6c1.9-1.5,3.9-2.6,6.4-2.9c4.1-0.4,7.1,1.5,9.5,4.5c2.6,3.2,3.1,7.1,3.2,11.1
				c0.1,3.1-0.6,6-2.4,8.5c-1.9,2.7-4.5,4.3-7.7,5.1c-1.4,0.3-2.7,0.6-4.3,0.9c0.3,2.1,0.4,4.3,0.8,6.4c0.7,3.4,1.6,6.8,2.4,10.2
				c0.5,1.9,0.9,3.9,1.4,5.8c0.2,0.7,0.6,1.5,1.2,2.1c1.1,1.3,2.1,1.5,3.5,0.3c1.5-1.3,3-2.7,4.1-4.4c3.1-4.8,6.1-9.7,9-14.7
				c0.4-0.6,0.3-1.5,0.3-2.3c0.3-5.7,1.4-11.1,3.7-16.3c1.4-3,3.1-5.6,5.4-7.9c2.6-2.6,5.7-4.4,9.4-4.6c3-0.2,5.7,0.7,8,2.6
				c0.2,0.1,0.3,0.3,0.7,0.5c0.1-1.6,0.2-3.1,0.3-4.6c0.3-4.6,0.6-9.2,0.9-13.7c0.1-2.2,0.1-4.4,0.3-6.6c0.5-4.2,0.6-8.4,2.2-12.4
				c0.4-1.1,1-2.2,1.7-3.2c1.3-1.9,3.8-1.8,5.2,0c1.3,1.8,2,3.8,2.2,6c0.5,4.6,0.9,9.3,0.7,13.9c-0.2,3.9-0.2,7.8-0.3,11.7
				c-0.1,3.3-0.2,6.5-0.5,9.8c-0.4,5.3-0.8,10.6-1.3,15.9c-0.3,4.2-0.7,8.4-1,12.6c-0.3,5.6-0.5,11.1-0.7,16.7c0,1,0.3,2.1,0.4,3.1
				c0.1,0,0.2,0.1,0.3,0.1c0.5-0.5,1-1,1.4-1.6c0.9-1.8,1.8-3.6,2.6-5.5c0.8-1.9,1.5-3.9,2.3-5.9c0.1-0.3,0.2-0.8,0.5-0.9
				c0.4-0.3,1-0.6,1.4-0.4c0.4,0.1,0.8,0.7,0.9,1.2c0.1,0.6-0.1,1.3-0.2,2c-0.8,3.2-1.3,6.5-3.1,9.3c-1,1.5-2,3.1-3.3,4.3
				c-2,1.9-3.9,1.7-6-0.2c-1.9-1.8-3.1-4.1-4.1-6.5c-1.6-3.8-2.4-7.9-2.6-12c-0.2-3.2-0.4-6.4-0.6-9.6c-0.1-1.9,0-3.8,0-5.9
				c-0.4,1.2-0.7,2.2-1,3.2c-2.2,6.7-4.4,13.5-6.7,20.2c-1,2.8-2.5,5.5-4,8.2c-0.6,1-1.5,2-2.6,2.6c-1.9,1.2-4.1,0.6-5.7-1.1
				c-1.8-1.9-2.9-4.1-3.8-6.5c-1.3-3.4-2.2-6.8-2.8-10.5c-0.5,0.9-1,1.7-1.5,2.6c-2.1,3.4-4,6.9-6.2,10.2c-1.4,2.1-3.2,4-5.5,5.2
				c-2.7,1.4-5.5,1.6-8.2,0c-2.7-1.6-5-3.6-7.1-6c-2.6-3-4.1-6.5-5.2-10.5c-0.3,0.6-0.5,1-0.6,1.3c-1.9,4.6-3.6,9.3-5.6,13.8
				c-0.9,2.2-2.2,4.2-4.1,5.8c-2.3,1.9-4.8,1.2-6.6-0.7c-2.8-3-4.2-6.8-5.2-10.7c-0.6-2.4-1.1-4.8-1.6-7.3c-0.3-1.3-0.4-2.6-0.6-3.9
				c-0.1,0-0.2-0.1-0.3-0.1c-0.5,0.9-1,1.8-1.5,2.8c-2.9,5.6-5.8,11.2-8.7,16.8c-1.5,2.8-2.9,5.6-4.6,8.3c-0.9,1.5-2.1,3-3.4,4.1
				c-2.8,2.4-5.8,1.8-7.7-1.4c-2.4-3.9-3.7-8.3-4.1-12.8c-0.2-2-0.2-4-0.2-6c0.1-2.1,0.3-4.3,0.5-6.4c0.3-3.2,0.7-6.4,0.9-9.6
				c0.3-3.7,0.8-7.3,0.9-11c0.1-3.8,0-7.7-0.1-11.6c0-0.3-0.2-0.7-0.4-0.9c-1.2-0.9-2.5-1.7-3.9-2.6c-0.1,1.1-0.3,1.9-0.4,2.6
				c-1,7.9-2.9,15.6-5.8,23c-2.2,5.5-4.8,10.8-8.3,15.6c-2.2,3-4.7,5.8-8.2,7.2c-2.2,0.9-4.6,0.2-6.1-1.7c-3.5-4.4-5.1-9.5-5.6-15
				c-0.4-3.6,0-7.1,0.5-10.7c0.3-2.3,0.4-4.6,0.5-6.9c0.1-3.2,0.4-6.3,0.3-9.5c-0.1-2.5-0.7-5-1.1-7.5c-0.1-0.8-0.6-1.2-1.4-1.2
				c-1.5,0-3,0-4.3,0c-0.2,4.3-0.3,8.5-0.7,12.7c-0.2,2.9-0.7,5.8-1.2,8.6c-0.5,2.9-1,5.9-1.7,8.7c-1.2,5-2.5,10.1-4.1,15.1
				c-1.6,5-3.6,9.9-5.5,14.8c-0.4,1.1-1.1,2.1-1.8,3.1c-1.6,2.3-4.5,2.8-6.8,1.1c-2.4-1.7-4-4.1-5.3-6.8c-1.7-3.3-2.4-6.8-2.7-10.4
				c-0.2-2.9-0.1-5.7-0.1-8.6c0-2,0.1-4,0.3-6c0.2-3.1,0.5-6.2,0.7-9.4c0-0.3,0-0.7-0.2-1.2c-1.1,1.3-2.2,2.6-3.1,4
				c-2.6,3.9-5,7.9-7.6,11.8c-0.9,1.4-2.1,2.7-3.4,3.8c-1.5,1.2-3.2,1.2-4.6-0.2c-1.2-1.1-2.4-2.4-3.2-3.8c-1.5-2.6-2.7-5.4-4-8.1
				c0,0-0.2,0.2-0.2,0.4c-2.6,6.2-5.1,12.4-7.7,18.6c-0.8,1.9-1.6,3.7-2.6,5.6c-1,2-2.9,2.9-4.6,2.1c-1-0.5-2-1.5-2.7-2.5
				c-1.7-2.7-2.8-5.8-3.5-8.9c-1.1-4.3-1.8-8.6-1.9-12.9c-0.1-3.4,0.1-6.8,0.2-10.2c0.1-4.4,0.2-8.7,0.3-13.1c0-2,0-3.9,0-6.2
				c-1,0.7-1.9,1.2-2.7,1.9c-2.5,2.3-4.3,5.1-5.9,8c-3.2,5.6-5.6,11.6-7.3,17.9c-0.9,3.2-1,6.5-1.1,9.8c0,2.4-0.4,4.8-0.7,7.2
				c-0.3,2.1-2.6,2.9-4.1,1.4c-1-0.9-1.7-2.1-2.5-3.3c-2.9-4.3-4.7-9.1-5.6-14.1c-0.6-3-1-6.1-1.4-9.2c0-0.2-0.1-0.4-0.2-0.7
				c-1.8,1.1-3.1,2.7-4.2,4.3c-2.2,3-3.9,6.2-5,9.8c-0.4,1.3-0.2,2.8-0.3,4.2c-0.2,2.3-0.4,4.6-0.7,6.9c-0.2,1.2-0.8,2.1-2,2.4
				c-1.2,0.3-2.2-0.3-2.9-1.3c-3.1-4.8-5.4-10-6.3-15.7c-0.4-2.7-0.8-5.4-1.2-8.3c-1.4,1.3-2.7,2.5-4,3.8c-2.6,2.8-4.9,5.9-6.5,9.4
				c-0.8,1.7-1.5,3.4-1.3,5.3c0.1,0.9-0.5,1.5-1.3,1.6c-0.8,0.1-1.6-0.4-1.6-1.3c0-1.5,0.1-3.1,0.6-4.5c1.1-3.8,3.2-7.1,5.8-10.1
				c2.4-2.8,5-5.3,7.8-7.6c0.3-0.2,0.5-0.8,0.5-1.2c0-4.8,0.5-9.6,1.9-14.2c0.8-2.7,1.7-5.4,2.8-8c2-4.4,4.6-8.3,9.2-10.6
				c4.5-2.2,10.1-1.3,13.3,2.4c2.3,2.6,2.5,5.6,1.5,8.7c-1.4,4.7-4.5,8.3-8.3,11.3c-2.5,2-5.1,3.8-7.6,5.7c-0.3,0.2-0.6,0.6-0.6,0.8
				c0.1,4.7,0.3,9.5,0.5,14.2C81.1,275.9,81.2,275.9,81.3,275.9z M341.9,295.7c0.7-0.9,1.4-1.6,1.9-2.4c3-5,5.1-10.4,7-15.8
				c2.3-6.8,4.3-13.7,6.3-20.5c0.6-2,0.5-2.1-1.2-3.4c-2.9-2.2-6.1-1.7-8,1.5c-1.2,2.1-2.3,4.4-3,6.7c-1.8,5.6-3.2,11.4-4.2,17.2
				c-0.7,4.3-1.2,8.5-0.4,12.8C340.6,293.1,340.9,294.4,341.9,295.7z M80.8,257.5c2.6-1.5,7.9-6.1,10.3-9c1.4-1.8,2.6-3.7,3.1-6
				c0.5-2.2,0.3-4.2-1.6-5.7c-1.8-1.4-3.9-2-6.2-1.1c-2.2,0.9-3.2,2.7-3.9,4.8c-1.2,3.5-1.7,7.1-1.7,10.8
				C80.7,253.4,80.8,255.5,80.8,257.5z M308,266.5c1.3-0.1,2.4-0.2,3.4-0.3c4-0.6,6.6-2.9,7.9-6.6c1-3,0.8-6,0-9
				c-0.6-2.3-2.1-4.1-4.2-5.2c-2.1-1-3.4-0.4-4,1.9c0,0.1,0,0.1,0,0.2c-0.8,4-1.8,8-2.4,12C308.2,261.6,308.2,263.9,308,266.5z
				 M237.6,246.3c-0.1-3-0.3-5.9-1.2-8.8c-0.7-2.1-2-3.7-3.7-5c-1.4-1-2.3-0.7-2.8,0.9c-0.1,0.3-0.2,0.6-0.2,0.9
				c0.1,1.7,0.1,3.4,0.5,5.1C230.9,243,234.3,245.9,237.6,246.3z M196.8,244.4c0-0.2,0-0.4,0-0.5c-0.6-2-1.1-4.1-1.9-6
				c-0.6-1.6-1.6-3.1-3.1-4c-1.2-0.8-2.4-0.4-3,0.9c-1,2-1.1,4.2-0.3,6.2c0.4,1,1.2,1.9,2.1,2.5
				C192.3,244.8,194.6,244.6,196.8,244.4z"/>
			<path d="M277.5,244.4c-2.3,0-3.6-1.6-3.6-4.1c0-2.2,1.7-3.9,3.8-3.9c2,0.1,3.6,1.7,3.5,3.6C281,241.8,279.7,244.6,277.5,244.4z"
				/>
		</g>
	</g>
	<g>
		<path class="st1" d="M80.1,172.7c-0.1,0-0.2,0-0.4,0c-6.4,1-8.9,6.4-8.7,12.3c-6.8-2.2-14.6,1.9-14.6,9.8
			c0,10.1,11.8,11.7,19.3,13c2.3,0.4,4.4,0.8,6.5,1.9c1,0.5,2,1.5,3.1,1.8c0.7,0.2,1.2,0.3,1.9,0c1.2-0.6,1.1-1.4,1.3-2.6
			c0.6-3.3,0.4-6.9,0.6-10.3C89.8,190.1,92.7,173.5,80.1,172.7z M85.3,189c-0.3,5.6-0.7,11.3-1.1,16.9c-5.3-2.1-10.9-2-16.3-3.8
			c-3.4-1.2-6.8-3.3-7-7.3c-0.2-5.3,6.9-8.2,10.6-4.3c0.6,0.6,0.6,1.5,1.5,1.9c1.9,0.8,3.1-0.6,3.3-2.3c0.4-2.9-1.7-5.9-0.9-9
			c1.1-4.4,6-5.4,8.4-1.7C85.8,182.3,85.5,185.9,85.3,189z"/>
		<path class="st1" d="M377.6,158.5c-2-4.3-6-7.8-10.9-8c-4.4-0.2-8.2,2.8-11,5.9c-4.7-6.7-14-12.5-19.2-2.8c-2.1,4-2,8.9-0.3,13
			c1,2.5,2.7,4.7,4,7c2.3,3.9,3.8,8.2,4.7,12.6c0.5,2.2-0.4,7.4,3.1,7.3c1.8-0.1,4.2-3.4,5-4.1c2.9-2.3,6.2-4.1,9.4-6
			C371.4,178.2,381.3,170.2,377.6,158.5z M370.5,172.3c-5.8,6.4-14.2,9.3-20.9,14.6c-1.2-6.9-4-12.6-7.5-18.6
			c-2.3-3.9-4-8.3-1.8-12.8c3.5-7.2,10.1,0.9,12.3,4.4c1.3,2.1,2.5,3.1,4.6,1.3c0.8-0.7,1.5-2.1,2.3-3c3.3-3.5,8.9-4.9,12.4-0.7
			C375.7,162.1,373.6,168.2,370.5,172.3z"/>
		<path class="st1" d="M340.2,211.1c-0.1,0-0.2,0-0.2,0.1c0,0-0.1,0-0.1,0c-1.4,0.5-2.6,1-3.8,1.8c-3.5-3.3-9.2-3.5-11.7,1.3
			c-1.9,3.6,0.3,7,2.5,9.9c1.5,2,5.2,8.7,7.8,8.9c1.7,0.2,3.2-1.9,4.2-2.9c2.6-2.6,5.5-5,7.6-8.1
			C350.5,216.4,347.5,209.8,340.2,211.1z M335.4,228.1c-1.1-1.4-2.2-2.9-3.3-4.3c-1.3-1.7-3.3-3.6-3.8-5.7c-0.4-1.6-0.2-5.6,3.6-3.2
			c0.7,0.5,0.9,1.4,1.5,2c0.5,0.7,0.6,1.1,1.6,1.2c1.2,0.2,1.8-0.6,2.6-1.2c1.6-1.4,1.9-2.2,4.2-1.9c1.5,0.2,2.2,0.4,2.3,1.9
			c0.1,2-1.7,4-2.9,5.3C339.3,224.3,337.4,226.2,335.4,228.1z"/>
		<path class="st1" d="M109.5,196c-0.1,0-0.1,0-0.1,0.1c0,0,0,0,0,0c0,0,0,0,0,0c0,0-0.1,0.1-0.1,0.1c-1,0.8-1.7,1.7-2.4,2.7
			c-3.8-1.2-8.5,0.8-9.1,5.1c-0.4,3,1.4,5,3.9,6.4c1.9,1,3.8,1.8,5.7,2.7c1,0.5,2.2,1.3,3.4,1.3c2-0.1,3.1-2.2,4-3.7
			c1.8-2.9,3.2-6.2,3.4-9.7C118.5,195.5,113.9,193.8,109.5,196z M113.8,201.1c-0.3,3.3-1.6,6.2-3.4,8.9c-1.2-0.6-2.4-1.1-3.6-1.7
			c-1.3-0.6-3-1.1-3.9-2.3c-1.1-1.4-0.7-3.4,1.3-3.6c1.5-0.2,1.9,1.3,3.2,1.4c0.7,0,1.6-0.3,2.1-0.8c0.4-0.4,0.6-1,0.8-1.5
			c0.3-0.6,0.6-1.6,1.1-1.9C113.9,197.7,113.8,200,113.8,201.1z"/>
	</g>
</g>
</svg>
