<?xml version="1.0" encoding="iso-8859-1"?>
<!-- Generator: Adobe Illustrator 19.0.0, SVG Export Plug-In . SVG Version: 6.00 Build 0)  -->
<svg version="1.1" id="Capa_1" xmlns="http://www.w3.org/2000/svg" xmlns:xlink="http://www.w3.org/1999/xlink" x="0px" y="0px"
	 viewBox="0 0 512 512" style="enable-background:new 0 0 512 512;" xml:space="preserve">
<g>
	<g>
		<path d="M497,482H392v-62h15c41.355,0,75-33.645,75-75v-30c0-8.284-6.716-15-15-15h-0.041C476.397,287.456,482,271.871,482,255
			v-30c0-8.284-6.716-15-15-15h-0.041C476.397,197.456,482,181.871,482,165v-30c0-8.284-6.716-15-15-15h-30
			c-2.085,0-4.145,0.108-6.187,0.276C434.586,110.917,437,100.738,437,90c0-48.388-48.945-85.467-51.029-87.022
			c-5.322-3.971-12.619-3.971-17.941,0C365.945,4.533,317,41.612,317,90c0,10.738,2.414,20.917,6.187,30.276
			C321.145,120.108,319.085,120,317,120h-30c-8.284,0-15,6.716-15,15v30c0,16.871,5.603,32.456,15.041,45H287
			c-8.284,0-15,6.716-15,15v30c0,16.871,5.603,32.456,15.041,45H287c-8.284,0-15,6.716-15,15v30c0,41.355,33.645,75,75,75h15v62H150
			v-62h15c41.355,0,75-33.645,75-75v-30c0-8.284-6.716-15-15-15h-0.041C234.397,287.456,240,271.871,240,255v-30
			c0-8.284-6.716-15-15-15h-0.041C234.397,197.456,240,181.871,240,165v-30c0-8.284-6.716-15-15-15h-30
			c-2.085,0-4.145,0.108-6.187,0.276C192.586,110.917,195,100.738,195,90c0-48.388-48.945-85.467-51.029-87.022
			c-5.322-3.971-12.619-3.971-17.941,0C123.945,4.533,75,41.612,75,90c0,10.738,2.414,20.917,6.187,30.276
			C79.145,120.108,77.085,120,75,120H45c-8.284,0-15,6.716-15,15v30c0,16.871,5.603,32.456,15.041,45H45c-8.284,0-15,6.716-15,15v30
			c0,16.871,5.603,32.456,15.041,45H45c-8.284,0-15,6.716-15,15v30c0,41.355,33.645,75,75,75h15v62H15c-8.284,0-15,6.716-15,15
			s6.716,15,15,15h482c8.284,0,15-6.716,15-15S505.284,482,497,482z M210,345c0,24.813-20.187,45-45,45h-15v-15
			c0-24.813,20.187-45,45-45h15V345z M210,255c0,24.813-20.187,45-45,45h-15v-15c0-24.813,20.187-45,45-45h15V255z M195,150h15v15
			c0,24.813-20.187,45-45,45h-15v-15C150,170.187,170.187,150,195,150z M120,390h-15c-24.813,0-45-20.187-45-45v-15h15
			c24.813,0,45,20.187,45,45V390z M120,300h-15c-24.813,0-45-20.187-45-45v-15h15c24.813,0,45,20.187,45,45V300z M120,210h-15
			c-24.813,0-45-20.187-45-45v-15h15c24.813,0,45,20.187,45,45V210z M135.001,145.168C123.483,134.204,105,113.019,105,90
			c0-23.023,18.49-44.211,29.999-55.168C146.517,45.796,165,66.981,165,90C165,113.023,146.51,134.211,135.001,145.168z M452,345
			c0,24.813-20.187,45-45,45h-15v-15c0-24.813,20.187-45,45-45h15V345z M452,255c0,24.813-20.187,45-45,45h-15v-15
			c0-24.813,20.187-45,45-45h15V255z M437,150h15v15c0,24.813-20.187,45-45,45h-15v-15C392,170.187,412.187,150,437,150z M362,390
			h-15c-24.813,0-45-20.187-45-45v-15h15c24.813,0,45,20.187,45,45V390z M362,300h-15c-24.813,0-45-20.187-45-45v-15h15
			c24.813,0,45,20.187,45,45V300z M362,210h-15c-24.813,0-45-20.187-45-45v-15h15c24.813,0,45,20.187,45,45V210z M377.001,145.168
			C365.483,134.204,347,113.019,347,90c0-23.023,18.49-44.211,29.999-55.168C388.517,45.796,407,66.981,407,90
			C407,113.023,388.51,134.211,377.001,145.168z"/>
	</g>
</g>
<g>
</g>
<g>
</g>
<g>
</g>
<g>
</g>
<g>
</g>
<g>
</g>
<g>
</g>
<g>
</g>
<g>
</g>
<g>
</g>
<g>
</g>
<g>
</g>
<g>
</g>
<g>
</g>
<g>
</g>
</svg>
