<?xml version="1.0" encoding="iso-8859-1"?>
<!-- Generator: Adobe Illustrator 19.0.0, SVG Export Plug-In . SVG Version: 6.00 Build 0)  -->
<svg version="1.1" id="Capa_1" xmlns="http://www.w3.org/2000/svg" xmlns:xlink="http://www.w3.org/1999/xlink" x="0px" y="0px"
	 viewBox="0 0 512.001 512.001" style="enable-background:new 0 0 512.001 512.001;" xml:space="preserve">
<g>
	<g>
		<path d="M417.847,302.169c4.333-0.646,8.646-1.535,12.92-2.68c8.002-2.144,12.75-10.369,10.606-18.371
			c-4.744-17.704-13.544-33.833-25.605-47.328c17.192-5.656,32.877-15.224,45.838-28.183c5.853-5.854,5.858-15.356,0-21.213
			c-12.96-12.96-28.644-22.529-45.837-28.185c12.062-13.495,20.859-29.623,25.604-47.326c2.144-7.995-2.604-16.227-10.605-18.372
			c-17.703-4.744-36.07-5.189-53.788-1.49c3.698-17.718,3.254-36.085-1.491-53.789c-2.145-8.002-10.373-12.749-18.371-10.606
			c-17.702,4.744-33.832,13.544-47.325,25.604c-5.656-17.194-15.226-32.878-28.186-45.837c-5.859-5.857-15.354-5.857-21.213,0
			c-12.96,12.959-22.53,28.645-28.186,45.838c-13.494-12.062-29.623-20.861-47.325-25.605c-7.997-2.143-16.228,2.604-18.371,10.606
			c-4.745,17.703-5.189,36.071-1.49,53.789c-17.717-3.698-36.086-3.253-53.789,1.49c-3.843,1.03-7.119,3.544-9.107,6.989
			c-1.989,3.445-2.528,7.54-1.498,11.382c4.744,17.704,13.542,33.832,25.604,47.326c-17.194,5.655-32.878,15.224-45.838,28.185
			c-5.854,5.853-5.857,15.355,0,21.213c12.961,12.959,28.646,22.527,45.838,28.183c-12.062,13.495-20.861,29.624-25.605,47.328
			c-2.144,8.002,2.604,16.227,10.606,18.371c1.556,0.417,3.118,0.789,4.683,1.139c-11.379,8.189-21.804,17.874-30.957,28.885
			C59.836,359.739,46,397.912,46,437.001v59.995c-0.004,7.147,5.088,13.332,12.069,14.714c0.262,0.052,0.527,0.083,0.791,0.121
			c0.22,0.031,0.437,0.073,0.66,0.095c0.492,0.049,0.986,0.075,1.48,0.075h60c38.702,0,76.438-14.122,106.256-39.765
			c19.783-17.013,35.286-38.344,45.384-62.008c23.425,43.095,68.732,71.773,118.36,71.773h60c8.331,0,15.004-6.808,15-15.005
			v-59.995C466,365.752,447.457,327.647,417.847,302.169z M427.486,195.001c-13.484,9.034-29.412,14.16-46.183,14.691
			c-2.365,0.075-4.608,0.709-6.598,1.775c1.726-10.914,1.726-22.017,0-32.932c1.99,1.066,4.234,1.7,6.599,1.775
			C398.075,180.841,414.003,185.967,427.486,195.001z M406.522,273.245c-16.194,1.078-32.551-2.445-47.341-10.371
			c-2.106-1.129-4.39-1.703-6.668-1.766c6.915-8.511,12.525-18.12,16.527-28.522c1.191,1.922,2.818,3.595,4.833,4.845
			C388.131,246.276,399.362,258.68,406.522,273.245z M359.181,127.126c14.791-7.927,31.151-11.449,47.341-10.369
			c-7.16,14.567-18.391,26.968-32.649,35.814c-2.014,1.25-3.642,2.923-4.833,4.845c-4.002-10.403-9.613-20.013-16.529-28.524
			C354.79,128.83,357.074,128.256,359.181,127.126z M313.431,92.129c8.845-14.259,21.246-25.49,35.813-32.65
			c1.082,16.194-2.443,32.552-10.369,47.341c-1.129,2.107-1.704,4.391-1.766,6.67c-8.51-6.916-18.12-12.526-28.522-16.528
			C310.508,95.771,312.181,94.144,313.431,92.129z M196,195.001c0-41.355,33.645-75,75-75c41.355,0,75,33.645,75,75
			s-33.645,75-75,75C229.645,270.001,196,236.356,196,195.001z M233.407,293.038c-1.919,1.19-3.589,2.821-4.837,4.833
			c-8.846,14.259-21.249,25.491-35.814,32.651c-1.081-16.194,2.444-32.551,10.37-47.343c1.128-2.106,1.702-4.389,1.765-6.667
			C213.4,283.426,223.007,289.036,233.407,293.038z M337.109,276.512c0.063,2.278,0.637,4.562,1.765,6.668
			c7.927,14.79,11.451,31.148,10.37,47.343c-14.567-7.161-26.969-18.393-35.813-32.652c-1.249-2.013-2.921-3.641-4.842-4.832
			C318.991,289.037,328.599,283.427,337.109,276.512z M256.309,84.697c0.531-16.773,5.656-32.701,14.691-46.185
			c9.035,13.484,14.16,29.412,14.691,46.185c0.075,2.365,0.709,4.609,1.775,6.599c-10.914-1.726-22.017-1.726-32.932,0
			C255.6,89.306,256.234,87.063,256.309,84.697z M192.756,59.48c14.565,7.161,26.969,18.392,35.814,32.65
			c1.249,2.014,2.923,3.641,4.844,4.832c-10.403,4.001-20.013,9.612-28.523,16.528c-0.062-2.279-0.636-4.563-1.765-6.67
			C195.199,92.03,191.674,75.673,192.756,59.48z M182.818,127.126c2.108,1.129,4.392,1.703,6.671,1.765
			c-6.916,8.511-12.527,18.12-16.529,28.523c-1.191-1.921-2.818-3.595-4.832-4.844c-14.259-8.846-25.49-21.247-32.65-35.814
			C151.67,115.673,168.029,119.2,182.818,127.126z M189.487,261.108c-2.279,0.063-4.563,0.637-6.669,1.766
			c-14.79,7.927-31.149,11.454-47.34,10.371c7.16-14.565,18.393-26.969,32.65-35.814c2.015-1.249,3.642-2.923,4.833-4.844
			C176.962,242.989,182.573,252.597,189.487,261.108z M114.514,195.001c13.483-9.034,29.412-14.16,46.183-14.69
			c2.365-0.075,4.608-0.709,6.598-1.775c-1.726,10.914-1.726,22.016,0,32.931c-1.99-1.066-4.232-1.7-6.597-1.775
			C143.927,209.16,127.998,204.034,114.514,195.001z M121,482.001H97.213l64.394-64.394c5.858-5.858,5.858-15.355,0-21.213
			c-5.857-5.858-15.355-5.858-21.213,0L76,460.788v-23.787c0-57.263,36.349-108.671,87.697-128.367
			c-2.148,15.315-1.25,30.968,2.813,46.134c2.144,7.997,10.371,12.751,18.372,10.606c17.703-4.745,33.831-13.543,47.326-25.606
			c4.4,13.378,11.179,25.835,20.072,36.813C237.776,437.15,182.543,482.001,121,482.001z M285.691,305.304
			c-0.531,16.772-5.656,32.7-14.691,46.185c-9.035-13.485-14.16-29.413-14.691-46.185c-0.075-2.365-0.708-4.607-1.774-6.597
			c10.914,1.726,22.016,1.726,32.93,0C286.4,300.696,285.766,302.939,285.691,305.304z M436,430.788l-34.394-34.394
			c-5.857-5.858-15.355-5.858-21.213,0c-5.858,5.858-5.858,15.355,0,21.213l34.394,34.394H391
			c-45.868,0-87.01-31.735-100.467-76.421c8.496-10.731,14.991-22.84,19.258-35.81c13.494,12.061,29.624,20.86,47.327,25.604
			c8.005,2.145,16.228-2.604,18.37-10.606c3.805-14.199,4.838-28.824,3.192-43.2c34.306,17.899,57.32,54.687,57.32,95.433V430.788z"
			/>
	</g>
</g>
<g>
</g>
<g>
</g>
<g>
</g>
<g>
</g>
<g>
</g>
<g>
</g>
<g>
</g>
<g>
</g>
<g>
</g>
<g>
</g>
<g>
</g>
<g>
</g>
<g>
</g>
<g>
</g>
<g>
</g>
</svg>
