<?xml version="1.0" encoding="iso-8859-1"?>
<!-- Generator: Adobe Illustrator 19.0.0, SVG Export Plug-In . SVG Version: 6.00 Build 0)  -->
<svg version="1.1" id="Capa_1" xmlns="http://www.w3.org/2000/svg" xmlns:xlink="http://www.w3.org/1999/xlink" x="0px" y="0px"
	 viewBox="0 0 496.014 496.014" style="enable-background:new 0 0 496.014 496.014;" xml:space="preserve">
<path style="fill:#D4E1F4;" d="M438.012,153.966l-37.616,16.718l0,0c1.045,3.135,2.09,6.269,2.612,9.404
	c1.567,7.314,2.612,14.629,2.612,21.943l52.767-22.988l5.224-17.241l-19.331-6.269L438.012,153.966z"/>
<path style="fill:#3A2C51;" d="M485.032,136.203l-76.8-23.51c-8.359-2.612-17.241,2.09-19.331,10.449
	c-2.612,8.359,2.09,17.241,10.449,19.331l37.094,11.494l5.747,1.567l19.331,6.269l0,0l-5.224,17.763l-13.061,43.886
	c-2.612,8.359,2.09,17.241,10.449,19.331c1.567,0.522,3.135,0.522,4.702,0.522c6.792,0,13.061-4.18,15.151-10.971l21.943-76.278
	C497.571,147.697,493.391,138.815,485.032,136.203z"/>
<g>
	<path style="fill:#4DCFE0;" d="M405.098,180.089c-0.522-3.135-1.567-6.269-2.612-9.404c-12.539-42.841-45.976-70.531-87.771-70.531
		c-21.42,0-43.886,7.314-65.829,21.42c-21.943-14.629-44.408-21.42-66.351-21.42c-45.453,0-80.98,31.869-90.384,80.98
		c-5.747,37.616,4.18,77.845,27.69,112.849l20.376,25.078l0.522,0.522c25.6,27.167,59.559,49.633,99.788,65.306
		c4.18,1.567,7.837,1.567,9.927,1.567s5.747,0,9.927-1.567C365.914,341.003,408.755,265.77,407.71,202.554c0,0,0,0,0-0.522
		C407.71,194.195,406.665,186.88,405.098,180.089z"/>
</g>
<path style="fill:#D4E1F4;" d="M152.755,312.268l94.563-40.751c7.837-3.657,11.494-12.539,7.837-20.898
	c-3.657-7.837-12.539-11.494-20.898-7.837l-94.563,41.273l-17.763,7.837h-0.522l-62.171,27.69l4.18,1.045
	c3.657,1.045,7.314,3.135,9.927,6.269c2.09,3.135,3.135,6.792,3.135,10.449l0,0c0,1.045,0,2.09-0.522,3.135l-2.612,6.792v0.522
	l68.963-30.825l0,0L152.755,312.268L152.755,312.268z"/>
<path style="fill:#3A2C51;" d="M76.477,339.435c0-1.045,0.522-2.09,0.522-3.135l0,0c0-3.657-0.522-7.314-3.135-10.449
	c-2.612-3.135-6.269-5.225-9.927-6.269l-4.18-1.045l0,0h-0.522l-38.661-12.539c-8.359-2.612-17.241,2.09-19.853,10.449
	c-2.612,8.359,2.09,17.241,10.449,19.853l30.824,9.404l-9.404,30.302c-2.612,8.359,2.09,17.241,10.449,19.331
	c1.567,0.522,3.135,0.522,4.702,0.522c6.792,0,13.061-4.18,15.151-10.971l11.494-38.139v-0.522L76.477,339.435z"/>
<g>
</g>
<g>
</g>
<g>
</g>
<g>
</g>
<g>
</g>
<g>
</g>
<g>
</g>
<g>
</g>
<g>
</g>
<g>
</g>
<g>
</g>
<g>
</g>
<g>
</g>
<g>
</g>
<g>
</g>
</svg>
