<?xml version="1.0" encoding="iso-8859-1"?>
<!-- Generator: Adobe Illustrator 19.0.0, SVG Export Plug-In . SVG Version: 6.00 Build 0)  -->
<svg version="1.1" id="Capa_1" xmlns="http://www.w3.org/2000/svg" xmlns:xlink="http://www.w3.org/1999/xlink" x="0px" y="0px"
	 viewBox="0 0 512 512" style="enable-background:new 0 0 512 512;" xml:space="preserve">
<g>
	<g>
		<g>
			<rect x="288" y="266.667" width="21.333" height="21.333"/>
			<rect x="234.667" y="362.667" width="21.333" height="21.333"/>
			<rect x="53.333" y="341.333" width="21.333" height="21.333"/>
			<path d="M245.333,298.667c0-41.237-33.429-74.667-74.667-74.667C129.429,224,96,257.429,96,298.667
				c0,41.237,33.429,74.667,74.667,74.667C211.884,373.286,245.286,339.884,245.333,298.667z M117.333,298.667
				c0-29.455,23.878-53.333,53.333-53.333c29.441,0.035,53.298,23.893,53.333,53.333C224,328.122,200.122,352,170.667,352
				C141.211,352,117.333,328.122,117.333,298.667z"/>
			<rect x="266.667" y="298.667" width="21.333" height="21.333"/>
			<rect x="277.333" y="330.667" width="21.333" height="21.333"/>
			
				<rect x="102.255" y="106.667" transform="matrix(0.7071 0.7071 -0.7071 0.7071 117.3346 -48.6042)" width="30.165" height="21.333"/>
			<rect x="74.667" y="138.667" width="21.333" height="21.333"/>
			<rect x="160" y="106.667" width="21.333" height="21.333"/>
			<rect x="42.667" y="309.333" width="21.333" height="21.333"/>
			<path d="M501.333,448h-44.47c-0.001-2.932-1.192-5.851-3.552-7.957l-79.979-71.328V191.869
				C429.963,189.156,512,144.318,512,85.333c0-23.564-19.102-42.667-42.667-42.667H296.839c1.18-3.337,1.828-6.925,1.828-10.667
				c0-17.673-14.327-32-32-32c-17.673,0-32,14.327-32,32c0,5.249,1.272,10.198,3.512,14.568
				c-14.662,6.752-24.845,21.565-24.845,38.765c0,21.811,11.22,41.687,28.222,58.216c-12.145-5.566-25.136-9.796-38.836-12.445
				c-4.211-0.801-8.493,0.998-10.869,4.565l-14.869,22.304l-24.277-8.085c-3.831-1.278-8.055-0.283-10.912,2.571l-18.208,18.208
				h-16.917c-4.043-0.002-7.74,2.282-9.547,5.899l-5.888,11.787l-27.445-13.717c-4.063-2.028-8.964-1.262-12.213,1.909
				C18.579,208.675-0.021,252.782,0.001,298.836C0.033,363.03,35.526,418.915,87.941,448H10.667C4.776,448,0,452.776,0,458.667V480
				c0,17.673,14.327,32,32,32h448c17.673,0,32-14.327,32-32v-21.333C512,452.776,507.224,448,501.333,448z M306.773,437.333
				l55.744-49.707l55.733,49.707H306.773z M490.667,85.333c0,7.356-1.909,14.528-5.3,21.391
				c-21.021,0.11-100.692-0.811-138.945-20.239c-34.197-17.35-86.735-9.334-111.534-4.057C236.308,72.024,245.206,64,256,64h213.333
				C481.115,64,490.667,73.551,490.667,85.333z M266.667,21.333c5.891,0,10.667,4.776,10.667,10.667s-4.776,10.667-10.667,10.667
				C260.776,42.667,256,37.891,256,32S260.776,21.333,266.667,21.333z M238.497,103.495c21.922-4.716,69.768-12.448,98.26,2.02
				c35.636,18.085,99.024,21.81,132.677,22.451c-25.82,25.315-69.858,42.701-101.435,42.701h-10.667
				C316.356,170.667,254.392,141.391,238.497,103.495z M352,191.869v176.532l-80.331,71.642c-2.267,2.024-3.563,4.918-3.563,7.957
				h-15.157c43.042-23.843,75.063-65.883,84.934-116.933c11.498-59.467-9.383-117.684-50.331-156.453
				C309.065,184.757,332.1,190.916,352,191.869z M21.333,298.667c-0.109-37.666,14.151-73.956,39.872-101.472l30.08,15.019
				c0.003,0.001,0.005,0.003,0.008,0.004c5.271,2.63,11.677,0.489,14.307-4.783L113.259,192H128
				c2.824,0.008,5.536-1.105,7.541-3.093l16.672-16.661l25.749,8.533c4.56,1.545,9.589-0.176,12.245-4.192l15.371-23.051
				C272.715,169.679,320.03,229.745,320,298.795C319.965,379.827,255.395,445.752,174.915,448h-8.529
				C85.863,445.732,21.298,379.731,21.333,298.667z M490.667,480c0,5.891-4.776,10.667-10.667,10.667H32
				c-5.891,0-10.667-4.776-10.667-10.667v-10.667h469.333V480z"/>
		</g>
	</g>
</g>
<g>
</g>
<g>
</g>
<g>
</g>
<g>
</g>
<g>
</g>
<g>
</g>
<g>
</g>
<g>
</g>
<g>
</g>
<g>
</g>
<g>
</g>
<g>
</g>
<g>
</g>
<g>
</g>
<g>
</g>
</svg>
