<?xml version="1.0" encoding="iso-8859-1"?>
<!-- Generator: Adobe Illustrator 19.0.0, SVG Export Plug-In . SVG Version: 6.00 Build 0)  -->
<svg version="1.1" id="Capa_1" xmlns="http://www.w3.org/2000/svg" xmlns:xlink="http://www.w3.org/1999/xlink" x="0px" y="0px"
	 viewBox="0 0 480.131 480.131" style="enable-background:new 0 0 480.131 480.131;" xml:space="preserve">
<g>
	<path style="fill:#1185E0;" d="M197.845,448.261c-4.702,0-8.882-2.09-12.016-5.747L54.172,287.869
		c-12.016-13.584-20.898-28.212-26.122-43.363C7.152,189.649,14.466,127.478,48.425,78.367C82.907,28.735,137.241,0,197.845,0
		c59.559,0,113.371,27.69,147.853,76.278c33.959,48.065,42.841,109.192,23.51,164.049l-29.78-10.449
		c15.673-44.931,8.359-95.608-19.853-135.314c-27.69-40.229-72.62-63.216-121.731-63.216c-50.155,0-95.086,23.51-123.298,64.784
		c-28.212,40.751-34.482,91.951-17.241,137.404c4.18,11.494,11.494,22.988,20.898,33.959l119.641,140.539l17.763-20.898
		l24.033,20.376l-29.78,35.004C206.727,446.171,202.547,448.261,197.845,448.261z"/>
	<path style="fill:#1185E0;" d="M197.845,268.539c-48.588,0-87.771-39.184-87.771-87.771s39.184-87.771,87.771-87.771
		s87.771,39.184,87.771,87.771S246.433,268.539,197.845,268.539z M197.845,124.343c-31.347,0-56.424,25.078-56.424,56.424
		s25.078,56.424,56.424,56.424s56.424-25.078,56.424-56.424S229.192,124.343,197.845,124.343z"/>
</g>
<g>
	<path style="fill:#4DCFE0;" d="M332.637,480.131c-72.098,0-131.135-59.037-131.135-131.135s59.037-131.135,131.135-131.135
		s131.135,59.037,131.135,131.135S404.735,480.131,332.637,480.131z M332.637,249.208c-54.857,0-99.788,44.931-99.788,99.788
		s44.931,99.788,99.788,99.788s99.788-44.931,99.788-99.788C432.425,294.139,387.494,249.208,332.637,249.208z"/>
	<path style="fill:#4DCFE0;" d="M395.331,336.457l-51.722-51.722c-3.135-3.135-6.792-4.702-10.971-4.702s-8.359,1.567-10.971,4.702
		l-51.722,51.722c-6.269,6.269-6.269,16.196,0,21.943c3.135,3.135,7.314,4.702,10.971,4.702c3.657,0,7.837-1.567,10.971-4.702
		l25.078-25.078v77.845c0,8.882,6.792,15.673,15.673,15.673s15.673-6.792,15.673-15.673v-77.845l25.078,25.078
		c6.269,6.269,16.196,6.269,21.943,0C401.601,352.653,401.601,342.727,395.331,336.457z"/>
</g>
<g>
</g>
<g>
</g>
<g>
</g>
<g>
</g>
<g>
</g>
<g>
</g>
<g>
</g>
<g>
</g>
<g>
</g>
<g>
</g>
<g>
</g>
<g>
</g>
<g>
</g>
<g>
</g>
<g>
</g>
</svg>
