<?xml version="1.0" encoding="iso-8859-1"?>
<!-- Generator: Adobe Illustrator 19.0.0, SVG Export Plug-In . SVG Version: 6.00 Build 0)  -->
<svg version="1.1" id="Capa_1" xmlns="http://www.w3.org/2000/svg" xmlns:xlink="http://www.w3.org/1999/xlink" x="0px" y="0px"
	 viewBox="0 0 512 512" style="enable-background:new 0 0 512 512;" xml:space="preserve">
<g>
	<g>
		<g>
			<rect x="117.333" y="245.333" width="21.333" height="21.333"/>
			<rect x="138.667" y="277.333" width="21.333" height="21.333"/>
			<rect x="64" y="96" width="21.333" height="21.333"/>
			<rect x="298.667" y="96" width="21.333" height="21.333"/>
			<rect x="149.333" y="53.333" width="21.333" height="21.333"/>
			<rect x="181.333" y="74.667" width="21.333" height="21.333"/>
			<path d="M480,341.333h-1.756c-4.431-13.237-16.957-24.01-33.807-28.597c-5.448-7.93-14.168-12.996-23.755-13.803l-18.475-18.475
				c-4.165-4.164-10.917-4.164-15.083,0l-18.475,18.475c-5.723,0.482-11.129,2.491-15.722,5.71L371.7,192h1.634
				c5.891,0,10.667-4.776,10.667-10.667v-42.667c0-5.891-4.776-10.667-10.667-10.667h-0.782c-5.211-36.161-36.29-63.957-73.884-64
				c-7.423,0-15.537,1.16-23.8,3.335c-14.531-24.794-57.181-46.002-93.533-46.002c-38.161,0-68.777,19.5-73.9,45.569
				C99.759,65.008,92.247,64,85.333,64c-37.595,0.043-68.673,27.839-73.884,64h-0.782C4.776,128,0,132.776,0,138.667v42.667
				C0,187.224,4.776,192,10.667,192h1.635l41.031,246.187V480c0,5.891,4.776,10.667,10.667,10.667h277.333H352h96
				c23.564,0,42.667-19.102,42.667-42.667v-53.333h10.667c5.891,0,10.667-4.776,10.667-10.667v-10.667
				C512,355.66,497.673,341.333,480,341.333z M362.72,324.651c2.423-3.372,6.492-5.155,10.613-4.651
				c2.829-0.001,5.541-1.125,7.541-3.125l13.792-13.792l13.792,13.792c2,2,4.713,3.125,7.541,3.125
				c4.122-0.504,8.19,1.279,10.613,4.651c1.041,4.03,4.331,7.087,8.427,7.829c6.936,1.048,13.406,4.129,18.592,8.853H335.701
				c5.186-4.724,11.656-7.805,18.592-8.853C358.389,331.738,361.679,328.681,362.72,324.651z M21.333,149.333h149.333h42.667
				h149.333v21.333H21.333V149.333z M350.933,128H288v-21.333h-21.333V128h-40.533c9.045-22.848,44.864-42.667,72.533-42.667
				C324.003,85.361,345.834,103.183,350.933,128z M181.333,42.667c29.434,0,61.044,16.382,72.88,32.147
				c-23.901,11.09-45.227,29.976-50.365,53.186h-23.697c-5.263-23.778-27.517-43.018-52.123-53.986
				C128.634,56.957,152.791,42.667,181.333,42.667z M85.333,85.333c27.733,0,63.499,19.819,72.533,42.667h-124.8
				C38.166,103.183,59.997,85.361,85.333,85.333z M350.069,192l-21.291,127.777c-8.598,5.49-14.828,13.01-17.689,21.557h-1.756
				c-8.264,0-15.795,3.134-21.473,8.276c-8.563-6.18-20.135-6.809-29.407-1.225l-30.326-30.317
				c10.017-23.247,3.41-53.951-18.538-75.891c-2.251-2.251-4.619-4.715-7.083-7.275c-10.729-12.862-23.822-23.55-38.571-31.488
				c-22.447-6.25-46.53-1.403-64.811,13.045c-14.348,17.92-19.242,41.629-13.163,63.765c7.386,14.393,17.779,27.03,30.475,37.056
				c3.307,3.072,6.475,6.027,9.248,8.789c12.395,12.714,28.778,20.79,46.411,22.88c2.276,0.228,4.519,0.341,6.731,0.341
				c7.925,0.151,15.696-1.467,22.799-4.625l30.279,30.279c-6.303,10.473-4.696,23.889,3.904,32.576
				c4.952,4.975,11.69,7.76,18.709,7.733h0.245c11.576-0.122,21.789-7.603,25.397-18.603c1.809-0.594,3.538-1.383,5.172-2.334
				c0.854,0.22,1.745,0.35,2.668,0.35h10.667v32H73.035L33.931,192H350.069z M277.359,372.298c-0.242,1.015-0.752,1.956-1.509,2.699
				c-1.158,1.115-2.725,1.702-4.331,1.621c-3.034-0.147-5.991,0.978-8.16,3.104c-2.155,2.151-3.289,5.12-3.115,8.16
				c0.117,1.606-0.471,3.183-1.611,4.32c-2.062,2.062-5.405,2.062-7.467,0c-2.062-2.062-2.062-5.405,0-7.467
				c0.351-0.317,0.738-0.593,1.152-0.821c2.828-1.682,4.721-4.575,5.131-7.84c0.073-0.709,0.073-1.424,0-2.133
				c0.751,0.056,1.505,0.031,2.251-0.075c3.267-0.412,6.16-2.309,7.84-5.141c0.239-0.428,0.529-0.826,0.864-1.184
				c1.043-1.057,2.462-1.659,3.947-1.675c1.375,0,2.698,0.531,3.691,1.483c0.821,0.827,1.306,1.908,1.43,3.054
				C277.416,371.03,277.38,371.662,277.359,372.298z M174.272,327.723c-12.753-1.585-24.577-7.492-33.504-16.736
				c-2.933-2.933-6.293-6.069-9.803-9.333c-9.985-7.96-18.436-17.672-24.939-28.661c-3.149-14.354-0.185-29.37,8.181-41.451
				c9.329-6.508,20.444-9.966,31.819-9.899c3.417-0.088,6.82,0.458,10.037,1.611c11.764,7.022,22.27,15.964,31.083,26.453
				c2.56,2.667,5.024,5.216,7.36,7.552c19.136,19.136,22.656,46.763,7.851,61.579C194.844,325.933,184.499,329.205,174.272,327.723z
				 M74.667,448h224c0,7.774,2.09,15.056,5.722,21.333H74.667V448z M469.333,448c0,11.782-9.551,21.333-21.333,21.333h-96h-10.667
				C329.551,469.333,320,459.782,320,448v-21.333v-32h149.333V448z M480,373.333H309.333h-10.667c0-0.084,0.011-0.166,0.013-0.25
				c0.023-0.305,0.042-0.611,0.054-0.918c0.582-5.341,5.104-9.498,10.6-9.498H320h149.333H480c5.891,0,10.667,4.776,10.667,10.667
				H480z"/>
			<rect x="437.333" y="416" width="21.333" height="21.333"/>
			<rect x="437.333" y="448" width="21.333" height="10.667"/>
		</g>
	</g>
</g>
<g>
</g>
<g>
</g>
<g>
</g>
<g>
</g>
<g>
</g>
<g>
</g>
<g>
</g>
<g>
</g>
<g>
</g>
<g>
</g>
<g>
</g>
<g>
</g>
<g>
</g>
<g>
</g>
<g>
</g>
</svg>
