<?xml version="1.0" encoding="iso-8859-1"?>
<!-- Generator: Adobe Illustrator 19.0.0, SVG Export Plug-In . SVG Version: 6.00 Build 0)  -->
<svg version="1.1" id="Capa_1" xmlns="http://www.w3.org/2000/svg" xmlns:xlink="http://www.w3.org/1999/xlink" x="0px" y="0px"
	 viewBox="0 0 512.061 512.061" style="enable-background:new 0 0 512.061 512.061;" xml:space="preserve">
<g>
	<g>
		<path d="M224,213.364H117.333C52.564,213.44,0.076,265.927,0,330.697v10.667c0,5.891,4.776,10.667,10.667,10.667h320
			c5.891,0,10.667-4.776,10.667-10.667v-10.667C341.257,265.927,288.77,213.44,224,213.364z M21.333,330.697
			c0.065-52.993,43.008-95.935,96-96H224c52.993,0.065,95.935,43.007,96,96H21.333z"/>
	</g>
</g>
<g>
	<g>
		<path d="M330.667,394.697h-21.333v21.333H320v21.333c0,17.673-14.327,32-32,32H53.333c-17.673,0-32-14.327-32-32V416.03H32
			v-21.333H10.667C4.776,394.697,0,399.473,0,405.364v32c0.035,29.441,23.893,53.298,53.333,53.333H288
			c29.441-0.035,53.298-23.893,53.333-53.333v-32C341.333,399.473,336.558,394.697,330.667,394.697z"/>
	</g>
</g>
<g>
	<g>
		<path d="M309.333,330.697H32c-5.891,0-10.667,4.776-10.667,10.667v64c0,5.891,4.776,10.667,10.667,10.667h166.923l50.411,40.331
			c1.892,1.513,4.244,2.337,6.667,2.336c2.423,0.001,4.774-0.823,6.667-2.336L316,413.694c2.529-2.025,4.001-5.09,4-8.331v-64
			C320,335.473,315.224,330.697,309.333,330.697z M298.667,400.233L256,434.367l-46.667-37.333
			c-1.892-1.513-4.244-2.337-6.667-2.336h-160V352.03h256V400.233z"/>
	</g>
</g>
<g>
	<g>
		<rect x="202.667" y="394.697" width="53.333" height="21.333"/>
	</g>
</g>
<g>
	<g>
		<rect x="245.333" y="288.03" width="21.333" height="21.333"/>
	</g>
</g>
<g>
	<g>
		<rect x="277.333" y="288.03" width="21.333" height="21.333"/>
	</g>
</g>
<g>
	<g>
		<rect x="245.333" y="256.03" width="21.333" height="21.333"/>
	</g>
</g>
<g>
	<g>
		<path d="M469.333,106.697h-256c-0.223-0.001-0.446,0.005-0.669,0.018c-5.881,0.348-10.366,5.397-10.019,11.277l6.272,106.667
			l21.333-1.259l-5.6-95.371h233.365l-20.075,341.333H277.333v21.333H448c5.654,0.01,10.333-4.393,10.667-10.037L480,117.993
			c0.013-0.216,0.019-0.432,0.019-0.648C480.008,111.454,475.224,106.687,469.333,106.697z"/>
	</g>
</g>
<g>
	<g>
		<path d="M510.933,112.596L489.6,69.929c-1.816-3.634-5.538-5.921-9.6-5.899H202.667c-4.043-0.002-7.74,2.282-9.547,5.899
			l-21.333,42.667c-0.741,1.482-1.126,3.116-1.125,4.773c0.003,5.891,4.781,10.664,10.672,10.662h320
			c1.675,0.009,3.328-0.376,4.827-1.125C511.43,124.272,513.567,117.865,510.933,112.596z M198.592,106.697l10.667-21.333h264.149
			l10.667,21.333H198.592z"/>
	</g>
</g>
<g>
	<g>
		<path d="M293.333,22.761c-1.625-0.925-3.464-1.407-5.333-1.397h-74.667c-5.891,0-10.667,4.776-10.667,10.667v42.667H224v-32h61.28
			c57.194,28.352,120.218,42.962,184.053,42.667V64.03C408.247,64.226,347.966,50.091,293.333,22.761z"/>
	</g>
</g>
<g>
	<g>
		<path d="M469.333,181.364V160.03h-96c-5.891,0-10.667,4.776-10.667,10.667V384.03c0,5.891,4.776,10.667,10.667,10.667h85.333
			v-21.333H384v-192H469.333z"/>
	</g>
</g>
<g>
	<g>
		<rect x="288" y="160.03" width="42.667" height="21.333"/>
	</g>
</g>
<g>
	<g>
		<rect x="245.333" y="160.03" width="21.333" height="21.333"/>
	</g>
</g>
<g>
</g>
<g>
</g>
<g>
</g>
<g>
</g>
<g>
</g>
<g>
</g>
<g>
</g>
<g>
</g>
<g>
</g>
<g>
</g>
<g>
</g>
<g>
</g>
<g>
</g>
<g>
</g>
<g>
</g>
</svg>
