<?xml version="1.0" encoding="iso-8859-1"?>
<!-- Generator: Adobe Illustrator 19.0.0, SVG Export Plug-In . SVG Version: 6.00 Build 0)  -->
<svg version="1.1" id="Capa_1" xmlns="http://www.w3.org/2000/svg" xmlns:xlink="http://www.w3.org/1999/xlink" x="0px" y="0px"
	 viewBox="0 0 512 512" style="enable-background:new 0 0 512 512;" xml:space="preserve">
<g>
	<g>
		<path d="M497,302h-20.844l-56.228-140.571c-1.365-3.411-3.933-6.203-7.219-7.846l-55.479-27.739L299.46,8.38
			C296.937,3.25,291.717,0,286,0h-60c-6.493,0-12.248,4.177-14.261,10.35L185.114,92H166c-5.682,0-10.875,3.21-13.417,8.292
			L124.82,155.82l-55.528,27.764c-3.917,1.958-6.782,5.53-7.844,9.778L34.288,302H15c-8.284,0-15,6.716-15,15s6.716,15,15,15h21.729
			l25.854,51.708C65.125,388.79,70.318,392,76,392h52.5l22.5,30h-45c-8.284,0-15,6.716-15,15s6.716,15,15,15h67.5l40.5,54
			c2.833,3.777,7.279,6,12,6h60c5.682,0,10.875-3.21,13.417-8.292L325.271,452H376c4.721,0,9.167-2.223,12-6l40.5-54H467
			c8.284,0,15-6.716,15-15s-6.716-15-15-15h-16l22.5-30H497c8.284,0,15-6.716,15-15S505.284,302,497,302z M413.5,362H376
			c-8.284,0-15,6.716-15,15s6.716,15,15,15h15l-22.5,30H316c-5.682,0-10.875,3.21-13.417,8.292L276.729,482H233.5L211,452h45
			c8.284,0,15-6.716,15-15s-6.716-15-15-15h-67.5L148,368c-2.833-3.777-7.279-6-12-6H85.271l-15-30.2
			c222.781,0.355,216.44,0.049,365.729-0.2L413.5,362z M326.812,302l-26.581-79.743c-2.62-7.859-11.114-12.106-18.974-9.487
			c-7.859,2.62-12.107,11.115-9.487,18.974L295.188,302h-80.892l26.412-132.058c1.625-8.124-3.644-16.026-11.767-17.65
			c-8.122-1.625-16.026,3.644-17.65,11.767L183.703,302H65.212l23.667-94.669l53.829-26.915c2.903-1.452,5.257-3.805,6.708-6.708
			L175.271,122c16.888,0,60.622,0,80.729,0c8.284,0,15-6.716,15-15s-6.716-15-15-15h-39.332l20.218-62h39.775l55.878,113.62
			c1.447,2.943,3.819,5.33,6.752,6.797l54.899,27.449L443.845,302H326.812z"/>
	</g>
</g>
<g>
	<g>
		<path d="M497,452h-61c-8.284,0-15,6.716-15,15s6.716,15,15,15h61c8.284,0,15-6.716,15-15S505.284,452,497,452z"/>
	</g>
</g>
<g>
	<g>
		<path d="M76,482H15c-8.284,0-15,6.716-15,15s6.716,15,15,15h61c8.284,0,15-6.716,15-15S84.284,482,76,482z"/>
	</g>
</g>
<g>
</g>
<g>
</g>
<g>
</g>
<g>
</g>
<g>
</g>
<g>
</g>
<g>
</g>
<g>
</g>
<g>
</g>
<g>
</g>
<g>
</g>
<g>
</g>
<g>
</g>
<g>
</g>
<g>
</g>
</svg>
