<?xml version="1.0" encoding="iso-8859-1"?>
<!-- Generator: Adobe Illustrator 19.0.0, SVG Export Plug-In . SVG Version: 6.00 Build 0)  -->
<svg version="1.1" id="Capa_1" xmlns="http://www.w3.org/2000/svg" xmlns:xlink="http://www.w3.org/1999/xlink" x="0px" y="0px"
	 viewBox="0 0 512.001 512.001" style="enable-background:new 0 0 512.001 512.001;" xml:space="preserve">
<g>
	<g>
		<circle cx="195.973" cy="316.923" r="15.006"/>
	</g>
</g>
<g>
	<g>
		<circle cx="316.023" cy="316.923" r="15.006"/>
	</g>
</g>
<g>
	<g>
		<path d="M445.371,179.562c22.68-54.753,22.988-115.182,0.867-170.154c-3.138-7.801-12.08-11.496-19.804-8.203
			c-54.837,23.369-97.349,65.962-119.703,119.93c-4.601,11.108-8.393,23.234-11.256,35.741c-8.435-2.694-17.214-4.533-26.256-5.394
			c-8.782-0.839-17.657-0.838-26.434,0c-9.044,0.862-17.824,2.701-26.259,5.395c-2.862-12.507-6.655-24.633-11.256-35.741
			C182.915,67.165,140.404,24.573,85.566,1.204c-7.733-3.295-16.669,0.411-19.804,8.203C43.642,64.38,43.95,124.809,66.629,179.562
			c12.894,31.128,32.744,59.103,57.665,81.455c-3.604,16.522-3.351,28.563-3.351,36.222c0,10.966-4.331,22.07-12.872,33.007
			c-11.374,14.562-17.14,30.274-17.14,46.698c0,38.47,30.421,67.419,65.433,84.112c14.806,31.814,55.888,50.944,99.636,50.944
			c43.404,0,83.501-18.774,98.799-49.208c0.29-0.577,0.566-1.156,0.836-1.738c34.978-16.676,65.433-45.635,65.433-84.112
			c0-16.425-5.767-32.137-17.14-46.698c-8.542-10.937-12.872-22.041-12.872-33.007c0-6.72,0.35-19.256-3.351-36.222
			C412.628,238.664,432.478,210.69,445.371,179.562z M94.358,168.076c-17.607-42.509-19.657-88.961-6.113-132.429
			c40.576,21.188,71.97,55.142,89.297,96.972c4.707,11.365,8.453,24.014,11.034,37.045c-23,14.016-41.727,35.024-53.594,60.038
			C117.754,212.024,103.872,191.046,94.358,168.076z M256.001,482.188c-3.921-0.001-7.794-0.199-11.597-0.571l11.597-17.595
			l11.597,17.595C263.795,481.99,259.922,482.188,256.001,482.188z M391.057,376.943c0.001,17.14-11.404,33.996-31.39,47.446
			c-2.034-8.964-6.235-17.857-12.575-26.386c-4.944-6.651-14.343-8.034-20.996-3.09c-6.651,4.944-8.034,14.345-3.09,20.996
			c8.619,11.593,10.294,22.833,4.98,33.405c-5.094,10.133-15.722,18.654-29.417,24.452l-27.561-41.34v-19.254l25.617-25.616
			c5.86-5.86,5.86-15.361,0-21.222c-5.86-5.859-15.361-5.86-21.222,0L256,385.735l-19.402-19.401c-5.86-5.859-15.362-5.859-21.222,0
			c-5.859,5.86-5.859,15.361,0,21.222l25.617,25.616v19.254l-27.561,41.34c-13.696-5.798-24.323-14.318-29.417-24.452
			c-5.314-10.572-3.639-21.811,4.98-33.405c4.944-6.651,3.561-16.052-3.09-20.996c-6.652-4.945-16.052-3.56-20.996,3.09
			c-6.341,8.53-10.542,17.421-12.575,26.386c-19.986-13.45-31.391-30.306-31.391-47.446c0-9.569,3.627-19.065,10.781-28.224
			c12.581-16.109,19.232-33.91,19.232-51.481v-5.175c0-57.018,41.586-105.846,94.68-110.907c6.894-0.658,13.833-0.658,20.733,0
			c53.089,5.06,94.677,53.889,94.677,110.907v5.175c0,17.569,6.65,35.371,19.232,51.481
			C387.429,357.878,391.057,367.373,391.057,376.943z M377.02,229.703c-11.868-25.016-30.595-46.022-53.595-60.038
			c2.581-13.03,6.327-25.68,11.034-37.045c17.326-41.83,48.72-75.784,89.297-96.972c13.546,43.467,11.495,89.92-6.113,132.429
			C408.129,191.046,394.248,212.024,377.02,229.703z"/>
	</g>
</g>
<g>
</g>
<g>
</g>
<g>
</g>
<g>
</g>
<g>
</g>
<g>
</g>
<g>
</g>
<g>
</g>
<g>
</g>
<g>
</g>
<g>
</g>
<g>
</g>
<g>
</g>
<g>
</g>
<g>
</g>
</svg>
