<?xml version="1.0" encoding="iso-8859-1"?>
<!-- Generator: Adobe Illustrator 19.0.0, SVG Export Plug-In . SVG Version: 6.00 Build 0)  -->
<svg version="1.1" id="Capa_1" xmlns="http://www.w3.org/2000/svg" xmlns:xlink="http://www.w3.org/1999/xlink" x="0px" y="0px"
	 viewBox="0 0 512 512" style="enable-background:new 0 0 512 512;" xml:space="preserve">
<g>
	<g>
		<path d="M437,30h-23.028C403.447,11.796,383.724,0,362,0c-35.823,0-63.924,31.41-59.559,67.292
			c-26.797,35.824-24.876,86.736,5.609,118.989l58.902,62.32c5.618,9.618-1.125,22.399-13.056,22.399h-26.787
			C314.2,213.017,270.312,166.402,213.47,154.422c-44.122-9.299-89.604,0.891-124.786,27.956
			c-32.848,25.27-53.658,62.495-57.882,103.063C12.142,299.096,0,321.158,0,346v30c0,13.384,16.222,19.992,25.606,10.606
			C41.88,370.333,64.777,361,88.426,361H171l-44,33c-11.477,8.609-5.39,27,9,27h75v76c0,8.284,6.716,15,15,15s15-6.716,15-15v-76h30
			v15c0,8.284,6.716,15,15,15s15-6.716,15-15v-30c0-8.284-6.716-15-15-15h-45v-30.2h112.896c38.79,0,74.257-21.044,92.557-55.234
			l0.281-0.528c20.614-39.02,14.111-86.791-16.172-118.911l-56.605-61.91c-0.262-0.594-0.37-1.394,0.228-2.515
			c1.265-2.35-2.239-1.702,50.39-1.702c23.353,0,45.307,9.094,61.82,25.606C495.8,155.015,512,148.354,512,135v-30
			C512,63.645,478.355,30,437,30z M211,391h-30l30-22.5V391z M276.405,331.001H226.25H226H88.426
			C67.832,331,47.627,336.343,30,346.134V346c0-24.813,20.187-45,45-45h151c8.284,0,15-6.716,15-15s-6.716-15-15-15H123.57
			c6.191-17.461,22.874-30,42.43-30h30c8.284,0,15-6.716,15-15s-6.716-15-15-15h-30c-36.219,0-66.524,25.809-73.493,60H75
			c-3.875,0-7.68,0.295-11.397,0.864c6.522-25.812,21.664-49.007,43.374-65.708c28.636-22.028,64.258-29.978,100.308-22.378
			C261.43,195.19,300.843,246.615,301,306.056C301.036,319.96,289.87,331.001,276.405,331.001z M408.502,206.459
			c0.056,0.061,0.112,0.122,0.169,0.182c21.53,22.78,26.167,56.691,11.533,84.39l-0.197,0.371
			C406.934,315.827,381.602,331,353.896,331h-28.82c3.887-7.658,5.947-16.179,5.924-25.024c-0.004-1.665-0.043-3.322-0.097-4.976
			h22.994c16.873,0,31.701-8.88,39.673-23.772c10.933-20.483,2.933-41.037-3.811-48.172l-59.905-63.382
			c-15.944-16.87-20.406-42.656-11.886-64.974c7.086,7.661,16.135,13.479,26.345,16.635c-2.033,11.028,2.226,21.352,6.5,26.028
			L408.502,206.459z M362,90c-16.663,0-30-13.604-30-30c0-16.542,13.458-30,30-30c16.495,0,30,13.425,30,30
			C392,76.542,378.542,90,362,90z M424.574,90h-10.646C419.051,81.167,422,70.925,422,60h15c24.793,0,44.968,20.153,45,44.939
			C464.658,95.188,445.014,90,424.574,90z"/>
	</g>
</g>
<g>
</g>
<g>
</g>
<g>
</g>
<g>
</g>
<g>
</g>
<g>
</g>
<g>
</g>
<g>
</g>
<g>
</g>
<g>
</g>
<g>
</g>
<g>
</g>
<g>
</g>
<g>
</g>
<g>
</g>
</svg>
