<?xml version="1.0" encoding="iso-8859-1"?>
<!-- Generator: Adobe Illustrator 19.0.0, SVG Export Plug-In . SVG Version: 6.00 Build 0)  -->
<svg version="1.1" id="Capa_1" xmlns="http://www.w3.org/2000/svg" xmlns:xlink="http://www.w3.org/1999/xlink" x="0px" y="0px"
	 viewBox="0 0 512 512" style="enable-background:new 0 0 512 512;" xml:space="preserve">
<g>
	<g>
		<circle cx="378.444" cy="67.997" r="15.002"/>
	</g>
</g>
<g>
	<g>
		<path d="M509.36,81.506c-3.435-20.918-20.966-35.958-41.758-37.109c-1.152-20.806-16.203-38.323-37.109-41.758
			c-30.832-5.064-71.242-2.752-108.095,6.185c-19.342,4.691-43.602,12.593-67.28,25.744c-39.342-17.711-86.509-9.418-117.427,21.498
			c-25.503,25.502-39.547,59.408-39.547,95.472c0,35.261,13.432,68.454,37.864,93.75c-4.982,31.089-7.859,63.631-8.668,95.008
			c-39.6-20.69-89.727-14.426-122.948,18.797c-7.229,7.228-5.258,19.449,3.899,24.026c51.841,25.921,94.666,68.746,120.588,120.588
			c4.577,9.153,16.788,11.138,24.026,3.899c33.223-33.223,39.487-83.35,18.797-122.949c31.348-0.808,63.888-3.68,95.01-8.668
			c26.098,25.196,59.92,37.801,93.748,37.801c34.576,0,69.151-13.161,95.472-39.483c30.917-30.917,39.208-78.086,21.498-117.428
			c13.151-23.678,21.054-47.939,25.744-67.279C512.113,152.748,514.424,112.338,509.36,81.506z M128.149,151.539
			c0-28.05,10.924-54.422,30.758-74.256c17.175-17.175,41.367-24.566,64.488-21.062c-3.924,3.287-7.754,6.76-11.448,10.453
			c-31.159,31.159-54.069,78.045-68.371,139.721C133.527,190.051,128.149,171.209,128.149,151.539z M144.332,469.593
			c-12.523-20.783-27.513-39.948-44.745-57.18s-36.398-32.224-57.181-44.746c28.505-15.712,65.14-11.499,89.283,12.64
			c0.002,0.001,0.003,0.003,0.005,0.005C155.831,404.453,160.044,441.09,144.332,469.593z M434.718,353.092
			c-34.961,34.961-88.641,40.065-129.074,15.321c61.657-14.302,108.529-37.209,139.682-68.362
			c3.695-3.695,7.167-7.525,10.454-11.449C459.284,311.725,451.893,335.917,434.718,353.092z M424.109,278.836
			c-69.214,69.214-219.919,75.714-266.951,75.998c0.262-47.032,6.704-197.642,76.005-266.943
			c13.672-13.672,30.184-24.516,47.545-32.846c-3.398,47.429,13.713,94.102,47.929,128.318
			c33.149,33.149,79.354,51.448,128.326,47.936C448.596,248.736,437.786,265.159,424.109,278.836z M469.373,199.544
			c-43.656,7.884-88.037-5.916-119.521-37.399c-31.48-31.48-45.281-75.858-37.4-119.513c28.357-8.853,57.612-12.658,82.401-12.658
			c11.372,0,21.808,0.798,30.778,2.272c11.697,1.92,16.147,16.758,7.586,25.32c-5.859,5.858-5.859,15.358,0,21.216
			c5.858,5.859,15.357,5.859,21.216,0c8.564-8.563,23.4-4.105,25.32,7.586C484.438,114.896,482.289,158.18,469.373,199.544z"/>
	</g>
</g>
<g>
	<g>
		<path d="M322.773,222.172c-7.863-2.62-16.356,1.628-18.977,9.488l-5.865,17.592c-3.528,10.584-16.956,13.749-24.84,5.864
			l-16.208-16.208c-7.888-7.888-4.715-21.314,5.864-24.84l17.592-5.864c7.86-2.62,12.108-11.117,9.488-18.977
			c-2.62-7.86-11.114-12.108-18.977-9.488l-17.591,5.864c-31.769,10.591-41.227,50.886-17.592,74.52l16.208,16.208
			c23.669,23.669,63.946,14.132,74.52-17.592l5.865-17.592C334.881,233.287,330.633,224.791,322.773,222.172z"/>
	</g>
</g>
<g>
</g>
<g>
</g>
<g>
</g>
<g>
</g>
<g>
</g>
<g>
</g>
<g>
</g>
<g>
</g>
<g>
</g>
<g>
</g>
<g>
</g>
<g>
</g>
<g>
</g>
<g>
</g>
<g>
</g>
</svg>
