<?xml version="1.0" encoding="utf-8"?>
<!-- Generator: Adobe Illustrator 22.0.0, SVG Export Plug-In . SVG Version: 6.00 Build 0)  -->
<svg version="1.1" id="Calque_1" xmlns="http://www.w3.org/2000/svg" xmlns:xlink="http://www.w3.org/1999/xlink" x="0px" y="0px"
	 viewBox="0 0 432 432" style="enable-background:new 0 0 432 432;" xml:space="preserve">
<style type="text/css">
	.st0{fill:#E5DAC7;}
	.st1{fill:#FAF3E3;}
	.st2{fill:#C7B29A;}
	.st3{fill:#972021;}
	.st4{fill:#E9EAE4;}
	.st5{fill:#8C633A;}
	.st6{fill:#F39323;}
	.st7{fill:#ED6F71;}
	.st8{fill:#FFFFFF;}
	.st9{fill:#B6CE3F;}
	.st10{fill:#95AF23;}
	.st11{fill:#18B0C1;}
	.st12{fill:#C2E1D1;}
	.st13{fill:#9F1E29;}
	.st14{fill:#E6E9EA;}
	.st15{fill:#020203;}
	.st16{fill:#4D9564;}
	.st17{fill:#754D24;}
	.st18{fill:#A67D52;}
	.st19{fill:#F0D2B5;}
	.st20{fill:#E1BC9E;}
	.st21{fill:#97509A;}
	.st22{fill:#603914;}
	.st23{fill:#E83078;}
	.st24{fill:#E89125;}
	.st25{fill:#89BF4A;}
	.st26{fill:#82171C;}
	.st27{fill:#6CC2EE;}
	.st28{fill:#1861A9;}
	.st29{fill:#E00825;}
	.st30{fill:#109F3D;}
	.st31{fill:#808181;}
	.st32{fill:#D79A5D;}
	.st33{fill:#C68448;}
	.st34{fill:#D62416;}
	.st35{fill:#F9D61D;}
	.st36{fill:#A9191E;}
	.st37{fill:#F3E4E7;}
	.st38{fill:none;}
	.st39{fill:#E8CAA3;}
	.st40{fill:#64121D;}
	.st41{fill:#15A57E;}
	.st42{fill:#167157;}
	.st43{fill:#CF8916;}
	.st44{fill:#B26F14;}
	.st45{fill:#901D81;}
	.st46{fill:#612261;}
	.st47{fill:#B88E5C;}
	.st48{fill:#EBDCC8;}
	.st49{fill:#F3A0BE;}
	.st50{fill:#FAD7E3;}
	.st51{fill:#EAD797;}
	.st52{fill:#E18CAC;}
	.st53{fill:#A8D9DD;}
	.st54{fill:#67C2C6;}
	.st55{fill:#4EADAD;}
	.st56{fill:#CDCCCC;}
	.st57{fill:#D4C3B3;}
	.st58{fill:#CAB9A7;}
	.st59{fill:#C69C6C;}
	.st60{fill:#D7C5B3;}
	.st61{fill:#96877C;}
	.st62{fill:#EFE8E9;}
	.st63{fill:#B4B4B4;}
	.st64{fill:#F0CC53;}
	.st65{fill:#EE7D54;}
	.st66{fill:#F5D29D;}
	.st67{fill:#5D403F;}
	.st68{fill:#F9CBCC;}
	.st69{fill:#F6DEB8;}
	.st70{fill:#D6A14D;}
	.st71{fill:#B09878;}
	.st72{fill:#C1292E;}
	.st73{fill:#5B4841;}
	.st74{fill:#E0C399;}
	.st75{fill:#EBDA8C;}
	.st76{fill:#363A3D;}
	.st77{fill:#BFC1D7;}
	.st78{fill:#7188BA;}
	.st79{fill:#A34F4D;}
	.st80{fill:#D9CD7A;}
	.st81{fill:#D9AF66;}
	.st82{fill:#E6C776;}
	.st83{fill:#575756;}
	.st84{fill:#C3BF5B;}
	.st85{fill:#63622A;}
	.st86{fill:#E1AE9D;}
	.st87{fill:#D9C7AB;}
	.st88{fill:#B3625C;}
	.st89{fill:#D4BB78;}
	.st90{fill:#009245;}
	.st91{fill:#0B7B3A;}
	.st92{fill:#911A29;}
	.st93{fill:#571419;}
	.st94{fill:#9A9999;}
	.st95{fill:#A81922;}
	.st96{fill:#A3282E;}
	.st97{fill:#B3713B;}
	.st98{fill:#998675;}
	.st99{fill:#6189B1;}
	.st100{fill:#E0EDF3;}
	.st101{fill:#A5C0DF;}
	.st102{fill:#DBDBDB;}
	.st103{fill:#067838;}
	.st104{fill:#E5AEBF;}
	.st105{fill:#9982BC;}
	.st106{fill:#E7E6E6;}
	.st107{fill:#706F6F;}
	.st108{fill:#746458;}
	.st109{fill:#412413;}
	.st110{fill:#544842;}
	.st111{fill:#DAA405;}
	.st112{fill:#D06C5D;}
	.st113{fill:#8C694B;}
	.st114{fill:#C8C8CE;}
	.st115{fill:#D286A7;}
	.st116{fill:#C6CCCC;}
	.st117{fill:#A65F42;}
	.st118{fill:#343434;}
	.st119{fill:#A56E45;}
	.st120{fill:#F2F2F2;}
	.st121{fill:#8AC18A;}
	.st122{fill:#4B6678;}
	.st123{fill:#324C5B;}
	.st124{fill:#97AFBC;}
	.st125{fill:#B27D63;}
	.st126{fill:#6A737A;}
	.st127{fill:#72403F;}
	.st128{fill:#8D7968;}
	.st129{fill:#1B1B1B;}
	.st130{fill:#6B141A;}
	.st131{fill:#E4DCCC;}
	.st132{fill:#B33949;}
	.st133{fill:#6D141B;}
	.st134{fill:#911825;}
	.st135{fill:#821622;}
	.st136{fill:#1F1D1D;}
	.st137{fill:#CC1417;}
	.st138{fill:#69362D;}
	.st139{fill:#ECC9AE;}
	.st140{fill:#471E19;}
	.st141{fill:#2B1D1C;}
	.st142{fill:#BE1622;}
	.st143{fill:#E6332A;}
	.st144{fill:#D8EAF8;}
	.st145{fill:#D4AE8E;}
	.st146{fill:#883B4C;}
	.st147{fill:#C74A54;}
	.st148{fill:#F2959C;}
	.st149{fill:#3C3C3B;}
</style>
<g>
	<g>
		<path d="M108.9,244.8c0.1-1,0.3-2.1,0.4-3.1c0.7-4.7,1.4-9.5,2.6-14.1c1-3.7,2.2-7.4,4.1-10.7c0.6-1.1,1.4-2.2,2.1-3.2
			c0.3-0.5,0.8-0.8,1.2-1.2c2.4-2,5.5-1.9,7.8,0.2c0.8,0.7,1.4,1.6,2,2.5c1.5,2.2,2.4,4.7,3.1,7.2c0.9,2.8,1.6,5.6,2.4,8.4
			c0.1,0.3,0.2,0.6,0.4,0.8c0.2-1.6,0.4-3.2,0.7-4.8c1.1-7.1,2.6-14.1,5.1-20.8c0.9-2.5,2.1-5,3.7-7.2c0.5-0.7,1-1.3,1.7-1.9
			c1.9-1.6,4.4-1.7,6.4-0.3c1.3,0.8,2.2,2,2.9,3.3c0.6,1.4,1.3,2.8,1.6,4.2c1.3,4.7,2.5,9.4,3.6,14.1c1.8,7.7,3.5,15.5,5.2,23.3
			c0.3,1.5,0.5,3,0.5,4.5c0.1,1.9-1,3.4-2.7,3.9c-1.7,0.5-3.5-0.2-4.5-1.8c-1.1-1.8-1.9-3.7-2.3-5.7c-2.4-11-4.8-22-7.2-33
			c-0.4-1.8-0.8-3.6-1.2-5.3c-0.1-0.4-0.2-0.8-0.4-1.4c-0.6,0.8-1,1.4-1.4,2.1c-1.8,3-2.9,6.3-3.8,9.7c-2,8-3,16.1-3,24.3
			c0,4.1,0,8.1,0,12.2c0,0.5,0.1,1.1,0.1,1.6c0.1,1.9-0.7,3.3-2.2,4c-1.6,0.7-3.5,0.5-4.8-0.8c-0.6-0.7-1.2-1.5-1.5-2.4
			c-0.8-2.3-1.6-4.7-2.2-7.1c-1.6-6.2-3-12.5-4.6-18.7c-0.7-2.7-1.6-5.4-2.4-8.1c-0.2-0.5-0.4-1-0.7-1.5c-1,0.6-1.6,1.4-2.1,2.3
			c-1.4,2.4-2.3,5-3,7.7c-0.8,3.2-1.4,6.5-1.7,9.8c-0.5,5.3-0.9,10.7-1.3,16c-0.1,1.7-0.1,3.4-0.1,5.1c0,0.4,0,0.8-0.1,1.2
			c-0.2,1.6-1.1,2.6-2.7,3.1c-1.6,0.4-3-0.1-4-1.3c-0.5-0.7-0.9-1.5-1.2-2.3c-0.8-2.5-1.6-5-2.2-7.5c-2.3-8.6-4.1-17.4-5.5-26.2
			c-0.2-1.2-0.2-2.5-0.2-3.7c0-1.1,0.6-1.9,1.7-2.3c1.5-0.6,3,0.2,3.4,1.9c0.7,2.5,1.3,4.9,2,7.4c1.3,4.9,2.6,9.8,3.9,14.7
			c0.1,0.3,0.2,0.5,0.3,0.8C108.8,244.9,108.8,244.8,108.9,244.8z"/>
		<path d="M297.2,234.2c-0.3,0.3-0.5,0.6-0.8,1c-2.9,3.8-5.7,7.5-8.6,11.3c-1.8,2.3-3.9,4.4-6.4,5.9c-1.5,0.9-3,1.4-4.7,1.5
			c-2.9,0.1-5.1-1.1-6.6-3.5c-1.3-2.3-1.8-4.8-1.8-7.3c-0.1-3.2,0.4-6.4,1.1-9.5c1.6-7.7,4.1-15.2,6.9-22.5c0.3-0.8,0.7-1.5,1.1-2.2
			c0.3-0.5,0.7-1,1.2-1.3c0.8-0.7,1.8-0.9,2.8-0.3c0.9,0.5,1.2,1.4,1.1,2.5c-0.1,0.7-0.2,1.4-0.4,2c-1,3.9-1.9,7.9-2.9,11.8
			c-1.2,4.6-2.2,9.2-2.9,14c-0.3,2.5-0.6,5-0.2,7.5c0.1,0.7,0.3,1.3,0.5,2c0.3,0.7,0.6,0.9,1.3,0.7c0.5-0.1,1-0.4,1.5-0.6
			c1.5-0.8,2.7-1.8,3.8-3c2.8-3.2,5.7-6.4,8.4-9.6c3.7-4.4,7.2-9,10.8-13.4c0.6-0.8,1.2-1.6,1.8-2.5c0.2-0.2,0.4-0.5,0.6-0.7
			c0.7-0.7,1.6-1,2.5-0.6c0.9,0.3,1.4,1,1.6,1.9c0.2,1.1,0,2.2-0.3,3.3c-0.8,2.6-1.6,5.1-2.3,7.7c-1.7,6.1-3.1,12.2-3.8,18.5
			c-0.1,1.2-0.2,2.4-0.2,3.6c0,0.6,0.1,1.2,0.2,1.8c0.3,1.7,1.3,2.3,3,2c0.8-0.2,1.6-0.5,2.3-0.9c2.7-1.4,5-3.5,7.2-5.6
			c5.3-5,9.9-10.7,14.1-16.7c2.8-4,5.7-8.1,8.5-12.2c0.2-0.3,0.4-0.6,0.6-0.8c0.8-0.8,2-0.9,2.9-0.3c0.8,0.6,1.1,1.6,0.5,2.7
			c-0.7,1.3-1.4,2.5-2.2,3.7c-5.2,8-10.4,16-16.2,23.6c-2.6,3.3-5.3,6.5-8.8,9.1c-1.5,1.1-3.1,2.1-4.7,3c-1.8,1-3.8,1.5-5.9,1.5
			c-5-0.1-8.5-3.2-9.4-8.1c-0.5-2.7-0.2-5.5,0.2-8.2c0.6-4,1.5-7.9,2.6-11.8c0.1-0.2,0.1-0.4,0.1-0.5
			C297.3,234.2,297.2,234.2,297.2,234.2z"/>
		<path class="st112" d="M241.1,210.5c0.3-0.5,0.5-0.8,0.7-1.2c1.3-2.1,2.6-4.3,4-6.4c1.4-2,3-3.8,4.9-5.4c2.4-2,5-3.3,8.1-3.5
			c4.5-0.3,7.7,1.8,9.3,6c1.2,3,1.2,6,0.7,9.1c-0.5,3.4-1.8,6.5-3.4,9.5c-2.8,5.7-6.3,11-10.3,16c-2.4,3-4.9,6-7.3,9
			c-1.4,1.7-2.8,3.2-4.5,4.5c-1.1,0.8-2.3,1.4-3.6,1.9c-2.6,0.8-4.9,0.2-6.7-1.8c-0.8-0.9-1.5-1.9-2.2-2.9
			c-3.7-6.3-7.3-12.7-10.1-19.4c-2.7-6.5-3.8-13.3-3.2-20.3c0.1-1.4,0.5-2.9,1-4.2c2.6-6.6,9.1-8.2,14.6-4.5
			c2.7,1.8,4.5,4.3,5.7,7.3C239.6,206.1,240.3,208.2,241.1,210.5z M223.6,206.7c0,4,0.4,7.3,1.1,10.6c0.9,3.9,2.4,7.6,3.8,11.3
			c1.9,5,4.2,9.8,7.1,14.2c0.2,0.3,0.5,0.7,0.7,1c1.1,1.5,1.6,1.5,3.2,0.5c0.2-0.1,0.3-0.2,0.5-0.3c0.9-0.9,1.9-1.7,2.6-2.7
			c1.6-2,3.1-4,4.7-6c4.3-5.4,8.3-11,11.6-17.2c1.6-3,3.1-6,3.7-9.3c0.5-2.2,0.6-4.4-0.3-6.5c-0.8-2-1.9-2.7-4.1-2.4
			c-0.3,0-0.5,0.1-0.8,0.2c-1.5,0.5-2.9,1.2-4.2,2.3c-2.2,1.9-4,4-5.6,6.4c-1.3,1.9-2.5,3.8-3.7,5.7c-0.5,0.8-1,1.5-1.6,2.2
			c-1.5,1.7-3.8,1.3-4.8-0.7c-0.3-0.5-0.4-1-0.6-1.6c-1-2.9-2.3-5.8-3.9-8.5c-0.8-1.3-1.8-2.5-2.9-3.6c-0.6-0.6-1.5-1.1-2.3-1.4
			c-1-0.4-1.9-0.2-2.5,0.7c-0.4,0.6-0.9,1.3-1.1,2C223.9,204.8,223.7,206.1,223.6,206.7z"/>
		<path d="M183.1,224.6c-0.3,3.9,0,7.6,1.2,11.3c0.4,1.2,1,2.3,1.7,3.3c2.3,3.7,5.8,4.5,9.3,3.9c2.5-0.5,4.7-1.5,6.7-3
			c2.1-1.5,4.1-3.1,6.1-4.8c1.2-1,2.4-2,3.6-3c0.4-0.3,0.9-0.6,1.4-0.8c0.8-0.3,1.5-0.1,2.1,0.5c0.6,0.6,0.6,1.4,0.3,2.1
			c-0.2,0.4-0.5,0.8-0.8,1.1c-3.1,2.9-6,5.8-9.2,8.5c-3.1,2.7-6.8,4.7-10.9,5.4c-6.3,1.1-11.6-0.7-15.5-5.8c-2.5-3.3-3.9-7-4.5-11.1
			c-0.8-5.8-0.1-11.4,1.4-17c1.3-4.8,3.1-9.3,5.7-13.5c1.5-2.3,3.3-4.4,5.6-6c1.6-1.1,3.2-1.8,5.2-1.9c3-0.2,5.5,1.3,6.8,4.1
			c0.9,2,1,4,0.8,6.1c-0.7,5.5-3.2,10.2-7,14.2c-2.6,2.8-5.8,4.9-9.5,6.1C183.4,224.4,183.3,224.5,183.1,224.6z M183.6,220.7
			c0.6-0.3,0.9-0.5,1.3-0.7c5-2.8,8.1-7.2,9.8-12.5c0.5-1.5,0.7-3.1,0.6-4.7c-0.1-0.8-0.3-1.6-0.6-2.4c-0.4-0.8-1-1-1.8-0.6
			c-0.6,0.4-1.3,0.8-1.8,1.4c-1.5,1.4-2.4,3.2-3.3,5c-1.8,3.9-2.9,8.1-3.8,12.3C183.9,219.2,183.8,219.8,183.6,220.7z"/>
	</g>
	<g>
		<path class="st113" d="M61.2,182.9c0.3,1.1,0.6,2.1,0.8,3.2c3.1,11.1,5.9,22.3,8.4,33.6c0.8,3.6,1.4,7.2,2.1,10.7
			c0.2,0.9,0.2,1.9,0.1,2.8c0,1-0.6,1.7-1.5,1.9c-0.9,0.2-1.8-0.2-2.3-1.1c-0.4-0.7-0.6-1.5-0.8-2.2c-1.4-5.5-2.7-11-4.1-16.5
			c-2.9-11-5.8-22-9.2-32.9c-0.3-1-0.5-2.1-0.7-3.1c-0.4-2.9,1.7-5.1,4.6-4.8c1,0.1,2,0.4,2.9,0.9c2.2,1.2,4.4,2.4,6.5,3.7
			c5.7,3.6,11.3,7.4,17.1,11c5.7,3.6,11.7,6.7,17.9,9.6c0.6,0.3,1.2,0.6,1.7,1c0.9,0.7,1.3,1.6,1.1,2.7c-0.2,1.1-1.1,1.9-2.3,2.1
			c-0.8,0.1-1.5,0-2.2-0.3c-7.8-2.9-15.1-6.6-22.2-10.9c-5.2-3.2-10.3-6.6-15.4-9.9c-0.8-0.5-1.5-1-2.3-1.5
			C61.4,182.9,61.3,182.9,61.2,182.9z"/>
		<path class="st112" d="M77.9,205.2c0.7,2.7,1.4,5,1.9,7.4c0.6,2.9,1.1,5.8,1.6,8.7c0.2,0.9,0.1,1.8,0.1,2.7c0,0.5-0.2,1.1-0.5,1.5
			c-0.8,1-2.4,0.8-3-0.4c-0.3-0.7-0.6-1.5-0.7-2.3c-1.2-6.7-3-13.2-5-19.8c-0.1-0.4-0.2-0.7-0.3-1.1c-0.4-2.1,1-3.8,3.2-3.7
			c0.8,0,1.7,0.3,2.5,0.7c1.6,0.8,3.1,1.6,4.6,2.5c3.7,2.2,7.4,4.6,11.2,6.5c0.5,0.3,1,0.6,1.4,0.9c0.8,0.7,1.1,1.7,0.8,2.5
			c-0.3,1-1.2,1.6-2.3,1.6c-0.6,0-1.3-0.1-1.9-0.4c-2.1-1-4.3-2-6.3-3.1c-2.2-1.2-4.3-2.6-6.5-3.9C78.6,205.5,78.4,205.4,77.9,205.2
			z"/>
	</g>
	<g>
		<path class="st113" d="M370.8,176.7c-0.3,1.1-0.6,2.1-0.8,3.2c-3.1,11.1-5.9,22.3-8.4,33.6c-0.8,3.6-1.4,7.2-2.1,10.7
			c-0.2,0.9-0.2,1.9-0.1,2.8c0,1,0.6,1.7,1.5,1.9c0.9,0.2,1.8-0.2,2.3-1.1c0.4-0.7,0.6-1.5,0.8-2.2c1.4-5.5,2.7-11,4.1-16.5
			c2.9-11,5.8-22,9.2-32.9c0.3-1,0.5-2.1,0.7-3.1c0.4-2.9-1.7-5.1-4.6-4.8c-1,0.1-2,0.4-2.9,0.9c-2.2,1.2-4.4,2.4-6.5,3.7
			c-5.7,3.6-11.3,7.4-17.1,11c-5.7,3.6-11.7,6.7-17.9,9.6c-0.6,0.3-1.2,0.6-1.7,1c-0.9,0.7-1.3,1.6-1.1,2.7c0.2,1.1,1.1,1.9,2.3,2.1
			c0.8,0.1,1.5,0,2.2-0.3c7.8-2.9,15.1-6.6,22.2-10.9c5.2-3.2,10.3-6.6,15.4-9.9c0.8-0.5,1.5-1,2.3-1.5
			C370.6,176.7,370.7,176.7,370.8,176.7z"/>
		<path class="st112" d="M354.1,199c-0.7,2.7-1.4,5-1.9,7.4c-0.6,2.9-1.1,5.8-1.6,8.7c-0.2,0.9-0.1,1.8-0.1,2.7
			c0,0.5,0.2,1.1,0.5,1.5c0.8,1,2.4,0.8,3-0.4c0.3-0.7,0.6-1.5,0.7-2.3c1.2-6.7,3-13.2,5-19.8c0.1-0.4,0.2-0.7,0.3-1.1
			c0.4-2.1-1-3.8-3.2-3.7c-0.8,0-1.7,0.3-2.5,0.7c-1.6,0.8-3.1,1.6-4.6,2.5c-3.7,2.2-7.4,4.6-11.2,6.5c-0.5,0.3-1,0.6-1.4,0.9
			c-0.8,0.7-1.1,1.7-0.8,2.5c0.3,1,1.2,1.6,2.3,1.6c0.6,0,1.3-0.1,1.9-0.4c2.1-1,4.3-2,6.3-3.1c2.2-1.2,4.3-2.6,6.5-3.9
			C353.4,199.4,353.6,199.2,354.1,199z"/>
	</g>
</g>
</svg>
