<?xml version="1.0" encoding="utf-8"?>
<!-- Generator: Adobe Illustrator 21.1.0, SVG Export Plug-In . SVG Version: 6.00 Build 0)  -->
<svg version="1.1" id="Calque_1" xmlns="http://www.w3.org/2000/svg" xmlns:xlink="http://www.w3.org/1999/xlink" x="0px" y="0px"
	 viewBox="0 0 432 432" style="enable-background:new 0 0 432 432;" xml:space="preserve">
<style type="text/css">
	.st0{fill:#AE3034;}
	.st1{fill:#3E904D;}
	.st2{fill:#F7EB5B;}
	.st3{fill:#221F20;}
	.st4{fill:#BC9A72;}
	.st5{fill:#FFFFFF;}
	.st6{fill:#E9963E;}
	.st7{fill:#EFB156;}
	.st8{fill:#5EB057;}
	.st9{fill:#A27D56;}
	.st10{fill:#BD8346;}
	.st11{fill:#DD658D;}
	.st12{fill:#404041;}
	.st13{fill:#81BF8E;}
	.st14{fill:#ED7E87;}
	.st15{fill:#B0202B;}
	.st16{fill:#BA9453;}
	.st17{fill:#B99352;}
	.st18{fill:#45A49C;}
	.st19{fill:#59B178;}
	.st20{fill:#C9A25F;}
	.st21{fill:#BCBDBF;}
	.st22{fill:#C7345D;}
	.st23{fill:#2E3192;}
	.st24{fill:#8CC63F;}
	.st25{fill:#22B573;}
	.st26{fill:#333333;}
	.st27{fill:#B1A097;}
	.st28{fill:#574B43;}
	.st29{fill:#85328A;}
	.st30{fill:#53A7DB;}
	.st31{fill:#912D61;}
	.st32{fill:#835F41;}
	.st33{fill:#929496;}
	.st34{fill:#808080;}
	.st35{fill:#6F4E2F;}
	.st36{fill:#A6A8AA;}
	.st37{fill:#DF643A;}
	.st38{fill:#98C355;}
	.st39{fill:#D35998;}
	.st40{fill:#6F665A;}
	.st41{fill:#BFB49D;}
	.st42{fill:#AE82B3;}
	.st43{fill:#B3B3B3;}
	.st44{fill:#5E328B;}
	.st45{fill:#DA404D;}
	.st46{fill:#A994C1;}
	.st47{fill:#8B575B;}
	.st48{fill:#C9C0AF;}
	.st49{fill:#A67C52;}
	.st50{fill:#86A391;}
	.st51{fill:#6595A9;}
	.st52{fill:#483E49;}
	.st53{fill:#F6BA00;}
	.st54{fill:#FC8080;}
	.st55{fill:#1A1A1A;}
	.st56{fill:#749FA8;}
	.st57{fill:#ABC337;}
	.st58{fill:#F67E20;}
	.st59{fill:#52A9B2;}
	.st60{fill:#925A8B;}
	.st61{fill:#DD8383;}
	.st62{fill:#929C3B;}
	.st63{fill:#4D4D4D;}
	.st64{fill:#C69C6D;}
	.st65{fill:#DBB753;}
	.st66{fill:#9EB9B4;}
	.st67{fill:#F2F2F2;}
	.st68{fill:#E2C87F;}
	.st69{fill:#E8BDC4;}
	.st70{fill:#D86D29;}
	.st71{fill:#E0CDAD;}
	.st72{fill:#E6E6E6;}
	.st73{fill:#CCD6CE;}
	.st74{fill:#9FD3C7;}
	.st75{fill-rule:evenodd;clip-rule:evenodd;}
	.st76{fill:#E5BE51;}
	.st77{fill:#B3A693;}
	.st78{fill:#717370;}
	.st79{fill:#9FB14D;}
	.st80{fill:#736357;}
	.st81{fill:#51642D;}
	.st82{fill:#743315;}
	.st83{fill:#0071BC;}
	.st84{fill:#9C1B20;}
	.st85{fill:#009245;}
	.st86{fill:#F6E6CC;}
	.st87{fill:#84CBCB;}
	.st88{fill:#7D9B39;}
	.st89{fill:#3C4E5C;}
	.st90{fill:#998675;}
	.st91{fill:#C7B299;}
	.st92{fill:#9B2F10;}
	.st93{fill:#E7A136;}
	.st94{fill:#978E43;}
	.st95{fill:#7D5E18;}
	.st96{fill:#F2C545;}
	.st97{fill:#E07D28;}
	.st98{fill:#E0D2BE;}
	.st99{fill:#C4A18D;}
	.st100{fill:#BCBD84;}
	.st101{fill:#5F645E;}
	.st102{fill:#CAC2C2;}
	.st103{fill:#959736;}
	.st104{fill:#B0D24A;}
	.st105{fill:#754C24;}
	.st106{fill:#603813;}
	.st107{fill:#8C4A33;}
	.st108{fill:#0B493A;}
	.st109{fill:#C17953;}
	.st110{fill:#F7C64D;}
	.st111{fill:#005371;}
	.st112{fill:#D3E2DC;}
	.st113{fill:#3E8A64;}
	.st114{fill:#299798;}
	.st115{fill:#731115;}
	.st116{fill:#4F4544;}
	.st117{fill:#4C6047;}
	.st118{fill:#4C301C;}
	.st119{fill:#867274;}
	.st120{fill:#C13F47;}
	.st121{fill:#BC8AA8;}
	.st122{fill:#634E42;}
	.st123{fill:#E1B8D7;}
	.st124{fill:#6D866B;}
	.st125{fill:#422918;}
	.st126{fill:#925F36;}
	.st127{fill:#1D1D1B;}
	.st128{fill:#00A099;}
	.st129{fill:#F8B133;}
	.st130{fill:#006633;}
	.st131{fill:#683B11;}
	.st132{fill:#B17F49;}
	.st133{fill:#A3897A;}
	.st134{fill:#E488B5;}
	.st135{fill:#93C01F;}
	.st136{fill:#EDE287;}
	.st137{fill:#E9CB9A;}
	.st138{fill:#EAB8CC;}
	.st139{fill:#7E4E24;}
	.st140{fill:#E5332A;}
	.st141{fill:#F29100;}
</style>
<g>
	<g>
		<path class="st116" d="M209.6,346.5c0.3,0.4,0.5,0.8,0.7,1.2c1.2,2.3,3,4,5.2,5.4c1.1,0.7,2,1.6,2.7,2.7c0.7,1.2,1.5,2.5,2.3,3.7
			c0.5,0.9,0.7,1.8,0.4,2.9c-0.4,1.5,0.8,2.6,2.3,2.1c0.9-0.3,1.6-0.8,2.2-1.5c0.5-0.7,0.5-1.5,0.2-2.2c-0.2-0.5-0.6-1-0.9-1.5
			c-0.4-0.7-0.9-1.3-1.3-2c-0.4-0.8-0.7-1.6-0.9-2.4c-0.3-1.2-0.9-2.2-1.8-3c-0.5-0.4-1-0.9-1.5-1.2c-2.2-1.4-3.4-3.6-4-6.1
			c-0.2-0.8-0.3-1.7-0.3-2.6c-0.1-1.6,0-3.3-0.6-4.9c-0.2-0.7-0.5-1.3-0.7-2c-0.2-0.4-0.3-0.8-0.5-1.2c-0.7-1.3-0.8-2.6,0.1-3.8
			c0.2-0.3,0.4-0.7,0.5-1.1c0.4-1.7-1.3-2.7-2.4-2.4c-0.6,0.2-1.1,0.4-1.6,0.8c-0.4,0.2-0.8,0.6-1.1,0.9c-0.2,0.2-0.5,0.2-0.7,0.1
			c-0.1,0-0.1-0.1-0.2-0.1c-1.9-1-3.9-1.6-6-1.7c-0.9-0.1-1.7-0.2-2.5-0.3c-1.4-0.2-2.9-0.2-4.3,0c-1.6,0.2-3.3,0.2-5,0.3
			c-0.3,0-0.7-0.1-1-0.1c-1.1-0.2-2.2-0.4-3.3-0.6c-0.5-0.1-1-0.2-1.5-0.3c-0.5-0.1-0.9-0.4-1.2-0.8c-0.5-0.6-1.1-0.9-1.8-1
			c-0.4-0.1-0.8-0.2-1.2-0.3c-1.3-0.4-2.5-1.1-3.2-2.4c-0.9-1.6-2.1-2.9-3.5-4.1c-0.3-0.2-0.4-0.6-0.6-0.9c0-0.1-0.1-0.2-0.1-0.3
			c-0.5-1.4-1.4-2.1-2.9-2c-0.7,0-1.3,0.1-2,0.2c-0.5,0.1-1.1,0.2-1.6,0.2c-1.7,0-2.8,0.9-3.5,2.3c-0.2,0.4-0.3,0.9-0.5,1.3
			c-0.1,0.4-0.4,0.7-0.8,0.7c-1.4,0.1-2,0.9-2.3,2.2c-0.6,2.5,0.4,4.9,2.6,6.2c0.9,0.5,1.8,0.6,2.7,0.1c0.4-0.2,0.8-0.5,1.2-0.7
			c0.3-0.2,0.6-0.2,0.9,0c2.2,1.2,4,2.8,5.1,5.1c0.6,1.3,0.8,2.6,0.7,4c0,0.6-0.1,1.2-0.1,1.8c-0.1,1.9,0.5,3.7,1.4,5.4
			c0.5,0.9,1,1.8,1.6,2.6c0.9,1.5,1.6,3.1,2,4.9c0.2,1.3,0.8,2.5,1.2,3.7c0.3,1,0.8,2,1,3c0.3,1.3,0.1,2.7-0.3,4
			c-0.2,0.6-0.6,1-1.1,1.4c-0.6,0.6-1.3,1.1-1.9,1.7c-0.7,0.7-0.6,1.3,0.4,1.7c0.6,0.2,1.2,0.4,1.9,0.4c0.4,0.1,0.9,0,1.4,0
			c0.9,0,1.6-0.5,1.9-1.3c0.2-0.6,0.6-0.9,1.3-1.1c1.5-0.4,2.1-1.1,2.3-2.7c0-0.4,0-0.8,0.1-1.1c0-0.6,0.1-1.2,0.4-1.8
			c0.3-0.5,0.3-1.2,0.2-1.7c-0.6-2-0.5-4.1-0.4-6.2c0-0.8,0.1-1.6,0.1-2.3c0-0.2,0.1-0.5,0.1-0.7c0-0.6,0.4-1,1-1.2
			c2.5-0.8,4.9-1.8,7.5-2.3c0.8-0.2,1.5-0.5,2.2-0.8c0.8-0.4,1.6-0.6,2.5-0.6c1.2,0,1.7,0.4,2,1.5c0.2,0.4,0.3,0.9,0.5,1.3
			c0.5,1.5,1.3,2.9,2.3,4.2c0.7,0.9,1.4,1.9,2,2.8c1,1.6,2.3,3,3.9,4.1c0.4,0.3,0.8,0.7,1.1,1.1c0.4,0.5,0.6,1.1,0.6,1.7
			c0,1.4,0,2.8-0.4,4.1c-0.2,0.7-0.5,1.2-1.2,1.5c-0.5,0.2-0.8,0.6-1,1.1c-0.2,0.7,0,1.4,0.7,1.7c0.4,0.2,0.9,0.3,1.4,0.3
			c0.8,0,1.7,0,2.5-0.1c1.1-0.1,1.6-0.5,1.8-1.6c0.1-0.4,0.1-0.9,0.1-1.3c-0.2-2.5-0.1-5,0.1-7.5c0-0.3,0-0.6,0-0.9
			c0-0.9-0.3-1.6-0.9-2.2c-0.6-0.6-1.3-1.2-2-1.7c-1-0.9-1.7-1.9-2.2-3.1C209.4,348,209.2,347.5,209.6,346.5z"/>
		<path class="st116" d="M184.5,312.3c0.1,0.6,0.4,0.8,0.8,1c0.4,0.1,0.9,0.2,1.3,0.3c0.4,0.1,0.8,0.2,1.1,0.4
			c0.7,0.5,0.7,1.3-0.1,1.7c-0.4,0.2-0.8,0.3-1.2,0.4c-0.6,0.1-1.3,0.1-1.9,0.2c-1.4,0.1-2.2-0.4-3-2c-0.1-0.2-0.2-0.4-0.2-0.7
			c-0.1-0.4-0.3-0.7-0.7-0.8c-0.3-0.1-0.6-0.4-0.8-0.8c-0.4-0.7-0.5-1.6-0.2-2.3c0.7-1.5,0.6-3.1,0.4-4.7c-0.1-0.6-0.1-1.2-0.2-1.8
			c-0.3-2.2,0-4.4,0.3-6.5c0.1-0.8,0.1-0.9-0.7-1c-1.3-0.3-2.7-0.5-4-0.7c-1.2-0.2-2.4-0.7-3.5-1.3c-0.8-0.4-1.6-0.9-2.4-1.3
			c-1.1-0.5-2.2-0.7-3.3-0.5c-1.7,0.3-3.4,0.6-5.1,0.9c-1.4,0.3-2.6,0.8-3.8,1.5c-0.7,0.4-1.4,1-1.9,1.6c-1.9,2.2-3.8,4.4-5.6,6.5
			c-0.7,0.9-1.1,1.9-1.4,3c-0.1,0.5,0,0.9,0.4,1.2c0.2,0.2,0.5,0.3,0.7,0.5c0.3,0.2,0.6,0.5,0.8,0.8c0.6,0.8,0.5,1.5-0.4,2
			c-1.1,0.5-2.3,0.7-3.5,0.5c-0.7-0.1-1.2-0.4-1.8-0.9c-0.1,0.3-0.2,0.6-0.3,0.8c-0.1,0.8-0.1,1.5-0.2,2.3c0,0.6,0.3,1,0.8,1.3
			c0.5,0.2,1,0.5,1.4,0.9c0.9,0.8,0.7,1.8-0.2,2.4c-0.5,0.4-1.1,0.5-1.7,0.4c-0.8-0.1-1.6-0.1-2.4,0.1c-0.8,0.2-1.4-0.2-1.6-1
			c-0.1-0.5-0.1-1.1-0.1-1.6c0.2-1.1,0.4-2.1,0.6-3.1c0.3-1.5,0.4-3.1,0.5-4.7c0-0.3,0-0.6,0-0.9c0-1.3,0.5-2.5,1.5-3.3
			c1.9-1.5,2.8-3.6,3.4-5.9c0.4-1.8,0.5-3.6,0.3-5.4c-0.2-2.4,0.2-4.6,1.4-6.7c0.3-0.6,0.7-1.3,1.1-1.9c0.6-1.1,0.8-2.2,0.4-3.5
			c-0.2-0.9-0.4-1.8-0.5-2.7c-0.1-1.6,0.6-2.7,2-3.4c0.2-0.1,0.4-0.2,0.6-0.3c1.7-0.6,3.4,0,4.1,1.8c0.2,0.4,0.3,0.9,0.5,1.4
			c0.2,0.7,0.5,1,1.2,1c0.5,0,1-0.1,1.4-0.2c1.2-0.2,2.3-0.5,3.4-0.6c2-0.1,4,0.1,5.9,0.5c1.4,0.3,2.8,0.4,4.1,0
			c1.1-0.3,2.2-0.6,3.3-0.8c0.9-0.2,1.9-0.2,2.9-0.4c0.5-0.1,0.9-0.2,1.3-0.3c1-0.3,1.8-0.9,2.4-1.9c1-1.7,2.2-3.2,3.9-4.3
			c0.4-0.3,0.6-0.7,0.7-1.1c0.2-1.1,0.4-2.1,0.7-3.2c0.2-0.8,0.4-1.6,0.6-2.4c0.1-0.2,0.1-0.4,0.2-0.6c0.3-0.5,0.7-0.7,1.3-0.4
			c0.7,0.3,1.2,0.9,1.6,1.6c0.2,0.4,0.3,0.7,0.5,1.1c0.2,0.5,0.6,0.8,1.1,0.8c1.8,0.1,1.4,0.3,2.6-1.2c0.6-0.7,1.2-1.4,1.9-2.1
			c0.3-0.3,0.7-0.6,1.2-0.4c0.5,0.2,0.5,0.8,0.4,1.2c-0.1,0.6-0.2,1.2-0.4,1.8c-0.1,0.3-0.2,0.6-0.3,0.9c-0.3,0.6-0.2,1.1,0.4,1.6
			c0.9,0.7,1.2,1.6,1.1,2.7c-0.1,1.2,0.3,2,1.1,2.8c0.5,0.5,1.1,0.9,1.5,1.4c0.4,0.4,0.8,0.8,1.1,1.3c0.4,0.7,0.4,1.5-0.1,2.2
			c-0.9,1.4-2.2,1.8-3.7,1.8c-1.1,0.1-2.1-0.2-3.1-0.5c-0.7-0.2-1.4-0.3-2.1-0.4c-0.4-0.1-0.7,0.1-0.9,0.5c-0.6,1-1.3,2-1.9,3.1
			c-0.5,0.9-0.6,1.8-0.8,2.8c-0.7,3.5-1.9,6.9-3.5,10.1c-1,2-1.8,4.1-2.2,6.3c-0.3,1.6-0.8,3.2-1.2,4.8c-0.1,0.6-0.2,1.2-0.3,1.8
			c-0.1,0.8,0.1,1.2,0.8,1.5c0.3,0.2,0.7,0.2,1,0.4c0.4,0.2,0.8,0.4,1.1,0.8c0.5,0.6,0.3,1.3-0.4,1.6c-0.2,0.1-0.5,0.1-0.8,0.2
			C185,312.3,184.8,312.3,184.5,312.3z"/>
		<path class="st116" d="M213.3,302.6c-0.6,0.5-1.2,1-1.8,1.4c-0.8,0.6-1.6,1.1-2.3,1.8c-1.7,1.5-3.8,2.3-5.9,2.9
			c-0.5,0.2-1.1,0.3-1.6,0.5c-0.2,0.1-0.4,0.3-0.4,0.4c0,0.2,0.2,0.4,0.4,0.5c0.4,0.2,0.9,0.3,1.4,0.4c0.1,0.2,0.1,0.5,0.2,0.6
			c0.2,0.1,0.5,0.1,0.7,0c1.4-0.5,2.9-1,4.3-1.5c0.5-0.2,1.1-0.4,1.6-0.6c0.2,0.1,0.3,0.4,0.5,0.4c0.2,0,0.4-0.1,0.6-0.2
			c1-0.6,2-1.1,3-1.7c0.1,0.1,0.1,0.3,0.2,0.4c0.2,0.5,0.6,0.5,0.9,0.1c0.1-0.2,0.2-0.3,0.3-0.5c0.2-0.4,0.4-0.9,0.6-1.4
			c0.2-0.3,0.3-0.7,0.5-0.9c0.6-0.6,1-1.3,1.3-2c0.1-0.1,0.1-0.3,0.2-0.5c0.1,0.3,0.1,0.4,0.1,0.6c0,2-0.1,3.9-0.7,5.8
			c-0.4,1.1-0.8,2.2-1.5,3c-1.2,1.4-1.4,3-0.8,4.7c0.3,1,0.6,2.1,1,3.1c0.2,0.7,0.4,1.4,0.3,2.2c-0.1,0.4,0,0.9,0.1,1.3
			c0.1,0.5,0.4,0.8,0.8,0.9c0.3,0.1,0.7,0.1,1,0.1c0.8-0.1,1.5-0.2,2.3-0.2c0.2,0,0.3-0.1,0.5-0.1c0.7-0.3,0.9-0.9,0.6-1.6
			c-0.1-0.2-0.3-0.5-0.5-0.6c-0.2-0.2-0.5-0.4-0.8-0.5c-1-0.5-1.5-1.3-1.5-2.5c-0.1-2.4,0.4-4.6,1.7-6.6c0.8-1.1,1.5-2.3,2.2-3.4
			c0.6-1.1,1.5-2,2.3-2.9c1-1.1,1.7-2.3,1.9-3.7c0.1-0.7,0.2-1.3,0.4-2c0.1-0.5,0.3-1,0.5-1.4c0.2-0.5,0.7-0.8,1.2-0.7
			c0.6,0.1,1.2,0.1,1.8,0.3c1.5,0.5,3,0.8,4.5,1c0.7,0.1,1.4,0.3,2.2,0.5c1.2,0.3,2.4,0.5,3.5,0.8c0.6,0.1,1.2,0.3,1.8,0.5
			c0.8,0.2,1.6,0.5,2.4,0.7c0.5,0.1,0.8,0.4,1,0.8c0.3,0.9,0.7,1.7,1.1,2.5c0,0.1,0.1,0.2,0.1,0.3c0.1,0.8,0.3,1.6,0.3,2.4
			c0,1.1,0.1,2.1,0.4,3.2c0.2,0.5,0.3,1,0.5,1.6c0.2,0.7,0.3,1.4,0.1,2c-0.2,1,0,1.8,0.5,2.7c0.2,0.3,0.3,0.6,0.4,0.9
			c0.2,0.5,0.3,1,0.1,1.5c-0.3,0.6-0.1,1.2,0.4,1.6c0.7,0.5,1.3,1,2,1.5c0.1,0.1,0.3,0.2,0.5,0.3c0.9,0.1,1.9,0.3,2.8,0.3
			c1,0,1.5-1.4,0.9-2.3c-0.3-0.3-0.6-0.6-1-0.9c-1.5-0.9-1.6-0.7-2-2.9c-0.3-1.7-0.7-3.3-0.9-5c-0.2-1.8-0.3-3.6-0.3-5.5
			c0-1.3,0.3-2.5,0.8-3.7c0.7-1.5,1.3-3.1,2-4.6c0.3-0.7,0.7-1.4,1.1-2.2c0.4-0.8,0.8-1.7,1.2-2.5c0.5-1.2,0.5-2.4,0.3-3.6
			c-0.1-0.5-0.2-1-0.3-1.5c-0.2-1.1,0-2.1,0.6-3.1c0.5-0.7,0.7-1.4,0.5-2.2c-0.1-0.4,0-0.7,0.4-1c0.8-0.4,1.3-1.1,1.5-1.9
			c0-0.1,0.1-0.1,0.1-0.2c0.2-0.6,0.3-0.7,0.9-0.5c0.5,0.1,1,0.3,1.5,0.3c0.3,0,0.7,0,1-0.2c0.8-0.5,1.7-1,2.5-1.5
			c1-0.6,1.7-1.6,2.2-2.7c0.1-0.2,0.2-0.4,0.2-0.6c0.2-1-0.4-1.8-1.5-1.7c-1.3,0.1-2.6-0.2-3.8-0.4c-0.6-0.1-1.1-0.4-1.5-0.9
			c0-0.1-0.1-0.1-0.1-0.2c-0.9-1.5-2.3-2.1-4.1-2c-0.9,0.1-1.8,0.2-2.6,0.3c-1.3,0.2-2.2,1-2.9,2.2c-0.6,1-1.1,2.1-1.5,3.2
			c-0.7,2-1.8,3.7-3.1,5.4c-0.5,0.7-1.2,1.2-1.9,1.5c-0.8,0.3-1.6,0.6-2.4,1c-1.1,0.4-2.1,0.8-3.2,1.2c-1.1,0.5-2.3,0.7-3.6,0.5
			c-1.2-0.2-2.3-0.4-3.5-0.6c-0.7-0.1-1.3-0.2-2,0c-0.4,0.1-0.8,0.1-1.1,0c-1.8-0.1-3.6-0.1-5.3,0.2c-1.1,0.2-2.2,0.7-3.1,1.4
			c-1.5,1.1-3,2.3-4.5,3.4c-1,0.8-1.6,1.8-1.7,3.1c-0.1,1.6-0.3,3.3-0.3,4.9c0,1.5-0.6,2.8-1.7,3.8C213,301.9,213,301.9,213.3,302.6
			z"/>
	</g>
	<g>
		<path d="M188.4,225.8c-0.2-0.1-0.5-0.2-0.8-0.3c-2.1-0.9-4-2.2-5.4-4c-1.9-2.3-3.1-5-3.1-8.1c0-2.3,0.7-4.3,2.2-6
			c2.2-2.6,5-4.1,8.3-4.5c6.4-0.8,11.3,1.8,15,6.8c1.9,2.7,3.1,5.7,3.9,8.9c0.1,0.2,0.1,0.5,0.2,0.8c0.4-0.2,0.7-0.4,1-0.6
			c2.9-1.9,5.7-3.7,8.6-5.6c0.4-0.2,0.6-0.6,0.8-1c0.6-1.5,1.2-2.9,2.2-4.2c0.6-0.8,1.3-1.5,2.1-2c0.8-0.5,1.7-0.9,2.7-0.8
			c2.8,0.1,5.3,0.8,6.8,3.5c0.6,1.2,0.9,2.4,0.6,3.7c-0.1,0.2-0.1,0.4-0.3,0.6c-0.5,0.8-1.2,0.8-1.7-0.1c-0.4-0.8-0.8-1.5-1.4-2.2
			c-0.5-0.7-1.1-0.6-1.4,0.2c-0.4,0.9-0.6,1.8-0.8,2.7c-0.7,3.9-1.2,7.8-1.4,11.8c-0.1,1.2-0.2,2.3-0.2,3.5c-0.1,1.2,0,2.3,0.3,3.5
			c0.5,0,0.9-0.2,1.2-0.5c0.8-0.9,1.7-1.7,2.4-2.7c1.9-2.5,3.2-5.4,4.3-8.3c0.9-2.4,1.7-4.7,2.6-7.1c0.3-0.8,0.6-1.5,1-2.2
			c0.4-0.9,1.1-1.6,1.9-2.2c1.4-1,3.2-0.8,4.2,0.7c0.4,0.6,0.8,1.4,1,2.1c0.5,1.5,0.7,3.1,0.8,4.7c0.3,4.1,0.1,8.1-0.2,12.2
			c-0.1,1-0.2,2-0.2,3c0,0.2,0,0.4,0,0.7c2.6-1.9,5-3.8,7.2-5.9c-0.2-0.3-0.3-0.6-0.4-0.9c-1.2-2.4-2.3-4.8-2.8-7.4
			c-0.6-3.2-0.2-6.2,1.8-8.9c0.6-0.9,1.4-1.7,2.4-2.2c2.6-1.5,5.5-0.8,7.1,1.7c0.8,1.3,1.1,2.8,1.2,4.4c0.1,1.9-0.3,3.6-1.1,5.3
			c-0.3,0.6-0.5,1.2-0.9,1.7c-0.3,0.5-0.3,1,0.1,1.5c0.8,1.1,1.5,2.4,2.3,3.5c1.7,2.5,3.1,5.1,4.2,7.8c0.1,0.1,0.1,0.2,0.2,0.4
			c0.1,0,0.2,0,0.3,0c4.8-1.3,9-3.8,12.6-7.3c2.2-2.1,3.2-4.9,3.3-7.9c0.1-1.9-0.6-3.4-2.4-4.3c-1-0.5-2.2-0.6-3.3-0.4
			c-1.1,0.2-2.2,0.4-3.3,0.5c-0.8,0.1-1.6,0-2.3-0.2c-1.8-0.7-2.3-2.4-1.3-4c0.6-0.9,1.4-1.4,2.4-1.7c2.5-0.8,5-0.7,7.4,0.4
			c1.4,0.7,2.7,1.5,3.7,2.7c1.7,2,2.1,4.3,2,6.8c-0.3,4.7-2.5,8.5-6,11.5c-2.6,2.2-5.6,3.6-8.8,4.7c-1.2,0.4-2.4,0.8-3.6,1.2
			c0,0.2,0.1,0.4,0.1,0.7c1.3,5.1,0.7,10-1.8,14.7c-1.5,2.7-3.5,4.9-6.1,6.5c-1.5,0.9-3,1.4-4.7,1.7c-1.2,0.2-2.5,0.1-3.6-0.3
			c-3.5-1.4-5.8-3.9-6.6-7.6c-0.5-2.4,0-4.7,1.4-6.7c1.5-2.3,3.5-4.1,5.9-5.4c1.6-0.9,3.3-1.6,5-2.4c0.2-0.1,0.5-0.2,0.8-0.3
			c-1.1-2.8-2.6-5.4-4.1-8c-0.2,0.2-0.4,0.4-0.6,0.6c-2.2,2.1-4.4,4.2-6.6,6.2c-0.5,0.5-1.2,0.8-1.5,1.3c-0.3,0.6-0.3,1.3-0.3,2
			c-0.7,5.5-1.7,11-2.9,16.4c-0.7,3.1-1.5,6.2-2.7,9.2c-1.4,3.6-3,7.1-5.8,10c-2.6,2.8-5.8,4.6-9.5,5.1c-3.4,0.5-6.7,0.1-9.8-1.3
			c-3.1-1.4-5-3.9-6.2-7.1c-0.9-2.5-0.7-5.1,0.2-7.6c1.1-3,2.9-5.6,5-8c1.7-2,3.7-3.7,5.8-5.3c2.7-2,5.3-4.1,8.1-6.1
			c2-1.4,4-2.7,6.1-4.1c0.4-0.3,0.7-0.6,0.7-1.1c0.6-4.6,1.2-9.1,1.8-13.7c0-0.2,0-0.4,0.1-0.7c-0.4,0.2-0.4,0.5-0.5,0.8
			c-1.1,2.5-2.3,4.9-3.7,7.3c-1.1,1.7-2.2,3.4-3.7,4.8c-0.8,0.8-1.7,1.4-2.7,1.9c-2.4,1-4.8,0.4-6.4-1.6c-0.5-0.7-1-1.5-1.2-2.3
			c-0.4-1.3-0.8-2.6-1-4c-0.6-3.4-0.3-6.8,0.2-10.1c0.2-1.5,0.6-2.9,0.9-4.4c0-0.2,0-0.3,0.1-0.6c-2.9,2-5.6,3.8-8.4,5.7
			c0.2,1.4,0.3,2.7,0.5,4.1c0.4,3.3,0.3,6.7-0.1,10c-0.3,2.6-0.8,5.1-1.6,7.5c-0.8,2.3-1.9,4.4-3.7,6c-1.5,1.5-3.3,2.3-5.5,2.3
			c-1.4-0.1-2.6-0.6-3.7-1.3c-1.5-1.1-2.6-2.5-3.4-4.1c-0.2-0.3-0.3-0.6-0.5-0.9c-0.2,0.4-0.4,0.6-0.6,0.9c-1,1.9-2.3,3.6-3.8,5.1
			c-2.4,2.5-5.3,3.3-8.6,2.8c-2.5-0.3-4.7-1.3-6.8-2.8c-2.2-1.6-4.1-3.6-5.7-5.9c-1.8-2.4-3.2-5.1-4.4-7.8c-0.1-0.3-0.3-0.5-0.5-1
			c-0.1,0.4-0.2,0.7-0.3,1c-1.1,4.1-2.2,8.1-3.7,12c-0.6,1.7-1.3,3.4-2.3,4.9c-0.5,0.8-1.1,1.5-1.7,2.2c-2,2-4.6,2.4-7.1,1.2
			c-1.1-0.5-2-1.3-2.9-2.1c-2-1.9-3.5-4.3-4.8-6.8c-2.3-4.6-3.8-9.5-4.5-14.6c-0.3-2.1-0.5-4.2-0.6-6.3c-0.1-4,0.3-8,1.7-11.8
			c0.7-1.8,1.6-3.4,3-4.8c2.7-2.6,5.9-3.4,9.5-2.9c2.5,0.3,4.7,1.5,6.8,3c0.2,0.2,0.5,0.4,0.9,0.6c-0.9-7-1.1-13.8-0.8-20.6
			c-0.2,0-0.2-0.1-0.3-0.1c-3.6,0.8-7.2,1.5-10.7,2.4c-4.1,1.1-8.1,2.5-12,4.4c-3.8,1.9-7.3,4.4-10.6,7c-0.8,0.7-1.6,1.3-2.5,1.9
			c-0.6,0.4-1.2,0.7-1.9,0.8c-1.6,0.4-3.1-0.7-3.2-2.4c-0.1-0.9,0.2-1.7,0.6-2.5c1-1.7,2.4-3.1,4.1-4.2c2.9-1.9,6.1-3.4,9.4-4.4
			c5.9-1.9,11.9-3.3,18-4.4c3-0.5,6-1.3,9-2.2c0.1,0,0.3-0.1,0.4-0.2c0.2-1.2,0.3-2.5,0.5-3.7c0.7-4.4,1.6-8.7,3.1-12.8
			c0.6-1.6,1.1-3.2,1.7-4.8c0.6-1.6,1.4-3.2,2.4-4.6c1.2-1.7,2.8-3,4.8-3.6c1.5-0.4,2.8-0.2,4.1,0.6c2.2,1.4,3.3,3.3,3.6,5.9
			c0.3,1.9,0.1,3.8-0.3,5.7c-0.4,2-0.9,3.9-1.8,5.8c-1.6,3.4-3.8,6.3-6.8,8.6c-0.5,0.4-0.7,0.7-0.7,1.3c0.1,3.4,0,6.9,0.2,10.3
			c0.2,3.7,0.6,7.3,0.9,11c0.4,4.6,1.1,9.2,2,13.8c0.7,3.8,1.7,7.5,3.1,11.1c1.2,3.4,3,6.6,5,9.6c1.1,1.6,2.3,3.2,3.5,4.8
			c0.4,0.5,0.9,1,1.4,1.4c0.8,0.7,1.8,0.9,2.9,0.6c1.6-0.4,2.9-1.2,3.9-2.4c0.7-0.9,1.4-1.9,2.1-2.9c0.2-0.3,0.2-0.6,0.2-1
			c-0.7-3.7-0.9-7.4-1.2-11.2C188.7,229.8,188.6,227.8,188.4,225.8z M147.3,212.9c-1.1,0.1-1.9,0.5-2.3,1.5
			c-0.2,0.4-0.4,0.9-0.5,1.3c-0.3,1.4-0.5,2.8-0.6,4.2c-0.2,2.4,0,4.8,0.3,7.2c0.6,4.6,1.5,9.1,3.1,13.4c0.8,2.2,1.7,4.3,3.1,6.2
			c0.5,0.6,1,1.2,1.5,1.8c1,0.9,1.3,0.8,2.2-0.2c0.9-1.1,1.4-2.4,1.9-3.7c1.4-3.5,2.4-7.1,3.4-10.6c0.1-0.3,0.1-0.7,0-1
			c-1.3-3.8-2.2-7.7-3-11.7c-0.6-2.7-0.5-2.7-2.5-4.7c-1.3-1.3-2.7-2.3-4.4-3.1C148.7,213.2,148,213.1,147.3,212.9z M233.1,243.3
			c-0.3,0.2-0.5,0.2-0.6,0.3c-2.5,1.6-4.9,3.1-7.4,4.7c-3.5,2.2-6.5,5.1-9.1,8.3c-1.7,2-3.2,4.2-4.3,6.6c-0.4,0.8-0.7,1.7-0.8,2.6
			c-0.3,2.9,1.6,5.9,4.3,7c3.4,1.4,6.5,0.6,9.2-1.8c1.5-1.3,2.4-3.1,3.2-4.9c1-2.3,1.8-4.6,2.3-7c1-4.7,1.9-9.3,2.9-14
			C232.9,244.6,233,244,233.1,243.3z M189,220c0.1-0.3,0.2-0.5,0.2-0.6c0.3-0.8,0.5-1.7,0.9-2.5c0.3-0.8,0.8-1.6,1.5-2.2
			c1.7-1.6,3.9-1.7,5.7-0.3c1.1,0.8,1.8,1.9,2.1,3.3c0.3,1.1,0.4,2.3,0.6,3.4c0.1,0.8,0.1,1.7,0.2,2.6c2.1-0.7,4.1-1.6,5.9-2.5
			c0-0.2,0-0.2,0-0.3c-0.8-3.9-2.3-7.4-4.7-10.6c-1.6-2.2-3.8-3.7-6.4-4.4c-1.7-0.5-3.3-0.1-4.7,1c-1.3,1-2.1,2.3-2.6,3.9
			c-1,3-0.5,5.8,0.8,8.6C188.6,219.4,188.8,219.7,189,220z M200.2,226c0,0.1,0,0.2,0,0.4c-0.1,3.6-0.2,7.2-0.4,10.8
			c-0.1,2.3,0.1,4.5,0.4,6.7c0.2,1,0.4,2,0.8,2.9c0.4,1,1,1.2,1.9,0.5c1.2-1.1,2.2-2.3,2.7-3.9c0.9-2.6,1.3-5.2,1.4-7.9
			c0.2-2.7,0.1-5.5-0.1-8.2c-0.1-1.3-0.2-2.5-0.3-3.8c-1.1,0.5-2.1,1-3.2,1.4C202.4,225.2,201.3,225.6,200.2,226z M258.8,239
			c-0.2,0-0.3,0-0.4,0.1c-2.1,1-4.2,2-6.3,3c-1.4,0.7-2.4,1.8-3.3,3c-1.7,2.3-1.8,4.7-0.3,7.1c1.4,2.4,3.7,3.1,6.2,1.8
			c2.3-1.1,3.8-2.9,4.5-5.4c0.7-2.2,0.7-4.5,0.3-6.8C259.3,241,259,240,258.8,239z M170.3,163.2c-0.6,0.2-1,0.6-1.3,1.1
			c-0.2,0.3-0.3,0.6-0.4,0.9c-1.1,2.5-1.9,5.1-2.3,7.9c-0.4,2.8-0.8,5.5-1.2,8.3c0,0.3,0,0.6,0,1c0.2-0.2,0.3-0.2,0.4-0.3
			c3.2-3,5.3-6.7,6.2-11.1c0.4-1.9,0.4-3.8-0.1-5.7C171.3,164.3,171,163.7,170.3,163.2z M258.2,218.9c0.5-1.1,0.8-2.1,1-3
			c0.3-1.7,0.2-3.3-0.5-4.9c-0.3-0.7-0.9-1.1-1.6-1.2c-0.3,0-0.6,0.1-0.7,0.4c-0.1,0.5-0.2,1-0.2,1.5
			C256.2,214.2,257,216.5,258.2,218.9z"/>
		<path d="M209.7,117.4c0.5-1.1,1-2.2,1.5-3.3c0.8-1.6,1.5-3.1,2.4-4.6c1-1.8,2.3-3.4,4-4.7c0.7-0.5,1.5-0.9,2.3-1.3
			c1.2-0.5,2.4-0.3,3.5,0.4c1,0.6,1.6,1.4,2.2,2.4c1,1.7,1.5,3.6,1.8,5.6c0.4,2.4,0.6,4.8,0.5,7.2c0,0.3,0,0.6,0,1
			c0.2-0.3,0.3-0.4,0.3-0.6c1.4-3.3,2.7-6.7,4.2-10c2.8-6.5,6.3-12.6,10.2-18.5c0.6-1,1.3-1.9,2.1-2.7c1.5-1.8,3.4-3.2,5.7-3.8
			c3.2-0.9,6.1,0.3,7.7,3.3c0.9,1.7,1.3,3.5,1.4,5.3c0.2,3.1-0.3,6.2-0.9,9.3c-1.3,6.5-3.1,12.8-4.9,19.1c-1.2,4.3-2.4,8.6-3.2,13
			c-0.2,1.3-0.4,2.6-0.6,3.9c0.5,0.1,0.7-0.2,0.9-0.4c0.5-0.8,1.1-1.6,1.5-2.5c1.5-2.9,3-5.9,4.5-8.9c0.9-1.8,1.7-3.6,2.6-5.4
			c0.2-0.5,0.3-0.9,0.4-1.4c0.3-5,1.5-9.8,4.2-14.1c1.4-2.2,3.1-4.1,5.2-5.5c1.4-0.9,3-1.7,4.7-1.8c5-0.3,9,4.2,8,9.1
			c-0.9,4.7-3.5,8-8.2,9.4c-1.3,0.4-2.6,0.5-3.9,0.7c-0.1,0-0.3,0-0.5,0c-0.1,0.4-0.1,0.7-0.2,1.1c-0.4,3.3-0.4,6.5,0.2,9.8
			c0.1,0.5,0.2,1,0.4,1.5c1.1,2.8,3,3.8,5.7,3.6c1.3-0.1,2.6-0.5,3.8-1c4.1-1.7,7.3-4.5,10.1-7.9c2.7-3.4,4.9-7.1,7-10.9
			c1-1.8,2.1-3.7,3.2-5.5c0.6-1.1,1.4-2,2.4-2.7c0.5-0.3,1-0.6,1.6-0.7c1.2-0.2,2.1,0.6,2.2,1.9c0,0.7-0.1,1.4-0.4,2
			c-0.5,1-1,2-1.6,3c-2.9,4.7-6.3,9-10,13.1c-3.8,4.1-8,7.8-12.4,11.2c-2.1,1.6-4.5,2.9-7.1,3.6c-3.3,0.9-6.1,0.2-8.6-2.2
			c-2.3-2.2-3.9-4.9-4.8-8c-0.4-1.3-0.6-2.7-0.9-4.1c0-0.2-0.1-0.3-0.2-0.5c-0.1,0.3-0.3,0.5-0.4,0.8c-1.7,3.3-3.3,6.7-5.1,10
			c-0.8,1.5-1.6,2.9-2.5,4.3c-0.6,0.9-1.3,1.7-2,2.5c-1.6,1.5-3.4,1.2-4.5-0.6c-0.8-1.2-1-2.5-1.2-3.9c-0.4-4.3-0.1-8.6,0.4-12.8
			c0.6-4.4,1.1-8.8,1.8-13.2c0.6-3.7,1.4-7.4,2.1-11.1c0.4-2.3,0.8-4.7,1.2-7c0.1-0.7,0-1.4-0.1-2.1c-0.1-0.6-0.4-0.8-1-0.7
			c-0.7,0.1-1.4,0.3-1.9,0.8c-1.4,1.3-2.7,2.8-3.8,4.4c-1.9,2.7-3.4,5.6-4.9,8.5c-2.5,5.1-4.6,10.4-6.9,15.6c-0.8,2-1.7,4-2.5,6
			c-0.3,0.7-0.7,1.4-1.1,2.1c-0.3,0.4-0.6,0.8-1,1.2c-1.3,1.1-3,0.7-3.6-0.9c-0.3-0.7-0.4-1.5-0.4-2.3c-0.1-2-0.1-4.1-0.2-6.1
			c-0.1-2.5-0.3-4.9-1-7.3c-0.3-1-0.7-1.9-1.1-2.9c-0.1-0.3-0.3-0.5-0.5-0.7c-0.5-0.5-1.1-0.6-1.7-0.2c-0.4,0.3-0.8,0.7-1.1,1
			c-1.6,1.7-2.7,3.6-3.5,5.8c-0.9,2.3-1.7,4.7-2.5,7c-0.3,0.9-0.6,1.8-1,2.7c-0.4,0.8-0.9,1.6-1.5,2.2c-1,1.1-2.3,1.1-3.3,0.1
			c-1.1-1-1.5-2.3-1.7-3.8c-0.3-2.3-0.5-4.6-0.7-6.9c-0.1-2.8-0.2-5.6-0.2-8.4c0-1.8,0.2-3.7,0.8-5.5c0.2-0.6,0.5-1.3,0.9-1.8
			c0.8-1.1,2.1-1.2,3.2-0.5c0.8,0.5,1.5,1.3,1.7,2.2c0.3,1.1,0.6,2.2,0.8,3.3c0.3,2.3,0.3,4.6,0.1,7c-0.1,1.3-0.2,2.7-0.3,4
			C209.6,117.4,209.7,117.4,209.7,117.4z M269.3,115.4c0.8-0.1,1.5-0.2,2.2-0.3c1.9-0.4,3.6-1.1,4.9-2.6c1.2-1.4,2-3.1,2.3-4.9
			c0.2-1.1,0.1-2.2-0.5-3.2c-0.5-0.8-1.2-1.1-2.1-0.9c-0.8,0.2-1.4,0.6-1.9,1.2c-1,1-1.7,2.1-2.4,3.3c-1.1,2.1-1.9,4.3-2.4,6.6
			C269.3,114.8,269.3,115,269.3,115.4z"/>
		<g>
			<path d="M295.4,184.1c0,0.6-0.1,1.1-0.1,1.6c-0.1,2.8-0.1,5.6,0.7,8.3c0.2,0.8,0.5,1.5,0.8,2.3c0.5,1.2,1.4,1.9,2.5,2.5
				c1,0.5,2,0.6,3.1,0.2c0.9-0.4,1.7-0.9,2.5-1.6c1.6-1.4,3.1-3,4.3-4.8c1.7-2.4,3.2-4.8,4.5-7.4c0.6-1.1,1.3-2,2-3
				c0.3-0.4,0.7-0.7,1.2-0.9c0.9-0.5,1.8-0.1,2.2,0.8c0.3,0.8,0.3,1.6,0.1,2.3c-0.2,0.7-0.4,1.4-0.7,2c-0.5,0.9-1,1.8-1.6,2.7
				c-3.2,4.3-6.9,8.1-10.9,11.6c-1.1,1-2.4,1.8-3.6,2.7c-2,1.5-4.4,2.2-6.9,2.2c-3.1,0-5.6-1.3-7.5-3.8c-1.2-1.7-1.9-3.6-2.4-5.5
				c0-0.2-0.1-0.3-0.1-0.5c0,0-0.1-0.1-0.2-0.2c-0.1,0.3-0.3,0.6-0.4,0.8c-0.8,1.3-1.6,2.7-2.4,3.9c-0.6,1-1.5,1.8-2.5,2.4
				c-1.5,0.9-3,1.3-4.7,0.9c-1.3-0.3-2.3-1-3.1-2c-1.4-1.7-2.1-3.7-2.5-5.8c-0.7-3.4-0.8-6.8-0.4-10.2c0.4-4,0.9-8,1.3-11.9
				c0.1-1.2,0.2-2.4,0.2-3.6c0-0.6,0-1.2-0.4-1.8c-0.1,0.1-0.3,0.1-0.4,0.2c-3.3,2.9-5.9,6.3-6.9,10.7c-0.4,1.7-0.5,3.4-0.6,5.1
				c-0.1,2.4,0,4.7,0,7.1c0,1.3-0.2,2.6-0.5,3.8c-0.3,1-0.7,1.9-1.4,2.6c-1.4,1.5-3.4,1.3-4.5-0.4c-0.4-0.6-0.6-1.3-0.8-1.9
				c-0.6-2.2-0.8-4.5-1-6.8c-0.1-0.9-0.1-1.8-0.2-2.8c-0.2,0.3-0.3,0.5-0.5,0.6c-1.2,2.1-2.5,4.2-3.7,6.3c-0.9,1.4-1.8,2.8-3.1,4
				c-0.6,0.5-1.2,1.1-1.9,1.5c-1.5,0.9-3.1,0.8-4.6-0.2c-1.3-0.8-2.1-2-2.7-3.3c-0.8-1.9-1.4-4-1.6-6.1c-0.7-5.2-0.8-10.3-0.5-15.5
				c0.1-1.5,0.2-3,0.3-4.4c0-0.2,0-0.4,0-0.7c-0.1,0-0.3-0.1-0.4-0.1c-3.3,0.1-6.5,0.4-9.7,1.1c-0.8,0.2-1.5,0.5-2.3,0.7
				c-0.2,0.1-0.4,0.2-0.5,0.2c-0.2,0-0.6,0-0.7-0.1c-0.1-0.1-0.2-0.5-0.1-0.7c0.2-0.4,0.4-0.8,0.7-1.1c0.7-0.5,1.4-1,2.2-1.4
				c1.6-0.8,3.3-1.2,5-1.5c1.7-0.3,3.4-0.5,5.1-0.7c0.2,0,0.4-0.1,0.7-0.1c0.1-0.4,0.1-0.8,0.2-1.2c0.3-2.6,0.5-5.3,0.8-7.9
				c0.2-1.6,0.5-3.1,1.2-4.5c0.3-0.7,0.7-1.3,1.2-1.9c1.1-1.3,2.7-1.4,4.1-0.4c0.7,0.5,1.2,1.2,1.6,1.9c0.6,1.3,1,2.6,1,4.1
				c0,2.5-0.1,5-0.2,7.5c0,0.8-0.1,1.7-0.2,2.6c2.9,0.2,5.7,0.2,8.6-0.2c0.1-1,0.3-2,0.4-3c0.5-3.7,1.4-7.2,2.9-10.6
				c0.7-1.6,1.6-3.1,2.8-4.5c0.8-0.9,1.7-1.7,2.8-2.1c2.2-1,4.4-0.6,5.9,1.5c1.2,1.8,1.6,3.7,1.2,5.8c-1,5.2-3.4,9.7-7.6,13.1
				c-0.3,0.3-0.6,0.5-0.5,1c0.1,1.8,0.2,3.6,0.4,5.5c0,0,0.1,0.1,0.1,0.2c0.3-0.1,0.4-0.3,0.6-0.5c1.4-1.7,2.9-3.3,4.6-4.7
				c1.1-0.9,2.3-1.8,3.6-2.4c1.2-0.5,2.4-0.9,3.7-0.6c1.5,0.3,2.5,1.2,3,2.6c0.2,0.8,0.3,1.6,0.4,2.4c0.1,2.5-0.1,4.9-0.4,7.4
				c-0.5,4.8-1.2,9.5-1.4,14.3c-0.1,2.8,0,5.6,0.6,8.3c0.2,0.8,0.5,1.6,0.8,2.3c0.3,0.7,0.7,0.8,1.4,0.5c0.5-0.2,1-0.6,1.4-1
				c0.8-0.9,1.5-1.7,2.1-2.7c0.8-1.3,1.5-2.7,2.2-4.1c0.2-0.3,0.2-0.8,0.2-1.1c-0.2-2.3-0.2-4.6,0.2-6.9c0.7-4.2,1.7-8.4,3.7-12.2
				c0.7-1.3,1.5-2.5,2.5-3.6c2.1-2.4,4.8-3.6,7.9-3.8c2.4-0.2,4.2,0.9,5.2,3.1c1.4,2.9,1.3,5.9,0,8.8c-1.6,3.6-4.5,5.7-8.3,6.7
				C296,184,295.7,184,295.4,184.1z M253.7,167.9c-2.9,0.5-5.7,0.4-8.5,0.3c-0.2,2.2-0.4,4.2-0.5,6.3c-0.2,2.1-0.3,4.3-0.4,6.5
				c-0.2,2.7-0.2,5.5,0.1,8.2c0.1,1.1,0.4,2.2,0.6,3.3c0.1,0.4,0.3,0.9,0.7,1.1c0.8-0.2,1.4-0.7,1.9-1.4c0.9-1.1,1.7-2.2,2.5-3.3
				c1.2-1.8,2.3-3.6,3.5-5.3c0.4-0.6,0.6-1.1,0.5-1.9c-0.3-4.4-0.5-8.8-0.3-13.3C253.7,168.4,253.7,168.2,253.7,167.9z M301.1,170
				c-0.8,0.2-1.2,0.7-1.6,1.2c-0.9,1.1-1.5,2.3-2,3.6c-0.8,2.1-1.3,4.2-1.7,6.4c0,0.3-0.1,0.5-0.1,0.9c0.3-0.1,0.6-0.1,0.8-0.2
				c3.6-1,6.2-4.5,6.1-8.1C302.6,172.4,302.2,171.1,301.1,170z M261.6,161.2c0.2-0.1,0.3-0.2,0.4-0.3c0.7-0.8,1.5-1.6,2.1-2.4
				c1.6-2.2,2.8-4.6,3.3-7.3c0.3-1.4,0.2-2.7-0.6-3.9c-0.4-0.5-0.6-0.6-1.1-0.2c-0.6,0.4-1.1,0.9-1.4,1.6c-0.4,0.9-0.7,1.8-1,2.7
				c-0.7,2.8-1.3,5.6-1.6,8.4C261.7,160.2,261.6,160.7,261.6,161.2z"/>
			<path d="M206.4,170.1c-2.8-0.3-5.3,0.3-7.5,1.9c-0.6,0.5-1.1,1.1-1.6,1.7c-0.2,0.3-0.4,0.7-0.6,1c-0.6,0.7-1.5,0.6-1.9-0.2
				c-0.3-0.5-0.4-1.1-0.3-1.6c0.6-2.6,2-4.7,4.5-5.9c1.5-0.7,3.1-1,4.8-1.1c1.5-0.1,3-0.2,4.5-0.2c2.1,0,3.9-0.5,5.6-1.7
				c2.2-1.5,4.2-3.3,5.8-5.4c2-2.6,2.5-5.5,1.8-8.7c-0.4-2-1.5-3.4-3.6-4c-1.9-0.5-3.4,0.1-4.6,1.5c-0.4,0.4-0.6,0.9-0.9,1.4
				c-0.2,0.3-0.3,0.5-0.5,0.8c-0.5,0.7-1.4,0.6-1.8-0.2c-0.2-0.4-0.2-0.9-0.2-1.3c0-0.4,0.2-0.9,0.4-1.3c2.5-4.4,8.1-6,12.4-2.6
				c1.6,1.3,2.5,3.1,2.8,5.1c0.9,5.5-0.6,10.3-4.3,14.5c-3.1,3.5-7.1,5.4-11.7,5.9c-0.2,0-0.4,0.1-0.7,0.1c-0.1,1.3-0.2,2.6-0.3,3.9
				c-0.4,4.1-1.3,8.1-3,11.9c-1.2,2.7-2.9,5-4.9,7.1c-1.8,1.9-4.1,3.3-6.7,3.8c-2.7,0.6-5.3,0.1-7.7-1.3c-2.5-1.4-4.3-3.4-5.8-5.8
				c-1.6-2.6-2.5-5.5-2.9-8.6c-0.7-6.2,0.9-11.7,4.6-16.7c1.8-2.5,4.1-4.4,7.3-5.2c-0.2-0.2-0.3-0.4-0.5-0.5
				c-4.1-3.6-6.2-8.1-6.5-13.5c-0.2-3.5,0.6-6.7,2.2-9.7c0.9-1.6,2-2.9,3.4-4c2.5-2,5.4-2.6,8.5-1.8c3.2,0.8,5.8,2.6,7.1,5.7
				c1.3,3.1,1.5,6.3,0.4,9.5c-0.3,0.8-0.7,1.5-1.3,2.1c-0.5,0.5-1.2,0.8-2,0.7c-1.3-0.2-2-1.4-1.8-2.7c0.1-0.8,0.4-1.6,0.7-2.3
				c0.2-0.7,0.5-1.4,0.8-2c0.7-1.9,0.4-3.7-0.6-5.4c-0.1-0.1-0.2-0.3-0.3-0.4c-1.5-1.8-4.4-2-6.1-0.5c-1.4,1.2-2.1,2.7-2.3,4.5
				c-0.3,2-0.2,4,0,6c0.3,3,1.1,5.9,2.4,8.6c1.1,2.3,2.7,4.1,4.7,5.6c0.4,0.3,0.8,0.6,1.2,1c0.3,0.3,0.6,0.8,0.8,1.2
				c0.3,0.7,0,1.3-0.6,1.7c-0.6,0.4-1.3,0.6-2.1,0.5c-1.4-0.3-2.7-0.2-4.1,0.2c-3,0.9-4.6,2.9-5.1,5.9c-0.5,2.8-0.4,5.6,0.1,8.4
				c0.4,2.2,0.9,4.3,1.8,6.3c0.6,1.6,1.5,3,2.7,4.3c2,2.1,4.8,2.3,7.1,0.6c1.4-1.1,2.5-2.4,3.2-4c0.7-1.5,1.3-3.1,1.7-4.7
				c0.8-3.1,1.2-6.2,1.4-9.4C206.4,170.7,206.4,170.4,206.4,170.1z"/>
		</g>
		<g>
			<path d="M160.5,107.5c-0.3,0.3-0.4,0.5-0.6,0.7c-0.9,1.1-1.8,2.3-2.8,3.4c-0.2,0.3-0.3,0.6-0.3,1c0.3,2.3,0.5,4.7,0.8,7
				c0.2,2.6,0.5,5.2,0.6,7.9c0.1,3.9,0.2,7.9,0.1,11.8c-0.1,3.8-0.3,7.7-0.7,11.5c-0.7,6.1-2.3,12-4.9,17.6c-1.4,3-3,5.9-5.1,8.6
				c-2.1,2.6-4.7,4.4-7.9,5.2c-3.8,0.9-7.3,0.1-10.5-1.9c-4.5-2.8-6.8-6.9-7.1-12.2c-0.1-1.5-0.1-3,0-4.5c0.2-3,1.1-5.8,2.2-8.5
				c1.9-4.7,4.4-9,7.2-13.3c4.2-6.3,8.9-12.2,14-17.9c0.2-0.3,0.4-0.5,0.7-0.7c0.7-0.5,0.8-1.1,0.7-1.9c-0.3-3.5-0.6-6.9-0.9-10.4
				c-0.3-3.3-0.6-6.5-0.9-9.8c-0.3-3.7-0.7-7.5-1-11.2c0,0,0-0.1-0.1-0.2c-0.1,0.2-0.1,0.3-0.2,0.5c-1,4.2-2.1,8.4-3.7,12.5
				c-1.5,3.6-3.2,7.1-5.6,10.1c-1,1.3-2.1,2.4-3.4,3.4c-3.1,2.4-6.5,2.1-9.3,0.2c-2.6-1.8-4.7-4.1-5.9-7c-1.2-2.9-2.1-6-2.5-9.1
				c-0.4-2.7-0.6-5.5-0.5-8.2c0.1-1.7,0.4-3.3,1-4.8c0.5-1.2,1.3-2.3,2.3-3.2c2.6-2.1,6-1.3,7.6,0.9c0.9,1.2,1.4,2.5,1.6,3.9
				c0.2,1.4,0.3,2.8,0.4,4.3c0.1,3,0,6.1,0,9.1c0,2,0.1,4,0.6,6c0.3,1,0.5,1.9,1,2.9c0.7,1.6,2.3,2,3.7,1.1c1-0.7,2-1.5,2.7-2.5
				c3.3-4.7,5.5-9.9,7-15.4c0.5-1.8,1.1-3.6,1.3-5.4c0.4-2.5,0.5-5,0.7-7.4c0.1-1.5,0.2-3,0.7-4.4c0.2-0.6,0.6-1.3,1-1.8
				c0.8-1.1,2.1-1.3,3.2-0.5c0.6,0.4,1.1,0.9,1.5,1.4c1.2,1.5,1.9,3.3,2.3,5.1c0.6,2.4,1.1,4.9,1.5,7.3c0.7,4,1.4,8,2.1,12
				c0.4,2.6,0.9,5.1,1.3,7.7c0,0.2,0.1,0.3,0.1,0.6c0.2-0.2,0.4-0.4,0.5-0.5c1-1.5,2.1-3,3.1-4.5c1-1.5,2.4-2.8,4-3.7
				c1.3-0.8,2.7-1,4.2-0.6c2.2,0.6,3.5,2,3.8,4.2c0.2,1.2,0.2,2.4,0.1,3.6c-0.2,2.6-0.6,5.1-0.8,7.7c-0.2,1.8-0.3,3.6-0.4,5.4
				c0,0.6,0.1,1.2,0.2,1.8c0.3,1.5,1.4,2.3,2.9,2.1c1.1-0.2,2-0.7,2.7-1.6c0.4-0.5,0.8-1.1,1.1-1.7c1.9-3.5,3.4-7.1,4-11.1
				c0.3-1.7,0.5-3.4,0.6-5.1c0.2-2.3-0.1-4.5-0.8-6.6c-0.7-2.1-1.4-4.2-2.2-6.3c-0.3-0.7-0.7-1.3-1.1-2.1c-0.3,0.3-0.5,0.4-0.7,0.6
				c-1.8,1.7-3.7,3.2-5.9,4.3c-2,1-4.1,1.7-6.4,1.8c-2.8,0.1-5.4-0.7-7.6-2.6c-1.8-1.5-2.6-3.5-2.9-5.8c-0.6-5,3.2-9.6,7.5-10.5
				c2.7-0.6,5.3-0.2,7.8,0.9c3.1,1.4,5.6,3.4,7.8,5.9c0.2,0.2,0.4,0.5,0.8,0.9c0.2-0.2,0.3-0.4,0.4-0.6c1.8-2.2,3.2-4.6,4.4-7.2
				c0.5-1.1,1-2.2,1.6-3.2c1-1.6,2.4-2.5,4.2-2.8c2-0.4,3.7,0.4,4.9,2c0.9,1.2,1.3,2.6,1.7,4c0.5,2,0.6,4,0.6,6c0,3-0.1,6.1,0,9.1
				c0,1.1,0.2,2.3,0.4,3.4c0.1,0.8,0.5,1,1.3,0.6c0.5-0.2,0.9-0.6,1.2-1c1.1-1.2,1.8-2.5,2.3-4c1.1-3,1.8-6.1,2.2-9.3
				c0.5-3.4,0.2-6.8,0.4-10.2c0-1.5,0.2-2.9,0.7-4.3c0.2-0.6,0.5-1.2,0.8-1.7c0.9-1.3,2.2-1.6,3.7-1c0.8,0.4,1.5,1,2.1,1.7
				c1.1,1.4,1.7,3.1,2.1,4.8c0.9,4.2,1.6,8.4,2.1,12.7c0.2,2,0.6,4,1,6c0.1,0.5,0.3,1,0.5,1.5c0.1,0.3,0.4,0.4,0.7,0.2
				c0.3-0.2,0.6-0.5,0.9-0.8c1.2-1.4,2.1-2.9,2.8-4.6c0.4-1,0.7-2,1.2-3c0.2-0.5,0.6-1,1-1.5c0.4-0.5,0.9-0.6,1.5-0.4
				c0.6,0.2,0.9,0.7,0.8,1.3c0,0.5-0.1,1.1-0.3,1.6c-0.2,0.7-0.5,1.3-0.9,1.9c-1.3,2.4-2.9,4.6-4.7,6.6c-0.7,0.7-1.4,1.3-2.2,1.9
				c-1.9,1.3-3.8,1.1-5.5-0.4c-1-0.8-1.7-1.9-2.4-3c-1.3-2.4-2.1-4.9-2.8-7.5c-0.3-1-0.5-2-0.7-3c0-0.1-0.1-0.2-0.2-0.4
				c-0.1,0.8-0.3,1.6-0.4,2.4c-0.7,3.3-1.3,6.6-2.4,9.8c-0.7,2-1.5,4-2.9,5.6c-0.6,0.7-1.2,1.4-2,1.9c-2.2,1.6-4.5,1.4-6.5-0.5
				c-0.9-0.9-1.7-2-2.3-3.1c-1.4-2.6-2.2-5.4-2.7-8.3c-0.4-2.7-0.7-5.3-1-8c-0.1-0.4-0.1-0.9-0.2-1.5c-1.9,2.9-3.7,5.6-5.6,8.4
				c0,0,0.1,0.2,0.1,0.3c2.5,3.7,3.8,7.8,4.2,12.2c0.6,6.2-0.1,12.3-2.3,18.1c-0.8,2.4-2,4.5-3.6,6.5c-1,1.3-2.2,2.4-3.6,3.2
				c-2.7,1.5-5.3,1.5-7.8-0.3c-2.2-1.6-3.8-3.7-4.8-6.2c-0.9-2.3-1.5-4.8-1.7-7.3c-0.2-2-0.2-3.9-0.4-5.9
				C160.6,108,160.5,107.8,160.5,107.5z M146.8,125.5c-0.3,0.3-0.4,0.5-0.5,0.7c-2.3,3-4.5,5.9-6.8,8.9c-3.4,4.5-6.6,9-9.4,13.9
				c-2,3.5-3.7,7.1-4.8,11c-0.8,3-1.3,6-0.7,9.1c0.4,2.5,1.4,4.8,3.5,6.4c1.4,1,2.9,1.8,4.7,1.9c2.9,0.3,5.2-0.8,7.1-2.9
				c1.3-1.5,2.3-3.2,3-5.1c1.1-2.9,1.7-5.9,2.2-9c0.7-5.1,1-10.2,1.3-15.3c0.2-3.7,0.2-7.4,0.3-11.1c0-1.4,0.1-2.8,0.1-4.2
				C146.8,128.4,146.8,127,146.8,125.5z M176.4,87.3c-0.2-0.2-0.3-0.3-0.4-0.5c-2.3-2.4-5-4.2-8.1-5.3c-0.4-0.2-0.9-0.3-1.4-0.4
				c-1.1-0.3-2.1,0.1-2.9,0.9c-0.9,0.9-1.5,1.9-1.9,3.1c-0.6,2.3,0.2,4.2,2.3,5.4c1.4,0.7,2.8,1,4.3,0.7
				C171.3,90.6,173.9,89.1,176.4,87.3z"/>
			<path d="M235,90.7c0,2.8-0.8,5.4-2.7,7.5c-0.3,0.4-0.8,0.7-1.2,1c-0.4,0.3-1,0.3-1.4-0.1c-0.4-0.4-0.5-0.9-0.3-1.4
				c0.1-0.3,0.2-0.6,0.3-0.9c1-2.5,0.6-4.9-0.4-7.3c-0.3-0.8-0.6-1.6-0.8-2.4c-0.4-1.9,1.2-3.1,3-2.5c1.5,0.5,2.4,1.6,3,3
				C234.9,88.6,235,89.6,235,90.7z"/>
		</g>
	</g>
</g>
</svg>
