<?xml version="1.0" encoding="iso-8859-1"?>
<!-- Generator: Adobe Illustrator 19.0.0, SVG Export Plug-In . SVG Version: 6.00 Build 0)  -->
<svg version="1.1" id="Capa_1" xmlns="http://www.w3.org/2000/svg" xmlns:xlink="http://www.w3.org/1999/xlink" x="0px" y="0px"
	 viewBox="0 0 512.076 512.076" style="enable-background:new 0 0 512.076 512.076;" xml:space="preserve">
<g>
	<g>
		<g>
			<path d="M32,202.705h21.333v10.667H42.666c-5.891,0-10.667,4.776-10.667,10.667c0.035,29.441,23.893,53.298,53.333,53.333
				c29.441-0.035,53.298-23.893,53.333-53.333c0-5.891-4.776-10.667-10.667-10.667h-10.667v-10.667h21.333
				c5.408-0.001,9.959-4.048,10.592-9.419l21.333-181.333c0.049-0.414,0.073-0.83,0.073-1.247
				C170.666,4.815,165.891,0.039,160,0.038H10.666c-0.417,0-0.833,0.025-1.247,0.073C3.569,0.801-0.615,6.102,0.074,11.953
				l21.333,181.333C22.04,198.657,26.592,202.704,32,202.705z M95.982,254.231c-16.666,5.881-34.944-2.861-40.825-19.527h60.352
				C112.288,243.832,105.109,251.01,95.982,254.231z M96,213.371H74.666v-10.667H96V213.371z M148,21.371l-18.816,160h-22.517H64
				H41.482l-3.763-32h47.614v-21.333H35.21l-2.509-21.333h52.631V85.371h-55.14l-2.509-21.333h57.649V42.705H25.175l-2.509-21.333
				H148z"/>
			<path d="M496.932,121.54C458.121,35.644,357.027-2.525,271.131,36.285c-85.895,38.811-124.065,139.905-85.254,225.801
				c1.863,4.029,1.011,8.792-2.133,11.925c-0.798,0.792-1.465,1.707-1.973,2.709l-30.264,59.738l-13.894,13.914l-7.543-7.55
				c-4.237-3.997-10.856-3.997-15.093,0l-90.528,90.603c-4.164,4.165-4.164,10.917,0,15.083l60.363,60.405
				c2,2.001,4.713,3.125,7.541,3.125c2.832,0.002,5.549-1.122,7.552-3.125l90.528-90.592c4.164-4.165,4.164-10.917,0-15.083
				l-7.552-7.559l13.971-14.004l59.629-30.267c1.002-0.511,1.919-1.173,2.72-1.963c3.095-3.066,7.757-3.913,11.733-2.133
				c64.738,29.115,140.726,15.298,191.072-34.741C512.272,262.37,526.184,186.28,496.932,121.54z M92.352,486.278l-45.269-45.312
				l7.552-7.558l22.611,22.631l15.092-15.078l-22.624-22.644l7.551-7.557l22.605,22.629l15.093-15.077l-22.619-22.643l7.556-7.562
				l22.611,22.631l15.092-15.078l-22.624-22.644l7.551-7.557l45.269,45.312L92.352,486.278z M160.238,357.901l15.107,15.112
				l-7.559,7.559l-15.093-15.115L160.238,357.901z M279.712,327.878c-11.47-5.137-24.885-3.084-34.293,5.248l-52.971,26.869
				l-19.2-19.264l26.869-53.013c8.32-9.464,10.347-22.915,5.184-34.411c-24.593-54.257-14.586-117.94,25.461-162.041
				C286.206,30.21,380.649,25.66,441.706,81.105c1.729,1.572,3.421,3.184,5.074,4.835c58.469,58.384,58.537,153.113,0.153,211.581
				C402.865,341.306,336.358,353.379,279.712,327.878z"/>
			
				<rect x="209.899" y="301.903" transform="matrix(-0.7076 -0.7066 0.7066 -0.7076 155.7735 689.5981)" width="21.333" height="21.333"/>
			<rect x="458.666" y="384.038" width="21.333" height="21.333"/>
			<rect x="416" y="384.038" width="21.333" height="21.333"/>
			<rect x="373.333" y="384.038" width="21.333" height="21.333"/>
			<rect x="458.666" y="426.705" width="21.333" height="21.333"/>
			<rect x="416" y="426.705" width="21.333" height="21.333"/>
			<rect x="458.666" y="469.371" width="21.333" height="21.333"/>
			<path d="M341.333,64.038c-70.693,0-128,57.308-128,128s57.308,128,128,128c70.661-0.076,127.924-57.339,128-128
				C469.333,121.346,412.025,64.038,341.333,64.038z M341.333,298.705c-58.91,0-106.667-47.756-106.667-106.667
				c0-58.91,47.756-106.667,106.667-106.667C400.217,85.436,447.935,133.154,448,192.038
				C448,250.948,400.243,298.705,341.333,298.705z"/>
			<path d="M341.333,106.705v21.333c35.332,0.035,63.965,28.668,64,64h21.333C426.613,144.932,388.439,106.758,341.333,106.705z"/>
		</g>
	</g>
</g>
<g>
</g>
<g>
</g>
<g>
</g>
<g>
</g>
<g>
</g>
<g>
</g>
<g>
</g>
<g>
</g>
<g>
</g>
<g>
</g>
<g>
</g>
<g>
</g>
<g>
</g>
<g>
</g>
<g>
</g>
</svg>
