<?xml version="1.0" encoding="iso-8859-1"?>
<!-- Generator: Adobe Illustrator 19.0.0, SVG Export Plug-In . SVG Version: 6.00 Build 0)  -->
<svg version="1.1" id="Capa_1" xmlns="http://www.w3.org/2000/svg" xmlns:xlink="http://www.w3.org/1999/xlink" x="0px" y="0px"
	 viewBox="0 0 483.788 483.788" style="enable-background:new 0 0 483.788 483.788;" xml:space="preserve">
<path style="fill:#1185E0;" d="M468.114,59.037h-279.51c-8.882,0-15.673,6.792-15.673,15.673v62.171H59.559
	c-5.747,0-11.494,3.135-14.106,8.359L1.567,230.4C0.522,232.49,0,235.102,0,237.714v126.433c0,8.882,6.792,15.673,15.673,15.673
	h25.078c6.792,25.6,30.302,44.931,58.514,44.931s51.722-19.331,58.514-44.931h153.6c6.792,25.6,30.302,44.931,58.514,44.931
	c28.212,0,51.722-19.331,58.514-44.931h39.706c8.882,0,15.673-6.792,15.673-15.673V74.71
	C483.788,65.829,476.996,59.037,468.114,59.037z M99.265,393.404c-16.196,0-29.257-13.061-29.257-29.257
	c0-16.196,13.061-29.257,29.257-29.257s29.257,13.061,29.257,29.257C128.522,380.343,115.461,393.404,99.265,393.404z
	 M172.931,348.473H157.78c-6.792-25.6-30.302-44.931-58.514-44.931s-51.722,19.331-58.514,44.931h-9.404V253.91h141.584V348.473z
	 M172.931,222.563H41.273l28.212-54.335h103.967v54.335H172.931z M369.894,393.404c-16.196,0-29.257-13.061-29.257-29.257
	c0-16.196,13.061-29.257,29.257-29.257c16.196,0,29.257,13.061,29.257,29.257C399.151,380.343,386.09,393.404,369.894,393.404z
	 M452.441,348.473h-24.033c-6.792-25.6-30.302-44.931-58.514-44.931c-28.212,0-51.722,19.331-58.514,44.931H204.278V90.384h248.163
	V348.473z"/>
<path style="fill:#4DCFE0;" d="M304.588,259.657c-4.18,0-8.359-1.567-10.971-4.702l-41.273-41.796
	c-6.269-6.269-6.269-16.196,0-21.943c6.269-6.269,16.196-6.269,21.943,0l30.824,31.347l77.845-68.963
	c6.269-5.747,16.196-5.224,21.943,1.567c5.747,6.269,5.224,16.196-1.567,21.943l-88.294,78.367
	C311.902,258.09,308.245,259.657,304.588,259.657z"/>
<g>
</g>
<g>
</g>
<g>
</g>
<g>
</g>
<g>
</g>
<g>
</g>
<g>
</g>
<g>
</g>
<g>
</g>
<g>
</g>
<g>
</g>
<g>
</g>
<g>
</g>
<g>
</g>
<g>
</g>
</svg>
