<?xml version="1.0" encoding="iso-8859-1"?>
<!-- Generator: Adobe Illustrator 16.0.0, SVG Export Plug-In . SVG Version: 6.00 Build 0)  -->
<!DOCTYPE svg PUBLIC "-//W3C//DTD SVG 1.1//EN" "http://www.w3.org/Graphics/SVG/1.1/DTD/svg11.dtd">
<svg version="1.1" id="Capa_1" xmlns="http://www.w3.org/2000/svg" xmlns:xlink="http://www.w3.org/1999/xlink" x="0px" y="0px"
	 width="897.352px" height="897.352px" viewBox="0 0 897.352 897.352" style="enable-background:new 0 0 897.352 897.352;"
	 xml:space="preserve">
<g>
	<path d="M807.163,553.668c-38.101-19.5-80.9-28.7-123.601-28.5c-4.399,0-6.199,6-2.699,8l0,0c9.899,8,19,15.9,26.899,25.3
		c19.601,23.4,27,54,38.601,81.601c11.1,26.5,30.3,58.199,61.5,62.6c42.399,5.9,76.899-43.4,64.199-82.4
		C862.363,590.268,834.363,567.568,807.163,553.668z"/>
	<path d="M235.163,203.168c0.4-0.6,36-61.8,74.2-103.6c4.2-4.6,8.5-9,12.8-13.3c13-12.9,26.7-24.7,40.899-35.2l-111.899-49.5
		c-8.8-3.8-19-0.5-23.8,7.8l-7.2,12.3l-195,336.4c-4.8,8.199-2.6,18.699,4.9,24.5l97.2,72.6c2.8-22.4,7.9-45.2,15.2-68
		c17.3-54,52.7-115.3,53-115.9L235.163,203.168z"/>
	<path d="M396.163,653.368l31.8,23.7l275.5-475.2l-36.2-16l17.101-29.6c7,4,13.8,7.9,20.3,11.7c3.399,1.9,7,2.9,10.6,2.9
		c7.4,0,14.5-3.8,18.5-10.7l9.2-15.8c6-10.3,2.4-23.4-7.9-29.3c-39.1-22.2-127.5-71.8-149.399-79.7c-19.9-7-39.8-10.2-59.3-10.2
		c-45,0-88.5,16.9-126.7,42.6c-16.4,11-31.7,23.6-45.8,37.2c-5.601,5.4-10.9,10.9-16.101,16.5c-35.9,39.3-70.1,97.7-71.1,99.3
		l-39.5,68.1c-0.9,1.6-34.6,60.3-50.8,111c-7.9,24.8-13.5,51.2-15.7,77.8c-5.4,66.6,10.6,134.1,64,179.8
		c17.7,15.2,104.8,67.3,143.5,90.2c3.399,2,7.2,3,10.899,3c7.4,0,14.5-3.8,18.5-10.6l9.2-15.801c5.9-10.199,2.5-23.3-7.7-29.199
		c-6.399-3.7-13.199-7.7-20.199-11.801L396.163,653.368z M356.663,260.768c-17.101,29.5-33.9,59.3-51.4,88.6
		c-24.6,44.1-39.4,82.899-46.8,122.1c-5.7,30.3-5,57.5,2,80.8l89.5,66.5l-20.4,35.2c-2.3-1.399-4.5-2.7-6.5-3.899
		c-40.6-24.5-79.899-47.601-95-95.801c-3.2-10.199-5.2-20.6-6.3-31.199c-2.2-21-0.7-42.4,3.2-63.2c8.7-46.4,26.7-88.7,49.5-129.7
		l51.7-89.1c22.8-37.8,48.8-72.5,81.7-102c2-1.8,4.1-3.6,6.199-5.4c16.601-14.1,35-26.4,54.9-35c0.1,0,0.2-0.1,0.3-0.1
		c9.101-3.9,18.4-7,28.101-9.1c8.8-1.9,17.199-2.8,25.5-2.8c38,0,70.8,18.6,104.899,37.6c2.101,1.2,4.3,2.4,6.7,3.7l-20.1,34.6
		l-101.7-41.9c-0.3,0.1-0.601,0.1-0.8,0.2c-19.5,4.3-39.301,13.7-58.801,28c-4.6,3.3-9.1,7-13.699,10.8
		c-0.101,0.1-0.301,0.2-0.4,0.3C408.663,185.768,382.562,217.768,356.663,260.768z"/>
	<path d="M805.062,221.668l-31.1-18.1c-3.2-1.8-6.6-2.7-10-2.7c-6.9,0-13.6,3.6-17.3,10l-8.2,14.2l-278.4,480l-8.399,14.399
		c-5.5,9.601-2.3,21.8,7.3,27.3l31.2,18.101c3.2,1.8,6.6,2.7,10,2.7c6.899,0,13.6-3.601,17.3-10l294.9-508.601
		C817.863,239.468,814.663,227.168,805.062,221.668z"/>
	<path d="M778.062,747.868c-38.1-19.5-80.899-28.5-123.6-28.3c-4.4,0-6.2,5.6-2.7,8.199l0,0c9.9,7.2,19,15.7,26.9,25.101
		c19.6,23.399,27,53.899,38.6,81.5c11.101,26.5,30.3,58.2,61.5,62.5c42.4,5.899,76.9-43.4,64.2-82.4
		C833.163,784.568,805.163,761.768,778.062,747.868z"/>
</g>
<g>
</g>
<g>
</g>
<g>
</g>
<g>
</g>
<g>
</g>
<g>
</g>
<g>
</g>
<g>
</g>
<g>
</g>
<g>
</g>
<g>
</g>
<g>
</g>
<g>
</g>
<g>
</g>
<g>
</g>
</svg>
