<?xml version="1.0" encoding="utf-8"?>
<!-- Generator: Adobe Illustrator 21.1.0, SVG Export Plug-In . SVG Version: 6.00 Build 0)  -->
<svg version="1.1" id="Calque_1" xmlns="http://www.w3.org/2000/svg" xmlns:xlink="http://www.w3.org/1999/xlink" x="0px" y="0px"
	 viewBox="0 0 432 432" style="enable-background:new 0 0 432 432;" xml:space="preserve">
<style type="text/css">
	.st0{fill:#CCCCCC;}
	.st1{fill:#B3B3B3;}
	.st2{fill:#D06C5D;}
	.st3{fill:#961F21;}
	.st4{fill:#8AC640;}
	.st5{fill:#CCA1CC;}
	.st6{fill:#BCD601;}
	.st7{fill:#FFCB39;}
	.st8{fill:#FC8792;}
	.st9{fill:#F5CED3;}
	.st10{fill:#1A1A1A;}
	.st11{fill:#F9F1DA;}
	.st12{fill:#E6E6E6;}
	.st13{fill:#DDC2A8;}
	.st14{fill:#97B87F;}
	.st15{fill:#FAA821;}
	.st16{fill:#333333;}
	.st17{fill:#4EBEB8;}
	.st18{fill:#ABDFEC;}
	.st19{fill:#FAA74B;}
	.st20{fill:#8C6239;}
	.st21{fill:#F06386;}
	.st22{fill:#F8E7D6;}
	.st23{fill:#D3C7BE;}
	.st24{fill:#E2D2C3;}
	.st25{fill:#9294CD;}
	.st26{fill:#E66667;}
	.st27{fill:#FFD602;}
	.st28{fill:#B776BA;}
	.st29{fill:#C69C6D;}
	.st30{fill:#E49F90;}
	.st31{fill:#EAC0B4;}
	.st32{fill:#D3B1AF;}
	.st33{fill:#F2F2F2;}
	.st34{fill:#9CCCB2;}
	.st35{fill:#CDB48C;}
	.st36{fill:#73C977;}
	.st37{fill:none;}
	.st38{fill:#EFB156;}
	.st39{fill:#D7F5F3;}
	.st40{fill:#DA407B;}
	.st41{fill:#DA4147;}
	.st42{fill:#912D61;}
	.st43{fill:#BFB49D;}
	.st44{fill:#FFFFFF;}
	.st45{fill:#23B6DB;}
	.st46{fill:#D7DD50;}
	.st47{fill:#DA444C;}
	.st48{fill:#4D4D4D;}
	.st49{fill:#97857A;}
	.st50{fill:#84735F;}
	.st51{fill:#6E2521;}
	.st52{fill:#3F3C35;}
	.st53{fill:#A1B099;}
	.st54{fill:#D4CEB9;}
	.st55{fill:#854E4C;}
	.st56{fill:#B9986D;}
	.st57{fill:#BAAC91;}
	.st58{fill:#3F4650;}
	.st59{fill:#7B7B73;}
	.st60{fill:#5A5B60;}
	.st61{fill:#984831;}
	.st62{fill:#B1885C;}
	.st63{fill:#653F34;}
	.st64{fill:#DCC69D;}
	.st65{fill:#727D6D;}
	.st66{fill:#9B7455;}
	.st67{fill:#826D56;}
	.st68{fill:#C3A88B;}
	.st69{fill:#96967A;}
	.st70{fill:#9F6B56;}
</style>
<g>
	<g>
		<path class="st23" d="M218.6,121.4c0.1-4.2,3-6.7,7.1-6c1.8,0.3,3.7,0.8,5.5,1.4c3.6,1.1,7.2,2.4,10.7,3.5c3.1,1,6.1,1.4,9.4-0.4
			c-0.9-4.9-2.3-9.7-4.2-14.4c-4.3,2.4-8.6,3.4-13.3,2.7c-7.3-1.2-15.8-10.6-11.2-20.6c1.8-3.9,4.4-7,8.2-9.2
			c-3.3-3.3-8-8.2-12.1-6.4c-3.2,1.4-8.2,6.5-9.7,10c2.6,2,4.6,4.5,6,7.4c1.6,3.2,1.9,6.4,0.5,9.8c-2.5,6.3-7.4,9.7-13.8,10.8
			c-2.7,0.5-5.5,0.1-8.6,0.1c-1.3,3.6-2.7,7.4-4.2,11.7c10.1,2.8,19.8,4.5,29.8,4.7C218.6,124.4,218.6,122.9,218.6,121.4z"/>
		<g>
			<path class="st34" d="M193,181.4c4.3,5.4,9.9,7.5,16.3,8C213,179.8,206,171.6,193,181.4z"/>
			<path class="st34" d="M207.6,98c0.9-1.5,1.7-3.1,0.9-4.8c-0.9-2.1-2.1-4-4.5-5.4c-2.6,4.8-5.1,9.5-7.7,14.3
				C200.9,103.2,205.6,101.4,207.6,98z"/>
			<path class="st34" d="M236.4,100.9c2.8,0.1,5.2-0.8,7.8-2.4c-2.1-5.2-4.5-10.1-8-14.3c-3.2,0.9-5.2,2.9-6.5,5.7
				C227.3,95,230.9,100.8,236.4,100.9z"/>
		</g>
		<path class="st23" d="M224.1,175.1c1.3-1.5,2.7-2.9,4-4.4c2.5-2.9,4.7-6,6.9-9.6c-8.8,1.1-17.2,1.2-25.5,0.5
			c-8.3-0.8-16.5-2.5-24.6-4.8c-0.3,4.8,1.7,12.9,4.2,17.6c3.1-1.4,6-2.9,9-4c7.2-2.5,14.7,0.2,17.8,6.3c2.6,5,1.9,9.1,1.3,13.8
			c14.4-2.6,16.6-2.6,18-4.8C232.6,185.3,215.9,184.5,224.1,175.1z"/>
		<g>
			<path class="st8" d="M221.9,154.2c-0.7-7-1.4-13.5-2.1-20.5c-11.3,0.1-22-2.1-32.5-4.7c-1.5,3.7-2.9,15-2.3,19.7
				C196.8,152.7,209.1,154.8,221.9,154.2z"/>
			<g>
				<path class="st8" d="M239.5,127.4c-3.7-1.1-7.3-2.4-11-3.6c-0.6-0.2-1.2-0.3-2.3-0.5c0.9,8.9,1.9,17.5,2.8,26.3
					c3.4-1.1,6.6-2,9.7-3c1.4-0.5,2.7-1.2,4.1-1.8c-0.5-5.3-1-10.1-1.4-15C241.3,128.4,240.8,127.8,239.5,127.4z"/>
				<path class="st8" d="M263.5,148.6c-1.1,0.6-2.1,1.1-3.5,1.9c2.4,6.4,4.8,12.6,7.2,18.8c1.4,3.6,1.8,3.8,5.7,3.5
					c0.6,0,1.1-0.2,1.7-0.3c3-0.6,5.9-1.2,8.9-1.8c0.6-0.1,1.2-0.3,2-0.5C279,161.7,270.4,156,263.5,148.6z"/>
				<path class="st8" d="M266.9,141.3c3.2-0.5,6.4,1,9.7-0.6c-1.8-9-3.6-17.9-5.4-26.8c-0.2-0.1-0.4-0.1-0.6-0.2
					c-2.3,3.1-4.5,6.1-7,9.4C267.8,128.6,266.9,134.9,266.9,141.3z"/>
				<path class="st8" d="M231.8,178c16.9,0,16,2.5,18.1-20.4c0.1-1.7-0.3-3.4-0.4-5.1C244.2,161.4,238.7,169.8,231.8,178z"/>
				<path class="st8" d="M254.8,127.5c-1.9,0.1-3.9,0.5-6,0.8c0.3,5.3,0.6,10.4,1.9,15.9c2.3-0.3,4.2-0.5,6.2-0.8
					c1.3-0.2,1.9-1.1,2.2-2.3c0.6-3.5,0.7-7,0-10.4C258.5,128.1,257.4,127.3,254.8,127.5z"/>
			</g>
		</g>
		<path d="M291.7,166.2c-2.7-3.8-5.7-7.3-9.3-10.3c-2.5-2.1-4.8-4.3-7.4-6.7c1.4-0.5,2.4-0.8,3.3-1.2c4.9-1.8,6.5-4.5,5.5-9.6
			c-1.8-9.1-3.6-18.1-5.5-27.2c-0.3-1.5-0.8-3-1.5-4.2c-1.9-3.5-5.6-4.1-8.5-1.5c-1.7,1.5-3.2,3.2-4.6,5c-1.7,2-3.2,4.2-5,6.6
			c-0.3-0.7-0.5-1.1-0.6-1.4c-1.7-7.6-4.7-14.7-7.7-21.9c-4.2-10-10.7-18.2-19-25.1c-35.3-29-83.4,112.1-30,126.9
			c9.5,2.6,18.6,3.9,32.1-0.6c8.4-1.9,12.3-9.7,14.3-10.6c7.6-3.3,7.9-10.8,9.4-19c0.7,1.4,1.1,2.2,1.5,3c2.9,6.5,3.8,11.4,9.9,11.8
			c2.5,0.2,5.1,0.1,7.6-0.2c3.4-0.5,6.7-1.2,10-2c1.6-0.4,3.3-0.9,4.8-1.6c1.7-0.8,2.8-2,3-3.5v-1.1c0-0.2,0-0.4-0.1-0.6
			C293.5,169.4,292.7,167.6,291.7,166.2z M270.6,113.7c0.2,0.1,0.4,0.1,0.6,0.2c1.8,8.9,3.6,17.8,5.4,26.8c-3.3,1.6-6.5,0.1-9.7,0.6
			c-0.1-6.4,0.8-12.6-3.3-18.1C266,119.9,268.3,116.8,270.6,113.7z M236.2,84.3c3.5,4.2,5.9,9.1,8,14.3c-2.6,1.5-5,2.5-7.8,2.4
			c-5.5-0.2-9.1-6-6.8-11C231,87.2,233,85.2,236.2,84.3z M204.1,87.8c2.4,1.4,3.6,3.3,4.5,5.4c0.8,1.8,0,3.3-0.9,4.8
			c-2,3.4-6.7,5.1-11.2,4.1C199,97.3,201.5,92.6,204.1,87.8z M193,109.9c3.1,0,5.9,0.4,8.6-0.1c6.5-1.1,11.3-4.5,13.8-10.8
			c1.4-3.4,1.1-6.6-0.5-9.8c-1.5-2.9-3.5-5.4-6-7.4c1.5-3.5,6.5-8.6,9.7-10c4.1-1.8,8.8,3.2,12.1,6.4c-3.8,2.2-6.4,5.3-8.2,9.2
			c-4.6,10.1,4,19.4,11.2,20.6c4.7,0.8,9-0.3,13.3-2.7c2,4.8,3.4,9.6,4.2,14.4c-3.3,1.8-6.4,1.4-9.4,0.4c-3.6-1.2-7.1-2.4-10.7-3.5
			c-1.8-0.6-3.6-1.1-5.5-1.4c-4-0.7-7,1.9-7.1,6c0,1.5,0,3,0,4.8c-10-0.2-19.7-1.9-29.8-4.7C190.3,117.3,191.7,113.4,193,109.9z
			 M242.8,144.8c-1.4,0.6-2.7,1.4-4.1,1.8c-3.1,1-6.3,2-9.7,3c-0.9-8.8-1.9-17.4-2.8-26.3c1.1,0.2,1.7,0.3,2.3,0.5
			c3.7,1.2,7.3,2.5,11,3.6c1.3,0.4,1.8,1,1.9,2.3C241.8,134.6,242.3,139.5,242.8,144.8z M187.2,129.1c10.6,2.6,21.2,4.8,32.5,4.7
			c0.7,7,1.4,13.5,2.1,20.5c-12.8,0.5-25.1-1.6-37-5.5C184.3,144.1,185.7,132.8,187.2,129.1z M209.3,189.4c-6.4-0.5-11.9-2.5-16.3-8
			C206,171.6,213,179.8,209.3,189.4z M217.2,190.5c0.6-4.7,1.3-8.8-1.3-13.8c-3.2-6.1-10.6-8.9-17.8-6.3c-3,1.1-5.8,2.6-9,4
			c-2.5-4.6-4.4-12.8-4.2-17.6c8.1,2.3,16.3,4,24.6,4.8c8.4,0.8,16.7,0.7,25.5-0.5c-2.2,3.6-4.4,6.7-6.9,9.6c-1.3,1.5-2.7,2.9-4,4.4
			c-8.3,9.5,8.5,10.3,11.1,10.6C233.8,187.9,231.6,187.9,217.2,190.5z M249.9,157.6c-2,22.9-1.2,20.4-18.1,20.4
			c6.9-8.2,12.4-16.6,17.6-25.5C249.6,154.2,250,156,249.9,157.6z M259,141c-0.2,1.2-0.8,2.1-2.2,2.3c-2,0.3-3.9,0.5-6.2,0.8
			c-1.3-5.4-1.6-10.6-1.9-15.9c2.1-0.3,4.1-0.7,6-0.8c2.6-0.2,3.7,0.7,4.2,3.2C259.7,134.1,259.7,137.6,259,141z M283.4,170.7
			c-3,0.6-5.9,1.2-8.9,1.8c-0.6,0.1-1.1,0.2-1.7,0.3c-3.9,0.3-4.3,0.1-5.7-3.5c-2.4-6.2-4.8-12.5-7.2-18.8c1.5-0.8,2.4-1.2,3.5-1.9
			c7,7.4,15.6,13.1,22,21.6C284.6,170.5,284,170.6,283.4,170.7z"/>
	</g>
	<g>
		<path d="M309.7,169.9c-2.6-0.7-4-2.3-4-4.2c0-2.1,1.5-3.5,3.9-3.7c0.5,0,1.1,0,1.6,0c4.6-0.1,9.3-0.2,13.9-0.3
			c2.7-0.1,4.9,1.1,5.5,3.3c0.5,2.2-0.8,4.1-3.5,4.6c-1.2,0.3-2.5,0.4-3.8,0.5c-4,0.1-7.9,0-11.9,0
			C310.8,170.1,310.1,169.9,309.7,169.9z"/>
		<path d="M311.9,186.2c4.4,2.2,8.8,4.4,13,6.7c2.3,1.3,2.9,3.6,1.7,5.5c-1.1,1.8-3.6,2.4-6,1.3c-2.4-1.1-4.6-2.4-7-3.5
			c-1.6-0.8-3.2-1.5-4.8-2.2c-2.2-1-3.5-2.6-3.3-4.4C306,186.9,308.7,185.5,311.9,186.2z"/>
		<path d="M326.7,135.5c2.6,1.7,3,4.9,0.8,6.6c-0.6,0.5-1.4,0.9-2.1,1.1c-3.5,1-7.1,1.9-10.6,2.7c-1.1,0.2-2.3,0.3-3.4,0.1
			c-2.1-0.3-3.5-1.7-3.9-3.5c-0.3-1.7,0.7-3.5,2.6-4.1c4.5-1.2,9-2.3,13.5-3.3C324.5,135,325.7,135.4,326.7,135.5z"/>
		<path d="M298.3,114c4.6-1.6,9.2-3.4,13.8-4.9c2.5-0.8,4.6,0.4,5.2,2.5c0.5,2-0.7,4.2-3.2,5.2c-2.4,1-4.9,1.7-7.3,2.7
			c-1.6,0.6-3.3,1.3-4.9,2c-2.3,1-4.3,0.7-5.5-0.7C294.7,118.8,295.6,115.8,298.3,114z"/>
	</g>
	<g>
		<path d="M150.4,169.9c2.6-0.7,4-2.3,4-4.2c0-2.1-1.5-3.5-3.9-3.7c-0.5,0-1.1,0-1.6,0c-4.6-0.1-9.3-0.2-13.9-0.3
			c-2.7-0.1-4.9,1.1-5.5,3.3c-0.5,2.2,0.8,4.1,3.5,4.6c1.2,0.3,2.5,0.4,3.8,0.5c4,0.1,7.9,0,11.9,0
			C149.4,170.1,150,169.9,150.4,169.9z"/>
		<path d="M148.2,186.2c-4.4,2.2-8.8,4.4-13,6.7c-2.3,1.3-2.9,3.6-1.7,5.5c1.1,1.8,3.6,2.4,6,1.3c2.4-1.1,4.6-2.4,7-3.5
			c1.6-0.8,3.2-1.5,4.8-2.2c2.2-1,3.5-2.6,3.3-4.4C154.1,186.9,151.4,185.5,148.2,186.2z"/>
		<path d="M133.4,135.5c-2.6,1.7-3,4.9-0.8,6.6c0.6,0.5,1.4,0.9,2.1,1.1c3.5,1,7.1,1.9,10.6,2.7c1.1,0.2,2.3,0.3,3.4,0.1
			c2.1-0.3,3.5-1.7,3.9-3.5c0.3-1.7-0.7-3.5-2.6-4.1c-4.5-1.2-9-2.3-13.5-3.3C135.6,135,134.4,135.4,133.4,135.5z"/>
		<path d="M161.9,114c-4.6-1.6-9.2-3.4-13.8-4.9c-2.5-0.8-4.6,0.4-5.2,2.5c-0.5,2,0.7,4.2,3.2,5.2c2.4,1,4.9,1.7,7.3,2.7
			c1.6,0.6,3.3,1.3,4.9,2c2.3,1,4.3,0.7,5.5-0.7C165.4,118.8,164.6,115.8,161.9,114z"/>
	</g>
	<g>
		<path d="M317.6,313l-1.5-3.2c-1-2.2-2-4.5-3-6.7c-2.6-5.8-5.7-12.6-9.8-19.2c3.3-0.3,6.2-1.6,8.7-2.8c5.3-2.6,8.9-7.1,10.8-13.3
			c1-3.4,0.9-6.6-0.3-9.5c-1.3-3.2-3.6-5-6.8-5.4c-2.1-0.3-4.2,0.1-6.5,1.2c-4.1,1.8-7.8,4.7-11.7,9l0,0c0.1-0.7,0.1-1.4,0.2-2
			l0.1-1.9c0.1-2.1,0.3-4.3,0.3-6.5c0-1.3-0.4-2.4-1.1-3.1c-0.7-0.7-1.7-1.1-2.8-1.1c-2.2,0-3.8,1.6-4,4c-0.1,1.3-0.2,2.5-0.3,3.8
			c-0.1,1.2-0.1,2.4-0.2,3.5l-0.8,11.4c-0.5,6.6-1,13.1-1.4,19.7c-0.5,6.4-0.8,12.8-1.2,19.4c0,0.8,0,1.6,0.3,2.4
			c0.5,1.6,2,2.7,3.7,2.7c1.7,0,3.2-1.1,3.7-2.8c0.2-0.8,0.3-1.7,0.4-2.6c0.3-4.5,0.6-8.9,0.9-13.4l0.6-9.6c1.4,1.9,2.5,3.9,3.5,5.8
			c3.4,6.3,6.3,12.8,9,19c0.7,1.6,1.5,3.5,2.6,5.3c0.8,1.4,2.1,2.1,3.5,2.1c0.6,0,1.2-0.1,1.8-0.5c1.9-1,2.6-3.1,1.8-5.2
			C317.8,313.2,317.7,313.1,317.6,313z M315.1,265.5c-1.2,4-3.4,6.7-6.7,8.4c-3,1.5-6,2.2-9.1,2c-0.3,0-0.6-0.1-1-0.1
			c3.5-6.4,7.5-10.8,12.6-13.7c0.9-0.5,1.9-0.9,3.2-1.3c0.5-0.2,0.7-0.2,1,0.6C315.6,262.6,315.6,264,315.1,265.5z"/>
		<path d="M187.1,262.1c-0.8-3.1-2-5.7-3.7-7.8c-3.6-4.6-8.2-5.9-13.8-4c-5.6,2-9.7,6.1-12.4,12.4c-0.4,1-0.7,2-0.8,2.9
			c-0.3,1.9,0.8,3.6,2.6,4.2c1.8,0.6,3.8-0.2,4.7-1.9c0.2-0.4,0.4-0.9,0.6-1.3c0.1-0.3,0.2-0.5,0.3-0.7c1.8-4.1,4.1-6.7,7.4-7.9
			c2.5-1,4.1-0.5,5.6,1.8c0.9,1.4,1.6,3,2.1,5.3c1.2,5.6,1.4,11.4,1.6,17l0,0.2c0,0.4,0,0.9,0,1.4c-2.7-0.7-5.5-0.6-8.9,0.1
			c-6,1.4-10.9,5-14.8,11c-2.2,3.3-3.1,6.9-2.9,11.2c0.1,3.2,2.4,6,5.6,6.8c0.9,0.2,1.7,0.3,2.5,0.3c1.9,0,3.6-0.5,5.1-1
			c4.5-1.6,8.8-4.3,13-8.3c0.1-0.1,0.3-0.3,0.4-0.4l0,0.2c0,1.4-0.1,2.6-0.1,3.8l0,0.2c0,0.8,0,1.6,0.1,2.4c0.3,1.7,1.7,2.9,3.5,3.1
			c1.8,0.1,3.3-0.8,3.9-2.4c0.3-0.9,0.4-1.8,0.4-2.5c0.5-13.9,0.4-24.5-0.2-34.4C188.6,269.3,188,265.6,187.1,262.1z M180.8,292.5
			L180.8,292.5c-4.6,4.9-9,9.6-15.2,12l-0.3,0.1c-0.9,0.4-1.7,0.7-2.7,0.6c-0.1-1,0.1-2.2,0.5-3.6c1.8-5.7,8.5-10.5,14.6-10.3
			C179,291.3,179.6,291.4,180.8,292.5z"/>
		<path d="M147.8,303.1c-1.9-0.8-3.9-0.2-5,1.6c-0.9,1.5-2.3,2.5-4.5,3.4c-3,1.2-5.6,0.6-7.9-1.7c-1.2-1.3-2.3-2.8-3.3-4.9
			c-2-4.3-2.6-8.9-3-12.9c-0.3-4.2-0.2-8.6,0.3-13.6c0.2-1.4,0.4-2.9,0.6-4.3c0.1-0.5,0.2-0.9,0.2-1.4l0.1,0c0.4,0,0.7,0,1,0
			c1.6,0,3.3,0.1,4.9,0.1c3.9,0.1,8,0.1,12,0.3c4,0.2,6.6-2,6.9-6.2c0.2-2.6-0.3-5.1-0.9-7.3c-0.8-3-2.8-5.5-5.8-7.2
			c-3-1.8-6.6-2.3-9.5-1.5c-4.8,1.3-8.4,3.7-11.1,7.3c-1.7,2.3-3,4.9-4,7.7c-1.5,4.4-2.4,9.2-2.8,15.6c-0.5,7-0.1,12.9,1,18.3
			c1.2,5.7,3.2,10.3,6.3,14.1c3.2,4,7.4,6.1,12,6.1c1.7,0,3.5-0.3,5.3-0.9c3.4-1.1,6-3.3,8.3-5.5c0.8-0.7,1.1-1.8,1.3-2.4
			C150.9,306,149.8,303.9,147.8,303.1z M128.4,261.3C128.4,261.3,128.4,261.3,128.4,261.3c1.7-3.1,4.2-5.2,7.6-6.1
			c2.5-0.7,5.1,0.8,5.9,3.4c0.2,0.6,0.3,1.2,0.4,1.9c0,0.3,0.1,0.6,0.1,0.9L128.4,261.3z"/>
		<path d="M280.4,298c-0.9,0.3-1.7,1-2.2,1.5c-0.6,0.6-1.1,1.2-1.6,1.8c-0.5,0.5-0.9,1.1-1.4,1.6c-1.9,2-4.1,3.1-6.5,3.5
			c-2.6,0.4-4.4-0.4-5.8-2.5c-2.1-3.3-3.2-6.8-3.4-10.7c-0.3-4.8-0.1-9.8,0.4-15.3c0.2-1.8,0.5-3.5,0.8-5.3c0.1-0.6,0.2-1.3,0.3-2
			c0.1,0,0.3,0,0.4,0c0.6-0.1,1.1-0.1,1.6-0.1c1.1,0,2.1,0,3.2,0c1.3,0,2.5,0.1,3.8,0c1.4,0,2.6-0.1,3.6-0.3
			c3.4-0.6,5.5-2.5,6.3-5.6c0.7-2.6,0.9-5,0.7-7.4c-0.4-4.7-3.4-8.2-7.8-9.3c-3-0.7-5.9,0-8.9,2.2c-2.1,1.6-3.9,3.5-5.6,6
			c-2.3,3.4-4,7.5-5.1,12.6c-1.9,8.3-2.4,17.1-1.6,26.8c0.4,4.8,2.2,9.4,5.3,13.6c2.5,3.4,6,5.2,10.3,5.2c0.9,0,1.8-0.1,2.7-0.2
			c6.9-1,11.3-5.7,14.8-10.2c0.2-0.2,0.3-0.5,0.4-0.8c0.6-1.6,0.4-3-0.6-4.2C283.4,297.9,281.9,297.5,280.4,298z M264,262.5
			C264,262.5,264,262.5,264,262.5c1.1-2.1,2.5-3.9,4.1-5.3c0.6-0.5,1.1-0.9,1.6-1.1c0.6-0.3,1.3-0.3,1.8-0.1
			c0.5,0.2,0.9,0.8,1.1,1.4c0.4,1.5,0.1,3.1-0.2,4.6c0,0.3-0.1,0.4-0.9,0.4c0,0,0,0,0,0l-7.2,0C264.1,262.5,264.1,262.5,264,262.5z"
			/>
		<path d="M208.4,246.3c-4.7-0.8-8.4,0.7-11.2,4.5c-1.8,2.4-2.9,5.2-3.3,8.3c-0.5,3.4,0.2,6.7,1,9.4c0.9,3.1,2.2,6.1,3.5,9
			c0.5,1.2,1,2.3,1.5,3.5c2,4.8,4.1,10,6,15.2c0.8,2.3,1.2,4.8,1.5,7.2l0,0.3c0.3,1.9-0.3,2.9-2.2,3.7c-0.3,0.1-0.7,0.2-1,0.4
			c-1.5,0.5-1.9,0.4-2.8-0.9c-1-1.5-1.6-2.9-1.8-4.4c-0.2-2.2-2-3.8-4.3-3.7c-2.1,0.1-3.8,1.7-3.9,4c0,0.6,0,1.1,0.1,1.5
			c0.7,2.7,1.6,4.9,2.9,6.8c1,1.5,2.3,2.8,3.8,3.7c1.5,0.9,2.9,1.3,4.3,1.3c0.2,0,0.4,0,0.6,0c3.1-0.3,5.7-1.3,7.9-3
			c3-2.3,4.4-5.4,4.3-9c0-0.9-0.1-1.9-0.2-2.9c-0.5-3.9-1.6-8-3.4-12.4c-1.5-3.7-3.1-7.4-4.6-11c-1-2.3-2-4.6-2.9-6.9
			c-1-2.3-2.1-5.3-2.5-8.6c-0.3-2.5,0.4-4.8,2-7c0.8-1,1.6-1.5,2.6-1.3c3.5,0.7,4.6,1.3,5.5,4.7c0.1,0.5,0.1,1,0.1,1.6
			c0,0,0,0.1,0,0.2l-0.1,0.6c0,0.2,0,0.4-0.1,0.6c0,0.4-0.1,0.9-0.1,1.3c0,1.7,1.1,3.1,2.8,3.7c1.6,0.5,3.3-0.1,4.2-1.4
			c0.4-0.6,0.7-1.3,0.9-2.1c0.9-3.8,0.2-7.7-1.9-11C215.6,249.1,212.3,247,208.4,246.3z"/>
		<path d="M254.7,251.9c0.2-1.8-0.6-3.3-2-4c-0.9-0.4-1.9-0.6-2.9-0.6c-7.4-0.1-14.7-0.1-22.1-0.1c-0.9,0-1.7,0.1-2.5,0.3
			c-1.7,0.4-2.9,1.8-3,3.5c-0.1,1.7,0.8,3.1,2.3,3.8c0.6,0.3,1.3,0.4,2,0.4c0.7,0,1.4,0,2.1,0c0.6,0,1.1,0,1.7,0
			c1.3,0,2.5,0,3.9,0.1l1,0c0,0.4,0,0.8,0,1.2l-1.8,53.5c0,0.7,0,1.5,0.1,2.3c0.2,1.4,1,2.5,2.4,3.1c0.5,0.2,1,0.3,1.5,0.3
			c0.7,0,1.4-0.2,2-0.6c1.2-0.7,1.9-2.1,1.9-3.6l0.1-1.4c0.2-4,0.4-8.1,0.6-12.1c0.3-9.3,0.6-18.6,0.9-27.9l0.4-13.8
			c0-0.3,0-0.7,0.1-1.1l0,0l1.2,0c1.6,0,3.1,0.1,4.6,0.1c0.9,0,1.6,0,2.3-0.2C253.3,254.8,254.5,253.5,254.7,251.9z"/>
		<path d="M108.8,288.9c-4,0.4-7.7,1.8-10.7,3.2c-0.6,0.3-1.1,0.7-1.6,1.2c-1,1.3-1.2,2.8-0.4,4.2c0.7,1.4,1.9,2.1,3.7,2.1l0.1,0
			l0.3,0c0.3,0,0.6-0.1,0.9-0.2c3-1.2,5.9-2.3,9.1-2.7c1.1-0.2,2-0.7,2.6-1.5c0.6-0.8,0.8-1.9,0.6-3
			C112.8,290.1,110.9,288.7,108.8,288.9z"/>
		<path d="M326.1,289c-0.6-1.2-1.6-2.1-2.8-2.4c-1.4-0.4-2.9-0.7-4.3-1l-1.8-0.4l-0.1,0c-0.2,0-0.5,0.1-0.7,0.1
			c-0.5,0.1-1,0.1-1.5,0.3c-1.6,0.5-2.6,1.9-2.7,3.5c-0.1,1.7,1,3.2,2.6,3.8c0.3,0.1,0.7,0.2,1.1,0.3l5.9,1.2
			c0.3,0.1,0.6,0.1,0.9,0.1c1.1,0,2.1-0.5,2.9-1.4C326.6,292,326.8,290.5,326.1,289z"/>
	</g>
	<g>
		<path class="st23" d="M240.5,228.3c44,2.2,39.2,1.9,43.8,2.2c22.4,1.6,71.6,14.7,77.6,22.1c2.7,3.4-2.2,3.4-21.1,24.9
			c-2.3,2.6,21.2,59.7,17.3,70.7c-3.7,10.4-11.8-17.6-138.6-19.3c-115.7-1.5-151.8,35.9-150,19.2c0.6-5.1,20.1-60.9,18.6-63.6
			c-16.6-29.1-17.9-24.8-3.4-33.5C119.3,230,239.9,228.3,240.5,228.3z M76.8,345.2c75.7-23.4,99.7-26.3,204.4-19.7
			c23.8,1.5,50.2,10.2,70.9,16.9c-12.6-67.5-34.7-55.6,1.5-87.6c-68.5-28.4-223.6-27.7-271.9,5.7c16.6,31.9,15.2,18.4,10.4,35.2
			C79.2,342,79.9,334.9,76.8,345.2z"/>
		<g>
			<g>
				
					<ellipse transform="matrix(7.985083e-02 -0.9968 0.9968 7.985083e-02 60.0078 512.5832)" class="st34" cx="307.6" cy="223.8" rx="6.4" ry="6.4"/>
				
					<ellipse transform="matrix(7.985083e-02 -0.9968 0.9968 7.985083e-02 70.5068 532.3845)" class="st34" cx="323.6" cy="228" rx="6.4" ry="6.4"/>
				
					<ellipse transform="matrix(7.985881e-02 -0.9968 0.9968 7.985881e-02 81.0035 552.1837)" class="st34" cx="339.6" cy="232.2" rx="6.4" ry="6.4"/>
				
					<ellipse transform="matrix(7.985660e-02 -0.9968 0.9968 7.985660e-02 91.5032 571.9855)" class="st34" cx="355.6" cy="236.4" rx="6.4" ry="6.4"/>
				
					<ellipse transform="matrix(0.9894 -0.1455 0.1455 0.9894 -29.1913 37.5673)" class="st34" cx="242.2" cy="218.3" rx="6.4" ry="6.4"/>
				
					<ellipse transform="matrix(0.9894 -0.1455 0.1455 0.9894 -29.3998 32.8025)" class="st34" cx="209.6" cy="217.4" rx="6.4" ry="6.4"/>
				
					<ellipse transform="matrix(0.9894 -0.1455 0.1455 0.9894 -29.3247 35.1856)" class="st34" cx="225.9" cy="218.1" rx="6.4" ry="6.4"/>
				
					<ellipse transform="matrix(0.9894 -0.1455 0.1455 0.9894 -29.0911 39.9736)" class="st34" cx="258.7" cy="218.9" rx="6.4" ry="6.4"/>
				
					<ellipse transform="matrix(0.9894 -0.1455 0.1455 0.9894 -29.223 42.3987)" class="st34" cx="275.2" cy="221" rx="6.4" ry="6.4"/>
				
					<ellipse transform="matrix(0.9894 -0.1455 0.1455 0.9894 -29.1241 44.8069)" class="st34" cx="291.8" cy="221.5" rx="6.4" ry="6.4"/>
				
					<ellipse transform="matrix(0.9718 -0.2357 0.2357 0.9718 -47.9968 40.4746)" class="st34" cx="145.3" cy="221" rx="6.4" ry="6.4"/>
				
					<ellipse transform="matrix(0.9718 -0.2357 0.2357 0.9718 -47.2985 44.3324)" class="st34" cx="161.8" cy="220.1" rx="6.4" ry="6.4"/>
				
					<ellipse transform="matrix(0.9718 -0.2357 0.2357 0.9718 -46.6003 48.1901)" class="st34" cx="178.3" cy="219.1" rx="6.4" ry="6.4"/>
				
					<ellipse transform="matrix(0.9718 -0.2357 0.2357 0.9718 -45.9032 52.0494)" class="st34" cx="194.8" cy="218.1" rx="6.4" ry="6.4"/>
				
					<ellipse transform="matrix(0.8943 -0.4474 0.4474 0.8943 -97.737 61.8032)" class="st34" cx="82" cy="237.8" rx="6.4" ry="6.4"/>
				
					<ellipse transform="matrix(0.8943 -0.4474 0.4474 0.8943 -93.9775 68.4025)" class="st34" cx="97.8" cy="233.2" rx="6.4" ry="6.4"/>
				
					<ellipse transform="matrix(0.8943 -0.4474 0.4474 0.8943 -90.2181 75.0018)" class="st34" cx="113.7" cy="228.5" rx="6.4" ry="6.4"/>
				
					<ellipse transform="matrix(0.8943 -0.4474 0.4474 0.8943 -86.4578 81.5997)" class="st34" cx="129.5" cy="223.8" rx="6.4" ry="6.4"/>
			</g>
			<g>
				
					<ellipse transform="matrix(7.984973e-02 -0.9968 0.9968 7.984973e-02 -65.4523 622.5371)" class="st8" cx="304.5" cy="346.7" rx="6.4" ry="6.4"/>
				
					<ellipse transform="matrix(7.985193e-02 -0.9968 0.9968 7.985193e-02 -54.9538 642.3375)" class="st8" cx="320.4" cy="350.9" rx="6.4" ry="6.4"/>
				
					<ellipse transform="matrix(7.984973e-02 -0.9968 0.9968 7.984973e-02 -44.4539 662.1396)" class="st8" cx="336.4" cy="355.1" rx="6.4" ry="6.4"/>
				
					<ellipse transform="matrix(7.985193e-02 -0.9968 0.9968 7.985193e-02 -33.9556 681.94)" class="st8" cx="352.4" cy="359.4" rx="6.4" ry="6.4"/>
				
					<ellipse transform="matrix(0.9894 -0.1455 0.1455 0.9894 -47.1091 38.4107)" class="st8" cx="239" cy="341.3" rx="6.4" ry="6.4"/>
				
					<ellipse transform="matrix(0.9894 -0.1455 0.1455 0.9894 -47.3187 33.6479)" class="st8" cx="206.4" cy="340.3" rx="6.4" ry="6.4"/>
				
					<ellipse transform="matrix(0.9894 -0.1455 0.1455 0.9894 -47.2474 36.0344)" class="st8" cx="222.7" cy="341" rx="6.4" ry="6.4"/>
				
					<ellipse transform="matrix(0.9894 -0.1455 0.1455 0.9894 -47.0122 40.8209)" class="st8" cx="255.6" cy="341.8" rx="6.4" ry="6.4"/>
				
					<ellipse transform="matrix(0.9894 -0.1455 0.1455 0.9894 -47.1453 43.2474)" class="st8" cx="272.1" cy="343.9" rx="6.4" ry="6.4"/>
				
					<ellipse transform="matrix(0.9894 -0.1455 0.1455 0.9894 -47.0443 45.6534)" class="st8" cx="288.6" cy="344.4" rx="6.4" ry="6.4"/>
				
					<ellipse transform="matrix(0.9718 -0.2357 0.2357 0.9718 -77.0544 43.1876)" class="st8" cx="142.2" cy="344" rx="6.4" ry="6.4"/>
				
					<ellipse transform="matrix(0.9718 -0.2357 0.2357 0.9718 -76.3587 47.0476)" class="st8" cx="158.7" cy="343" rx="6.4" ry="6.4"/>
				
					<ellipse transform="matrix(0.9718 -0.2357 0.2357 0.9718 -75.661 50.9061)" class="st8" cx="175.1" cy="342" rx="6.4" ry="6.4"/>
				
					<ellipse transform="matrix(0.9718 -0.2357 0.2357 0.9718 -74.9633 54.7647)" class="st8" cx="191.6" cy="341" rx="6.4" ry="6.4"/>
				
					<ellipse transform="matrix(0.8943 -0.4474 0.4474 0.8943 -153.0684 73.3702)" class="st8" cx="78.8" cy="360.8" rx="6.4" ry="6.4"/>
				
					<ellipse transform="matrix(0.8943 -0.4474 0.4474 0.8943 -149.3143 79.9739)" class="st8" cx="94.7" cy="356.1" rx="6.4" ry="6.4"/>
				
					<ellipse transform="matrix(0.8943 -0.4474 0.4474 0.8943 -145.5532 86.5716)" class="st8" cx="110.5" cy="351.4" rx="6.4" ry="6.4"/>
				
					<ellipse transform="matrix(0.8943 -0.4474 0.4474 0.8943 -141.7937 93.1709)" class="st8" cx="126.4" cy="346.8" rx="6.4" ry="6.4"/>
			</g>
		</g>
	</g>
</g>
</svg>
