<?xml version="1.0" encoding="utf-8"?>
<!-- Generator: Adobe Illustrator 20.1.0, SVG Export Plug-In . SVG Version: 6.00 Build 0)  -->
<svg version="1.1" id="Calque_1" xmlns="http://www.w3.org/2000/svg" xmlns:xlink="http://www.w3.org/1999/xlink" x="0px" y="0px"
	 viewBox="0 0 432 432" style="enable-background:new 0 0 432 432;" xml:space="preserve">
<style type="text/css">
	.st0{fill:none;}
	.st1{fill:#020203;}
	.st2{fill:#12100B;}
	.st3{fill:#12100E;}
	.st4{fill:#EDCCA3;}
	.st5{fill:#EB5C2C;}
	.st6{fill:#F49523;}
	.st7{fill:#F39208;}
	.st8{fill:#95C11F;}
</style>
<g>
	<g>
		<path d="M68.6,236.4c-1.3-0.3-2.7-0.3-3.8-0.3c-1.1,0-2.2,0.3-3.1,0.4c-0.3,0.1-0.4,0.7-0.2,0.8c0.8,0.8,1.7,1.4,2.6,2.1v2.5
			c-0.1,2.2-0.1,4.6-0.3,6.7c-0.1,2.2-0.7,7.5-0.9,9.7c-0.2,1.2-0.6,1.7-2.2,1.9h-0.5c-4.7,0.1-5.3,0.2-9.8,0.6h-0.8
			c-1.4,0-3,0.1-4.3,0.1c-0.5,0-0.9-0.2-1.1-0.1c-0.2-0.3-0.2-0.4-0.2-0.5c0.2-2.5,0.5-8,0.4-10.2c-0.1-1.1,0-2,0-3.1
			c0-2.1,0.6-4.5,0.4-6.7c0.6,0,1.8-0.3,2.4-0.4c0.5-0.1,2.3-1,2.4-1.7c0.2-0.3-0.2-0.7-1.1-1c-1-0.3-2.2-0.7-3.3-0.4
			c-1.6,0.6-3.2,0.6-4.9,0.4c-0.5,0-1.1-0.1-1.9-0.1c-0.5,0-0.9,0.1-1.4,0.2c-0.8,0.2-1.7,0.7-1.7,1c0.1,0.6,0.6,0.8,1.1,1.1
			c1,0.5,1.4,1.2,1.3,2.3c0,0.4,0.1,0.7,0,1.1c-0.2,3.3-0.3,6.6-0.6,10c-0.7,8.5-1.1,13.8-1,16c0.2,4.9-0.5,9.6-0.3,14.5
			c0.1,2.5,0.2,5.2,0.1,7.9c0,1.8,0.1,3.8,0.9,5.6c0.1,0.3,0,0.6,0,1c-0.7,0.3-1.6,0.4-2.2,0.6c-0.6,0.2-1.1,0.6-1,1
			c0.3,0.6,0.9,0.6,1.3,0.6c2.7,0.1,5.3,0.4,8.1,0.5c1.2,0,2-0.8,2.6-1.8c-0.8-1.1-2.4-0.7-3.6-1.8c0.1-0.5,0.1-1,0.4-1.7
			c0.4-1.6,0.6-3.4,0.4-5.2l0.1-7.7c0.1-2,0.1-3.8,0.1-5.9l0.3-5.9c0-1.9,0.3-3.6,0.4-5.4c0.2-1.4-0.2,0.1,0-1.1
			c0-0.2,0.1-0.3,0.2-0.4c0-0.1,0.2-0.1,0.3-0.1c2.8-0.3,5.5-0.4,8.4-0.6h7c0.6,0,1.1,0.1,1.9,0.1c0.4,0.1,0.6,0.4,0.7,0.8
			c0,0.2,0,0.6,0.1,0.9c-0.3,2.6-0.1,2-0.2,4.5c-0.1,1.2-0.2,2.3-0.2,3.4l-0.3,10.6c0.1,4.6-0.4,8.7,0.6,13.1c0,0.1-0.1,0.3-0.2,0.5
			c-0.2,0.1-0.4,0.1-0.6,0.1c-0.4,0.2-0.9,0.4-0.8,0.9c0.1,0.4,0.5,0.6,0.8,0.7c0.1,0.1,0.3,0.1,0.4,0.2c2.3,0.5,4.6,0.3,6.8,0.2
			c0.8-0.1,1.7-0.4,2.6-0.6c0.3-0.1,0.4-0.4,0.6-0.5c0.1-0.3,0.1-0.9-0.1-0.9c-0.5,0-0.8-0.2-1.2-0.3c-1-0.1-2-0.1-3-0.1
			c0-0.8,0.2-1.4,0.1-2.2c0-5.2,0.6-10,0.4-15.2c0-0.8,0.1-1.8,0.2-2.9c0.2-3.1,0.5-6.2,0.8-9.4c0.1-1.3-0.3,0.5-0.1-0.8
			c0.4-2.9,0.9-5.7,0.9-8.5c0-0.9,0.4-5.1,0.5-6c0.2-3.2,0.6-6.6,0.4-9.9c0-0.7-0.1-1.7,0.4-2.3l2.3-0.8c0.3-0.1,0.4-0.5,0.8-0.8
			c-0.5-0.4-0.8-0.8-1.2-1C71.5,236.8,70.1,236.4,68.6,236.4z"/>
		<path d="M111.7,294.3l-1.2,0.1c0.1-0.6,0.1-1,0.1-1.6l0.5-4.2c0-1.1,0.1-2.5,0.1-3.7c-0.1-1.6,0.1-3.1-0.1-4.8
			c-0.3-1.9,0.1-3.9-0.2-5.8c0.4-3.1,0-6.1-0.1-9.3l-0.6-11.9c0-4.9-1.7-9.3-3.7-13.5c-0.5-1.2-1.4-2.3-2.3-3.1
			c-0.9-1.3-2.4-1.8-3.9-1.6c-2.2,0.2-4.3,0.7-6.1,2.5c-2.6,2.5-4.9,5.1-6.2,8.5c-1.9,4.1-3.3,8.6-4.2,13.1
			c-0.4,2.1-0.7,4.5-1.1,6.4c-0.8,5-1.6,10-2.2,15c-0.2,1.9-0.4,3.5-0.4,5.2c0,3,0,5.7,0.1,8.5c-0.1,0.4-0.1,0.9-0.2,1.4
			c-0.4,0.1-0.7,0.2-0.9,0.3c-0.7,0.3-1.6,0.6-2.3,1.1c-0.3,0.2-0.4,0.8,0,1.1c0.2,0.3,0.5,0.5,0.8,0.7c1.2,0.6,2.5,0.6,3.7,0.7
			c0.9,0.1,2.1,0,3.1,0.3c0.9,0.4,3.1-0.3,3.2-1.4c0.1-0.8-0.1-1.3-0.9-1.6c-2-0.6-0.7-1.7-0.4-5.3c0-1.4,0-2.9,0.1-4.3
			c0.1-1.2,0.3-2.3,0.3-3.6c0.1-2.3,0.4-4.2,0.6-6.4c0.5-2.2,0.8-4.1,1.2-6.4c0.1-1.2,0.3-2.4,1-3.7c0.6-0.2,1.3-0.3,2.1-0.4
			c2.9-0.2,5.9-0.1,8.7-1h0.6c0.5-0.1,1.1,0.3,1.1,0.8c0.1,1.1,0.1,2.4,0.2,3.4c0,2.1,0.1,4.3,0.1,6.3c0.1,2.9,0.2,5.7,0.1,8.4
			c0.2,3.8-0.3,7.8,0.9,11.6c-0.6,0.2-1.1,0.5-1.4,0.8c-0.6,0.4-0.5,1.2,0,1.4c0.7,0.4,1.6,0.8,2.4,0.8l6.7-2.2
			c0.2,0,0.5-0.1,0.8-0.2c0.8-0.1,1.2-0.8,1.2-1.7C112.8,294.7,112.4,294.3,111.7,294.3z M101.7,261.7c-2.1,0.5-3.9,0.6-5.7,0.9
			c-1.9,0.3-3.7,0.6-5.5,1c-0.1-0.1-0.4-0.2-0.4-0.5c-0.2-2.5-0.1-5.1,0.5-7.6c0.3-1.3,0.5-2.6,0.7-3.9c0.3-1.4,0.3-3,0.6-4.2
			c0.2-1.8,1.1-3.6,2.1-5c0.7-1.1,1.8-2.3,2.7-3.2c0.5-0.5,1.4-0.3,1.8,0.4c1.3,3.4,2.7,7,2.8,10.8c0.2,3,0.4,6.2,0.5,9.2
			C101.8,260.4,101.7,261,101.7,261.7z"/>
		<path d="M149.1,290.4c0-0.9-0.4-1.4-1-2c-0.9-0.2-1.7,0-2,0.9c-0.3,0.4-0.6,0.9-0.7,1.4c-0.5,1.3-1.3,2.5-2.2,3.7
			c-0.5,0.6-1,1.1-1.9,1.3c-1.8,0.5-3.5,1-5.4,0.9c-1.8-0.2-4.6,0.2-6.9,0.3c-0.3-2.3-0.4-4.2-0.3-6.3c0-0.6,0.1-1.2,0.1-1.8
			c-0.2-4.9,0.2-9.4,0.8-14.1l0.3-2.5c0.3-4.1,0.6-8.1,1-12.1l0.6-8.3c0-1.2-0.1-2.6,0-3.8c0.1-2.4,0.3-4.8,0.4-7.3
			c0-0.2,0.1-0.4,0.2-0.6c1.1-0.4,2.1-0.5,3.2-0.5c0.6,0,0.9-0.7,1.3-1.1c0.2-0.3,0.1-0.9-0.2-1.1c-0.2-0.3-0.7-0.7-1.1-0.7
			c-1.8,0.1-3.4-0.5-5.2-0.1c-1,0.1-2.2,0-3.4,0h-2.5c-0.7,0.1-1.7,0.3-2.4,0.5c-0.1,0.1-0.5,0.5-0.5,0.8c0,0.2,0.3,0.6,0.4,0.7
			c0.7,0.4,1.3,0.8,2.1,1.1l0.2,1.4c0.3,2,0.3,4,0.1,6c-0.1,0.6-0.1,1.2-0.2,1.9c-0.1,2.3-0.2,4.9-0.5,7.3c-0.4,5-0.9,9.7-1.3,14.8
			c-0.5,6.1-1.1,12.5-1.1,18.8c0,2.4-0.1,4.7,0.4,6.9c0.2,0.3-0.2,0.8-0.5,0.9l-1.6,0.8c-0.4,0.1-1.1,0.6-1.4,0.9
			c-0.2,0.1-0.3,0.5-0.3,0.9c0.1,0.2,0.4,0.6,0.6,0.6c10.2,0,9.6-0.7,12.1-0.8c0.9,0,1.8-0.1,2.6-0.2h1.7c3.1,0.1,6.1-0.3,9-1.1
			c1.8-0.3,3.2-1.6,4.6-3c0.7-1.2,1.3-2.6,1-4.2C149.1,291.4,149.2,290.9,149.1,290.4z"/>
		<path d="M184.2,290.4c0-0.9-0.4-1.4-1-2c-0.9-0.2-1.7,0-2,0.9c-0.3,0.4-0.6,0.9-0.7,1.4c-0.5,1.3-1.3,2.5-2.2,3.7
			c-0.5,0.6-1,1.1-1.9,1.3c-1.8,0.5-3.5,1-5.4,0.9c-1.8-0.2-4.6,0.2-6.9,0.3c-0.3-2.3-0.4-4.2-0.3-6.3c0-0.6,0.1-1.2,0.1-1.8
			c-0.2-4.9,0.2-9.4,0.8-14.1l0.3-2.5c0.3-4.1,0.6-8.1,1-12.1l0.6-8.3c0-1.2-0.1-2.6,0-3.8c0.1-2.4,0.3-4.8,0.4-7.3
			c0-0.2,0.1-0.4,0.2-0.6c1.1-0.4,2.1-0.5,3.2-0.5c0.6,0,0.9-0.7,1.3-1.1c0.2-0.3,0.1-0.9-0.2-1.1c-0.2-0.3-0.7-0.7-1.1-0.7
			c-1.8,0.1-3.4-0.5-5.2-0.1c-1,0.1-2.2,0-3.4,0h-2.5c-0.7,0.1-1.7,0.3-2.4,0.5c-0.1,0.1-0.5,0.5-0.5,0.8c0,0.2,0.3,0.6,0.4,0.7
			c0.7,0.4,1.3,0.8,2.1,1.1l0.2,1.4c0.3,2,0.3,4,0.1,6c-0.1,0.6-0.1,1.2-0.2,1.9c-0.1,2.3-0.2,4.9-0.5,7.3c-0.4,5-0.9,9.7-1.3,14.8
			c-0.5,6.1-1.1,12.5-1.1,18.8c0,2.4-0.1,4.7,0.4,6.9c0.2,0.3-0.2,0.8-0.5,0.9l-1.6,0.8c-0.4,0.1-1.1,0.6-1.4,0.9
			c-0.2,0.1-0.3,0.5-0.3,0.9c0.1,0.2,0.4,0.6,0.6,0.6c10.2,0,9.6-0.7,12.1-0.8c0.9,0,1.8-0.1,2.6-0.2h1.7c3.1,0.1,6.1-0.3,9-1.1
			c1.8-0.3,3.2-1.6,4.6-3c0.7-1.2,1.3-2.6,1-4.2C184.2,291.4,184.3,290.9,184.2,290.4z"/>
		<path d="M220.9,252.1c-0.4-2.1-1.1-4.1-2-5.9c-1.2-2.8-2.9-5-4.7-6.9c-5.4-6.2-15.2-3.1-19.4,2c-1.1,1.4-2.1,3-2.9,4.5
			c-1.7,2.4-2.9,4.9-3.7,7.9c-0.6,1.6-1,3.3-1.4,4.9l-0.3,1.8c-0.8,5.6-1.2,11.2-0.8,16.7c0.2,2.9,0.8,5.8,2.1,8.4
			c0.7,1.2,1.2,2.4,1.9,3.3c2.2,3.3,4.3,6.3,7.4,8.6c1.6,1.1,3.2,2.1,4.9,2.7c0.4,0.1,1,0.2,1.4,0.1c1.1-0.1,2.2-0.3,3.1-0.8
			c5.1-2.8,8.9-8.9,9.2-9.9c2.2-6.9,2.6-8.2,3-9.6c0.5-3.2,1-6.6,1.7-9.7c0.6-3.9,0.5-8,0.7-11.6c0.2-1.4,0-2.9,0-4.5
			C221,253.4,221,252.6,220.9,252.1z M214.3,262.4v1.3c0,3.6-0.2,7.5-0.8,10.9c-0.3,1.8-0.8,3.4-1.1,5c-0.5,2.4-1.2,4.8-2,7.2
			c-0.5,1.6-1.3,3.2-2,4.9c-0.6,1.3-1.6,2.6-2.7,3.3c-1,0.9-2.4,1.4-3.7,1.4c-0.8,0-1.4-0.5-1.9-1.3c-1-1.9-2.2-3.4-2.8-5.6
			c-0.4-1.3-0.6-2.6-0.8-3.9c-0.5-2.3-0.7-4.7-0.9-7c-0.1-0.5-0.1-1.3,0-2c0.2-2.2,0.3-4.2,0.2-6.4c-0.1-1.1,0-2.4,0.1-3.4
			c0-0.7,0.1-1.6,0.1-2.2c0-3.3,0.6-6.4,1.2-9.6c0.4-1.6,0.7-3.5,1-5.2c0.3-1.8,0.8-3.5,1.2-5.3c0.3-1.3,1.3-2.1,2-3.2l0.4-0.3
			c4.7-5,10,0.7,11.7,10.6c0.4,2.2,0.4,4.6,0.7,6.8C214.4,259.6,214.3,261,214.3,262.4z"/>
		<path d="M276.6,235.6c-1.1-0.3-2.2-0.3-3.1-0.4c-2.1-0.1-7.6,0-6,1.8c0.4,0.5,1,0.9,1.3,1c0.4,0.2,0.8,0.5,1.3,0.6
			c-0.5,1.4-0.8,3-1.3,4.3c-0.2,0.9-0.5,1.7-0.7,2.7c-0.6,4-1.6,7.7-2.5,11.4c-0.7,3.3-1.4,6.3-2.3,9.2c-0.9,3.3-1.6,6.6-2.3,9.8
			c-0.3,1-0.4,2.1-1,3c-0.6-0.8-0.5-1.7-0.6-2.5l-4.3-21.9l-0.4-2.2c-1.3-3.5-2.5-2.7-5.9-2.7c-1.1,0-1.3,3.1-1.7,4.6
			c-0.1,0.5-0.5,1.6-0.8,2.1l-3.8,13.6c-1.3,3.5-2.7,7-3.9,10.7c-0.1,0.3-0.3,0.5-0.6,1c-0.3-1.1-0.5-2.2-0.5-3
			c0-3.4-0.4-6.4-0.6-9.8c-0.3-2.6-0.4-5.1-0.6-7.9c-0.3-3.2-0.5-6.6-0.9-9.9c-0.1-1.8-0.4-3.6-0.8-5.4c-0.2-2.1-0.4-3.9-0.7-6.2
			c0.2-0.2,0.5-0.8,0.6-1.3c0.4-0.5,0.1-1.4-0.5-1.4c-0.5-0.2-1-0.2-1.4-0.4l-6.6-0.3l-1.2-0.3c-0.6,0-0.9,0.2-1.1,0.8
			s0.2,1.1,0.6,1.4c0.4,0.4,0.9,0.4,1.6,0.7c1,0.3,1.2,0.6,1.2,1.4c0,2.5,1.3,15.2,1.7,19.2c0.3,5.4,0.5,11.1,0.9,16.5
			c0.2,3,0.5,6,1,8.8c0.4,3.5,1.1,7.1,2,10.8c0.3,2.7,1.9,3.8,3.7,4.6c0.4,0.3,0.9,0,1.2-0.5c0.1-0.4,0.3-0.7,0.4-1.1
			c0.4-2.2,1.2-4.3,2.1-6.5c1.1-2.4,2-4.9,2.7-7.8c0.6-2,1.1-4,2-5.9c1-2.7,2.1-5.3,2.7-8.3c0.2-1.1,0.5-2.5,0.8-3.5l0.9-5.4
			c0-0.1,0.2-0.3,0.3-0.4c0.2,0.1,0.3,0.2,0.3,0.3c2.5,9.8,3.4,15,4,18.4c0.8,4.7,1.9,10.5,3.4,14.9c0.6,2.2,2,3.7,2.6,4.5
			c0.6,0.8,1.6,0.3,1.9-0.7c0.4-1.1,0.6-2,0.8-2.8c1.1-3.3,2.2-7.8,2.6-11.4c0.1-0.4,0.1-0.9,0.3-1.3c0.7-2.6,1.3-5,1.8-7.3
			c0.2-1.6,0.6-3.3,1.1-4.7c0.5-2.1,1.2-4.3,1.8-6.4c0.2-0.9,0.2-1.6,0.3-2.1c0.4-2.4,0.8-4.6,1.2-6.4c0.6-2.4,2.1-12.2,3.2-16.1
			c0-0.1,1.6-0.2,2.6-0.8C278.1,237.6,278.7,236.2,276.6,235.6z"/>
		<path d="M311,237.8c-0.9-0.1-1.8-0.3-2.6-0.5c-0.7-0.1-1.2-0.2-2-0.2l-12.5-0.2c-1.6-0.2-3.1-0.1-4.6,0.1
			c-0.8,0.2-1.6,0.2-2.4,0.3c-1.3,0.2-2.6,0.5-3.9,0.7c-0.5,0.3-0.9,0.7-1,1.2c-0.1,1,0,2.1,0.4,3c0.2,0.6,0.6,0.7,1.1,0.7
			c0.5,0,0.9-0.1,1.1-0.8c0.1-0.3,0.2-0.7,0.4-1.1c0.1-0.3,0.6-0.5,1-0.3c0.2,0.1,0.5,0.4,0.5,0.6c0,0.8-0.2,1.9-0.2,2.8
			c0.2,2-0.1,3.9-0.3,6c-0.3,4.6-0.5,9.1-0.7,13.9c-0.1,2.7-0.1,5.3-0.3,8c-0.5,7-0.8,14-0.4,20.8v1.8c0,0.5,0.6,1,0.2,1.8
			c-0.6,0.3-1.2,0.2-2,0.1h-2.2c-0.2,0-0.5,0.2-0.5,0.4c-0.1,0.4,0,0.9,0.2,1.2c0.4,0.2,0.7,0.4,1.1,0.5c2.2,0.8,4.6,1.2,6.8,1.2
			c2.4,0.1,4.9-0.2,7.3-0.3c1.3-0.1,2.7-0.1,4.1-0.3c0.7,0,1.4,0,2.2,0.1c2.3,0.3,4.7,0.2,6.9,0c0.5-0.1,0.9-0.2,1.2-0.6
			c0.6-0.6,1-1.7,1.2-2.6l0.3-3.3c0.1-0.9-0.2-1.4-0.9-2c-0.3-0.1-0.6-0.3-0.9-0.4c-0.5-0.3-1.1-0.1-1.3,0.5l-0.6,2.3
			c-0.2,0.7-0.6,1.1-1.2,1.2s-1.2,0.3-1.9,0.3l-3.5,0.3c-1.8,0-3.7,0.1-5.6,0.1c-0.9,0-1.8-0.2-2.7-0.3c-0.5-2.2-0.8-4.1-0.7-6.3
			c0-1.2,0.2-2.7,0.1-4c-0.1-4.7,0.4-9.3,0.8-13.9c0.1-0.5,0.2-1.1,0.7-1.4c0.9,0,2,0.3,3,0.4c1.1,0.2,2.2,0.2,3.1,0.2
			c0.2,0.4,0.3,0.4,0.3,0.6c0.3,2,1.4,2.8,2.8,3.6c0.8,0.7,1.7,0,1.7-1.1c0-0.4,0-0.9-0.1-1.3c0-1.4-0.1-2.8-0.3-4.1
			c-0.1-0.6-0.4-1.3-0.6-2.1c-0.3-0.8-0.8-1.1-1.7-1.4c-1-0.4-1.7,0.1-2,1.3v0.4c-0.2,0.4-0.4,0.8-0.6,0.9c-1.7,0.3-3.2,0.5-4.9,0.3
			c-0.6-0.1-0.9-0.4-0.9-1.3v-0.8c0.2-3.8,0.4-7.6,0.6-11.1c0.1-4.5,0.2-8.9-0.5-13.5c0,0,0-0.1,0.1-0.2c0.4-0.5,1.1-0.2,1.8-0.1
			l10.9,0.2c0.1,0,0.1,0.1,0.2,0.1c0.3,0.6,0.2,1.3,0,2c-0.5,1.7-0.2,3,1,4.1c0.3,0.2,0.5,0.7,0.7,0.9c1.2,1.4,2.4,1.4,2.9,0.1
			c0.1-0.2,0.1-0.4,0.2-0.7c0.2-1.8,0.4-3.6,0.7-5.5c0-0.3,0.1-0.6,0.1-1.1C312.4,238.8,311.9,238.1,311,237.8z"/>
		<path d="M347.5,237.8c-0.9-0.1-1.8-0.3-2.6-0.5c-0.7-0.1-1.2-0.2-2-0.2l-12.5-0.2c-1.6-0.2-3.1-0.1-4.6,0.1
			c-0.8,0.2-1.6,0.2-2.4,0.3c-1.3,0.2-2.6,0.5-3.9,0.7c-0.5,0.3-0.9,0.7-1,1.2c-0.1,1,0,2.1,0.4,3c0.2,0.6,0.6,0.7,1.1,0.7
			c0.5,0,0.9-0.1,1.1-0.8c0.1-0.3,0.2-0.7,0.4-1.1c0.1-0.3,0.6-0.5,1-0.3c0.2,0.1,0.5,0.4,0.5,0.6c0,0.8-0.2,1.9-0.2,2.8
			c0.2,2-0.1,3.9-0.3,6c-0.3,4.6-0.5,9.1-0.7,13.9c-0.1,2.7-0.1,5.3-0.3,8c-0.5,7-0.8,14-0.4,20.8v1.8c0,0.5,0.6,1,0.2,1.8
			c-0.6,0.3-1.2,0.2-2,0.1h-2.2c-0.2,0-0.5,0.2-0.5,0.4c-0.1,0.4,0,0.9,0.2,1.2c0.4,0.2,0.7,0.4,1.1,0.5c2.2,0.8,4.6,1.2,6.8,1.2
			c2.4,0.1,4.9-0.2,7.3-0.3c1.3-0.1,2.7-0.1,4.1-0.3c0.7,0,1.4,0,2.2,0.1c2.3,0.3,4.7,0.2,6.9,0c0.5-0.1,0.9-0.2,1.2-0.6
			c0.6-0.6,1-1.7,1.2-2.6l0.3-3.3c0.1-0.9-0.2-1.4-0.9-2c-0.3-0.1-0.6-0.3-0.9-0.4c-0.5-0.3-1.1-0.1-1.3,0.5l-0.6,2.3
			c-0.2,0.7-0.6,1.1-1.2,1.2s-1.2,0.3-1.9,0.3l-3.5,0.3c-1.8,0-3.7,0.1-5.6,0.1c-0.9,0-1.8-0.2-2.7-0.3c-0.5-2.2-0.8-4.1-0.7-6.3
			c0-1.2,0.2-2.7,0.1-4c-0.1-4.7,0.4-9.3,0.8-13.9c0.1-0.5,0.2-1.1,0.7-1.4c0.9,0,2,0.3,3,0.4c1.1,0.2,2.2,0.2,3.1,0.2
			c0.2,0.4,0.3,0.4,0.3,0.6c0.3,2,1.4,2.8,2.8,3.6c0.8,0.7,1.7,0,1.7-1.1c0-0.4,0-0.9-0.1-1.3c0-1.4-0.1-2.8-0.3-4.1
			c-0.1-0.6-0.4-1.3-0.6-2.1c-0.3-0.8-0.8-1.1-1.7-1.4c-1-0.4-1.7,0.1-2,1.3v0.4c-0.2,0.4-0.4,0.8-0.6,0.9c-1.7,0.3-3.2,0.5-4.9,0.3
			c-0.6-0.1-0.9-0.4-0.9-1.3v-0.8c0.2-3.8,0.4-7.6,0.6-11.1c0.1-4.5,0.2-8.9-0.5-13.5c0,0,0-0.1,0.1-0.2c0.4-0.5,1.1-0.2,1.8-0.1
			l10.9,0.2c0.1,0,0.1,0.1,0.2,0.1c0.3,0.6,0.2,1.3,0,2c-0.5,1.7-0.2,3,1,4.1c0.3,0.2,0.5,0.7,0.7,0.9c1.2,1.4,2.4,1.4,2.9,0.1
			c0.1-0.2,0.1-0.4,0.2-0.7c0.2-1.8,0.4-3.6,0.7-5.5c0-0.3,0.1-0.6,0.1-1.1C348.9,238.8,348.4,238.1,347.5,237.8z"/>
		<path d="M398.5,237.7c-0.2-0.2-0.5-0.5-0.8-0.6c-1.4-0.4-3.1-0.3-4.7-0.1c-0.4,0.1-0.8,0.2-1.3,0.2c-1.9,0-3.4,0.6-5.2,0.9
			c-0.6,0.2-1,0.4-1.4,0.8c-0.4,0.5-0.3,1.2,0.3,1.3c0.3,0.2,0.6,0.2,0.9,0.2c0.6,0.2,0.8,0.5,0.9,1.2c-0.1,0.1-0.1,0.2-0.1,0.4
			c-0.7,17.9-0.7,20-0.6,21.8c-0.1,1,0,2,0,2.8c0,0.9-0.1,1.8,0,2.6c0.1,4.1-0.1,8.2-0.1,12.2c0,0.3-0.1,0.5-0.2,1.3l-0.8-1.2
			c-0.7-1.6-1.6-3.3-2.3-4.8c-0.5-1.1-0.8-2.4-1.3-3.5c-0.5-1-0.9-2.4-1.6-3.6c-0.7-1.6-4.3-10.2-5.6-12.2c-2.1-3.2-3.6-6.6-5-10.1
			c-0.9-2.7-2.3-5.1-3.6-7.6c-1.4-3-2.9-1.2-4.9-1.7l-4.1,0.3c-1.6,0-1.9,1.3-2.2,1.7c-0.7,1-0.1,2.6,1.7,2.5c0.4,0,0.8-0.1,1.1-0.1
			c0.7,0.1,1,0.5,1,1.1c0,1.7,0.1,3.3,0.1,4.9c0,4.9-0.2,9.8-0.5,14.7c-0.3,3.6-0.7,7.3-0.3,10.9l-0.1,0.5c-0.2,3-0.3,6-0.3,9
			c0,2.8-0.2,5.6-0.3,8.4c0,1.4,0,2.6-0.2,3.7c-0.7,0.6-1.6,1-2,1.4c-0.6,0.6-2.3,0.9-2.5,1.2s0,0.9,0.3,1.1
			c0.3,0.3,0.7,0.3,1.1,0.3c0.5-0.1,1.1-0.3,1.9-0.4c1.2-0.3,2.5-0.3,3.8,0c1.9,0.5,3.3-0.5,3.4-2.5c0.1-1.8,0.4-3.2,0.2-5v-0.9
			c0.2-2,0.4-3.7,0.5-5.7c0.2-3.8,0.4-7.7,0.5-11.6c0.2-3.9,0.3-7.8,0.3-11.8c0.1-3.3,0.3-6.6,0.5-9.8c0-0.1,0.2-0.3,0.4-0.5
			c0.5,0.9,1.1,1.8,1.4,2.9c1.2,2.5,2.4,5.1,3.6,7.6c0.8,1.7,1.6,3.3,2.4,5c1.4,3,2.9,6.1,4,9.3l6,16.1c0.9,1.4,2.2,2.9,3.2,4.5
			c0.5,0.8,1.2,1.3,2.4,1.3c1,0.1,1.7-0.2,2-1.1c0.3-0.6,1.1-8.9,1.2-12.8c0-2-0.5-4.1,1.1-21.7l0.3-6.7c0-1.8-0.2-3.4-0.2-5.2
			c-0.1-0.7,0-1.3,0-2.2c-0.5-2.8,0.3-5.7-0.4-8.4c0.3-0.1,0.5-0.2,2.2-0.1c1.3-0.2,2.3-0.6,3.1-1.1
			C398.4,238.7,398.7,238.2,398.5,237.7z"/>
	</g>
	<g>
		<g>
			<path d="M123.1,173.6c-0.2-0.4-0.4-0.9-0.7-1.3s-1-0.2-1.2,0.1c-0.2,0.6-0.8,1.3-0.7,2c-0.3,0.8-0.5,1.6-1.3,2.5l-1.4,1.9
				c-2,1.5-5,3.6-7,4.4c-0.8,0.2-1.4,0-1.3-0.9c-0.1-1.7-0.3-3.2-0.2-5c0.2-3,0.7-13.6,0.8-16.6c0.1-1.7,0.1-3.6,0.3-5.5
				c-0.4-3.4-0.1-7,0.1-10.5c0-4.3-0.2-8.3-1-12.4c-0.2-0.8-0.7-1.3-1.5-1.7c0,0-5.9,1.4-5.9,5.2c0,0.7,0,1.4-0.5,1.9
				c-0.3,4.9-0.8,10-1.1,15.1c-0.7,4.8-0.8,9.8-1.2,14.5c-0.4,3.3-0.7,13.8-0.9,17.1c0,0.3,0,0.5-0.1,1c-0.1,0.5-0.5,0.9-1,1
				c-0.2,0.1-0.5,0.2-0.7,0.2c-10.4,1.9-10.6,1.4-20.5,4.5c-2.3,0.8-4.5,1.7-6.8,2.4c-0.5,0.4-1.2,0.5-1.8,0.6
				c-0.3,0-0.6-0.3-0.8-0.4l0-0.5c-0.2-2.9,0.1-12.8,0.2-15.4c-0.1-2.7,0-5.4,0.3-8.2c0-2.6,0.1-5.4,0.2-8.2
				c0.2-2.1,0.3-4.1,0.2-6.2c0.1-2,0-0.6,0.1-2.6c0-2-0.2-3.9-0.1-6l-0.5-1.4c-0.4-1.8-1.2-3.3-3.6-3.8L63,141
				c-1.5-0.8-2.9-0.3-4.5-0.2c-0.4,1.8-0.7,3.8-1.2,5.6c-0.1,2.3-0.3,4.8-0.6,7.2c-0.1,1.8-0.3,0.4-0.4,2.4
				c-0.2,0.7-0.4,1.6-0.4,2.4c0,2.8-0.5,5.8-0.6,8.9c-0.3,4.1-0.4,8.3-0.6,12.4c-0.3,3.7-0.8,14.5-1,18c-0.1,2-0.2,2.2-1.9,3
				c-1.8,1.5-4,2.4-5.8,3.9l-6.1,6.3c-0.9,0.6-1.3,1.9-2.1,2.8c-0.3,0.2-0.7,1.1-0.6,2c1.4,1.2,1.7,1.3,3.3,1
				c1.2-0.4,2.2-0.9,3.3-1.8c1.2-1.1,2.6-2.1,3.9-3.7c1.1-0.9,2.2-1.9,3.5-2.9c0.4-0.5,0.8-1.1,1.7-1.4c0.1,0.2,0.4,0.3,0.4,0.4
				c0,0.8,0,1.8-0.1,2.5c0.3,2.4,0.3,4.6,0.2,7c0,4.5,0.7,5,0.9,9.4c0.1,0.9,0.3,1.4,0.9,2c1,0.6,2,1.5,3,2.1
				c1.8,1.2,3.5,1.8,5.6,1.7c2.7-0.4,3.5-1,3.5-3.3c0.2-2.5-0.2-4.9-0.3-7.3c0-5.1-0.6-13.1-0.3-18.2c0.1-2.5-0.1,2.3-0.2-0.1
				c-0.1-0.7,0.2-1.5,0.2-2.1c0-0.6,0.4-1.1,1.1-1.4c0.3,0,0.5-0.2,0.7-0.3c2.9-0.7,5.3-1.9,7.9-2.9c3.6-1.1,20.1-4.8,21.2-4.8
				c0.3,0,0.6,0,1,0.1c0.5,0.6,0.6,22.1,0.6,26c0.2,0.9,0.7,1.7,1.1,2.1c1.5,1.6,2,3.6,5.8,3.1c1.6-0.2,3-1.5,3.5-2.6
				c0.3-1,0.1-1.8,0-2.7c0-3.2-0.2-6.5-0.4-13.7c0-0.3-0.1-0.5,0-0.7c0.6-1.9-0.3-10.1-0.2-11.9c0.2-2.6,0.1,2.1,0.3-0.5
				c0.1-1,0.4-1.4,1.5-1.9c1.7-0.4,3.5-1,5.2-1.6l4-2c2.4-1.8,4.3-3.7,5.6-6.2c0.8-1.2,0.3-2.3-0.1-3.3
				C124.7,175.1,124,174.3,123.1,173.6z"/>
			<path d="M214.6,170.4c-0.5-2.5-1.7-4.8-4.2-6c-2.1-1.5-8.8-2.6-11.5,1.2c-0.3,0.2-0.6,0.7-0.8,0.9l-0.9,1.1
				c-1.4,1.5-2.4,3.8-3.4,5.7c-0.8,2.4-1.8,4.9-3,7.2c0,0.2-0.1,0.3-0.4,0.5c-0.5-0.3-0.9-2.7-1-3.4c-0.1-1-0.4-2.2-0.6-3.3
				c-0.4-1.7-1.5-3.2-2.1-4.7c-0.5-0.7-1-1.4-1.8-1.8c-1.6-1-3.2-1.4-5.1-1.4c-0.3,0-0.8-0.1-1.3,0.1c-1.5,0-2.4,0.6-3,2.1
				c-0.9,3.2,2,4.1,3.8,3.5c0.1,0,0.3-0.1,0.4-0.1c0.2,0.2,0.4,0.4,0.3,0.4c0.2,1.3,0.4,2.6,0.5,4c-1,0.2-1.5,3.3-2.5,5.6
				c-2.2,4.8-2.4,7.8-5.3,12.4c-0.8,1.5-4.2,5.5-5.5,6.5c-3.3,2.6-7.6,0.3-10.1-3.7c-1.9-3.3-2.7-6.9-2.8-10.8c0-4.6-0.9-9-2.6-13.3
				c-0.7-2.1-3.4-3.1-5.5-2.3c-2,0.6-2.3,0.3-2,2.5c-0.1,1.4-0.3,2.1-1.8,2.2c-0.9,0-1.6,0.2-2.7,0.3c-2,0-3.7,0.6-5.6,1.1
				c-2.4,1.1-3.7,2.8-4.2,5.1c-0.3,2.4-0.8,4.6-1.2,6.6c-0.3,2.1,0,4.2,1.2,6.1c1.8,3,4.1,5.3,7.1,7c2.6,1.1,5.7,0.5,7.4-1.7
				c1.1-1.3,1.9-3.1,2.6-4.2c0.3-0.5,0.5-0.6,1-0.9c1.2,0.3,1.5,1.4,1.8,2c1.1,2,2.5,3.6,4.1,5.2c3.5,3.5,7.3,5.5,12.5,4.7
				c0-0.1,0.3,0,0.4-0.2c0.7-0.1,1.8-0.4,2.7-0.8c5.3-1.9,9-11.2,9.2-11.9c1-3.2,1.8-5.3,2.5-7.8c0,0.8,0,1.5,0.1,2.3
				c0,1.4,0.1,2.5,0.2,3.6c0,2.3,0.2,4.6,0.1,7.1c0,0.2,0,0.3,0,0.5c0.2,2.1,0.2,4.2,0.6,6.2c0.2,1.3,0.3,6.8,0.3,8
				c0,1,0.8,5.7,0.8,6.7c0.1,0.7,0.1,1.6,0.3,2.2l0.6,1.9l0.6,1c0.8,0.7,1.3,1.4,2,1.8c1.1,0.9,3.4,0.9,4.7-0.1
				c0.4-0.3,0.5-0.6,0.4-1c0-1.4,0.3-2.4,0.3-3.4c-0.2-3,0.1-5.7,0.1-8.4c-0.1-1.6-0.1-3.3-0.4-9.2c-0.1-2.3-0.3-4.1-0.2-6.3
				l0.2-1.5c0.1-0.6,0.3-0.9,0.8-0.8c1.1,0.2,2.1,0,3.1,0c1.2,0.3,2.4,0.2,3.4-0.4c2-0.6,3.7-2,5.4-2.9c1.3-0.7,5.4-4,6.8-7.2
				c0.8-1.5,1.6-2.8,2.3-4.3c0.7-1.3,1.3-3,1.3-4.4c0.2-2,0.4-3.8-0.3-5.7L214.6,170.4z M143.3,182c-1,3.6-2.2,6.8-3.4,10.2
				c-0.6,1.1-1.1,2.4-2.6,3.2c-0.4-0.5-0.6-0.6-0.7-1.2c-0.2-0.8-0.4-1.5-0.4-2.4c0.2-2.8,0.7-5.6,1-8.3c0-1.2,0.9-2.2,1.7-3.2
				c0.8-0.9,1.9-1.4,3.4-1.4c0.5,0,1.1,0.7,1.2,1.3C143.4,180.7,143.4,181.5,143.3,182z M203.8,169.7c-0.1,0.2,0,0.3,0,0.6
				c0,0.3,0.1,0.5,0,0.8c-0.6,2.1-1,4.2-1.4,6.6c0,0.8-0.1,1.3-0.4,2c-0.9,2.8-2.2,5.4-3.6,8.2c-0.9,1.5-2.3,2.8-3.9,4.1
				c-0.2,0.1-0.9,0.4-1.2,0.6c-0.5,0.1-0.9-0.3-0.8-0.8l0.2-1c0.5-2.5,1.5-5.4,2.6-8c0.5-1.5,1-2.8,1.5-4.2c0.7-1.6,1.4-3.2,2.1-4.9
				c0.3-0.8,0.8-1.3,1.1-1.7c0.8-0.9,1.5-2.1,2.3-3.1c0.4-0.3,0.8-0.8,1.2-0.5C203.9,168.8,203.7,169.4,203.8,169.7z"/>
			<path d="M256.9,171.4c0.2-2,0.4-3.8-0.3-5.7l-0.1-1c-0.5-2.5-1.7-4.8-4.2-6c-2.1-1.5-8.8-2.6-11.5,1.2c-0.3,0.2-0.6,0.7-0.8,0.9
				l-0.9,1.1c-1.4,1.5-2.4,3.8-3.4,5.7c-0.8,2.4-1.8,4.9-3,7.2c0,0.2-0.1,0.3-0.4,0.5c-0.5-0.3-0.9-2.7-1-3.4
				c-0.1-1-0.4-2.2-0.6-3.3c-0.4-1.7-1.5-3.2-2.1-4.7c-0.5-0.7-1-1.4-1.8-1.8c-1.6-1-3.2-1.4-5.1-1.4c-0.3,0-0.8-0.1-1.3,0.1
				c-1.5,0-2.4,0.6-3,2.1c-0.9,3.2,2,4.1,3.8,3.5c0.1,0,0.3-0.1,0.4-0.1c0.2,0.2,0.4,0.4,0.3,0.4c0.5,3.2,0.7,6.3,1.2,11.5
				c0.1,1.2-0.1,2.8,0.1,4.3c0,1.4,0.1,2.5,0.2,3.6c0,2.3,0.2,4.6,0.1,7.1c0,0.2,0,0.3,0,0.5c0.2,2.1,0.2,4.2,0.6,6.2
				c0.2,1.3,0.3,6.8,0.3,8c0,1,0.8,5.7,0.8,6.7c0.1,0.7,0.1,1.6,0.3,2.2l0.6,1.9l0.6,1c0.8,0.7,1.3,1.4,2,1.8
				c1.1,0.9,3.4,0.9,4.7-0.1c0.4-0.3,0.5-0.6,0.4-1c0-1.4,0.3-2.4,0.3-3.4c-0.2-3,0.1-5.7,0.1-8.4c-0.1-1.6-0.1-3.3-0.4-9.2
				c-0.1-2.3-0.3-4.1-0.2-6.3l0.2-1.5c0.1-0.6,0.3-0.9,0.8-0.8c1.1,0.2,2.1,0,3.1,0c1.2,0.3,2.4,0.2,3.4-0.4c2-0.6,3.7-2,5.4-2.9
				c1.3-0.7,5.4-4,6.8-7.2c0.8-1.5,1.6-2.8,2.3-4.3C256.3,174.4,256.9,172.7,256.9,171.4z M245.6,163.9c-0.1,0.2,0,0.3,0,0.6
				c0,0.3,0.1,0.5,0,0.8c-0.6,2.1-1,4.2-1.4,6.6c0,0.8-0.1,1.3-0.4,2c-0.9,2.8-2.2,5.4-3.6,8.2c-0.9,1.5-2.3,2.8-3.9,4.1
				c-0.2,0.1-0.9,0.4-1.2,0.6c-0.5,0.1-0.9-0.3-0.8-0.8l0.2-1c0.5-2.5,1.5-5.4,2.6-8c0.5-1.5,1-2.8,1.5-4.2c0.7-1.6,1.4-3.2,2.1-4.9
				c0.3-0.8,0.8-1.3,1.1-1.7c0.8-0.9,1.5-2.1,2.3-3.1c0.4-0.3,0.8-0.8,1.2-0.5C245.7,163,245.6,163.6,245.6,163.9z"/>
			<path d="M307.3,156.6c0,0,0.6-2.3-6.9,7.5c-1.1,1.2-2.1,2.4-3,3.7c-0.8,0.7-1.8,1.6-2.5,2.5c-0.1,0.1-0.5-0.1-0.7-0.3
				c-0.1-0.2-0.3-0.6-0.4-0.9c0-0.6-0.2-1.5-0.3-2.3c-0.5-1.9-0.2-3.8-0.6-5.6c-0.3-1.7-0.5-3.3-0.7-4.8c-0.5-2-1.5-3.3-3.7-3.7
				c-0.3-0.1-0.7,0-1-0.2c-1-0.1-1.9-0.3-2.6-0.3c-0.6,0-0.9,0.2-1.2,0.7c-0.3,0.8-0.6,1.7-0.9,2.7c-0.4,0.8-2.5,6.7-2.9,7.3
				c-0.4,0.4-0.6,1-0.8,1.8c0,0.4-0.3,0.8-0.5,1.2c-0.7,1.2-4.2,8.2-5.9,10.3c-0.2,0.3-0.4,0.5-0.5,0.6c-0.1,0.2-0.6,0-0.5-0.1
				c-0.2-0.5-0.4-0.8-0.3-1.3c-0.5-2-0.4-6-0.5-8.1c-0.1-1.2-0.3-2.2-0.6-3.3c0-1.7-1.8-4.1-2.2-3.9c-1-0.3-2.3-0.5-3.1-0.1
				c-0.3,0.1-0.6,0.3-1,0.3c-0.6,0.1-1,0.7-0.9,1.3c-0.2,0.3-0.1,0.7-0.2,1c-0.2,2.6,0,5.1-0.3,10c0.2,3.5,1.3,6,3.3,8.7
				c0.1,0.2,0.4,0.4,0.8,0.6c0.6,0.4,1.2,0.8,1.9,1.1c2.4,1.5,6.9-1.5,7.5-2.5c0.6-0.8,1-2,1.7-2.9c0.5-0.7,3.5-9.2,4-10.2
				c0.6-1.7,1.1-3.1,1.5-4.4c0.1-0.1,0.4-0.2,0.7-0.5c0.4,0.9,0.4,1.6,0.3,2.3c0.1,3-0.1,5.9-0.2,9.1c-0.1,2.1-0.5,4.7-1.1,6.6
				c-0.4,0.7-0.7,1.3-1.2,1.7c-1.9,1.5-3.9,2.9-5.9,4.7c-0.1,0.1-0.4,0.4-0.5,0.4l-1.7,1.4c-0.4,0.3-0.6,0.6-1.1,1.1
				c-1.8,1.6-3.5,3.4-4.9,5c-1.5,1.9-2.7,3.7-4.2,5.8c-0.5,0.8-1,1.5-1.2,2.5c-0.3,1.3-0.8,2.4-1.3,3.6c-0.1,0.4-0.7,4.3-0.7,5.7
				c-0.2,1.5,0.2,3.1,0.5,4.6c0.7,5.4,5.7,7.6,10,8.6c0.2,0.1,0.3,0.1,0.6,0.1c6.8,2.4,12.3-3,13-3.6c0.6-0.9,1.4-1.8,1.8-2.7
				c0.4-0.8,4.5-5.2,6.9-18c0.3-1.1,0.3-2,0.6-3c0.5-1.3,0.2-2.8,0.6-4.1c0.2-1.4,0.1-7.5,0.1-8.5c0.2-1.5,0.2-3.2,0.5-4.7
				c-0.1-0.9,0-1.6,0.6-2.2c0.4-0.4,0.8-0.9,1.1-1.4c0.8-1.8,2.2-3.1,3.4-4.7c1.8-2.1,4.8-7.4,5.1-7.7c0.9-1.1,1.2-2.1,1.9-3.7
				C307.8,160.2,309.1,158.2,307.3,156.6z M282.1,199l-3.4,9.5c-0.2,0.7-0.7,1.7-2.7,5.7c-0.5,1.8-1.4,3.5-2.5,5.2
				c-0.5,0.5-0.8,0.8-1.2,0.8c-0.7,0.2-1.1,0.2-1.7-0.2c-0.5-0.4-0.7-0.6-1-1c-0.4-0.4-0.4-0.9-0.4-1.4c-0.1-1,0-2.3-0.1-3.3
				c0.3-1.1,0.4-2.3,0.7-3.5c3.7-10.8,8.2-15.4,8.6-15.7c0.5-0.5,4.2-5.1,5-5C283.5,191.4,282.4,198,282.1,199z"/>
		</g>
		<path class="st7" d="M394.4,187.6c-0.4-2.6-1.3-5.1-2.8-7.3c-1.1-1.7-2.4-3.2-3.8-4.6c-1.7-1.8-3.7-3.2-6-3.9
			c-2.8-1.1-5.7-1.4-8.6-0.9c-2.2,0.2-4.5,0.9-6.6,1.9c-0.6,0.4-1.2,0.9-1.9,0.9c-0.8,0-1.3-0.7-2-0.9c-0.2-0.1-0.5-0.4-0.6-0.5
			c-0.1-0.4-0.1-0.8-0.2-1.2c-0.5-0.9-0.4-1.9,0-2.8c0.5-1.7,1.5-2.7,3.2-3.2l1.8-0.4c0.2,0,0.5,0,0.7-0.1c0.9-0.2,1.9-1.1,1.8-2.2
			c-0.1-0.5-0.2-0.9-0.6-1.4c-0.9-1.2-2.2-1.9-3.8-2.2c-2.4-0.6-4.7-0.6-7.1-0.1c-0.9,0.2-1.9,0.5-2.8,1.1c-2.7,1.4-4.8,3.5-6.3,6.4
			c-0.4,0.5-0.5,1.1-0.7,1.5c-0.1,0.4-0.2,0.6-0.4,0.9c0,0-0.2,0.1-0.4,0.1c-0.2-0.7-0.5-1.3-0.6-2c-0.8-2.4-2.1-4.2-4-5.8
			c-2.4-2-5-3.3-8.1-3c-3.4,0.4-5.4,2.2-6,5.2c-0.5,2.1,0,3.9,1.8,5.2c0.9,0.8,2.1,1.2,3.3,1.2c2.4,0.1,4.4-1.7,4-4.2
			c0-0.2-0.1-0.5-0.1-0.6c-0.4-1.7-1.7-2.7-3.3-2.6c-1.1,0-1.9,0.6-2.2,1.5c-0.1,0.6-0.1,1.1-0.1,1.5c0.1,0.4,0.5,0.6,0.7,0.6
			c0.2,0,0.5-0.1,0.6-0.4c0.1-0.4,0.2-0.8,0.4-1.2c0.1-0.4,0.6-0.6,1.1-0.6c0.5,0.1,0.8,0.4,1.2,0.7c0.2,0.6,0.4,1.1,0.4,1.7
			c0,0.5-0.2,0.9-0.5,1.3c-0.5,0.4-0.9,0.7-1.5,0.7c-1.3,0-2.5-0.4-3.3-1.3c-0.2-0.4-0.5-0.7-0.6-1.1c-0.4-0.8-0.4-1.8,0-2.6
			c0.6-1.8,1.7-2.8,3.4-3.3c1.9-0.5,3.8-0.2,5.4,0.6c3,1.5,5.1,3.8,6.1,7c0.7,2,1.1,4,1.2,6.1c0.1,0.1,0,0.2,0,0.5s-0.2,0.4-0.6,0.5
			c-0.2-0.1-0.6-0.4-0.9-0.5c-2.6-1.3-5.4-1.8-8.3-2c-0.8,0-1.8,0.2-2.6,0.2c-1.5,0.1-3,0.5-4.4,0.9c-5,1.5-8.6,4.5-11.1,9
			c-2.1,3.8-3.2,7.9-3.1,12.3c0,2.6,0.5,5.1,1.4,7.4c1.3,3.2,2.8,6.3,4.7,9.1c2.6,3.8,5.9,6.6,9.9,8.6c1.7,0.8,3.3,1.4,5.1,2.1
			c2.5,0.9,5.1,1.1,7.8,0.9c0.2,0,0.5,0,0.7-0.1c0.2-0.1,0.6-0.4,0.9-0.2c1.3,0.9,2.8,1.7,4.4,2.2c0.8,0.2,1.5,0.5,2.2,0.6
			c4.5,0.5,8.5-0.5,12-3.2c0.4-0.2,0.7-0.5,1.1-0.8c0.6,0.1,1.1,0.1,1.5,0.2c0.5,0,0.9,0.1,1.4,0.2c1.4,0.2,3,0.2,4.4,0
			c0.8-0.1,1.7-0.4,2.5-0.5c1.9-0.4,3.7-1.2,5.3-2.4c0.8-0.6,1.7-1.3,2.5-2c0.9-0.9,1.8-1.9,2.7-2.8c4.5-4.7,7.2-10.3,8.3-16.6
			c0.2-1.3,0.5-2.5,0.5-3.8C394.8,191.4,394.6,189.5,394.4,187.6z M361,192.2c1.1-1.5,1.8-3.2,2.6-4.7c0.6-1.1,1.2-2,1.8-3
			c0.9-1.4,1.9-1.5,3-0.2c1.7,2,3.2,4.2,4.5,6.5c0,0.1,0.1,0.2,0.1,0.4c0.1,0.4-0.1,0.8-0.5,0.9l-2.8,0.4c-2.4,0.1-4.6,0.4-7,0.7
			c-0.2,0.1-0.5,0.1-0.7,0.1c-0.1,0-0.2-0.1-0.5-0.1C361.1,193.1,360.8,192.5,361,192.2z M336.7,192.2c1.2-2,2.1-4.1,3.3-6.3
			c0.2-0.5,0.6-0.8,0.8-1.3c0.2-0.4,0.5-0.6,0.9-0.7c0.1,0,0.4-0.1,0.5,0c0.6,0.2,1.1,0.6,1.4,1.1c0.5,0.6,1.1,1.3,1.4,2
			c0.9,1.5,1.9,3.2,2.8,4.8c0.1,0.1,0.1,0.4,0.2,0.5c0.2,0.5-0.1,1.1-0.6,1.3c-0.2,0.1-0.6,0.1-0.9,0.1c-1.1,0-2,0-3.4-0.1
			c-1.5,0.1-3.5-0.1-5.4-0.4c-0.2,0-0.5-0.1-0.7-0.2C336.8,193,336.6,192.4,336.7,192.2z M374,203.5c-0.1,0.2-0.1,0.5-0.2,0.7
			c-0.2,0.4-0.6,0.7-0.8,1.1c-1.7,2.4-3.3,4.6-5,7c-0.7,0.9-1.3,1.4-2.8,0.8c-1.1-0.5-2-1.1-3-1.8c-0.1-0.1-0.4-0.2-0.5-0.4
			c-0.5-0.4-0.7-0.4-1.1,0c-0.9,1.1-2,2.1-3.1,3.2c-0.2,0.2-0.6,0.5-0.8,0.8c-0.6,0.5-1.3,0.6-2,0.2c-0.2-0.2-0.6-0.5-0.8-0.7
			c-1.3-1.2-2.7-2.4-4-3.4c0-0.1-0.1-0.2-0.2-0.2c-0.2-0.2-0.6-0.2-0.9,0c-0.2,0.1-0.4,0.2-0.6,0.5c-1.3,0.9-2.6,2-3.9,3.1
			c-0.2,0.2-0.6,0.4-0.8,0.6c-0.6,0.4-1.2,0.4-1.8-0.1l-0.7-0.7c-0.4-0.6-0.8-1.1-1.3-1.7c-1.9-2.8-3.7-5.7-5.2-8.7
			c-0.2-0.5-0.4-0.9-0.4-1.5c0-0.1,0-0.4,0.1-0.6c0-0.2,0.2-0.4,0.5-0.5c0.7-0.2,1.5-0.1,2,0.5c0.7,0.8,1.8,1.2,2.7,1.8
			c0.7,0.6,1.5,1.1,2.4,1.7c0.4,0.1,0.7,0.4,0.9,0.6c0.5-0.1,0.8-0.4,1.1-0.6c0.8-0.6,1.5-1.2,2.4-1.8c0.5-0.4,1.1-0.7,1.8-1.2
			c0.6-0.4,1.2-0.4,1.8,0.1c1.1,0.7,2.1,1.5,3.3,2.4c0.4,0.4,0.8,0.7,1.3,1.1c0.4,0.1,0.7,0.1,0.9,0c0.6-0.5,1.2-1.1,1.8-1.5
			c0.7-0.6,1.4-1.3,2.2-1.9c0.2-0.2,0.7-0.5,1.1-0.7c0.6-0.1,1.2-0.1,1.7,0.4c0.6,0.5,1.2,0.9,1.8,1.5c0.6,0.5,1.3,1.1,1.9,1.5
			c0.2,0.2,0.5,0.2,0.7,0.1l1.1-0.4c1.2-0.6,2.4-1.1,3.5-1.5c0.6-0.2,1.2-0.6,1.8-0.7C373.4,202.2,374.1,202.8,374,203.5z"/>
	</g>
</g>
</svg>
