<?xml version="1.0" encoding="utf-8"?>
<!-- Generator: Adobe Illustrator 22.0.0, SVG Export Plug-In . SVG Version: 6.00 Build 0)  -->
<svg version="1.1" id="Calque_1" xmlns="http://www.w3.org/2000/svg" xmlns:xlink="http://www.w3.org/1999/xlink" x="0px" y="0px"
	 viewBox="0 0 432 432" style="enable-background:new 0 0 432 432;" xml:space="preserve">
<style type="text/css">
	.st0{fill:#C51618;}
	.st1{fill:#BE1622;}
	.st2{fill:#97191D;}
	.st3{fill:#BA1818;}
	.st4{fill:#DADADA;}
	.st5{fill:#F39200;}
	.st6{fill:#EDEDED;}
	.st7{fill:#C6C6C6;}
	.st8{fill:#B51922;}
	.st9{fill:#FFFFFF;}
	.st10{fill:#95C11F;}
	.st11{fill:#FBF18E;}
	.st12{fill:#A3195B;}
	.st13{fill:#CE9445;}
	.st14{fill:#C07912;}
	.st15{fill:#006633;}
	.st16{fill:#A91917;}
	.st17{fill:#A31A17;}
	.st18{fill:#CCCCCC;}
	.st19{fill:#AB1918;}
	.st20{fill:#BA7321;}
	.st21{fill:#4D3134;}
	.st22{fill:#BD1824;}
	.st23{fill:#71484C;}
	.st24{fill:#020203;}
	.st25{fill:#008D36;}
	.st26{fill:#027835;}
	.st27{fill:#005229;}
	.st28{fill:#A91921;}
	.st29{fill:#9E1920;}
	.st30{fill:#DB9646;}
	.st31{fill:#F8EAD9;}
	.st32{fill:#FFF1E0;}
	.st33{fill:#DED2C2;}
	.st34{fill:#3C3C3B;}
	.st35{fill:#A61E19;}
	.st36{fill:#3AAA35;}
	.st37{fill:#1A1A1A;}
	.st38{fill:#B01E19;}
	.st39{fill:#F9C733;}
	.st40{fill:#E0BC97;}
	.st41{fill:#CC9F71;}
	.st42{fill:#1D71B8;}
	.st43{fill:#DA907B;}
	.st44{fill:#BA874D;}
	.st45{fill:#A01E2A;}
	.st46{fill:#F2F2F2;}
	.st47{fill:#F4D5AB;}
	.st48{fill:#87181A;}
	.st49{fill:#FAB62E;}
	.st50{fill:#F7A509;}
	.st51{fill:#E94E1B;}
	.st52{fill:#634E42;}
	.st53{fill:#1C1D3B;}
	.st54{fill:#936037;}
	.st55{fill:#7D4E24;}
	.st56{fill:#EDF6F7;}
	.st57{fill:#432918;}
	.st58{fill:#683C11;}
	.st59{fill:#FDD110;}
	.st60{fill:#E30613;}
	.st61{fill:#2D2E83;}
	.st62{fill:#F8AC14;}
	.st63{fill:#C5E5EE;}
	.st64{fill:#EE7476;}
	.st65{fill:#706F6F;}
</style>
<g>
	<g>
		<g>
			<path class="st1" d="M163.3,174.2c-0.2-5.1-0.4-10.3-0.2-15.4c0.1-2.7,0.3-5.4,0.3-8.1c0-1.8-1-3-2.4-3.1c-1.4,0-2.6,1.3-2.7,3.1
				c0,0.6,0,1.1,0,1.7c-0.2,4.3-0.5,8.6-0.4,13c0.2,6.8,0.4,13.5,0.9,20.3c0.1,0.7,0.1,1.5,0.1,2.3c0,0.7,0.1,1.5,0.2,2.2
				c-0.4-0.2-0.5-0.4-0.6-0.6c-1.7-4.4-3.2-8.9-4.2-13.5c-1.6-7.1-3.6-14.1-5.7-21.1c-0.9-2.9-2.1-3.8-4.9-3.9c-2,0-3.9,0.1-5.9,0.1
				c-2,0.1-3.2,1.1-3.8,3.2c-0.4,1.3-0.5,2.7-0.8,4c-1.2,6-1.8,12.1-2.2,18.2c-0.3,5.6-0.2,11.3,0.3,16.9c0.5,5.7,1.4,11.3,2.5,16.8
				c0.4,2,1.7,3,3.2,2.6c1.4-0.4,2.1-1.9,1.9-3.7c0-0.2,0-0.4-0.1-0.6c-1.9-7-2.6-14.2-2.9-21.5c-0.4-7.4,0.3-14.7,1.3-22.2
				c0.4,0.4,0.5,0.8,0.6,1.1c0.6,2.5,1.2,5,1.8,7.4c3,11.4,6.3,22.8,10.4,33.8c0.5,1.2,0.9,2.4,1.5,3.6c0.8,1.4,1.9,2.4,3.5,2.4
				c2.4,0.1,4.7-0.3,7-1c1.3-0.4,2-1.4,2.2-2.8c0.3-1.9,0.4-3.7,0.4-5.6c-0.1-4.6-0.4-9.3-0.7-13.9
				C163.9,184.7,163.5,179.4,163.3,174.2z"/>
			<path class="st1" d="M196.2,193.8c-0.6-4.7-1.4-9.4-2.3-14c-1-5.5-1.9-10.9-3.5-16.3c-1-3.6-2.6-7-4.7-10.2
				c-0.7-1.1-1.6-2.1-2.8-3c-3.1-2.2-7.2-1.4-8.8,1.8c-0.4,0.7-0.7,1.5-1,2.3c-1,3.1-1.6,6.2-2.1,9.3c-1.1,6.4-1.6,12.9-2.2,19.3
				c-0.5,5.5-1,11.1-0.8,16.6c0,3.2,0,6.5,0,9.7c0,0.7,0,1.4,0.2,2.2c0.3,1.5,2,2.2,3.5,1.6c1-0.5,1.4-1.3,1.4-2.3
				c0-1.9,0-3.7,0-5.6c0-1.4,0-1.4,1.6-1.6c3.6-0.4,7.2-0.7,10.8-1.1c1-0.1,1.2,0.2,1.3,0.9c0.1,0.5,0.1,1,0.2,1.5
				c0.2,1.8,0.4,3.6,0.7,5.4c0.3,1.9,2.1,2.9,4.2,2.5c1-0.2,2-0.5,3-0.8c1.8-0.6,2.9-1.8,3-3.6c0-0.5,0-0.9,0-1.4
				C197.4,202.6,196.7,198.2,196.2,193.8z M184.7,198.1c-3.8,0.4-7.7,0.8-11.7,1.1c-0.1-3-0.1-5.9,0.1-8.7c0.3-3.7,0.7-7.4,1-11
				c0.6-7.5,1.5-15,3.4-22.4c0.2-0.7,0.3-1.5,0.9-2.2c0.7,1,0.9,2,1.2,3c1.3,5.1,2,10.3,2.8,15.5c0.9,5.9,1.8,11.8,2.6,17.7
				c0.3,1.9,0.6,3.9,0.8,5.8C186,197.9,185.9,198,184.7,198.1z"/>
			<path class="st1" d="M230.9,151.2c-0.4-1.5-1.4-2.3-2.6-2.1c-1.1,0.1-2,1.2-2.2,2.6c-0.1,0.5-0.1,1,0,1.4c0.5,4.1,0.3,8.3,0,12.4
				c-0.5,8.6-1.5,17.1-3.3,25.4c-0.8,3.8-1.8,7.6-3.5,11c-0.6,1.3-1.3,2.6-2.3,3.6c-0.6-0.8-0.7-1.6-0.8-2.4
				c-1-4.5-1.3-9.1-1.6-13.8c-0.4-7.8,0-15.5,0.3-23.3c0.1-3.1,0.4-6.2,0.1-9.3c-0.2-2.2-1.1-3.6-2.9-3.8c-2.8-0.4-5.7-0.4-8.5,0.2
				c-1.6,0.3-2.2,1.4-2.3,3.3c0,1.6-0.1,3.2-0.2,4.8c-0.6,9.8-0.6,19.5,0.9,29.2c0.8,5.6,2.2,11,4.6,16c0.8,1.8,1.8,3.4,3.2,4.6
				c3.1,2.9,6.5,2.9,9.6,0.2c1.7-1.5,2.9-3.4,4-5.5c1.6-3.3,2.8-6.8,3.7-10.5c1.7-6.9,2.7-13.9,3.4-21c0.6-6.2,1.2-12.4,0.9-18.6
				C231.2,154.2,231.3,152.6,230.9,151.2z"/>
			<path class="st1" d="M259,151.1c-2.2-1.8-4.7-2.6-7.6-2.4c-2.8,0.2-5,1.6-7,3.4c-2.6,2.4-4.6,5.3-6.1,8.5
				c-2.6,5.4-3.6,11.1-3.8,17c-0.2,5,0.3,10,1.4,14.8c1,4.6,2.4,9.1,4.6,13.3c1.6,2.9,3.7,5.3,6.7,6.8c2.5,1.3,4.9,1.1,7.2-0.4
				c1.7-1,2.8-2.5,3.7-4.2c1.2-2.3,1.9-4.7,2.4-7.1c1.3-6.1,1.3-12.3,1.1-18.5c0-1.4,0-2.9-0.3-4.3c-0.6-2.5-1.8-3.6-4.3-3.6
				c-1.9,0-3.8,0.2-5.7,0.6c-1.6,0.3-2.4,1.4-2.3,2.7c0.2,1.3,1.2,2.1,2.9,2.1c1,0,2-0.2,2.9-0.3c1.4-0.1,1.5-0.1,1.6,1.3
				c0.2,3.4,0.2,6.8,0.1,10.1c-0.1,3.4-0.5,6.7-1.3,10c-0.5,2.1-1.2,4.2-2.5,6c-0.6-0.4-0.7-1-0.9-1.5c-4.2-9.3-6-19.1-5.2-29.3
				c0.3-4.5,1.5-8.8,3.4-12.9c1.4-3.1,3.5-5.7,6.6-7.7c0.2,0.3,0.3,0.5,0.5,0.7c1.1,1.5,1.9,3.1,2,5c0.1,1.5,1.1,2.5,2.4,2.5
				c1.3,0,2.4-1,2.6-2.5c0-0.4,0-0.8,0-1.2C263.6,156.4,261.8,153.5,259,151.1z"/>
			<path class="st1" d="M297.7,149.4c-1.8-0.3-3.6-0.4-5.4-0.3c-2.2,0.1-4.1,2-4.2,4.3c-0.1,2.6-0.2,5.2-0.3,7.8
				c-0.4,10.1-0.5,20.2-0.5,30.2c0,0.5,0,1,0,1.6c0,0.8-0.3,1-1,1c-2.1,0-4.3,0-6.4,0.1c-1,0-1.2-0.5-1.3-1.2
				c-0.2-1.6-0.4-3.2-0.6-4.8c-1-7.4-0.8-14.7,1-21.9c0.8-3.3,2-6.5,3-9.8c0.7-2.4-0.1-4-2.5-4.7c-1.6-0.6-3.3-1-5.1-1.2
				c-3.6-0.4-5.2,1-5.7,3.8c-1.2,6.6-1.9,13.2-1.7,19.9c0.2,8.9,0.9,17.7,2.7,26.4c0.6,2.9,1.2,5.9,2.1,8.8c0.7,2.2,2.1,3.2,4.4,3.1
				c0.9,0,1.8-0.2,2.7-0.5c1.9-0.5,2.8-1.8,2.6-3.7c-0.1-1-0.4-1.9-0.6-2.9c-0.4-2-1-3.9-1.2-5.9c0.2-0.1,0.3-0.2,0.4-0.2
				c1.5,0,3-0.1,4.5-0.1c2.8,0,2.4-0.3,2.4,2.3c0,2.4-0.1,4.8-0.1,7.1c0.1,2.9,1.7,4.6,4.6,4.8c1.5,0.1,2.9-0.1,4.3-0.4
				c1.7-0.4,2.7-1.5,3-3.2c0.1-0.9,0.3-1.7,0.3-2.6c0-6.8,0.1-13.7-0.1-20.5c-0.2-8.2,0.5-16.3,1.4-24.4c0.3-2.9,0.7-5.9,0.6-8.8
				C301.1,151,300,149.8,297.7,149.4z"/>
			<path class="st1" d="M334,149.3c-0.7-0.3-1.4-0.2-2.1-0.2c-7.1-0.1-14.1,0.2-21.2,0.4c-1.4,0.1-2.9,0.2-4.3,0.3
				c-1.4,0.2-2.4,1.4-2.3,2.7c0.1,1.3,1.1,2.4,2.6,2.4c0.6,0,1.3,0,1.9,0c1.7,0,3.3-0.2,5.1,0c-0.3,2-0.7,3.8-0.9,5.6
				c-1,7.1-1.5,14.3-1.9,21.5c-0.4,7.3-0.1,14.5,0.8,21.7c0.3,2,0.6,4.1,1.2,6c0.9,2.8,2.5,3.9,5.3,3.6c1-0.1,2-0.2,2.9-0.4
				c2.8-0.5,3.9-1.8,4.2-4.7c0.3-3.1,0.4-6.3,0.2-9.4c-0.2-3.1-0.4-6.3-0.4-9.4c-0.1-5.4-0.4-10.9-0.2-16.3
				c0.2-5.9,0.8-11.7,1.5-17.5c0.1-0.8,0.4-1.2,1.2-1.2c1.5,0,3-0.2,4.5,0c0.6,0.1,1.1,0.1,1.7,0c1.2-0.3,2-1.2,2-2.4
				C335.9,150.7,335.2,149.7,334,149.3z"/>
			<path class="st1" d="M377.9,152.9c-0.1-5.3-3.2-4.1-11.6-4c-9.6,0.2,3.6,23.2-7.8,30.1c-9.8,5.9-13.6-14.3-13.4-26.5
				c0-1.3-0.9-2.3-2.3-2.6c-9.2-1.8-2.8,46.4,20.5,32.8c-0.1,4.8,2.3,18.6-7,21.9c-10,3.5-10.1-11.6-10.5-13
				c-0.8-3.1-8.2-4.2-3.2,10.5C348.1,217.7,380,228.4,377.9,152.9z"/>
		</g>
		<path class="st1" d="M111.2,150.5c-18.2,0-36.4,0-54.6,0c-0.8,0-1.4,0.3-1.8,0.7c0,0-0.1,0.1-0.1,0.1c0,0,0,0,0,0.1
			c-0.4,0.4-0.7,1-0.7,1.8c0,18.2,0,36.4,0,54.6c0,1.5,1.2,2.7,2.7,2.7c18.2,0,36.4,0,54.6,0c1.5,0,2.7-1.2,2.7-2.7
			c0-18.2,0-36.4,0-54.6C113.9,151.7,112.7,150.5,111.2,150.5z M107.2,203.7c-15.5,0-31,0-46.5,0c0-15.5,0-31,0-46.5
			c15.5,0,31,0,46.5,0C107.2,172.7,107.2,188.2,107.2,203.7z"/>
	</g>
	<g>
		<g>
			<path class="st10" d="M163.3,255.7c-0.2-5.1-0.4-10.3-0.2-15.4c0.1-2.7,0.3-5.4,0.3-8.1c0-1.8-1-3-2.4-3.1
				c-1.4,0-2.6,1.3-2.7,3.1c0,0.6,0,1.1,0,1.7c-0.2,4.3-0.5,8.6-0.4,13c0.2,6.8,0.4,13.5,0.9,20.3c0.1,0.7,0.1,1.5,0.1,2.3
				c0,0.7,0.1,1.5,0.2,2.2c-0.4-0.2-0.5-0.4-0.6-0.6c-1.7-4.4-3.2-8.9-4.2-13.5c-1.6-7.1-3.6-14.1-5.7-21.1
				c-0.9-2.9-2.1-3.8-4.9-3.9c-2,0-3.9,0.1-5.9,0.1c-2,0.1-3.2,1.1-3.8,3.2c-0.4,1.3-0.5,2.7-0.8,4c-1.2,6-1.8,12.1-2.2,18.2
				c-0.3,5.6-0.2,11.3,0.3,16.9c0.5,5.7,1.4,11.3,2.5,16.8c0.4,2,1.7,3,3.2,2.6c1.4-0.4,2.1-1.9,1.9-3.7c0-0.2,0-0.4-0.1-0.6
				c-1.9-7-2.6-14.2-2.9-21.5c-0.4-7.4,0.3-14.7,1.3-22.2c0.4,0.4,0.5,0.8,0.6,1.1c0.6,2.5,1.2,5,1.8,7.4c3,11.4,6.3,22.8,10.4,33.8
				c0.5,1.2,0.9,2.4,1.5,3.6c0.8,1.4,1.9,2.4,3.5,2.4c2.4,0.1,4.7-0.3,7-1c1.3-0.4,2-1.4,2.2-2.8c0.3-1.9,0.4-3.7,0.4-5.6
				c-0.1-4.6-0.4-9.3-0.7-13.9C163.9,266.2,163.5,260.9,163.3,255.7z"/>
			<path class="st10" d="M179.6,230.9c-0.6-0.1-1.1-0.2-1.7-0.2c-1.7-0.1-3.4,0-5-0.2c-2.1-0.2-4.1,1.9-4.1,4.3
				c0,2.9-0.2,5.8-0.3,8.8c-0.3,7.1-0.6,14.3-0.5,21.5c0,5.9,0,11.8,0,17.8c0,2.1,0,4.3,0.3,6.4c0.4,3.3,1.6,5,4.6,5.3
				c2.1,0.3,4.3,0.3,6.4,0.2c1.9-0.1,3.1-1.4,3.3-3.6c0.1-1,0.1-2,0-2.9c-0.2-5.2-0.5-10.4-0.6-15.6c-0.4-12.1-0.1-24.2,1.2-36.2
				C183.5,233.2,182.5,231.6,179.6,230.9z"/>
			<path class="st10" d="M217.4,241c-0.8-3.2-2.4-6-4.9-8.2c-1.4-1.2-3-2-4.8-2.3c-3.6-0.7-6.9,0.3-9.9,2.1
				c-3.1,1.9-5.4,4.5-7.2,7.7c-2.6,4.6-3.7,9.7-4.2,14.9c-0.5,6.5,0.3,12.9,1.8,19.3c1.1,4.5,2.5,8.8,4.8,12.8c1.4,2.4,3,4.6,5.4,6
				c2.8,1.7,5.6,2.1,8.5,0.3c1.5-0.9,2.6-2.1,3.6-3.5c2.4-3.4,3.5-7.3,4.4-11.2c0.1-0.3,0.1-0.7,0.1-1c-0.1-1.5-1.2-2.7-2.6-2.7
				c-1.3,0-2.3,0.9-2.5,2.4c-0.3,2.3-1,4.5-1.9,6.6c-0.3,0.8-0.7,1.7-1.4,2.4c-0.7-0.4-0.9-1-1.3-1.5c-0.9-1.4-1.6-2.9-2.3-4.5
				c-2.6-6.4-3.6-13-3.5-19.8c0-4.2,0.7-8.3,1.9-12.3c1.1-3.8,3.1-7,6.4-9.2c2.8-1.9,2.7-1.3,3.9,1c0.4,0.8,0.6,1.7,0.9,2.6
				c0.5,1.4,1.8,2.1,3,1.8c1.4-0.3,2.1-1.6,1.8-3.1C217.4,241.4,217.4,241.2,217.4,241z"/>
			<path class="st10" d="M239.1,288.4c-1.2,0.4-2.5,0.5-3.7,0.8c-1.1,0.2-1.2,0.1-1.3-0.9c-0.3-2.8-0.6-5.6-0.9-8.4
				c-0.1-1,0-1.1,1.1-1.1c0.7,0,1.5,0.2,2.2,0.2c1.3,0,2.4-0.7,2.7-1.7c0.3-1-0.1-2-1-2.6c-0.5-0.3-1.1-0.5-1.8-0.5c-1,0-2-0.1-3,0
				c-0.7,0-1.1-0.3-1.1-0.9c0-0.9-0.1-1.8-0.2-2.6c-0.7-7.2-0.3-14.4,0.6-21.6c0.5-4,1.2-7.9,1.8-11.9c0.3-2.1,0.3-2.1,2.4-1.9
				c0.3,0,0.7,0.1,1,0.1c0.8,0,1.6,0.2,2.4,0.1c1.2-0.1,2-1,2.2-2.1c0.1-1.1-0.5-2-1.6-2.5c-0.4-0.1-0.8-0.3-1.2-0.3
				c-3.9-0.2-7.8-0.6-11.8-0.1c-2.1,0.2-3.7,1.2-4.6,3.1c-0.6,1.1-1,2.3-1.3,3.6c-1.5,6.1-1.7,12.3-1.7,18c0.2,6.3,0.3,12,0.9,17.7
				c0.4,4.6,0.9,9.2,1.5,13.8c0.2,1.6,0.4,3.3,0.9,4.9c1.1,3,2,3.5,4.9,3.4c3,0,5.8-0.6,8.8-1.1c1-0.2,2.1-0.3,3-0.6
				c1.6-0.4,2.4-1.9,2-3.2C242.2,288.6,240.7,287.9,239.1,288.4z"/>
		</g>
		<path class="st10" d="M111.2,232c-18.2,0-36.4,0-54.6,0c-0.8,0-1.4,0.3-1.8,0.7c0,0-0.1,0.1-0.1,0.1c0,0,0,0,0,0.1
			c-0.4,0.4-0.7,1-0.7,1.8c0,18.2,0,36.4,0,54.6c0,1.5,1.2,2.7,2.7,2.7c18.2,0,36.4,0,54.6,0c1.5,0,2.7-1.2,2.7-2.7
			c0-18.2,0-36.4,0-54.6C113.9,233.2,112.7,232,111.2,232z M107.2,285.2c-15.5,0-31,0-46.5,0c0-15.5,0-31,0-46.5c15.5,0,31,0,46.5,0
			C107.2,254.2,107.2,269.7,107.2,285.2z"/>
	</g>
	<path d="M142.1,137.3c-25.6,6.4-42.7,28.9-51.3,52.7c-0.2,0.6-0.4,1.2-0.6,1.7c-7.9-9.2-15.8-18.4-23.8-27.6
		c-2.3-2.6-6.1,1.1-3.8,3.7c8.9,10.4,17.9,20.7,26.8,31.1c1.3,1.5,4,0.8,4.5-1.1c4.2-16.7,14.2-33.5,27.5-44.4c6.4-5.3,13.9-9,22-11
		C146.8,141.6,145.4,136.5,142.1,137.3z"/>
</g>
</svg>
