<?xml version="1.0" encoding="utf-8"?>
<!-- Generator: Adobe Illustrator 20.1.0, SVG Export Plug-In . SVG Version: 6.00 Build 0)  -->
<svg version="1.1" id="Calque_1" xmlns="http://www.w3.org/2000/svg" xmlns:xlink="http://www.w3.org/1999/xlink" x="0px" y="0px"
	 viewBox="0 0 432 432" style="enable-background:new 0 0 432 432;" xml:space="preserve">
<style type="text/css">
	.st0{fill:#006633;}
	.st1{fill:#E30613;}
	.st2{fill:#432918;}
	.st3{fill:#008D36;}
	.st4{fill:#C9973C;}
	.st5{fill:#CB9A3E;}
	.st6{fill-rule:evenodd;clip-rule:evenodd;fill:#CB9A3E;}
</style>
<g>
	<g>
		<g>
			<path d="M112.4,113.6c1.6,2.6,3.6,4.8,6,6.4s5,2.6,7.9,2.7c2.5,0.1,4.9-0.1,7.1-0.7c2.2-0.6,4.3-1.4,6.3-2.5
				c2-1.1,3.8-2.5,5.5-4.2c1.7-1.7,3.3-3.5,4.7-5.6c2.1-0.1,4.2-0.3,6.1-0.8c1.9-0.5,3.8-1.3,5.7-2.4s3.6-2.7,5.3-4.7
				c1.4-1.6,2.7-3.6,4-5.9c0.2,1.4,0.5,2.8,0.7,4.1c0.5,3.4,0.6,6.8,0.3,10c0.3,0.4,0.6,0.6,1,0.8c0.4,0.2,0.8,0.3,1.2,0.3
				c0.4,0,0.8,0,1-0.1c0.3-0.1,0.4-0.2,0.3-0.2c0-0.9,0.3-2.4,0.9-4.5s1.3-4.2,2.3-6.5c0.9-2.3,1.8-4.5,2.8-6.5
				c0.9-2,1.8-3.5,2.4-4.5c0.9-1.3,1.7-2.2,2.5-3c0.8-0.7,1.6-1.1,2.4-1.2c0.5,0,0.7,0.5,0.7,1.5c-0.1,1-0.3,2.3-0.7,3.9
				c-0.4,1.6-0.8,3.5-1.4,5.6c-0.6,2.1-1.1,4.3-1.6,6.6c-0.5,2.3-0.9,4.5-1.3,6.8c-0.3,2.3-0.5,4.3-0.4,6.2c0,0.9,0.1,2.1,0.3,3.4
				c0.2,1.3,0.5,2.5,1,3.6c0.5,1,1.2,1.7,2.1,2s2-0.2,3.5-1.4c1.4-1.2,2.9-3.1,4.7-5.8c1.7-2.7,3.4-5.6,5-8.6c1.6-3,3.1-5.8,4.4-8.5
				c1.3-2.7,2.3-4.6,2.8-5.7h-1c-0.3,0.6-0.9,1.8-1.9,3.7c-0.9,1.9-2.1,4.1-3.3,6.5c-1.3,2.4-2.6,4.9-4,7.3
				c-1.4,2.5-2.8,4.6-4.1,6.3c-2.3,3.1-3.9,4.6-4.8,4.3c-0.9-0.2-1.2-2.4-0.7-6.6c0.2-2,0.8-4.2,1.7-6.6s1.8-4.8,2.7-7.1
				c0.9-2.4,1.7-4.7,2.4-6.9c0.7-2.2,0.9-4.2,0.6-5.9c-0.2-1.6-0.8-2.9-2-4.1c-1.1-1.2-2.5-1.8-4.2-1.9c-1.5-0.1-3,0.8-4.5,2.5
				c-1.5,1.8-2.8,3.9-4.1,6.3c-1.3,2.4-2.3,4.9-3.2,7.4c-0.9,2.5-1.5,4.4-1.8,5.8c0.1-2.8,0-5.4-0.2-7.9c-0.2-2.4-0.6-5-1.3-7.8
				c0.9-1.8,1.9-4,3-6.5c1.1-2.5,2.2-5.3,3.3-8.2c1.1-2.9,2.2-5.9,3.2-9c1-3.1,1.9-6.1,2.6-9.1c0.8-3,1.3-5.8,1.6-8.5
				c0.3-2.7,0.3-5,0.1-7.1c-0.3-2.6-0.9-4.6-1.8-6c-0.9-1.3-2-2.2-3.3-2.7c-2.2-0.7-4.3-0.7-6.3-0.1c-2,0.6-3.9,1.7-5.6,3.2
				c-1.7,1.5-3.1,3.3-4.3,5.4c-1.2,2.1-2,4.3-2.4,6.5c-0.6,3.5-0.8,7-0.7,10.5c0.2,3.5,0.6,7,1.3,10.5c0.7,3.5,1.5,7,2.4,10.5
				c0.9,3.5,1.8,6.9,2.6,10.4c0.4,1.6,0.7,3.1,1,4.7c-1.5,2.7-3.1,5-4.7,6.8c-1.7,1.9-3.4,3.3-5.1,4.4c-1.7,1.1-3.4,1.8-5.2,2.3
				c-1.7,0.4-3.4,0.7-5.1,0.7c2.6-4,4.6-8.4,6.2-13.4c1.5-5,2.5-10,2.9-15.1c0.4-5.1,0.2-10.1-0.6-14.9c-0.8-4.8-2.2-9.1-4.3-12.9
				c-2.1-3.9-4.8-6.9-8-8.9c-3.2-2-6.5-3.1-9.9-3.1c-3.4,0-6.6,1-9.8,3.1c-3.1,2.1-5.7,5.3-7.7,9.6c-1.2,2.6-2.1,5.7-2.8,9.1
				c-0.7,3.4-1,7.2-1,11.3c-2.6,3-4.5,6.3-5.7,9.9c-1.3,3.6-2,7.2-2.2,10.8c-0.2,3.6,0.1,7.1,1,10.5S110.8,111,112.4,113.6z
				 M171.1,60.5c0.1-4,0.4-7.5,1-10.8c0.6-3.2,1.4-6,2.5-8.3c0.8-1.9,1.9-3.5,3.1-4.8c1.3-1.3,2.5-2.1,3.7-2.3s2.3,0.2,3.3,1.3
				c1,1.1,1.7,3.1,2.1,5.9c0.2,2.1,0.2,4.4-0.1,7c-0.3,2.6-0.8,5.3-1.5,8.1c-0.7,2.8-1.5,5.7-2.5,8.7c-1,2.9-2,5.8-3,8.6
				c-1,2.8-2.1,5.4-3.1,7.8c-1,2.4-2,4.6-2.8,6.5c-1.1-5.1-1.8-10-2.3-14.7C171.2,68.7,171,64.4,171.1,60.5z M135.2,94.2
				c0.7,0.1,1.1-0.2,1.5-0.8c2-4.8,2.9-9.1,2.5-13.1c-0.3-4-1.5-7-3.4-9.2c-2-2.2-4.6-3.3-7.9-3.4c-3.3-0.1-6.8,1.4-10.6,4.3
				c0.1-4,0.6-7.6,1.5-11c0.8-3.4,2-6.3,3.5-8.8c1.5-2.5,3.3-4.4,5.4-5.9c2.1-1.4,4.5-2.2,7.3-2.3c2.6-0.1,5,0.9,7.1,2.8
				c2.1,1.9,3.8,4.4,5.2,7.6s2.5,6.7,3.3,10.8c0.8,4.1,1.2,8.3,1.3,12.6c0.1,4.3-0.2,8.6-0.8,12.8c-0.6,4.2-1.6,8-2.9,11.5
				c-0.8,1.9-1.8,4-3.2,6.2c-3.6-0.6-7-1.9-10.3-3.9c-3.3-2-6.3-4.6-8.8-7.7c-2.5-3.1-4.6-6.6-6.1-10.5c-1.5-3.9-2.3-8.1-2.3-12.5
				c1.9-1.9,3.9-3.2,6-4c2.1-0.8,4.1-1.1,5.9-0.9c1.4,0.1,2.6,0.6,3.8,1.3c1.1,0.8,2.1,1.8,2.8,3.1c0.8,1.3,1.3,2.9,1.5,4.9
				c0.3,1.9,0.2,4.2-0.3,6.8c-0.4,2.5-1.2,5.3-2.5,8.4C134.3,93.8,134.6,94.1,135.2,94.2z M111.8,82.5c1.1-2.8,2.5-5.1,4.1-7.1
				c0.4,4.6,1.4,8.8,3.2,12.7c1.7,3.9,3.9,7.3,6.4,10.3c2.6,2.9,5.5,5.4,8.7,7.2c3.3,1.9,6.6,3.1,10.1,3.8c-1.1,1.6-2.3,3.2-3.6,4.6
				c-1.3,1.4-2.7,2.7-4.2,3.9s-3.1,2-4.8,2.6c-1.7,0.6-3.4,0.9-5.1,0.8c-3.6-0.1-6.7-1.3-9.3-3.8c-2.6-2.5-4.6-5.6-6-9.4
				c-1.4-3.8-2.1-7.9-2.1-12.5S110.1,86.7,111.8,82.5z"/>
		</g>
		<g>
			<path d="M210.7,156.2c1.8,2.3,3.6,3.5,5.5,3.7c1.9,0.2,3.8-0.3,5.6-1.4c1.8-1.1,3.7-2.7,5.4-4.8c1.8-2.1,3.4-4.3,4.9-6.7
				c1.4-2.2,2.7-4.3,3.8-6.4c0,0.5-0.1,1.1,0,1.6c0,3.3,0.8,6,2.4,8c1.6,2,3.4,3.2,5.6,3.5c2.1,0.3,4.3-0.3,6.5-2
				c2.2-1.6,4-4.5,5.3-8.6c0.3,0,0.8-0.1,1.6-0.2c0.8-0.1,1.7-0.5,2.8-1c1.1-0.5,2.2-1.4,3.4-2.5c0.9-0.9,1.8-2.1,2.7-3.7
				c0.4,1.2,0.7,2.3,1,3.6c0.4,1.7,0.8,3.3,1,4.9s0.5,3.1,0.6,4.5c0.1,1.4,0.1,2.5,0,3.5c0.3,0.2,0.7,0.3,1.2,0.5
				c0.5,0.1,0.9,0.2,1.4,0.2s0.8,0,1.1-0.1c0.3-0.1,0.4-0.2,0.4-0.4c-0.1-1.6,0.1-3.5,0.6-5.9c0.5-2.4,1.1-4.8,1.8-7.2
				c0.8-2.4,1.6-4.8,2.5-7.1c0.9-2.3,1.8-4.1,2.6-5.6c0.2-0.3,0.5-0.9,0.9-1.6c0.4-0.8,0.9-1.3,1.3-1.7c0.4-0.3,0.7-0.3,0.9,0.2
				c0.2,0.5,0.2,1.9-0.1,4.1c-0.2,1.6-0.4,3.3-0.6,5.2c-0.2,1.9-0.4,3.8-0.4,5.7c-0.1,1.9,0,3.8,0.1,5.6c0.2,1.8,0.5,3.5,1.1,5
				c0.6,1.6,1.5,2.3,2.5,1.9c1-0.3,1.7-1.6,2.1-3.7c0.4-2.1,1.1-4.4,2.2-7.1c1.1-2.6,2.2-5.1,3.5-7.4c1.3-2.3,2.5-4.2,3.6-5.8
				c1.2-1.6,2-2.4,2.6-2.4c0.3,0,0.5,0.5,0.5,1.4c0,0.9-0.1,2.1-0.2,3.6c-0.2,1.5-0.4,3.2-0.7,5.1c-0.3,1.9-0.6,3.8-0.8,5.8
				c-0.3,1.9-0.5,3.9-0.7,5.7c-0.2,1.9-0.3,3.5-0.3,4.9c0,1.1,0.1,2.3,0.4,3.8c0.2,1.4,0.7,2.7,1.2,3.7c0.6,1,1.3,1.7,2.4,1.9
				c1,0.2,2.3-0.4,3.8-1.7c1.4-1.3,2.8-3.1,4.4-5.5c1.5-2.4,3-4.9,4.3-7.4c1.3-2.4,2.4-4.6,3.4-6.7c0,0.4-0.1,0.7-0.2,1.1
				c-0.2,2.1,0,4,0.4,5.8c0.4,1.8,1.2,3.4,2.3,4.7c1.1,1.3,2.5,2.1,4.3,2.4c1.5,0.3,3.1-0.2,4.9-1.5c1.8-1.3,3.5-2.9,5.1-4.9
				c1.7-2,3.2-4.1,4.6-6.4c1.4-2.3,2.6-4.2,3.4-5.9h-1c-0.6,1.2-1.4,2.6-2.4,4.2c-1,1.6-2.1,3.2-3.3,4.8c-1.2,1.6-2.4,3-3.6,4.4
				c-1.2,1.3-2.4,2.4-3.4,3c-1.1,0.7-2,0.9-2.8,0.6c-0.8-0.3-1.4-1.2-1.7-2.7c-0.2-0.9-0.3-2.1-0.4-3.4c-0.1-1.3-0.1-2.6-0.1-3.8
				s0-2.3,0.1-3.2c0.1-0.9,0.1-1.5,0.2-1.7c2.5-1.4,4.4-2.9,5.7-4.6s2-3.1,2.2-4.4c0.2-1.3-0.2-2.2-1-2.8c-0.8-0.6-2.1-0.5-3.7,0.1
				c-1.9,0.9-3.6,2.1-5,3.7c-1.4,1.6-2.5,3.4-3.2,5.4c0,0.1-0.1,0.2-0.1,0.3h0c-0.2,0.4-0.7,1.6-1.6,3.4s-2,3.9-3.3,6.3
				c-1.3,2.4-2.7,4.7-4.1,7.2c-1.5,2.4-2.9,4.5-4.3,6.1c-1.1,1.1-1.9,1.4-2.4,0.9c-0.6-0.5-0.8-1.4-0.8-2.5c0-1.2,0.2-3,0.7-5.5
				c0.4-2.4,1-5,1.6-7.8c0.6-2.7,1.2-5.4,1.8-8c0.6-2.6,1-4.7,1.4-6.2c0.2-1.3,0.2-2.4-0.2-3.5c-0.4-1.1-0.9-2-1.7-2.6
				c-0.8-0.7-1.6-1-2.6-1c-1,0-2,0.5-3.1,1.5c-1.3,1.1-2.6,2.6-3.8,4.5c-1.2,1.8-2.4,3.8-3.4,5.7c-1,2-1.9,3.9-2.7,5.7
				c-0.8,1.8-1.4,3.3-1.7,4.4c0.1-1.5,0.2-3.1,0.5-4.8c0.3-1.7,0.5-3.4,0.7-5c0.2-1.6,0.3-3.2,0.4-4.6c0.1-1.4,0-2.6-0.3-3.5
				c-0.7-2.3-1.7-3.7-3.2-4.4c-1.4-0.7-2.8-0.2-4.1,1.3c-1.1,1.3-2.1,3-3.2,5.2c-1.1,2.2-2.1,4.5-3,7c-0.9,2.4-1.7,4.8-2.4,7.2
				c-0.7,2.4-1.1,4.2-1.3,5.7c0.1-0.3,0.1-1.2,0.1-2.5c0-1.4,0-2.8,0-4.4c0-1.5-0.1-3-0.2-4.3c-0.1-1.3-0.2-2.1-0.4-2.4
				c-0.4-0.4-0.9-0.7-1.6-0.8c-0.7-0.1-1.4,0-2.1,0.1c-0.7,0.2-1.3,0.4-1.7,0.8c-0.4,0.3-0.6,0.6-0.6,0.8h0c-1.6,2.8-3.3,4.8-5,5.8
				c-1.7,1.1-3.3,1.6-4.9,1.7c0.8-3.3,1-6,0.7-8.3c-0.4-2.3-1.1-4.1-2.2-5.5c-1.1-1.3-2.3-2.3-3.8-2.7c-1.5-0.5-2.9-0.6-4.2-0.3
				c-1.3,0.3-2.5,0.9-3.4,1.9c-0.9,1-1.4,2.3-1.4,4c-1.9,1.2-3.4,2.8-4.3,4.8c-0.1,0.2-0.1,0.4-0.2,0.5c-0.9,1.6-1.7,3.3-2.7,5
				c-1.3,2.4-2.7,4.6-4.1,6.7c-1.4,2.1-2.8,3.9-4.2,5.5c-1.4,1.6-2.8,2.7-4,3.4c-1.3,0.7-2.4,0.9-3.5,0.5c-1-0.4-1.9-1.5-2.5-3.4
				c-0.4-1.3-0.7-3-0.8-5c-0.1-2,0-4.1,0.2-6.4c0.3-2.3,0.6-4.5,1.1-6.8c0.5-2.3,1.1-4.3,1.8-6.1c0.7-1.8,1.6-3.2,2.5-4.3
				c1-1.1,2-1.5,3.1-1.4c1.3,0.1,2.2,0.7,2.9,1.7c0.7,1,1.1,2.2,1.2,3.5c0.2,1.3,0.1,2.7-0.2,4.2c-0.3,1.5-0.7,2.7-1.4,3.8
				c-0.4,0.7-0.9,1.2-1.5,1.6c-0.6,0.4-1.2,0.7-1.8,0.8c-0.6,0.1-1.2,0-1.7-0.4c-0.5-0.3-0.9-1-1.1-1.8c-0.2-0.9-0.1-1.8,0.3-2.9
				c0.4-1,1.2-1.8,2.4-2.2c0.4-0.3,0.6-0.6,0.4-1c-0.2-0.3-0.5-0.4-1-0.1c-1.3,0.7-2.1,1.6-2.6,2.8c-0.5,1.2-0.7,2.3-0.5,3.3
				c0.2,1.1,0.7,2,1.4,2.5c0.7,0.5,1.4,0.8,2.2,0.8c0.8,0,1.6-0.3,2.4-0.8c0.8-0.5,1.5-1.2,2-2.1c0.6-1.1,1.1-2.5,1.5-4.1
				c0.3-1.6,0.4-3.2,0.2-4.7c-0.2-1.5-0.8-2.9-1.6-4c-0.8-1.2-2.1-1.8-3.8-2c-2.1-0.2-4,0.3-5.7,1.5c-1.8,1.2-3.3,2.7-4.6,4.7
				c-1.3,2-2.4,4.2-3.2,6.8c-0.8,2.6-1.4,5.1-1.7,7.7c-0.3,2.5-0.2,5,0.2,7.2C208.8,152.9,209.5,154.8,210.7,156.2z M325,131
				c0.4-1.4,0.8-2.5,1.2-3.2c0.5-1,1.1-1.7,1.8-2c0.7-0.3,1.3-0.4,1.9-0.2c0.5,0.2,0.8,0.7,0.9,1.5c0.1,0.8-0.2,1.8-1,3.2
				c-0.4,0.7-0.8,1.3-1.4,1.9c-0.6,0.6-1.1,1.1-1.7,1.5c-0.6,0.4-1.1,0.8-1.6,1.1c-0.5,0.3-0.9,0.5-1.1,0.7
				C324.3,133.9,324.6,132.4,325,131z M244.1,127.5c0.8-0.6,1.8-1,2.9-1c1.1,0,2.2,0.3,3.4,0.9c1.2,0.6,2.2,1.6,3.1,2.9
				c0.8,1.3,1.4,2.9,1.8,4.8c0.3,1.9,0.2,4.2-0.4,6.9c-1,0-2.1-0.1-3.2-0.3c-1.1-0.2-2.2-0.6-3.2-1.1c-1-0.5-2-1.2-2.8-2
				c-0.8-0.8-1.4-1.7-1.8-2.9c0.6-0.4,1.1-0.7,1.7-0.9c0.6-0.2,1.1-0.2,1.6-0.2c0.5,0,0.9,0.1,1.2,0.2c0.3,0.1,0.6,0.2,0.7,0.3
				c0.1-0.1,0.1-0.3,0.2-0.7c0.1-0.4,0.1-0.8,0.1-1.4c0-0.5-0.1-1.1-0.2-1.6c-0.1-0.6-0.4-1.1-0.8-1.5c-0.2-0.1-0.5-0.2-1-0.2
				c-0.5,0-1,0-1.6,0c-0.6,0.1-1.1,0.2-1.7,0.3c-0.6,0.1-1,0.3-1.4,0.5C242.8,129.1,243.2,128.2,244.1,127.5z M240.5,141.5
				c0.2-1.8,1-3.4,2.4-4.9c0.1,0.3,0.3,0.7,0.8,1.4c0.5,0.7,1.2,1.4,2.1,2.2c0.9,0.8,2.1,1.4,3.5,2c1.4,0.6,3.2,0.9,5.3,0.9
				c-1.2,3.3-2.5,5.6-3.9,7c-1.4,1.4-2.8,2.1-4.1,2.1c-1.3,0-2.5-0.5-3.5-1.6c-1-1-1.7-2.4-2.2-4C240.3,145,240.2,143.3,240.5,141.5
				z"/>
		</g>
		<g>
			<path d="M221.6,190c0-0.7-0.5-1.2-1.1-1.2c-0.7,0-1.1,0.5-1.1,1.2c0,0,0,1.8,0,2l0,0.4c-0.6,0-1.5,0-2.5,0c-1.9,0-4.2,0-6,0h-0.6
				c0-0.2,0-0.6,0-1c0-1.6,0.1-3.9,0-5.2l-0.1-2.9c-0.1-6.4-0.2-8.6-0.2-9.6h0.8c1.7,0,2.1-0.7,2.1-1.2c0-0.3-0.1-1-1.5-1
				c0,0,0,0,0,0c0,0-1.3,0.1-2.1,0.1c-0.5,0-2.5-0.1-2.5-0.1c-1,0-1.5,0.5-1.5,1c0,0.6,0.4,1.2,2.1,1.2h0.4c0,1.8,0.1,4.4,0.1,7
				c0,2,0.1,4,0.1,5.5c0,1.3,0,3.3,0,4.7c0,0.6,0,1.1,0,1.4h-1.2c-1.1,0-1.5,0.5-1.5,1c0,1.1,1.1,1.2,1.9,1.2h3.6c3.6,0,9.7,0,9.7,0
				c0.6,0,1-0.4,1.1-1c0-0.3,0-0.6,0-0.9c0-0.3,0-0.6,0-0.9c0-0.3,0-0.6,0-0.9C221.6,190.6,221.6,190.3,221.6,190z"/>
			<path d="M237.9,171.5c-0.1,0-0.7,0-1.5,0c-1.8,0-4.5,0.1-5.2,0.1c-1.2,0-2.2,0-3.2,0c-0.9,0-1.7,0-2.6,0c-0.8,0-1.9,0.1-1.9,1.2
				c0,0.5,0.4,1,1.5,1h1c0,1.6,0.1,4,0.1,6.6c0,2.1,0.1,4.3,0.1,6c0,1.3,0,3.3,0,4.8c0,0.6,0,1.1,0,1.4h-1.2c-1.1,0-1.5,0.5-1.5,1
				c0,1.1,1.1,1.2,1.9,1.2c7.2,0,12.6,0,12.6,0c0.6,0,1-0.4,1.1-1c0-0.3,0-0.6,0-0.9c0-0.3,0-0.6,0-0.9c0-0.3,0-0.6,0-0.9
				c0-0.3,0-0.6,0-0.9c0-0.7-0.5-1.2-1.1-1.2c-0.7,0-1.1,0.5-1.1,1.2c0,0,0,1.5,0,2.3c-0.5,0-1.3,0-2.3,0c-1.7,0-3.8,0-5.6,0h-0.6
				c0-0.2,0-0.6,0-1c0-1.6,0.1-3.9,0-5.2c0-0.6,0-1.3,0-2c0.4,0,0.8,0,1.1,0c0.4,0,0.8,0,1.2,0c1.4,0,1.9,0,2.3,0.1c0.3,0,0.5,0,1,0
				c1.7,0,2.1-0.7,2.1-1.2c0-0.3-0.1-1-1.5-1c0,0-1.3,0-3.9,0c-0.6,0-1.1,0-1.6,0c-0.3,0-0.5,0-0.8,0c0-1.3,0-2.6-0.1-3.9
				c0-1.7-0.1-3.3-0.1-4.4h8.6c0,0.9,0,2.3,0,2.3c0,0.7,0.4,1.2,1.1,1.2c0.6,0,1.1-0.5,1.1-1.2v-3.6
				C239.2,171.9,238.6,171.5,237.9,171.5z"/>
			<path d="M257.7,171.5C257.7,171.5,257.7,171.5,257.7,171.5c0,0-3.3,0.2-7,0.2c-3.4,0-7.6-0.2-7.7-0.2c-0.9,0-1.5,0.4-1.5,1.1v3.5
				c0,0.7,0.5,1.2,1.1,1.2c0.7,0,1.1-0.5,1.1-1.2c0,0,0-1.8,0-2v-0.4c0.5,0,1.2,0,1.8,0c1,0,2.2,0.1,3.6,0.1c0,0.4,0,1,0,1.8
				c0,2.9-0.1,8.2,0,12.5c0,2.2,0.1,3.5,0.1,4.2h-0.7c-1.7,0-2.1,0.7-2.1,1.2c0,0.5,0.5,1,1.5,1c0,0,2-0.1,2.5-0.1
				c0.7,0,2,0.1,2.1,0.1c1.3,0,1.5-0.7,1.5-1c0-0.6-0.4-1.2-2.1-1.2h-0.4c0-0.5,0-1.1,0-1.8c-0.1-2.7-0.2-7.3-0.2-11.3
				c0-1.9,0-3.7,0.1-5.4c1.7,0,2.8-0.1,3.7-0.1c0.6,0,1.2-0.1,1.8-0.1l0,0.4c0,0.2,0,2,0,2c0,0.7,0.4,1.2,1.1,1.2
				c0.6,0,1.1-0.5,1.1-1.2v-3.5C259.2,171.9,258.4,171.5,257.7,171.5z"/>
			<path d="M288.3,171.5c0,0-2,0.1-2.5,0.1c-0.7,0-2-0.1-2.1-0.1c-1.3,0-1.5,0.7-1.5,1c0,0.6,0.4,1.2,2.1,1.2h0.6v4.7
				c0,1.9,0,3.8,0.1,5.4c0,1,0,1.9,0,2.4c0,4.5-1.6,6.5-5.2,6.5c-3.6,0-5.2-2-5.2-6.5c0-0.6,0-1.4,0-2.4c0-1.5,0.1-3.5,0.1-5.4v-4.7
				h0.6c1.7,0,2.1-0.7,2.1-1.2c0-0.3-0.1-1-1.5-1c0,0,0,0,0,0c0,0-1.3,0.1-2.1,0.1c-0.5,0-2.5-0.1-2.5-0.1c-1,0-1.5,0.5-1.5,1
				c0,0.6,0.4,1.2,2.1,1.2h0.5v5c0,1.8,0,3.6-0.1,5.1c0,1,0,1.9,0,2.4c0,5.7,2.7,8.8,7.5,8.8c4.8,0,7.5-3.1,7.5-8.8
				c0-0.6,0-1.4,0-2.4c0-1.5-0.1-3.3-0.1-5.1v-5h0.5c1.7,0,2.1-0.7,2.1-1.2C289.8,172,289.3,171.5,288.3,171.5z"/>
			<path d="M300.8,182.2c-0.4-0.1-0.8-0.3-1.3-0.4c-2.7-0.9-4.7-1.8-4.7-4.4c0-2.4,1.9-4,4.8-4c1.5,0,2.8,0.9,4,2.6
				c0.3,0.4,0.4,0.8,0.6,1.2c0.2,0.7,0.5,1.3,1.4,1.3c0.7,0,1.1-0.5,1.1-1.2v-5c0-0.7-0.5-1.2-1.2-1.2c-0.6,0-1.1,0.5-1.1,1.3v1.2
				c-0.9-1.3-2.4-2.4-4.9-2.4c-4.2,0-7.1,2.6-7.1,6.2c0,4.3,2.7,5.3,5.6,6.3l0.6,0.2c0.6,0.2,1.1,0.4,1.7,0.6
				c2.6,0.9,4.9,1.6,4.9,4.4c0,3.5-3.3,3.8-4.7,3.8c-2.1,0-4.1-1.2-5.5-3.3c-0.4-0.5-0.5-1.1-0.7-1.6c-0.2-0.8-0.4-1.5-1.3-1.5
				c-0.7,0-1.1,0.5-1.1,1.2v6.1c0,0.7,0.5,1.2,1.2,1.2c0.6,0,1.1-0.5,1.1-1.3v-1.7c1.6,2.1,3.7,3.2,6.4,3.2c4.3,0,6.9-2.3,6.9-6.1
				C307.7,184.5,304.3,183.3,300.8,182.2z"/>
		</g>
		<g>
			<path d="M172.9,263.9c-2,0.1-3.9-0.5-5.8-1.7c-1.9-1.2-3.7-2.8-5.4-5c-1.7-2.1-3.3-4.7-4.8-7.6c-1.5-2.9-2.8-6.1-3.9-9.5
				c-1.1-3.4-2.1-7-2.9-10.7c-0.8-3.7-1.3-7.5-1.6-11.2c2.3,0,4.2,0.2,5.8,0.7c1.6,0.5,2.8,1.1,3.8,1.8c0.9,0.7,1.6,1.5,1.9,2.4
				c0.3,0.9,0.4,1.8,0.1,2.8c-0.1,0.7,0,1,0.3,1s0.6-0.3,0.7-1c0.2-1.1,0.2-2.1-0.1-3.2c-0.3-1.1-1-2-2-2.8c-1-0.8-2.4-1.5-4.2-2
				c-1.8-0.5-3.9-0.8-6.5-0.9c-0.3-3.6-0.4-7.1-0.4-10.6c0.1-3.5,0.2-6.8,0.4-10c0.2-3.2,0.4-6.1,0.7-8.7c0.3-2.6,0.5-4.9,0.8-6.8
				c0.1-1-0.2-1.7-0.9-2.2c-0.7-0.5-1.6-0.8-2.6-0.9c-1-0.2-1.8-0.2-2.6,0c-0.8,0.1-1.2,0.2-1.2,0.4c-0.3,2.4-0.9,5.2-1.8,8.5
				c-0.9,3.2-2,6.7-3.4,10.4c-1.4,3.7-3,7.4-4.8,11.3c-1.8,3.9-3.7,7.6-5.9,11.3c-3.3,0.7-6.4,1.5-9.1,2.4c-2.7,0.8-4.7,1.5-5.9,2.1
				c-0.3,0.1-0.4,0.4-0.4,0.9c0,0.5,0.3,0.6,0.9,0.5c0.7-0.5,2.3-1.2,4.8-2c2.5-0.9,5.5-1.7,8.8-2.5c-1.6,3-3.7,6.3-6.3,9.9
				c-2.6,3.6-5.3,6.9-8.2,10c-2.8,3.1-5.7,5.7-8.5,7.7c-2.8,2-5.2,3.1-7.2,3.1c-1.7,0-3-0.4-3.8-1.3c-0.8-0.9-1.1-2-1-3.4
				c0.1-1.4,0.6-2.8,1.4-4.5c0.9-1.6,2.1-3.2,3.7-4.6c0.5-0.5,0.8-0.9,0.9-1.2c0.1-0.3,0-0.5-0.1-0.6c-0.2-0.1-0.4-0.1-0.7,0
				c-0.3,0.1-0.5,0.2-0.8,0.4c-2,1.9-3.5,3.9-4.4,5.8c-1,2-1.4,3.7-1.4,5.3c0,1.6,0.6,2.9,1.6,3.9c1.1,1,2.7,1.5,4.8,1.5
				c1.5,0.1,3.2-0.4,5.1-1.4c1.8-1,3.7-2.3,5.6-4c1.9-1.7,3.9-3.6,5.8-5.8c2-2.2,3.9-4.5,5.7-6.9c1.9-2.4,3.6-4.8,5.2-7.2
				c1.6-2.4,3.1-4.7,4.4-6.9c0.7-0.1,1.4-0.3,2.2-0.4c0.8-0.2,1.7-0.3,2.7-0.5c1.1-0.2,2.3-0.4,3.7-0.5c1.4-0.2,3.1-0.3,5.1-0.5
				c0.2,2.5,0.6,5.4,1.3,8.8c0.7,3.4,1.7,6.8,2.9,10.4c1.2,3.6,2.7,7,4.5,10.4c1.8,3.4,3.8,6.3,6,8.9c2.3,2.6,4.8,4.6,7.5,6
				s5.8,1.9,9.1,1.5c0.7-0.1,1-0.3,0.9-0.4C173.7,263.9,173.4,263.8,172.9,263.9z M142,190.8c-0.3,2.2-0.6,4.6-0.8,7.4
				c-0.2,2.8-0.3,5.8-0.4,9.1c0,3.2,0.1,6.6,0.4,10.1c-1.5,0.1-2.7,0.2-3.7,0.3c-1,0.1-1.9,0.2-2.8,0.4c-0.9,0.2-1.8,0.3-2.7,0.5
				c-0.9,0.2-2,0.3-3.2,0.5c1.7-3.1,3.3-6.2,4.8-9.3c1.5-3.1,2.8-6.1,4-9.1c1.2-2.9,2.2-5.6,3.1-8.2c0.9-2.6,1.7-4.9,2.3-6.9
				C142.6,186.9,142.3,188.6,142,190.8z"/>
			<path d="M272.3,235.5c-1,1.6-2.1,3.2-3.3,4.7c-1.2,1.5-2.4,3-3.6,4.3c-1.2,1.3-2.3,2.3-3.4,3c-1.1,0.7-2,0.9-2.8,0.6
				c-0.8-0.2-1.4-1.1-1.7-2.7c-0.2-0.9-0.3-2-0.4-3.3c-0.1-1.3-0.1-2.6-0.1-3.8c0-1.2,0-2.3,0.1-3.2c0.1-0.9,0.1-1.5,0.2-1.7
				c2.5-1.4,4.3-2.9,5.6-4.5c1.3-1.6,2-3.1,2.1-4.3c0.2-1.2-0.2-2.2-1-2.7c-0.8-0.6-2.1-0.5-3.7,0.1c-1.9,0.9-3.6,2.1-4.9,3.7
				c-1.4,1.6-2.4,3.3-3.2,5.3c0,0.1-0.1,0.2-0.1,0.3h0c-1.2,2.4-2.5,5-4.1,8.1c-1.5,3-3.1,5.9-4.6,8.7c-1.5,2.8-2.9,5.2-4.3,7.2
				c-1.3,2-2.3,3.2-3,3.5c-0.5,0.2-0.7-0.4-0.6-1.8c0.1-1.4,0.4-3.2,0.8-5.4c0.4-2.2,1-4.7,1.8-7.4c0.7-2.7,1.5-5.2,2.3-7.7
				c0.4-1,0.7-1.9,0.9-2.6s0.4-1.4,0.3-2c0-0.6-0.3-1.1-0.7-1.6c-0.4-0.5-1.2-1.1-2.2-1.7c-0.9-0.5-2-1-3.3-1.4
				c-1.3-0.5-2.7-1-4.1-1.6c0.4-0.9,0.9-2.3,1.4-4.2c0.5-1.9,0.9-3.7,1.1-5.5v-2.5c-0.3-2.3-1.1-3.6-2.4-4c-1.3-0.4-2.8,0.3-4.6,2.1
				c-0.9,0.9-1.6,2.1-2,3.5c-0.4,1.4-0.5,2.8-0.3,4.3c0.2,1.5,0.8,2.8,1.7,4.1c0.9,1.3,2.2,2.2,3.9,2.9c-0.4,0.9-0.7,1.8-1.1,2.6
				c-0.3,0.8-0.7,1.6-1.2,2.4c-1.6,2.7-3.2,4.6-4.9,5.7c-1.7,1.1-3.3,1.6-4.8,1.7c0.8-3.2,1-6,0.7-8.2c-0.4-2.3-1.1-4.1-2.1-5.4
				c-1.1-1.3-2.3-2.2-3.8-2.7c-1.5-0.5-2.8-0.6-4.2-0.3c-1.3,0.3-2.5,0.9-3.4,1.9s-1.4,2.3-1.4,3.9c-1.9,1.2-3.3,2.8-4.2,4.7
				c-0.1,0.3-0.2,0.6-0.4,0.9c-0.8,1.6-1.6,3.2-2.4,5c-1.3,2.6-2.5,5.1-3.7,7.4c-1.2,2.3-2.3,4.3-3.3,5.9c-1,1.6-1.7,2.6-2.2,2.8
				c-0.3,0.2-0.6-0.2-0.9-1.2s-0.5-2.3-0.8-3.9c-0.2-1.6-0.5-3.5-0.6-5.5c-0.2-2-0.4-4-0.5-6c-0.2-1.9-0.3-3.7-0.4-5.4
				c-0.1-1.6-0.2-2.9-0.3-3.7c0.4-0.7,1.1-2,1.9-3.8c0.8-1.8,1.7-3.8,2.6-6.1c0.9-2.3,1.9-4.8,2.8-7.5c0.9-2.7,1.7-5.4,2.5-8.1
				c0.7-2.7,1.2-5.4,1.6-7.9c0.3-2.6,0.4-4.8,0.1-6.8c-0.3-2.6-1-4.5-2.2-5.8c-1.1-1.2-2.4-1.9-3.8-1.9c-1.4,0-2.8,0.5-4.2,1.6
				c-1.4,1.1-2.6,2.6-3.5,4.5c-1.5,3.2-2.6,6.8-3.2,10.6s-1.1,7.6-1.3,11.3c-0.2,3.7-0.1,7,0,10c0.2,3,0.4,5.3,0.6,6.8
				c-0.7-1.6-1.6-2.5-2.8-2.6c-1.2-0.1-2.4,0.2-3.6,0.8c-1.6,1-3,2.4-4.2,4.2c-1.2,1.8-2.1,3.7-2.8,5.8c-0.7,2.1-1.1,4.2-1.2,6.3
				c-0.1,2.1,0,4,0.5,5.6c0.4,1.6,1.2,2.8,2.2,3.6c1.1,0.8,2.4,0.9,4.2,0.4c0.9-0.3,1.9-1,2.8-2.2c0.9-1.1,1.8-2.4,2.6-3.9
				c0.8-1.5,1.6-2.9,2.3-4.3c0.7-1.4,1.2-2.5,1.6-3.3c0.1,0.6,0.3,1.6,0.6,2.9c0.2,1.3,0.6,2.8,1,4.4c0.4,1.6,0.8,3.2,1.3,4.9
				c0.5,1.7,1,3.2,1.5,4.5c0.6,1.3,1.1,2.3,1.8,3c0.6,0.7,1.3,0.8,2,0.5c0.7-0.4,1.7-1.5,2.8-3.3c1.1-1.8,2.3-3.9,3.6-6.4
				c1.3-2.5,2.6-5.1,3.9-7.8c0.2-0.4,0.4-0.8,0.6-1.2c0,0.4,0,0.9,0,1.3c0,3.3,0.8,5.9,2.3,7.9c1.5,2,3.4,3.1,5.5,3.4
				c2.1,0.3,4.2-0.3,6.4-2c2.2-1.6,3.9-4.4,5.2-8.5c0.2,0,0.8-0.1,1.5-0.2c0.8-0.1,1.7-0.4,2.8-1c1.1-0.5,2.2-1.4,3.4-2.5
				c1.1-1.1,2.1-2.6,3.1-4.5h0l0.1-0.2c0-0.1,0.1-0.1,0.1-0.2h0l2.1-4.6c0.4,0.1,0.9,0.3,1.4,0.5c0.5,0.2,1,0.4,1.4,0.6
				c0.4,0.2,0.8,0.5,1.2,0.7c0.3,0.3,0.5,0.5,0.6,0.8c0.3,0.9,0.2,2-0.4,3.3c-0.6,1.4-1.3,3.1-2.1,5.2c-0.7,1.6-1.3,3.5-1.7,5.8
				c-0.5,2.3-0.7,4.5-0.8,6.7c-0.1,2.2,0.2,4.3,0.7,6.1c0.6,1.9,1.6,3.2,3.1,4c0.3,0.1,0.6,0.2,0.9,0.3c0.3,0.1,0.6,0,1.1-0.1
				c0.5-0.2,1.1-0.8,2-1.9c0.8-1.1,1.7-2.4,2.6-4c1-1.6,2-3.4,3.1-5.5c1.1-2,2.2-4.1,3.3-6.2c1.1-2.1,2.1-4.2,3.2-6.2
				c0.2-0.5,0.5-0.9,0.7-1.4c-0.1,0.5-0.2,1-0.2,1.5c-0.2,2,0,4,0.4,5.8c0.4,1.8,1.2,3.3,2.3,4.6c1.1,1.3,2.5,2.1,4.2,2.4
				c1.5,0.3,3.1-0.2,4.8-1.4c1.7-1.3,3.4-2.9,5.1-4.8c1.6-1.9,3.2-4.1,4.6-6.3c1.4-2.3,2.5-4.2,3.4-5.8h-1
				C274.1,232.5,273.3,233.9,272.3,235.5z M258.6,227.8c0.4-1.4,0.8-2.4,1.2-3.1c0.5-1,1.1-1.7,1.8-2c0.7-0.3,1.3-0.4,1.9-0.2
				c0.5,0.2,0.8,0.7,0.9,1.5c0.1,0.8-0.2,1.8-1,3.1c-0.4,0.7-0.8,1.3-1.4,1.9c-0.6,0.6-1.1,1.1-1.7,1.5c-0.6,0.4-1.1,0.8-1.6,1.1
				c-0.5,0.3-0.9,0.5-1.1,0.7C257.8,230.7,258.1,229.2,258.6,227.8z M178.2,236.7c-0.4,1-0.8,2-1.4,3.2c-0.6,1.1-1.2,2.3-1.9,3.4
				c-0.7,1.1-1.3,2.1-2,2.9c-0.6,0.7-1.1,1.1-1.6,1.2c-0.5,0.1-0.9-0.5-1.3-1.7c-0.3-1.1-0.5-2.5-0.5-4.3s0.1-3.7,0.4-5.7
				c0.3-2,0.7-3.9,1.2-5.7c0.5-1.8,1.2-3.2,1.9-4.2c0.7-0.9,1.3-1.4,1.8-1.3c0.5,0.1,1,0.4,1.4,0.9c0.4,0.5,0.8,1.2,1.1,1.9
				c0.3,0.7,0.6,1.4,0.7,1.9c0.1,0.7,0.2,1.5,0.3,2.5c0.1,1,0.2,1.9,0.3,2.7C178.8,234.9,178.6,235.7,178.2,236.7z M183.8,222.4
				c0-2,0-4.2,0-6.6c0.1-2.4,0.2-5,0.3-7.6c0.2-2.7,0.4-5.3,0.7-7.8c0.3-2.5,0.8-4.9,1.3-7.2c0.5-2.2,1.1-4.1,1.9-5.7
				c1.2-2.7,2.5-4,3.8-3.8c1.3,0.2,2.2,1.9,2.7,5c0.2,1.7,0.2,3.8-0.1,6.2c-0.3,2.4-0.8,4.9-1.4,7.5c-0.6,2.6-1.4,5.3-2.3,7.9
				c-0.9,2.6-1.7,5.1-2.6,7.3c-0.9,2.3-1.7,4.2-2.4,5.9c-0.7,1.6-1.3,2.8-1.7,3.5C183.9,225.9,183.9,224.4,183.8,222.4z M213,246.6
				c-1.4,1.4-2.7,2-4,2c-1.3,0-2.4-0.5-3.4-1.5c-1-1-1.7-2.3-2.2-3.9c-0.5-1.6-0.6-3.3-0.3-5c0.2-1.8,1-3.4,2.3-4.9
				c0.1,0.2,0.3,0.7,0.8,1.4c0.5,0.7,1.1,1.4,2,2.1s2.1,1.4,3.5,2c1.4,0.6,3.2,0.9,5.2,0.9C215.7,243,214.4,245.3,213,246.6z
				 M217.1,238.7c-1,0-2-0.1-3.2-0.3c-1.1-0.2-2.2-0.6-3.2-1.1c-1-0.5-1.9-1.2-2.7-2c-0.8-0.8-1.4-1.7-1.8-2.8
				c0.6-0.4,1.1-0.7,1.7-0.9c0.6-0.2,1.1-0.2,1.5-0.2c0.5,0,0.9,0.1,1.2,0.2c0.3,0.1,0.6,0.2,0.7,0.3c0.1-0.1,0.1-0.3,0.2-0.7
				s0.1-0.8,0.1-1.3c0-0.5-0.1-1.1-0.2-1.6c-0.1-0.6-0.4-1.1-0.8-1.5c-0.2-0.1-0.5-0.2-1-0.2c-0.5,0-1,0-1.5,0
				c-0.6,0.1-1.1,0.2-1.7,0.3c-0.6,0.1-1,0.3-1.4,0.5c0.1-1.3,0.6-2.3,1.4-2.9c0.8-0.6,1.7-0.9,2.8-1c1.1,0,2.2,0.3,3.4,0.9
				c1.2,0.6,2.2,1.6,3,2.8c0.8,1.3,1.4,2.9,1.8,4.8C217.9,233.9,217.7,236.1,217.1,238.7z M230.5,225.3c-1.4-0.5-2.3-1.3-2.8-2.4
				c-0.5-1.1-0.7-2.2-0.6-3.4c0.1-1.2,0.4-2.4,1-3.5c0.5-1.1,1.1-2.1,1.7-2.9c0.6-0.8,1.2-1.2,1.8-1.3c0.6-0.1,0.9,0.2,1.1,1
				c0.2,0.7,0.2,1.8,0.1,3.2c-0.1,1.3-0.4,2.8-0.7,4.4C231.7,221.9,231.2,223.5,230.5,225.3z"/>
		</g>
		<g>
			<path d="M248.7,296.2c-0.8,0.2-1.6,0.7-2.2,1.5c-0.6,0.8-0.8,1.7-0.8,2.7c0,1,0.3,1.8,1,2.4c0.7,0.6,1.5,0.8,2.3,0.7
				c0.9-0.1,1.6-0.6,2.1-1.5c0.6-0.8,0.9-1.7,0.9-2.7c0-1-0.4-1.8-1.1-2.4C250.3,296.3,249.6,296,248.7,296.2z"/>
			<path d="M313.5,313c-0.2,0.4-0.7,1.6-1.6,3.3c-0.9,1.8-2,3.9-3.2,6.2c-1.3,2.3-2.6,4.7-4.1,7.1c-1.5,2.4-2.9,4.4-4.2,6
				c-1.1,1.1-1.9,1.4-2.4,0.9c-0.6-0.5-0.8-1.3-0.8-2.5c0-1.2,0.2-3,0.6-5.4c0.4-2.4,0.9-5,1.5-7.7c0.6-2.7,1.2-5.3,1.8-7.9
				c0.6-2.6,1-4.6,1.3-6.1c0.2-1.2,0.2-2.4-0.2-3.5c-0.4-1.1-0.9-1.9-1.7-2.6c-0.7-0.7-1.6-1-2.6-1c-1,0-2,0.5-3.1,1.5
				c-1.3,1.1-2.6,2.6-3.8,4.4c-1.2,1.8-2.3,3.7-3.3,5.7c-1,2-1.9,3.8-2.7,5.6s-1.3,3.2-1.7,4.4c0.1-1.5,0.2-3.1,0.5-4.8
				c0.2-1.7,0.5-3.4,0.6-5c0.2-1.6,0.3-3.1,0.4-4.5c0.1-1.4,0-2.6-0.3-3.5c-0.7-2.2-1.7-3.7-3.1-4.4c-1.4-0.7-2.7-0.2-4,1.3
				c-1.1,1.2-2.1,2.9-3.2,5.1c-1.1,2.2-2,4.5-2.9,6.9c-0.9,2.4-1.7,4.8-2.3,7.1c-0.6,2.3-1.1,4.2-1.3,5.6c0.1-0.3,0.1-1.1,0.1-2.5
				c0-1.4,0-2.8,0-4.3c0-1.5-0.1-2.9-0.2-4.2c-0.1-1.3-0.2-2.1-0.4-2.3c-0.4-0.4-0.9-0.7-1.6-0.7c-0.7-0.1-1.4,0-2.1,0.1
				c-0.7,0.2-1.3,0.4-1.7,0.7c-0.4,0.3-0.6,0.6-0.6,0.8h0c-0.7,1.4-1.5,3-2.5,4.7c-1,1.7-2,3.3-3,4.9c-1,1.6-2,3-3,4.2
				c-1,1.2-1.8,2.1-2.5,2.5c-0.9,0.6-1.4,0.3-1.5-0.8c-0.2-1.1-0.1-2.5,0-4.3c0.2-1.8,0.5-3.7,0.8-5.7s0.6-3.7,0.8-5.2
				c0.1-1-0.1-1.8-0.6-2.3s-1.1-0.9-1.8-1.1c-0.7-0.2-1.3-0.3-2-0.3s-1,0-1,0.1c-0.5,0.4-0.9,1.2-1.3,2.5c-0.1,0.2-0.1,0.4-0.1,0.6
				h0c-0.3,0.6-0.9,1.8-1.9,3.7c-0.9,1.9-2,4-3.3,6.4c-1.3,2.4-2.6,4.8-4,7.2c-1.4,2.4-2.7,4.5-4,6.3c-2.2,3.1-3.8,4.5-4.7,4.3
				c-0.9-0.2-1.1-2.4-0.7-6.5c0.2-2,0.8-4.1,1.7-6.5c0.9-2.4,1.7-4.7,2.6-7.1c0.9-2.4,1.7-4.6,2.3-6.8s0.9-4.1,0.6-5.8
				c-0.2-1.5-0.8-2.9-2-4c-1.1-1.1-2.5-1.8-4.2-1.9c-1.5-0.1-3,0.8-4.4,2.5c-1.5,1.7-2.8,3.8-4,6.2c-1.2,2.4-2.3,4.8-3.2,7.3
				s-1.5,4.4-1.8,5.7c0.1-2.8,0-5.4-0.2-7.8c-0.2-2.4-0.6-4.9-1.3-7.7c0.9-1.8,1.8-3.9,2.9-6.5c1.1-2.5,2.2-5.2,3.3-8.1
				c1.1-2.9,2.2-5.8,3.2-8.9c1-3,1.9-6,2.6-9c0.7-2.9,1.3-5.7,1.6-8.4c0.3-2.6,0.3-5,0.1-7c-0.3-2.6-0.9-4.6-1.8-5.9
				c-0.9-1.3-2-2.2-3.3-2.6c-2.2-0.7-4.3-0.7-6.3-0.1c-2,0.6-3.9,1.7-5.5,3.2c-1.7,1.5-3.1,3.3-4.2,5.3c-1.1,2.1-1.9,4.2-2.4,6.5
				c-0.6,3.5-0.8,6.9-0.7,10.4c0.2,3.5,0.6,6.9,1.3,10.4s1.4,6.9,2.4,10.4c0.9,3.4,1.8,6.9,2.6,10.3c0.8,3.4,1.4,6.8,1.9,10.2
				c0.5,3.4,0.6,6.7,0.3,9.9c0.2,0.4,0.6,0.6,1,0.8c0.4,0.2,0.8,0.2,1.2,0.3c0.4,0,0.7,0,1-0.1c0.3-0.1,0.4-0.2,0.3-0.2
				c0-0.9,0.3-2.4,0.9-4.5c0.6-2,1.3-4.2,2.2-6.5c0.9-2.3,1.8-4.4,2.7-6.4c0.9-2,1.7-3.5,2.4-4.4c0.9-1.2,1.7-2.2,2.5-2.9
				c0.8-0.7,1.6-1.1,2.4-1.2c0.5,0,0.7,0.5,0.7,1.4c-0.1,1-0.3,2.2-0.7,3.9c-0.4,1.6-0.8,3.5-1.4,5.6c-0.6,2.1-1.1,4.3-1.6,6.5
				c-0.5,2.2-0.9,4.5-1.3,6.7c-0.3,2.2-0.5,4.3-0.4,6.1c0,0.9,0.1,2.1,0.3,3.4c0.2,1.3,0.5,2.5,1,3.5c0.5,1,1.2,1.7,2,2
				c0.9,0.3,2-0.2,3.4-1.4c1.4-1.2,2.9-3.1,4.6-5.8c1.7-2.7,3.4-5.5,5-8.5c1.6-3,3.1-5.8,4.4-8.4c0.5-1,0.9-1.8,1.3-2.6
				c0,0.3-0.1,0.5-0.1,0.9c-0.2,1.7-0.2,3.5,0,5.4c0.1,1.9,0.4,3.5,0.9,5c0.5,1.5,1.1,2.6,2,3.4c0.9,0.8,2,1,3.3,0.7
				c0.8-0.2,1.8-1,3-2.3c1.2-1.3,2.4-2.8,3.6-4.6c1.2-1.8,2.4-3.7,3.6-5.8c0.9-1.5,1.6-2.8,2.2-4.1c0.3,1.1,0.7,2.2,1,3.3
				c0.4,1.6,0.7,3.2,1,4.8c0.3,1.6,0.5,3.1,0.6,4.4c0.1,1.4,0.1,2.5,0,3.4c0.3,0.2,0.7,0.3,1.2,0.5c0.5,0.1,0.9,0.2,1.3,0.2
				c0.4,0,0.8,0,1.1-0.1c0.3-0.1,0.4-0.2,0.4-0.4c-0.1-1.5,0.1-3.5,0.6-5.8c0.5-2.3,1.1-4.7,1.8-7.1c0.7-2.4,1.6-4.7,2.5-7
				c0.9-2.2,1.8-4.1,2.6-5.6c0.2-0.3,0.5-0.9,0.9-1.6c0.4-0.8,0.9-1.3,1.3-1.7c0.4-0.3,0.7-0.3,0.9,0.2c0.2,0.5,0.2,1.9-0.1,4.1
				c-0.2,1.5-0.4,3.2-0.6,5.1c-0.2,1.9-0.4,3.7-0.4,5.6c-0.1,1.9,0,3.7,0.1,5.5c0.2,1.8,0.5,3.4,1.1,4.9c0.6,1.6,1.4,2.2,2.5,1.9
				c1-0.3,1.7-1.6,2.1-3.7c0.4-2,1.1-4.4,2.1-7c1.1-2.6,2.2-5,3.4-7.3c1.2-2.3,2.4-4.2,3.6-5.7c1.1-1.5,2-2.3,2.6-2.3
				c0.3,0,0.5,0.5,0.5,1.4c0,0.9-0.1,2.1-0.2,3.6c-0.2,1.5-0.4,3.1-0.7,5s-0.6,3.8-0.8,5.7c-0.3,1.9-0.5,3.8-0.7,5.7
				c-0.2,1.9-0.3,3.5-0.3,4.8c0,1.1,0.1,2.3,0.4,3.7c0.2,1.4,0.7,2.6,1.2,3.7c0.6,1,1.3,1.6,2.3,1.9c1,0.2,2.2-0.4,3.7-1.7
				c1.4-1.2,2.8-3,4.3-5.4c1.5-2.4,2.9-4.8,4.3-7.3c1.3-2.5,2.5-4.8,3.5-6.9c1-2.1,1.7-3.5,2-4.3H313.5z M208.6,292.2
				c-0.4-4.6-0.6-8.8-0.5-12.7c0.1-3.9,0.4-7.4,1-10.6c0.6-3.2,1.4-5.9,2.5-8.2c0.8-1.9,1.8-3.4,3.1-4.7c1.2-1.3,2.5-2,3.7-2.3
				c1.2-0.2,2.3,0.2,3.3,1.3c1,1.1,1.7,3,2,5.8c0.2,2,0.2,4.3-0.1,6.9s-0.8,5.2-1.5,8s-1.5,5.6-2.5,8.5c-1,2.9-1.9,5.7-3,8.5
				c-1,2.7-2,5.3-3.1,7.7c-1,2.4-1.9,4.6-2.7,6.4C209.7,301.7,209,296.8,208.6,292.2z"/>
		</g>
	</g>
	<g>
		<path class="st3" d="M99.5,143.5l0.1,0.1c-1.5,1.2-3.2,1.4-4.4,2.6l0.4,0.1c1.6-1.1,3.3-1.1,4.8-2.3c0.1,0,0.1,0.1,0.2,0.2
			c-1.7,1.3-3.1,2-5,3.1c0.1,0.1,0.2,0.2,0.3,0.1c1.9-0.7,4.2-2.2,6.2-3.4c1,0.5-0.6,0.5-0.6,1c-1.9,0.8-3.8,1.9-5.4,3.4
			c0,0-0.1,0.1,0,0.2c2.3-1.4,5.1-2.7,7.5-3.9c0.3,0,0.9-0.2,1,0.2c-2.5,1.3-5,2.8-7.5,4.2l0.4,0.1c3-1.5,5.5-2.8,8.2-4
			c0.2,0,0.2,0.1,0.3,0.3c-2.3,1.4-4.4,2.2-6.2,4.2c0,0.1,0.2,0.1,0.3,0.1c2.4-1.7,4.7-2.9,7.6-4.1c0.1,0.1,0.3,0.1,0.3,0.2
			c-2.9,1.1-5.1,3.4-7.4,5.1c0,0.3-0.5,0.4-0.3,0.7l0.3,0c2.6-2.2,5.8-4.2,9.4-5.6c0.1,0.1,0.2,0,0.3,0.2l-0.2,0.2
			c-3.1,1.1-5.7,2.8-7.9,4.9c0,0.1,0.2,0.1,0.3,0.1c3-1.9,6.2-3.3,9.6-4.6c0.1-0.2,0.1-0.3,0.4-0.2c0.1,0.1,0.3,0,0.4,0.2
			c-2.2,1.2-5,2.3-6.9,3.6c-0.8,0.4-2.1,1.2-3.1,1.9c0.5,0.4,0.9-0.3,1.5-0.5c3-1.5,6.6-3.5,9.9-4.5l0.8-0.2c0.2,0.1,0.5,0,0.5,0.3
			c-2.7,2.3-6.1,3.9-7.9,6.9c-0.4,0.5-0.7,1.5-0.8,1.6l-0.3,0.3l0.3,0.1c4.6-3.2,8-5.6,12.9-8.3c0.3,0,0.7,0.2,1.1,0.2
			c-3.5,1.4-6.1,3.9-8.8,6.2c-0.2,0.6-1,1-0.8,1.7c-0.4,0.6-2,0.7-1.5,1.5l0.3,0c3.1-1.6,5.6-4,8.6-5.3c2.1-1.2,4.5-1.7,6.2-3.3
			c0.3-0.1,0.7,0.1,1.1,0.1l-0.2,0.3c-4.4,2.9-9.2,4.5-11.9,8.7c-0.4,0.3-0.8,0.6-0.9,1.1c0.1,0.2,0.4,0.3,0.6,0.2
			c5.2-3.1,10.8-6.1,15.9-9.1c0.4-0.3,0.7-0.2,1.2-0.2l0.7,0.2c-4.4,2.5-9,5.2-13.5,7.4l-2.3,1.7c-0.1,0.1,0.1,0.3,0.1,0.4
			c0.5,0.1,1.2-0.4,1.5-0.4c-0.2,0.3-1,0.6-1,1l0.3,0.1c5.6-2.3,11.2-4.9,16.6-8.5c0.6-0.1,1.2-0.6,1.7-0.8c0.4-0.2,0.9-0.2,1.3,0.2
			c-4,2.8-7.6,5.1-11.4,7.6c-1.3,0.9-2.7,1.8-4,2.9c-0.1,0.2,0,0.3,0.1,0.4c0.7-0.1,1.1-0.6,1.6-0.8c4.5-3.4,9.6-6.1,14.7-9.6
			c0.2-0.1,0.2-0.6,0.6-0.4l0.3,0c0,1-1.1,1.5-1.9,2.1c-4.9,3.1-8.9,6.2-14,8.7c0,0.1-0.2,0.2-0.2,0.4c0.1,0.2,0.5,0.2,0.7,0.2
			c5.7-3.3,11.8-7.4,17.3-10.9c0.3-0.2,0.6-0.1,1,0c0.1,0.3-0.3,0.4-0.4,0.7c-3.8,2.6-8.1,5.4-11.1,8.9c-0.8,0.9-2.5,1.8-2.8,3.2
			c0.2,0.2,0.4,0.2,0.5,0.1c2.5-2.5,4.9-5.6,8-7.7c2-1.3,4.1-2.9,6.3-4.1c0.1-0.3,0.5-0.5,0.4-0.9c0.5-0.1,0.9,0.2,1.2,0.3
			c-1.5,1.9-4.3,3-6.1,4.6c-3,2.8-6.5,5.8-9.5,9.1l-0.1,0.3c1,0.3,1.6-1,2.4-1.6c0.7-1.1,2.1-1.9,3-2.8c3-3.3,7-6.6,11.2-8.6
			c0.5-0.3,0.9-1,1.6-0.7l-0.1,0.4c-4.4,3.3-8.4,5.6-12.4,9.3c-0.9,0.6-1.8,1.5-2.8,2.4c0.2,0.3,0.6,0,0.8,0c3.3-2.6,6-5.2,9.8-7.6
			l6.5-4.3c0.4-0.1,0.2,0.3,0.3,0.4l-0.4,0.5c-5,3.4-10.1,7.3-15,10.8c-0.1,0.2,0,0.3,0.1,0.4c1.2-0.2,2-1.3,2.9-1.9
			c4.5-3.1,9.5-7,14.3-9.8c0.2,0.1,0.6,0,0.7,0.2c-0.4,0.9-1.6,1.5-2.3,2.2c-4,3-7.3,7.9-10.7,11.8c-0.1,0.3-0.5,0.8-0.1,0.9
			l0.4-0.1c3.9-4.8,7.3-9.8,12.9-13.6c0.4-0.4,0.6-0.9,0.9-1.3l0.6,0.2l0.5,0.1c-0.5,1.4-2.4,2.1-3.5,3.1
			c-3.9,3.6-7.5,7.3-10.7,11.4l0,0.1c0.4,0.1,0.9,0,1.2-0.4c4.2-4.8,8.3-10.2,14.2-13.2l0.4-0.7c0.5,0.1,1.1-0.2,1.3,0.2
			c-0.3,0.6-0.9,1-1.4,1.4c-1.7,1.8-4.4,3.4-6,5.2l-6.9,5.5c0,0.2-0.4,0.5,0,0.7c1.8-0.8,3.2-2.8,4.7-3.8c3.5-3.1,7.3-5.8,11-9.1
			c0.3-0.1,0.7,0,0.8,0.2c-4.7,4.1-8.4,8.1-13.2,12.2c-0.1,0.3-0.6,0.6-0.2,0.9l0.3,0c4.3-3.7,8.2-8,12.7-11.6
			c1-0.2,1.5-1.9,2.6-1.3l-0.3,0.5c-1.8,1.2-3.2,2.9-4.5,4.1c-2.4,2.3-5.9,5-8.2,7.7c0.2,0.2,0.5,0,0.8,0c4.3-3.9,8.8-8.1,13.8-12
			c0-0.2,0.1-0.4,0.3-0.3c0.2,0.1,0.4,0.1,0.6,0.2l-0.1,0.3c-5,4.1-10.2,8.8-14.6,12.3c-0.2,0.2-0.1,0.6,0.1,0.6l0.5,0
			c5-4.7,9.5-8.5,15.4-12.7c0.1-0.1,0.2-0.4,0.4-0.4c0.3,0.1,0.7,0,0.9,0.2c-2.1,1.9-4.6,3.6-6.2,5.6c-2.5,2.2-4.9,4.3-7.1,6.2
			l-0.1,0.8c0.9-0.1,1.5-1.2,2.5-1.9c3-2.5,6.9-6.1,10.5-8.9c0.4-0.6,1.2-1,1.6-1.6c0.1,0,0.1,0,0.2,0c0.1,0,0.3,0.1,0.4,0.2
			c-3.1,3-6.9,5.8-9.4,8.5c-1.3,1-3.1,2.1-3.7,3.4l-0.1,0.1c0.1,0.3,0.5,0.2,0.7,0.2c2.2-2,4.5-4.1,6.9-6.2c2.1-1.9,4.3-3.7,6.5-5.4
			c0.1,0,0.2,0,0.3,0.1c0,0,0,0,0,0.1c-4.2,3.6-8.4,6.8-11.9,10.5c0,0.2-0.1,0.3,0.1,0.4c0.7,0,1-0.7,1.5-1.1
			c4-4.3,7.9-6.8,12.5-10.1c0.2-0.3,0.3,0,0.6-0.1c0.1,0.9-1.5,1.3-1.8,2.2c-3.6,3-7.1,6.6-10,10.4c0,0.2,0,0.4,0.3,0.4
			c1-0.8,1.8-2,2.6-3c2.6-3.6,6.7-6.6,10.3-9.3c0.4-0.1,0.2-0.7,0.7-0.5c0.5,0.3-0.4,0.5-0.4,0.9c-1.1,1.5-2.9,2.8-4,4.4
			c-1.8,1.8-3.1,4-4.7,5.8c-0.2,0.3-0.3,0.7-0.4,1l0.3,0c3.5-4,6.4-8.3,10.7-11.8c0.2,0.2,0.7,0,0.8,0.2c-1.3,1.1-2,2.5-3.2,3.7
			c-2.4,2.9-4.9,5.6-7.3,8.7c0,0.2-0.1,0.4,0.1,0.5c0.5,0.1,0.8-0.4,1.1-0.7c2-3.4,5-5.9,7.5-9c1.1-1.1,2.1-2.2,3.4-3.2
			c0.1,0,0.3-0.1,0.3,0l-1.4,1.6c-2,3.3-4.5,6.4-5.7,10.1l0.1,0.1c1.2-1.1,1.6-2.8,2.4-4.1c1.5-2.7,3.5-5.2,6-7.5l0.2,0
			c-1.3,2.6-3.8,4.7-5.5,7.1c-1.1,1.6-1.7,3.3-2.9,4.8c0,0.4-0.5,0.7-0.1,1c0.4-0.2,0.8-0.7,1-1.1c1.7-4.5,5.8-8.1,9.3-11.7l0.4,0
			l-0.2,0.6c-2.2,3.4-4.2,6.9-5.2,10.7l0.3,0.5c0.7-0.2,0.2-1.1,1-1.1c2.2-3.3,4.1-6.7,6.7-9.7c0.2-0.3,0.3-0.7,0.6-0.9
			c0.1-0.1,0.1-0.1,0.2-0.2c0.1,0.6-0.4,1.3-0.7,1.9c-0.7,1.9-1.3,4-1.4,6c-0.2,0.4-0.3,0.9-0.4,1.3c0.3-0.2,0.6-0.6,0.8-1
			c0.6-2.7,1.3-5.5,2.5-8c0.2-0.1,0.5-0.2,0.8-0.2c0,0.1,0.1,0.3,0.1,0.4l0,0c0,0,0,0.1,0,0.2c0,0.1,0,0.2,0,0.3l-0.2,0
			c-0.1,0.1-0.2,0.2-0.3,0.3l0.3,0.1c0,0,0.1,0,0.1,0c-0.1,0.6-0.4,1.3-0.4,1.9l0,3.9l0.5-0.4c0.2-1.9,0.2-3.7,0.7-5.5
			c0.3-0.1,0.6-0.1,0.8-0.2c0-0.1,0.1-0.1,0.1-0.2c0.1-0.1,0.2-0.2,0.3-0.3l-0.1,0l-1.1,0.2c0,0,0-0.1,0-0.1l0.1,0.1
			c0-0.1,0.1-0.2,0.2-0.3c0.5-0.1,1-0.2,1.4-0.3c1.3-0.7,2.9-0.7,4.4-0.7c0.4,0,0.8,0,1.2,0c0.1,0,0.2,0,0.2,0c0,0,0,0,0,0
			c-0.2-0.7-0.3-1.7-1.2-1.7c-0.8,0.1-1.5,0.3-2.3,0.5l-1.7,0.6c-0.3,0-0.6,0-0.9-0.1l1-0.2c0,0,0,0,0.1,0c-0.2,0-0.5,0-0.8,0
			c-0.2,0-0.4-0.1-0.6-0.1c-0.1,0-0.3,0-0.4,0.1c0,0-0.1,0-0.1-0.1c-0.2-0.1-0.2-0.2-0.2-0.4c0,0,0.1,0,0.2,0
			c-0.7-0.6-1.1-1.5-1.3-2.3c-0.1-0.5-0.1-1-0.1-1.5c-0.1,0-0.2,0-0.2,0.1c-0.4-0.7-0.1-1.9,0-2.7c0.1,0,0.3,0,0.4,0
			c-0.1-0.1-0.3-0.3-0.5-0.4c0,0-0.1,0-0.1-0.1c0,0.6-0.5,1.1-1,1.3c0,0.8-0.1,1.6,0.1,2.4c-0.2,0.1-0.6,0.3-0.5,0.6
			c0.1,0.2,0.3,0.6,0.7,0.3c0.6,0.9,0.5,2.1,1.1,3l-0.1,0.1c0,0-0.1,0-0.1,0c-1.6-1.8-1.6-4.4-2.8-6.4c-0.3-0.4-0.3-0.6-0.3-0.7
			c0-0.1-0.1-0.2-0.1-0.3c-0.1-0.4-0.2-0.8-0.2-1.2c0,0-0.1,0-0.1,0l-0.6-0.7c-0.5,0.5-0.4,1.2-0.6,1.7c0.6,0.1,0.3,1,0.5,1.4
			c1,2,2.1,4,2.5,6.3l-0.2,0c-1.4-3-2.9-5.9-3.9-9c-0.1-0.4-0.3-0.8-0.4-1.2l-0.3,0c-0.2,0.6-0.2,1.2,0,1.7c0.3,1,0.9,1.8,1.2,2.8
			c0.6,1.9,2,3.6,2.4,5.6c-0.8,0.2-0.9-0.4-1.2-0.8c-0.8-2.2-1.7-4.3-2.5-6.5c-0.2-0.2-0.3-0.4-0.4-0.6c-0.3-0.7-0.5-1.5-1.2-1.7
			c-0.1,0.8,0.5,1.4,0.6,2.1l0,0.1c1,2.3,1.3,4.9,2.6,7.1c-0.8,0-0.7-1-1.1-1.4c-0.5-1.8-1.4-3.5-2.2-5.2c-0.5-1-0.9-2-1.2-3
			c-0.1-0.2-0.3-0.3-0.5-0.4c0.1,1.5,0.8,2.5,1.3,3.7c0.2,0.4,0.4,0.9,0.5,1.4c0.6,1.5,1.2,3.3,1.6,4.9c-0.6-0.6-0.6-1.6-1-2.3
			l-1.7-3.6c-0.8-1.7-1.4-3.4-1.7-5.3c-0.3,0.2-0.3,0.9-0.3,1.2c0.5,1.5,0.9,3.1,1.3,4.6l1.4,5.3l-0.6,0c-0.9-1.3-1.5-2.7-2.1-4.2
			c-0.8-2.3-1.3-4.8-1.9-7.2c-0.3-0.1-0.4,0.3-0.5,0.5c0.3,2.5,1,4.9,1.7,7.3l1.1,3.6c-0.4,0-0.6-0.5-0.7-0.7
			c-0.4-0.8-0.7-1.6-1-2.4c-1-2.9-1.7-5.9-2.5-8.9c-0.2-0.1-0.3,0.1-0.4,0.2c0.1,3.4,1,6.4,2,9.5l0.1,0.2c0.4,0.5,0.3,1.3,0.9,1.7
			l0,0.2c-0.6,0.1-0.5-0.5-0.8-0.7c-0.2-0.4-0.4-0.7-0.6-1.1c-1.5-3.1-2.1-6.8-2.6-10.3c-0.2-0.1-0.3-0.3-0.6,0
			c-0.1,0.6-0.2,1.2,0.1,1.6c0.3,3.2,1.2,6.3,2.3,9.2l0.4,0.9c-0.7,0.4-0.7-0.2-0.8-0.6c0-0.2-0.1-0.3-0.2-0.4
			c-1.1-1.5-1.8-3.3-2.5-5.1c-0.9-2.3-1.2-4.8-1.7-7.1c-0.1-0.2-0.3-0.4-0.5-0.3c-0.5,0.3-0.2,0.7-0.2,1c0.7,4.1,1.8,8.4,4,12.1
			c0,0.3-0.4,0.3-0.6,0.4c-0.8,0.2-0.4-0.7-0.8-1c-2.4-4.2-2.5-9.4-3.8-13.9c-0.8,0.2-0.4,1-0.4,1.4c0.6,4.4,1.6,8.8,3.1,13
			c-0.1,0.1-0.2,0.2-0.4,0.2c-0.1,0-0.2,0-0.3,0c-0.1-1.2-1.1-1.6-1.4-2.7c-2.1-4.1-2.6-8.8-4.4-12.8c-0.1-0.1-0.4,0-0.4,0.2
			l-0.1,0.5c1.8,3.9,1.9,8.5,3.9,12.3c0.6,0.7,0.6,1.5,0.9,2.2c-0.2,0.1-0.4,0.2-0.6,0.1c-2.5-4.2-4-8.5-6.6-12.6l-0.3-0.1l-0.1,0.8
			c1.8,3.7,4,7.5,5.6,11.6c-0.3,0-0.6,0.1-0.9,0.1c-2.5-4.7-4.4-9.4-5.8-14.3l-0.2-0.7c-0.1-0.3-0.4-0.3-0.7-0.4
			c-0.3,0.2-0.2,0.6-0.1,0.8l0.2,0.8c1.5,4.6,3.1,9,5.3,13.3c0,0.5-0.5,0.1-0.7,0.3c-0.6,0-0.6-0.7-0.8-1c-2.6-3.4-4-7.4-5.8-11.2
			c-0.5-0.9-1-1.9-1.5-2.8c-0.1,0-0.4-0.1-0.5,0.1c0,1,0.8,2.1,1.3,3l0,0.1c1.6,4,3.3,7.7,5.5,11.4c-1.5,0.5-0.9-1.6-2-1.9
			c-1.8-3-3.4-5.8-5-8.6l-2.4-4.4c-0.1-0.1-0.3-0.2-0.4-0.2c-0.5,0.2-0.1,1-0.8,0.8c-0.1,1.5,1,2.8,1.3,4.2c0.1,0.3,0.2,0.6,0.3,0.9
			c1.2,3,3,5.7,4.5,8.5c-0.1,0.2-0.3,0.3-0.5,0.2c0,0-0.1,0-0.1-0.1c-1.9-2.1-3.9-4.8-5.6-7.6c-1.5-2.4-2.8-5-3.9-7.3
			c-0.1-0.1-0.3-0.2-0.5-0.2c-0.4,0.2-0.1,0.6-0.1,0.8c1,2.3,2.4,4.7,3.8,7.1c1.6,2.6,3.4,5.2,4.9,7.4c-2.1,0.4-2-2.1-3.2-3.2
			c0,0-1.1-1.7-2.4-3.8c-2.2-3.5-4.8-8.3-4.8-8.3c-0.1-0.2-0.3-0.3-0.6-0.3c-0.2,0-0.3,0.3-0.3,0.5c1.9,2.8,3.4,5.6,5.1,8.6
			c1,1.8,2.1,3.5,3.3,5.3c0,0.2-0.2,0.4-0.4,0.4l-0.2-0.1c-1.2-1.6-2.3-3.4-3.4-5.1c-2.1-3.4-4.2-6.9-7-9.6
			c-0.8,0.6-0.9-0.7-1.5-0.3l0.1,0.8c1.6,3.6,3.8,7.2,5.9,10.7l2.2,3.5c-0.3,0-0.7,0.2-0.9-0.1c-0.8-1-1.5-1.9-2.2-2.9
			c-3.2-4.3-5.8-8.5-8.5-13c-0.3-0.4-0.5,0.2-0.8,0c-0.2-0.3-0.4-1-1-0.9c-0.4,0.3,0.2,0.8,0.2,1.2c2.6,4.9,4.7,9.6,7.9,14.1
			l0.5,0.7c-0.3,0.2-0.9,0-1.3-0.1l0-0.1c-0.2-0.9-1-1.9-1.5-2.6c-2.7-4.7-5.7-8.7-9.4-12.3c-0.7-0.1-1.3-0.7-1.9-1
			c2.1,5.3,5.6,10,8.8,14.8c0.1,0.2,0.5,0.3,0.4,0.5c0,0,0,0,0,0c-0.6-0.2-1.7,0-1.7-0.7c-4-4.5-6.6-11.1-11.5-14.9
			c-0.2,0-0.4-0.2-0.7-0.1c0,0.5,1.3,0.8,0.4,1.4l0,0.4c2.3,4.9,4.9,9.1,8.2,12.9c-0.5,0.1-1-0.2-1.5-0.2c-1.8-2.8-3.9-5-5.7-7.8
			c-1.5-2.2-3.1-4.4-4.5-6.6c-0.2,0-0.4-0.4-0.5-0.1c-0.1,1.4,1.6,1.7,1.2,3.2c0.9,3.9,3.3,7.4,5.8,10.6c-0.8-0.1-1.4-0.1-1.6-1.2
			c-3.3-3.8-5.5-7.8-8.7-11.7l-0.1,0c-0.4,0.4,0.2,0.5,0.2,0.9l0.1,1.2c1.4,3.7,2.7,6.8,5,9.8c-1,0.2-1.6-0.7-2.1-1.5
			c-2.5-2.8-5.1-5.7-7.2-9c-0.1,0-0.2-0.1-0.3,0l-0.1,0.2l-0.4-0.1l-0.1,0.4c0.9,3.3,2.9,6.4,5.1,8.9l-0.1,0.1l0,0
			c-0.4-0.1-0.8-0.1-1.3-0.3l-0.1-0.5c-2.4-2.8-4.6-5.8-7-8.6c-0.4-0.5-0.6-1.2-1.3-1.6c-0.3,0-0.1,0.3-0.2,0.4l1,1.4
			c-0.5,0.6,0.1,1.3,0.4,2c1.1,2.2,2.2,4.4,3.8,6.1c-0.4,0-0.9,0.1-1.1-0.3c-2.1-2.5-3.6-5.5-5.3-8.1c-0.1,0.1-0.2,0.3-0.2,0.4
			c1.4,2.7,2.8,5.3,4.4,7.6c-1.3-0.1-1.6-1.7-2.3-2.4c-1.4-1.6-2.2-3.3-3.3-5l-0.1,0.4c1,2.4,2.3,4.7,4,6.4c-0.2,0.2-0.6,0-0.9-0.2
			c-1.8-2.5-3.9-4.6-5.3-7.5l-0.2-0.1l0,0.6c0.9,1.6,1.5,3.1,2.7,4.4c0.4,0.9,1.3,1.6,1.7,2.6c-1.7-1.7-3.5-3.5-5.1-5.4
			c-0.4,0.8-0.3-0.3-1-0.8c-0.1-0.2-0.2-0.3-0.3-0.3c-0.1,0-0.1,0.2-0.1,0.2c0.9,1.5,1.8,3.7,3.2,4.8c0.1,0.2,0.3,0.5,0.2,0.7
			c-0.3,0.2-0.4-0.3-0.6-0.3c-1-1.4-2.3-3-3.7-3.9c0.7,1.6,2.2,2.5,3.2,4l-1.1,0l0.9,0.6c-1.2,0.6-2.6,1.2-3.8,1.9l0.1,0.2
			C96.4,145.4,97.9,144,99.5,143.5z M181.6,156.8c0.2-0.1,0.4,0,0.4,0.2c-1.3,2.7-3.2,5.3-4.8,7.6
			C178.4,161.9,179.9,159.3,181.6,156.8z M148.2,139.7c2.4,4.6,4.5,8.4,7.2,12.9l-0.1,0.3c-0.2,0-0.5-0.1-0.6-0.2
			C151.9,148.7,149.8,144.4,148.2,139.7z M137.4,138.5c3.7,4.4,6.3,8.8,9.1,13.8c-0.3,0.1-0.6-0.1-0.9,0c-0.1-0.2-0.1-0.2-0.2-0.5
			C142.1,147.5,139.9,143.9,137.4,138.5z M133.1,138.6c2.8,4.2,5.7,9.2,8.7,12.9c-0.5,0.1-1,0-1.4-0.2l0.1-0.2
			C137.7,146.9,135,143,133.1,138.6z M126.5,136.4c4.2,4.2,7.5,9.6,10.4,14.4c-0.4,0-0.9-0.1-1.3-0.2
			C132.2,146.3,129,141.2,126.5,136.4z M133.5,151c-2.3,1.5-5,3.3-7.4,4.5c-2.4,1.4-5.3,2.9-7.8,3.6c3.7-2.7,8.1-4.6,12-6.6
			C131.6,152.2,132.1,150,133.5,151z M121.8,136.7l0-0.3c4.2,4.2,6,8.8,9.7,13.5c-0.4,0-0.8,0.1-1.2-0.2l-0.1-0.2
			C126.8,145.7,123.7,141,121.8,136.7z M126.9,150.3c0.5-1.1,1.3-0.1,1.9-0.1c-0.3,0.1-0.3,0.1-0.5,0.1c-1.9,1.3-4.2,2.2-6,3.6
			c-2,1.2-4.1,1.9-6,2.9c1.8-1.5,3.6-3.2,6-3.7L126.9,150.3z M119,138.4c2.3,3.5,5.2,7.6,7.5,10.5l-1.1-0.1
			C123,145.5,119.8,142.4,119,138.4z M122,148.8c0.5-0.1,1,0.1,1.5,0.4c-3.8,1.8-7.3,4.2-10.9,6.2l-0.1-0.1c1.8-2.1,4.2-3.7,6.9-5
			C120.3,149.7,121.5,149.7,122,148.8z M119.8,147.1c-2.1-2.7-4.3-6-5.2-9.3c2.2,3.6,4.4,6.5,6.8,10c-0.4,0-0.9-0.1-1.3-0.1
			C119.8,147.6,119.9,147.3,119.8,147.1z M116.7,148.3c0.3-0.2,0.6-0.7,1-0.6c0.1,0.2,0.6,0.1,0.3,0.4c-4.1,2.1-6.5,4.4-10.1,6.7
			C110.3,151.8,113,149.9,116.7,148.3z M109.5,138c1.8,3.3,4.5,6.2,7,8.9c-0.5-0.1-1-0.2-1.5-0.2l-0.9-1.3
			C112,143.4,110.5,140.7,109.5,138z M105.6,138.5c1.9,2.3,3.6,5.1,5.7,7.3l-1.1-0.2C108.5,143.4,106.6,140.9,105.6,138.5z
			 M99,140.8c0.6,1,1.6,1.4,2.1,2.5l-0.1,0.1C100.5,142.4,99.3,141.8,99,140.8z"/>
	</g>
	<g>
		<path class="st3" d="M360.9,215.6l0-0.2c-1.8-0.2-3.9-0.2-5.7-0.2l0.8-1.2l-1.3,0.6c0.4-2.3,1.7-4.2,1.6-6.5
			c-1.2,2-1.9,4.6-2.3,6.8c-0.2,0.2-0.1,0.8-0.5,0.7c-0.3-0.3-0.2-0.6-0.2-1c1-2.1,0.9-5.3,1.2-7.5c-0.1-0.1-0.1-0.3-0.3-0.2
			c-0.2,0.1-0.2,0.3-0.2,0.5c-0.5,1,0.2,2.2-0.7,1.5c-0.8,3.2-2.1,6.3-3.2,9.3c-0.1-1.4,0.6-2.8,0.6-4.1c0.8-2.2,0.8-4.3,0.9-6.7
			l-0.3-0.7l-0.2,0.3c-0.1,4.3-1.5,8.1-2.3,12c-0.3,0.4-0.6,0.9-1,0.7c1.1-3,1.4-6.5,1.3-9.9l-0.3-0.4c-0.5,2.6-0.4,5.1-1.3,7.8
			c-0.5,1.2,0.1,3.3-1.5,4.1c0.7-3.6,0.9-7.5,1.1-11.5c0-0.2-0.3-0.4-0.4-0.4c-0.5,4.1-0.7,8.6-1.9,12.7c0,0.6-0.7,0.8-1.1,1
			c1-2.8,1.2-6.1,1.3-9.4c0-0.9,0.2-2.2-0.6-2.6l0.4-2.2c-0.1-0.1-0.1-0.6-0.4-0.4c-0.6,0.9-0.4,1.9-0.6,2.7
			c-1.3,4.7-2.4,9.5-3.7,14.2l0.2,0.6c-0.5,0.4-1,0.7-1.4,1l0,0l-0.1-0.1c1.3-4.1,2-9,1.3-13.5l-0.4-0.4l-0.4,0.4l-0.2-0.2
			c-0.2-0.1-0.3,0.1-0.4,0.2c-0.7,5.2-2.3,10.1-3.7,14.9c-0.1,1.2-0.4,2.6-1.7,2.9c1.1-4.9,1-9.4,0.6-14.6l-0.5-1.5
			c-0.2-0.5,0.5-1-0.2-1.2l-0.1,0.1c-1.8,6.5-2.2,12.4-4.1,18.9c0.4,1.4-0.3,1.9-1.3,2.4c1.2-5.2,2.2-10.7,1.1-15.9
			c-1.3-1.5,0.6-2.9-0.3-4.5c-0.3-0.3-0.4,0.3-0.6,0.4c-0.5,3.5-1.1,7-1.8,10.5c-0.6,4.4-2,8.2-2.5,12.5c-0.5,0.3-1.1,0.9-1.7,1.1
			c1.9-6.4,2.7-12.8,2.7-20l-0.2-0.5c-1.3-0.3,0-1.3-0.2-1.9c-0.3-0.1-0.5,0.3-0.8,0.5c-3.8,7.3-3.3,16.7-5.6,24.3
			c0.4,0.8-1.1,1.2-1.7,1.8c0,0,0,0,0,0c-0.2-0.2,0.2-0.6,0.2-0.9c1.3-7.6,2.8-15.1,2.5-22.7c-0.6,0.7-1,1.7-1.8,2.2
			c-2.5,6.3-3.8,12.7-4.5,19.9c-0.2,1.1-0.6,2.7-0.4,4l0,0.1c-0.4,0.3-1,0.9-1.5,0.8l0.2-1.1c1.3-7.2,1.3-14,1.7-21.3
			c-0.3-0.5,0.2-1.4-0.4-1.5c-0.8,0.2-0.7,1.1-0.7,1.6c-0.3,0.4-0.8-0.2-0.9,0.4c-0.9,6.9-1.7,13.4-3.1,20.3
			c-0.3,1.5-0.7,3.1-1.1,4.7c-0.1,0.5-0.7,0.4-1,0.6l0.7-5.5c0.7-5.3,1.4-11,1.3-16.1l-0.3-1c-1,0-0.4,1.5-1.7,1.2
			c-1.8,4.8-2.5,10.1-3.1,15.4c-0.4,2.7-0.7,5.5-1.3,8.1l-0.2,0.3c-0.2,0.1-0.6,0.1-0.7-0.2c0.5-2.8,0.8-5.6,1-8.3
			c0.4-4.4,0.7-8.7,1.4-13.1c0-0.2-0.3-0.5-0.6-0.4c-0.3,0.2-0.5,0.4-0.6,0.7c0,0-0.5,7.3-1.2,12.7c-0.4,3.3-0.7,5.9-0.8,5.9
			c-0.9,2,0.6,4.9-2.2,5.6c0.6-3.5,1.4-7.6,1.9-11.6c0.5-3.6,0.8-7.3,0.7-10.6c-0.1-0.3,0.1-0.9-0.6-1c-0.2,0.1-0.3,0.3-0.4,0.5
			c-0.1,3.4-0.3,7.2-0.7,10.9c-0.5,4.3-1.4,8.6-2.5,12.2c0,0-0.1,0.1-0.1,0.1c-0.2,0.2-0.6,0.2-0.8,0c0.2-4.2,0.9-8.5,0.7-12.7
			c0-0.4-0.1-0.9-0.1-1.3c-0.3-1.8,0.3-4.1-0.7-5.8c-0.8,0.6-0.7-0.5-1.4-0.5c-0.2,0.1-0.3,0.3-0.4,0.5l-0.5,6.7
			c-0.3,4.3-0.7,8.6-1.2,13.1c-1.2,0.9,0.7,3.1-1.4,3.3c0.6-5.7,0.6-11.1,0.3-16.8l0-0.1c0.2-1.4,0.5-3.1,0-4.3
			c-0.2-0.2-0.5,0-0.6,0.1c-0.2,1.4-0.3,2.8-0.3,4.2c-0.2,5.6,0.4,11.3-0.8,16.7c-0.1,0.5,0.3,1.4-0.4,1.7c-0.3-0.1-0.7,0.6-1,0.1
			c0.2-6.3-0.3-12.6-1-19l-0.1-1.1c0-0.4-0.1-0.8-0.6-0.9c-0.3,0.2-0.6,0.5-0.6,0.9l0.1,0.9c1,6.7,1.3,13.4,0.8,20.4
			c-0.3,0.2-0.7,0.3-1.1,0.4c-0.3-5.8,0.3-11.5,0.4-17l-0.5-0.9l-0.3,0.3c-0.9,6.5-0.3,12.4-1,18.8c-0.3,0.2-0.5,0.2-0.8,0.2
			c-0.1-1-0.4-2.1-0.1-3.2c0.4-5.7-2-11.3-2-16.9l-0.4-0.5c-0.2-0.1-0.5-0.2-0.6,0c0,5.8,2,11.7,1.8,17.8c0.2,1.5-0.7,2.5-0.2,4
			c-0.1,0.1-0.2,0.1-0.3,0.2c-0.2,0.1-0.3,0.1-0.6,0c-0.4-5.9-1.7-11.7-3.4-17.3c-0.3-0.5-0.2-1.6-1.3-1.5
			c0.9,6.2,3.7,12.5,3.1,18.9c-0.3,0.6,0.6,1.4-0.5,1.6c-0.3,0-0.8,0.2-0.9-0.2c0.6-5.6-0.4-11.4-1.8-16.7c-0.2-0.4-0.1-1-0.8-1.1
			c-0.4-0.1-0.5,0.3-0.5,0.6c0.7,3.1,1.6,6.3,1.9,9.6c0.2,2.6,0.3,5-0.2,7.5c-0.1,0.1-0.1,0.4-0.1,0.6c0.1,0.6,0.3,1.2-0.7,1.1
			l-0.1-1.3c-0.2-4.2-0.9-8.4-2.3-12.4c0-0.7-0.4-1.4-0.8-2c-0.4-0.2-0.5,0.1-0.7,0.3c1.3,4.5,2.6,9.3,2.5,13.8c0,0.5,0,1.1-0.1,1.6
			c-0.2,0.4,0.2,1.1-0.5,1.3l-0.1-0.2c0.5-0.8-0.1-1.7,0.1-2.6l0-0.3c-0.5-4.2-1-8.4-2.8-12.5c-0.2,0-0.5-0.1-0.6,0.1
			c0.7,4,1.6,8,2,12.1c0.1,1.2,0.2,2.3,0.1,3.5c0,0.4,0,1-0.4,1.3l-0.7-5c-0.5-3.3-1-6.4-2-9.7c-0.2-0.2-0.6-0.6-0.9-0.3
			c0.6,3.2,1.3,6.4,1.7,9.7c0.2,2.1,0.2,4.1-0.2,6.2l-0.7,0.4l-1.3-7.1c-0.4-2.1-0.7-4.2-1-6.3c-0.1-0.5-0.5-1.2-1-1.3
			c0.7,2.4,0.8,4.9,0.9,7.3l-0.1,5.2c-0.1,1.1,0.5,2.3,0.1,3.3c-0.5-2.2-0.8-4.6-0.8-6.8c-0.1-0.7-0.1-1.3-0.2-2
			c0-1.8,0.2-3.4-0.5-5.2c-0.3,0.2-0.4,0.4-0.5,0.7c0.2,1.5,0.2,2.9,0.2,4.3c0,2.5-0.1,5,0.3,7.5c-0.2,0.8,0.4,1.9-0.5,2.3
			c0.3-3.4-0.8-6.7-0.8-10l0-0.1c-0.3-0.9,0.2-2-0.4-2.9c-0.6,0.6-0.4,1.7-0.5,2.7c0,0.3,0,0.7-0.1,1c0.3,3.1,0.4,6.1,0.6,9.2
			c-0.1,0.7,0.1,1.5-1,1.6c-0.7-2.7,0.1-5.5-0.2-8.1c-0.2-1.3,0.1-2.7-0.1-4c-0.1-0.7-0.4-1.4-1-2l-0.3,0.1c0.1,0.6,0.1,1.1,0.2,1.7
			c0.4,4.3,0.3,8.6,0.2,13l-0.2,0.1c-0.8-2.9-0.6-6-0.5-8.9c0.1-0.7-0.8-1.5-0.1-2c-0.5-0.5-0.8-1.3-1.7-1.6l-0.3,1.2
			c0,0-0.1,0-0.1,0c0.2,0.4,0.3,0.9,0.4,1.5c0,0.1,0,0.3,0,0.4c0.2,0.1,0.2,0.4,0.1,1c-0.4,3.1,1.1,6.2,0.1,9.2c0,0-0.1,0-0.1,0
			l-0.2-0.1c0.2-1.4-0.5-2.8-0.3-4.3c0.6,0.2,0.7-0.4,0.7-0.7c-0.1-0.4-0.7-0.4-1-0.4c-0.2-1-0.7-2-1.2-2.9c-0.7,0-1.5-0.3-1.9-1
			c0,0.1-0.1,0.1-0.1,0.2c-0.2,0.3-0.3,0.5-0.3,0.8c0.2-0.1,0.3-0.1,0.5-0.2c0.6,1,1.6,2.2,1.5,3.3c-0.1,0-0.2,0-0.3,0.1
			c0.3,0.6,0.5,1.2,0.7,1.8c0.3,1.1,0.3,2.4-0.3,3.5c0.1,0,0.1-0.1,0.2-0.1c0.1,0.2,0.1,0.4,0,0.6c0,0.1-0.1,0.1-0.1,0.2
			c-0.2,0.1-0.4,0.1-0.6,0.2c-0.2,0.2-0.4,0.4-0.6,0.5c-0.3,0.2-0.6,0.3-0.9,0.4c0,0,0.1,0,0.1,0l1.3-0.3c-0.3,0.2-0.7,0.4-1,0.6
			l-2.3,0.2c-1,0.2-2,0.2-3,0.6c-1.1,0.4-0.7,1.6-0.5,2.6c0,0,0,0,0,0c0.1-0.1,0.1-0.1,0.2-0.2c0.5-0.2,1-0.4,1.5-0.7
			c1.8-0.8,3.8-1.7,5.7-1.6c0.6-0.1,1.3-0.3,1.9-0.4c0.2,0.1,0.3,0.1,0.4,0.3l0.1-0.1c0,0,0.1,0.1,0.1,0.1l-1.4,0.3l-0.1,0
			c0.2,0.1,0.4,0.1,0.6,0.2c0.1,0,0.2,0.1,0.3,0.2c0.4-0.1,0.7-0.2,1.1-0.3c1.6,2,2.5,4.2,3.8,6.3l0.8,0.3l-2.1-4.7
			c-0.4-0.8-1-1.4-1.5-2.1c0,0,0.1,0,0.1,0l0.3-0.3c-0.2-0.1-0.4-0.2-0.5-0.2l-0.2,0c-0.1-0.1-0.1-0.2-0.2-0.4
			c0-0.1-0.1-0.3-0.1-0.3l0,0c-0.1-0.2-0.1-0.3-0.1-0.5c0.3-0.2,0.7-0.2,1.1-0.2c2.8,2.4,5.2,5.4,7.4,8.3c0.4,0.4,1,0.6,1.5,0.8
			c-0.3-0.4-0.7-1-1.1-1.3c-1.2-2.4-3.1-4.5-5-6.5c-0.7-0.6-1.6-1.1-1.8-1.9c0.1,0,0.3,0,0.4,0.1c0.4,0.2,0.8,0.6,1.2,0.8
			c4.9,2.2,9,5.2,13.5,8c0.9-0.5,0.9,0.9,1.7,0.7l0.1-0.8c-3.3-4.1-7.7-7.3-12.2-10.1l-0.6-0.6l0.5-0.2c6.1,2.5,13.2,4.5,17.7,9
			c0.5,0.4,1.3,0.8,1.9,0.8c0.3-0.6-0.5-0.7-0.7-1.1c-2.3-1.2-4-2.9-6.2-4.2c-3.4-2.1-7.5-3.2-10.5-5.6l0.3-0.1
			c4.3,1.4,8,3.3,11.3,5.8c1.8,1.1,3.2,2.9,5.2,3.6l0-0.2c-3.5-3.8-8.2-6.2-12.4-9l-2.5-1.1c0-0.1,0.3-0.1,0.4-0.2
			c2.1,0.4,3.9,1.3,5.8,1.9c4.7,2.4,9.8,3.8,14,6.8c0.5,0.2,1.2,0.7,1.7,0.3c0.2-0.2,0-0.4-0.2-0.6c-4.6-2.5-9-4.4-13.5-6.5
			c-2.1-0.8-3.8-2-5.9-2.7c0.1-0.4,0.7-0.4,0.9-0.7c7.2,1.9,13.1,5.4,19.5,8.3l0.3-0.2c-0.4-0.4-0.6-0.8-1-1c-3-1.3-5.8-3.2-8.9-4.4
			c-2.2-1.3-5-1.8-7.2-3c-0.2-0.4-1.5-0.1-1-0.8c0.4-0.5,0.6,0.3,1.1,0.2c5.8,1.3,12.4,2.6,17.5,5.5c1.6,0.7,3.2,1.8,4.8,2.2
			c0.3-0.1,0.1-0.4,0.1-0.7c-5.6-3-11.9-5.4-17.8-7c-0.8-0.9-3-0.5-3.4-1.7c0.3,0,0.3-0.4,0.7-0.2c7.3,1.4,13.4,2.3,20.6,5.2
			c0.8,0.2,1.5,0.9,2.4,0.5c0.1-0.2-0.1-0.3-0.1-0.5c-6.3-2.6-13-4.1-20.1-6.1c0,0,0-0.1,0-0.1c0-0.1,0.2-0.2,0.3-0.3
			c3.6,0.9,7.2,1.9,10.8,3c4.1,1.2,8,2.5,11.8,3.7c0.3-0.1,0.8-0.2,0.8-0.6l-0.1-0.1c-1.4-1.3-4.3-1.6-6.3-2.1
			c-4.5-1.9-10.7-3.2-16-5.1c0.1-0.1,0.2-0.3,0.4-0.4c0.1,0,0.2-0.1,0.3-0.1c0.8,0.5,2,0.6,2.8,1.1c5.9,1.5,12.5,3.5,17.5,5
			c1.6,0.3,3,1.3,4.1,0.9l-0.5-0.9c-3.7-1-7.7-2.2-12-3.5c-3-1.5-7-2.2-10.5-3.3c0.1-0.4,0.8-0.5,1-0.7c0.3-0.2,0.5,0.1,0.7,0.2
			c9.3,1.8,16.9,3.9,25.5,6.8l0.6-0.2c0.3-0.2,0.2-0.7-0.2-0.8c-7.3-1.9-16.1-4.6-24.4-6.8l-0.3-0.3c0.1-0.2,0.4-0.4,0.6-0.6
			c0.2-0.1,0.4,0,0.5,0.2c8.1,1.9,15.8,4.5,23.2,6.8c0.3-0.1,0.9,0,0.9-0.4c-4.3-2-10.1-3.3-14.2-4.8c-2.3-0.6-4.9-2-7.7-2.4
			l-0.7-0.5c0.9-1.4,2.4,0.5,3.8,0.2c7.4,1.9,14.4,4.8,21.7,6.9l0.4-0.2c0.2-0.6-0.5-0.6-0.8-0.9c-8-2.3-14.7-5-22.6-7.4
			c0.1-0.4,0.5-0.7,0.9-0.7c6.2,1.9,12.3,3,18.2,4.9c2.3,0.4,5.1,2,7.7,2c0.4-0.5-0.3-0.6-0.4-0.9l-11.3-2.9c-2.9-1.4-7-1.8-10.1-3
			c-0.8-0.3-1.8-0.4-2.5-0.9c0-0.7,1-0.6,1.5-1l0.9,0.6c8.7,0.4,16.7,4.7,24.3,8.1c0.5,0.4,1.2,0.2,1.6-0.2l-0.1-0.1
			c-6.1-3.1-12.5-5.6-19.2-7.8c-1.9-0.5-4.6-0.3-5.9-1.8l0.5-0.4l0.6-0.5c0.6,0.4,1.2,0.9,1.8,1.1c8.7,1.5,15.6,5.6,23,9.3l0.6-0.2
			c0.4-0.4-0.4-0.8-0.7-1.1c-6.3-2.8-12.9-6.9-19.4-8.3c-1.2-0.4-3-0.4-3.9-1.4c0.1-0.3,0.5-0.4,0.7-0.6c7.3,0.7,15.5,2.6,22.6,3.9
			c1.5,0.2,3.1,1,4.6,0.7c0-0.2,0-0.4-0.1-0.5c-7.9-1.6-16.1-3.5-24-4.8l-0.7-0.4c0-0.2-0.4-0.5,0.1-0.6l10.2,1.6
			c5.9,0.8,10.6,2.4,16,3.7c0.4-0.1,1,0.1,1-0.4c-1.6-0.6-3.2-1.2-4.6-1.3c-6.9-2.3-13-2.9-20.1-4.4l-0.3-0.4c0.6-0.8,1.5-0.1,2.3,0
			c6.2,0.1,12.8,1.8,18.2,4.2c1.6,0.6,3.7,0.8,5.2,1.8c1.3,0.3,2.6,1.5,3.7,0.6l-0.3-0.3c-5.4-2.3-11.2-4.1-16.4-5.7
			c-3-0.9-7-0.8-9.9-2.2c0.4-0.4,0.7-1,1.3-1.1c0.1,0.5,0.6,0.5,0.9,0.8c3.3,0.3,6.8,1,9.9,1.5c4.9,0.7,9.5,3.2,13.9,4.8
			c0.3,0,0.5-0.1,0.6-0.4c-1.1-1.6-3.6-1.6-5.1-2.3c-5.4-2.5-12.2-3.5-18.2-4.6c-0.3-0.2-0.9-0.2-0.9-0.6c0.4-0.3,0.8-0.5,1.2-0.5
			c8.4,1.1,18.1,2.8,26.8,3.6c0.3-0.1,0.7-0.3,0.7-0.6c-0.1-0.2-0.3-0.2-0.4-0.4c-7.5-0.2-14.1-1.8-21.7-2.8
			c-1.3-0.2-2.9-0.2-3.4-1.4l0.3-0.2c0.4-0.5,0.6,0.2,0.9,0.2c8.1,1.4,15.7,1.9,23,3.5c0.8,0,1.5,0.4,2.4,0.1c0.1-0.2,0-0.4-0.2-0.5
			c-2.2-0.5-4.3-0.9-6.4-1.2c-5.9-1-11.6-1.7-17.9-2.9c0.3-0.7,0.9-0.9,1.5-1c0.8,0,1.7,0.2,2.6,0c8.4,1.4,16.6,1.4,24.6,1.1
			l0.3-0.3c-0.3-0.5-1.4-0.3-1.7-0.6c0.4-0.2,1.5,0,2.1-0.3c0-0.2,0.1-0.4-0.1-0.5l-3.7-0.8c-6.7-0.2-13.7-0.9-20.4-1.5l0.8-0.7
			c0.6-0.2,1-0.5,1.5-0.4c7.8,0.9,16.2,1.4,24.2,2.3c0.3,0,0.7-0.2,0.7-0.6c-0.4-0.5-1-0.7-1.7-0.8c-5.6-3.6-12.2-2.8-19.1-3.9
			l-0.4-0.3c0.4-0.2,0.8-0.7,1.2-0.7c3,0.9,6.2,0.3,9.3,0.6c4.4-0.1,8.7,1.3,13.3,1.6l0.3-0.2c0.1-1.2-1.9-0.5-2.7-1
			c-0.1-1-1.3-1-1.9-1.7c-4.4-1.3-9-2.8-14-2.6c0.4-0.3,0.8-0.7,1.2-0.9c7.3,0.5,12.8,1.6,20.1,2.9l0.3-0.3l-0.5-0.2
			c-0.2-0.1-1.1-1.1-1.9-1.5c-3.8-2.6-8.9-2.7-13.4-3.9c-0.1-0.4,0.3-0.5,0.5-0.7l1.1-0.2c4.5-0.6,9.9-0.3,14.4-0.1
			c0.8-0.1,1.7,0.5,2.1-0.3c-1.5-0.4-3.5-0.6-4.8-0.6c-2.9-0.6-7-0.4-10.3-0.6c0-0.2,0.3-0.2,0.4-0.4c0.3-0.2,0.4-0.1,0.6,0.1
			c4.8-0.4,9.4-0.4,14.1,0.3c0.1,0,0.3-0.2,0.3-0.3c-3.9-1.3-7.9-1.9-12.3-1.5l-0.3-0.2c0-0.2,0.1-0.2,0.2-0.3
			c5-0.2,10,0.4,14.4,1.6l0.4-0.2c0.1-0.5-0.6-0.3-0.7-0.7c-3.8-0.8-7.7-2.3-11.7-2c-0.1-0.2,0.1-0.3,0.2-0.4
			c4.2-0.2,7.6,0.1,11.4,0.8c0.1-0.1,0.3-0.1,0.2-0.3c-3.2-1.3-6.2-1.1-9.8-1.6c0-0.2,0.1-0.4,0.2-0.5c3.8,0,7.6,0.2,12,0.3l0.4-0.3
			c-3.8-0.3-7.6-0.8-11.4-0.9c0-0.5,0.8-0.6,1.2-0.8c3.6,0.2,7.7,0.2,11.2,0.6c0-0.1,0-0.2-0.1-0.2c-2.7-0.9-5.6-1.2-8.3-1.1
			c-0.3-0.6-2.2,0.3-1.3-0.9c3,0.4,6.5,0.9,9.3,0.7c0.2,0,0.3-0.1,0.3-0.3c-2.8-0.3-4.9-0.4-7.7-1.1c0-0.1,0-0.3,0.1-0.3
			c2.5,0.7,4.5-0.2,7,0.2l0.4-0.3c-2.2-0.7-4.4-0.1-6.8-0.7l0-0.2C356.3,215.5,358.8,216.4,360.9,215.6z M272.1,284.1
			c-3.2-2-6.9-4.1-9.9-6.6c-0.2-0.2,0.1-0.4,0.4-0.4C265.9,279.2,269.2,281.5,272.1,284.1z M292.8,257.4c-0.1,0.2-0.4,0.5-0.6,0.6
			l-0.3-0.3c0.8-6.8,1.2-12.6,1.6-19.4C294,244.6,293.9,251,292.8,257.4z M303.3,251.1c0,0.4,0,0.5,0,0.7c-0.4,0.1-0.6,0.4-1,0.5
			c0.7-7.4,1.4-14.3,3.4-21.6C305.6,238.6,305,244.2,303.3,251.1z M309,247.6l0.2,0.2c-0.4,0.4-1,0.9-1.6,1
			c1.6-6.1,2.4-13.7,3.4-20.3C311.1,234.8,310,241,309,247.6z M314.6,244.3c-0.5,0.3-1,0.8-1.5,1c0.8-7.4,1.8-15.7,4.6-23.1
			C317.2,229.4,316.2,237.2,314.6,244.3z M321.9,243.7c5.9,0.3,12.2,0.2,18.2,1.4c-3.4,0.5-7.7,0.3-11.3,0
			c-3.6-0.1-7.9-0.8-11.4-1.3C318.4,241.6,320.2,244,321.9,243.7z M320.2,239.9l0,0.3c-0.2,0.5-0.8,0.7-1.3,0.9
			c1.9-7.8,1.5-14.3,4.3-21.6l0.2,0.4C323.5,226.2,322.4,233.5,320.2,239.9z M332,239.9c3.1-0.6,6.3,0.3,9.3,1.2
			c-2.9-0.1-5.8,0.2-8.8-0.1c-2.9-0.8-6.3-0.6-9.2-1.1c-0.2,0-0.3,0.1-0.7,0.1c0.8-0.3,1.2-2,2.3-0.9L332,239.9z M325.9,236.5
			l-1.3,0.7c1.2-4.9,2.5-11.3,3.2-16.8C329,225.7,326.9,231.2,325.9,236.5z M333.8,234.8c4,0.2,7.8,0.8,11.1,2.3l0,0.2
			c-5.5-0.5-11-1.5-16.5-1.5c0.4-0.6,0.9-1,1.6-1.2C331.1,235.4,332.5,234.8,333.8,234.8z M331.6,232.3c-0.5,0.3-1.1,0.7-1.5,0.9
			c0.8-5.6,1.9-10.3,2.6-15.8c0.7,4.4,0,9.6-1.1,14C331.6,231.6,332,232,331.6,232.3z M350.1,234.2c-5.6-0.8-9.8-2.2-15.9-2.5
			c-0.5-0.2,0.1-0.5,0.2-0.7c0.5-0.4,1,0.1,1.6,0.1C341.3,231,345.7,231.8,350.1,234.2z M337.5,226.2l-0.3,2.1
			c-0.5,0.4-1.1,0.8-1.6,1.1c1.4-4.7,3.1-9.7,3.5-14.6C339.3,218.6,339,222.6,337.5,226.2z M342.4,224.3l-1.3,0.8
			c1.4-3.8,1.8-8.1,2.9-11.9C344.1,216.7,343.2,220.7,342.4,224.3z M352.2,216.5l-0.2,0c0-1.6,1-2.7,1.1-4.2
			C353.4,213.7,352.3,215,352.2,216.5z"/>
	</g>
	<g>
		<path class="st3" d="M224.2,108.1l0.1-0.5l0-2.1l-0.4-1.4l0.1-0.4c-0.1-0.1,0.2,0.2,0.2,0.3l0.8,0.8c0.6,1,1.3,2,2,3l0.4,0.1
			l0.3,0l0-0.3l-0.2-0.7c-0.9-1.5-1.8-3.1-2.7-4.6c-0.3-0.5,0.1,0.1,0.2,0c0.7,0.7,1.5,1.4,2.3,2.1c0,0,1.1,1.3,2,2.4l1.2,1.4
			l0.7,0.4l0.2-0.2l0-0.3l-0.7-1.4l0.1,0l1,1.4l0.5,0.2l0-0.4l0-0.7l-1.1-2l0,0c-0.2-0.3-2.4-3.7-2.5-4c0.1,0,0.2-0.3,0.4-0.3
			c1.1,0.9,2.1,1.7,3.2,2.5l0.5,0.4c0.9,0.8,2.7,2.4,2.7,2.4l0.8,0.5c0.2,0,0.1-0.2,0.2-0.2l-1-1.5l0.1,0c0.6,0.8,1.2,1.6,1.8,2.4
			l0.7,0.1l0-0.4l0-0.3c-0.8-1.1-1.6-2.2-2.4-3.2l-1.2-1.4l-0.9-1.1l-1.1-1.3c0.2-0.1,0.6,0.4,0.6,0.3c0,0,1,0.9,1.8,1.7l1.2,1.1
			c1.4,1.4,2.9,2.9,4.4,4.2l0.6,0.3l0.1-0.1l0-0.3l-0.1-0.1l-0.6-1.1c-1.4-1.4-2.7-2.8-4-4.3l-0.5-0.7l0.6,0.5l0.5,0.7l0.8,0.7
			l1.7,1.7l1.5,1.8l0.6,0.2l0.2-0.2l0-0.5l-0.4-0.8c-1.2-1.3-2.3-2.6-3.4-3.9l-1.4-1.3c-1-1-2.2-2.1-2.2-2.1c0-0.1,0.2,0,0.3,0
			l1.5,0.8l1,0.7c0.9,0.7,2.2,1.5,2.2,1.5c1.4,1.4,2.9,2.7,4.5,4l0.9,0.4l0.2-0.1l0-0.4l-0.4-0.5c-1.5-1.4-3-2.8-4.4-4.2
			c0,0-1.2-0.9-2.2-1.6l-1.2-0.9c-0.7-0.6-1.4-1.2-2.1-1.8c0,0,0.1,0.1,0.2-0.1l0.1,0l0,0c0.1,0,0.2,0,0.2,0
			c0.4,0.3,2.2,1.6,3.1,2.2l0.5,0.3c1.4,1.3,2.8,2.6,4.2,3.9c1,1.1,1.9,2.2,2.9,3.3l0.7,0.3l0.2-0.2l0-0.5l-0.2-0.4
			c-2.1-2-4-4.1-5.9-6.2c0,0-0.8-0.6-1.7-1.4c-1.2-1-2.5-2.1-2.5-2.1l0.1-0.1c0.1,0,0.1-0.1,0.2-0.1l0.2,0.4c0,0,1.7,1.2,2.2,1.6
			l0.2,0.1c1.6,1.4,3.2,2.8,4.9,4.1c1.4,1.2,2.8,2.4,4.2,3.5l0.9,0.4l0.3-0.1l0-0.2l-0.2-0.6c-3-2.3-5.8-4.7-8.4-7.3l-1-0.8
			c-0.8-0.6-1.7-1.4-1.7-1.4c-0.2-0.5,0.1-0.3,0.1-0.4l0.6,0.7l1.3,0.8l0.3,0.2c1.7,1.2,3.4,2.5,5.2,3.6c1.5,1.2,3.1,2.4,4.7,3.5
			l0.9,0.2l1.2,1.2l0.5,0.1l0.4-0.2l0-0.4l-0.2-0.5c-2.5-2.1-5-4.4-7.3-6.7c-1.2-1-2.4-2-3.6-3.1l-0.2-0.3l-0.3-0.4l-0.1-0.2l0.1,0
			l0.1,0l0.1,0l0.3,0.3l0,0l1.9,1.2c2.3,1.7,4.6,3.4,7.1,4.9c1.2,0.9,2.5,1.8,3.7,2.7c0.8,0.8,0.5,0,0.8-0.1l0-0.2l-0.3-0.6
			c-0.8-0.6-1.6-1.1-2.4-1.7l-1.1-0.9l-1.9-1.1l-0.5-0.5c-1-0.7-1.9-1.5-2.9-2.3l-1-0.6c-0.7-0.6-1.4-1.3-2.1-1.9l-0.1-0.3l0.1,0
			l0.2,0l0.4,0.6l1,0.9c1.8,1.5,3.7,2.9,5.6,4.2c2,1.4,4.1,2.7,6.2,4l1.1,0.3l0.2-0.2c-0.4-0.6,0.3-0.4,0.3-0.8l0-0.3l-0.1-0.3
			c-0.9-0.8-1.8-1.5-2.6-2.3c-2.7-2-5.2-4.2-7.7-6.4c0.4-0.3,0.1,0,0.2,0c1.4,1.1,2.9,2.2,4.4,3.3c2.2,1.8,4.5,3.5,6.9,5.2l0.7,0.2
			l0.2-0.2l-0.1-0.5l0.2,0l1.3,1l0.5,0l0.3-0.3l-0.1-0.2l-0.1-0.6c-1.7-1.2-3.3-2.5-4.9-3.8c-2.4-2.1-4.7-4.2-7-6.4l0-0.2
			c0.1,0,0.2-0.1,0.4,0l0.1,0.2c0.6,0.4,1.2,0.8,1.8,1.2c3.5,2.6,7.3,5,11.3,7.1l1.3,0.3c0.1-0.4-0.1-0.4-0.2-0.7l-1.6-0.8
			c-4-2.4-7.8-5-11.3-7.7l-0.1-0.3l0.6-0.2l0.3,0.5c1.7,1.2,3.4,2.3,5.1,3.4c1.9,1.5,3.9,2.9,6,4.2l2,1.5l0.7,0l-0.1-0.6l-0.3-0.2
			c-1.8-1.2-3.6-2.5-5.3-3.8c-2.3-1.6-4.6-3.3-6.7-5.1l-0.1-0.3l0.4,0l0.1,0.3c1,0.7,1.9,1.4,2.9,2.1c1.5,1.2,3,2.3,4.5,3.4
			c1.8,1.4,3.6,2.8,5.5,4.1c0.7,0.7,0.5-0.2,0.9-0.3l-0.3-0.6c-1.7-1.1-3.4-2.3-5-3.5c-2.6-1.9-5.1-3.9-7.5-5.9l0.2,0l0.2-0.1
			l0.6-0.2l0.3,0.4l0.4,0.2c2.4,1.5,4.8,2.9,7.4,4.2c1.7,1.1,3.4,2.3,5.2,3.3l0.8,0.1c-0.1-0.2,0.1-0.3,0-0.5l-0.2-0.3l-0.6-0.5
			c-0.8-0.5-1.5-1-2.3-1.5c0-0.1,0.1-0.1,0.2-0.1l1.7,0.8c1.3,0.5,2.5,1,3.8,1.5l0.5-0.2l0.3,0.2l0.7,0l-0.5-1
			c-1-0.6-1.9-1.3-2.9-1.9c-3.4-1.9-6.6-3.9-9.7-6.1l-0.1-0.3c0.2-0.1,0.8-0.1,0.8-0.1l0,0.1c1.8,1.3,3.7,2.5,5.7,3.6
			c2.7,1.3,5.5,2.5,8.4,3.6c1.1,0.3,1-0.1,1.2-0.3l-0.3-0.2l-0.8-0.4l-0.5-0.3c-2-0.7-3.9-1.5-5.9-2.3c-2.4-1.3-4.7-2.7-6.9-4.1
			l-0.1-0.2l1.1-0.2l0,0.2c2.3,1.2,4.7,2.4,7.1,3.5c1.6,1,3.2,1.9,4.8,2.8l0.7,0l-0.3-0.6l-0.3-0.2c-1.8-0.9-3.5-1.9-5.2-2.9
			c-2-0.9-4-1.9-5.9-2.9l-0.1-0.2l0.9-0.3c2.1,1.3,4.2,2.6,6.4,3.8c2.1,0.9,4.2,1.7,6.4,2.5l0.5-0.2l-1-0.7l0-0.5l-0.2-0.1l-0.6-0.5
			c-2.5-1.4-4.9-2.9-7.3-4.5l-0.7-0.4l-0.4-0.3l0.4-0.1l0.8-0.2l0.6,0.5c2.3,1.1,4.6,2.1,6.9,3.1c1.4,0.5,2.9,1,4.3,1.5
			c0.1-0.1,0-0.2,0-0.3l-1.6-0.7l-2.1-1.1c-2.4-0.9-4.7-1.9-6.9-3l-0.1-0.2l0.8-0.2l0.3,0.2l0.2,0.1c0.9,0.3,1.8,0.7,2.7,1
			c1.3,0.8,2.7,1.6,4,2.3l1.6,0.7l0.5-0.2l-0.1-0.1l-0.6-0.6c-1-0.6-2-1.2-3-1.9c-1.1-0.5-2.1-1.1-3.2-1.6l-0.7-0.4l0-0.1l0.4-0.2
			c0.1,0.1,0.2,0.2,0.3,0.3c3,1.5,6.1,2.9,9.3,4.2l0.4-0.1l-0.1-0.2c-2.2-1.1-4.3-2.3-6.3-3.6l-1.8-0.8l-0.1-0.2
			c0.2,0.1,0.3,0.1,0.5,0c0.2,0,0.2-0.1,0.3,0c1.2,0.7,2.4,1.4,3.6,2.1c1,0.4,2,0.7,3,1.1l0.5-0.1l-0.6-0.6
			c-1.7-0.9-5.7-3.2-6.1-3.2c1.5-1.4,2.8-3.7,4-5.3c0.3-0.5,0.6-1,0.8-1.6l-0.2-0.4l-0.3,0.1c-0.7,1-1.4,2-2.1,3
			c-0.7,0.8-1.3,1.6-2,2.4l-0.8,1.2c-0.1,0.2-0.3,0.3-0.2,0.5l-0.4,0.1l-0.4-0.1c0.4-0.6,0.1-0.1,0.2-0.2c0.5-1.1,1-2.3,1.5-3.4
			c0.3-1,0.5-2,0.8-3l-0.1-0.3l-0.2,0.1c-0.6,1.5-1.2,3.1-1.9,4.6l-0.6,1c-0.3,0.6-0.6,1.1-0.9,1.7l-1,0.1l0.1-0.2l0.2-0.3
			c1.3-2.5,2.4-4.9,3.5-7.4l0-0.5c-0.4-0.4-0.2,0-0.3-0.1c-0.4,1-0.9,2-1.4,3c-0.7,1.4-1.5,2.7-2.3,4.1c-0.4,0.7-0.7,1.3-1.1,2
			l-0.7,0.1l-0.1-0.1c0.7-1.5,1.4-3,2-4.5c0.4-1.7,0.8-3.4,1.2-5l-0.2-0.4c-0.2,0,0,0.3-0.2,0.3l-0.1,1c-0.4,1.2-0.7,2.3-1.1,3.5
			c-0.7,1.6-1.5,3.1-2.3,4.7l-0.4,1l-0.6,0.3l-0.3,0l-0.5,0c0.2-0.7,0.5-1.3,0.7-1.9c0.5-1.5,0.9-3,1.3-4.5c0.4-1.8,0.7-3.6,1-5.4
			l-0.2-0.6l-0.2,0.1c-0.2,1.6-0.5,3.2-0.8,4.8c-0.7,2.2-1.5,4.5-2.4,6.7l-0.3,1.2l-1,0.3l-0.1-0.2c0.6-1.4,1.2-2.8,1.8-4.2
			c0.5-1.9,0.9-3.7,1.3-5.6l-0.2-1l0.3-0.8l0-0.6c-0.7,0.4-1.5,2.4-2.4,4.3l-1.5,3.7c-0.6,1.5-1.3,3-2,4.4l-0.3,1l-1,0.1l-0.1-0.2
			c0.5-1.1,0.9-2.2,1.4-3.3c0.5-1.4,0.9-2.8,1.3-4.1c1-3.6,0.6-4.7,0.6-4.6l-0.2-1.3l-0.2-0.1l-0.2,0.2l-0.6,0c-0.5,1-0.9,2-1.4,3
			c-0.8,2.5-1.7,5.1-2.7,7.6c-0.4,1.3-0.7,2.5-1.1,3.8l-0.3,0.1c-0.1,0-0.3-0.2-0.4-0.3l0.5-2.2c0.7-3.4,1.1-6.8,1.5-10.2l-0.2-2.2
			l-0.3-0.3l-0.4,0l-0.1,0.2c-0.3,1.2-0.6,2.4-0.9,3.5c-0.5,2.5-1.1,5.1-1.9,7.6c-0.4,1.2-0.8,2.5-1.2,3.7l-0.2,1.3l-0.3-0.1
			c-0.2-0.1-0.1-0.1-0.3-0.2c0.4-1.7,0.7-3.3,1-5c0.4-2.5,0.7-5,0.9-7.4l0-2.2l-0.3-0.3l-0.2,0l-0.1,0.2l-0.1,0.6l-0.4,0.6
			c-0.2,0.7-0.5,1.3-0.7,2c-0.8,3.6-1.9,7.3-3.1,11l-0.4,1.8c-0.3,0.2-0.2-0.1-0.4-0.2l-0.1-0.5c0,0,0.7-2.8,1.2-5.8
			c0.6-3.1,1-6.5,1.2-7.9l0.1-0.6l-0.3-0.3l-0.4,0.4c0,0-0.1,1-0.3,2.4c-0.2,1.5-0.6,3.6-0.9,5.2c-0.3,1.6-0.6,2.9-0.6,2.9
			c-0.4,1.5-0.9,3-1.4,4.4l0,0.9l-0.5,0.1l-0.2-0.1l0-1.2c0.4-2,0.7-4,1-6.1c0,0,0.3-1.2,0.6-2.5c0.3-1.2,0.6-2.4,0.6-2.4
			c0.3-0.8,0.5-1.5,0.8-2.3l0.1-0.9l0,0l-0.4-0.1l-0.4,0.7c-0.4,1.5-0.8,3-1.3,4.5c0,0-0.3,1.4-0.5,2.6l-0.4,1.9
			c-0.3,1.5-0.7,2.9-1.1,4.4l-0.3,2l-0.3,0c-0.1-0.4-0.1-0.9-0.1-1l0-0.3l0.4-2.2l0.2-2c0.1-1.8,0.3-4.6,0.3-6.9
			c0.1-2.3,0.1-4.1,0.1-4.1l-0.2-0.5l-0.2,0l-0.2,0.3c0,2-0.1,4-0.2,6l-0.2,2.7c-0.1,1.5-0.3,3.2-0.4,4.1l-0.1,0.6
			c-0.2,0.9-0.5,1.9-0.8,2.8l0,1l-0.4,0l-0.2,0l-0.1-1.7l0.1-0.6l0.2-2.3c0.1-3.5,0.2-7,0.1-10.5l-0.3-2.3l-0.2,0l-0.1,0.2l-0.1,0.3
			l0.1,3c0,2.6,0,5.3-0.1,8c0,0-0.6,4-0.9,5.4l-0.1,0.5l0,0.5c-0.1,0.2,0,0.1-0.2,0.1l-0.1-0.6l-0.1-1l0-1.2c0.1-2,0.2-4,0.3-5.9
			c0-1.5,0.1-3,0.1-4.5c0-1.1,0-2.2,0-3.3c-0.7-0.7-0.2-0.1-0.3-0.2l-0.2,0.2l-0.1,1.1l-0.1,0L245,74l-0.4,0.7
			c-0.3,2-0.7,3.9-1.1,5.8c-0.1,1.6-0.3,3.1-0.5,4.7c-0.2,1.4-0.4,2.7-0.6,4.1l-0.2,1.9c-0.1,0.1-0.2,0.2-0.2,0.2
			c-0.2,0.2-0.2-0.2-0.2-0.3c0-0.2-0.1-0.6-0.1-0.8l0.2-1.7c0.3-3.8,0.5-7.6,0.6-11.4l-0.1-2.1l-0.3-0.4c-0.2,4-0.5,8.1-0.9,12.1
			c-0.2,1.3-0.5,2.7-0.8,4l0,1.2l-0.4,0l0-0.2l-0.3-1.7l0.1-1.4c0,0,0-2.4-0.1-5.2c-0.1-2.8-0.2-5.9-0.3-7.5l0-1l-0.4-0.6l0,0.1
			l-0.2,2.3l-0.3-0.3l-0.3,0.4l0,1l-0.1,2.2c-0.1,2.6-0.2,5.2-0.3,7.8c-0.3,1.9-0.7,3.7-1.1,5.6c-0.4,0.5-0.5,0.3-0.6,0.1
			c0-0.1-0.1-0.3-0.2-0.3l0-0.3c0,0,0.1-2,0.2-4.6c0.1-2.6,0.2-5.7,0.2-8.1l0-3.3l-0.3-0.7l-0.4,0.2c0,0.2,0,0.5,0,0.7l0,0
			c0,5.6,0,11.5-0.9,16.7c-0.4-0.2-0.4-1-0.2-1.5c0.5-2.6,0.5-5.6,0.6-8.4c-0.3-1.6,0.2-3.1-0.1-4.8c-0.2-0.2-0.2,0.2-0.4,0.2
			c-0.4,4-0.5,8.3-1.5,12.1c0,0.9-0.1,1.8-0.4,2.6c-0.5-1.2,0.2-2.6,0.2-4c0.6-3.5,0.9-7.2,1-10.8c-0.1-0.3-0.4-0.7-0.6-0.5l0,0
			c0,0,0,0.1,0,0.1c-0.1,0.2-0.2,0.4-0.1,0.6c0,0.1,0,0.2,0,0.3l0.1,0c-0.3,5.1-1,10.3-2.3,14.9l-0.1-0.7c0.8-4.2,1.3-8.5,1.7-12.8
			c-0.1-0.4-0.3-0.2-0.5-0.1l-0.4,1c-0.7,4.5-0.9,9.5-2.5,13.5c-0.5-1.1,0.5-2.1,0.7-3.1c0.3-3.1,0.6-6.1,1-9.1
			c-0.1-0.2-0.2-0.4-0.4-0.3c-0.5,1-0.5,2.5-0.9,3.7c-0.1,2.1-0.7,4-1.3,5.9c0,1-0.4,2.1-0.8,2.9c-0.2-0.8,0.1-1.7,0.1-2.5
			c0.8-2.6,1.2-5.6,1.6-8.3c0.3-0.5,0.4-1,0.5-1.6c-0.6-0.4-0.7,0.8-1.1,1.2c-0.4,3.1-2.1,5.3-2.1,8.6c-0.5,0.9-0.1,2.1-0.4,3.2
			c-0.6-2.9,0.5-6.4,0.7-9.4c0.1-1.1,1-2.6,0.1-3.5c-0.5,0.4-0.4,1.4-0.7,2.1c0,0.3-0.1,0.7-0.2,0.9l0,0.1l0,0c0,0,0,0,0,0
			c-0.4,2.6-0.8,5.2-1.3,7.9c-0.2,0.6-0.4,1.4-0.5,2.1l-0.1,1.3c0.2-3.2,1.1-6.5,0.5-9.6l-0.2-2.4c0,0,0.1,0,0.1,0.1
			c0,0,0-0.1,0-0.1c-0.1-0.4-0.1-0.5-0.4-0.6c-0.1,0-0.2,0-0.3,0l0.1,0.1c-0.3,0.3-0.3,1.2-0.3,1.8c-0.1,3.8,0.2,7.7-1,11.4
			c-0.1,0.3-0.2-0.1-0.4,0c0.2-2.2,0.8-4.6-0.2-6.6c-0.2-0.2-0.4,0-0.6,0.1c0.4,2,0.2,4.5-0.4,6.4c-0.1-0.3-0.3-0.7-0.6-1l0-0.1
			c-0.1,0-0.1,0-0.2,0c-0.3-0.3-0.6-0.5-1-0.4c-0.2,0.3-0.4,0.6-0.7,0.9c-0.4,1.4-0.5,2.9,0.1,4.2c0,0,0.1,0,0.1,0
			c0.4-0.2,0.8-0.2,1.3-0.2c0.2,0,0.4,0.1,0.6,0.1l0.1,0l0,0c0.5,0.2,0.9,0.6,1,1.2c0,0.2,0.1,0.4,0.1,0.6c0,0.1,0,0.3,0.1,0.4
			c0.1,0.2,0.2,0.3,0.3,0.5l0.7,1.9l0.8,1.7C224,108.6,224,108.1,224.2,108.1z M270.2,83.1c0.3,0,3.9,2.6,5.8,3.8
			c-2.5-0.9-5-2.6-7.5-3.8C269,83.1,269.7,82,270.2,83.1z M270.5,73.2c-0.3,3-1.6,6.3-3.2,8.9c0.2,0.7-0.5,0.5-0.8,0.6l-0.1-0.1
			C267.5,79.2,269.4,76.5,270.5,73.2z M262.2,83.5c1.3-4.4,2.7-8.9,4.5-12.7l0.1,0c0.1,4.5-1.6,8.7-3.7,12.6l0.1,0.4l-0.9,0.2
			L262.2,83.5z M261.5,85l0.2,0.3c3.4,2.2,7.2,3.9,10.8,6.8c-4.2-1.5-8.1-4.1-11.8-6.8C260.8,85.2,261.2,85.1,261.5,85z M259.3,81
			c0.6-3,1.4-6,2.1-8.9c-0.1,4.1-1.2,8.1-2.3,12.1c-0.2,0.7-0.3,0.6-0.6,0.7C258.7,83.6,259,82.3,259.3,81z M259.6,85.8
			c0.7,0.5,1.4,1.1,2.1,1.6c-0.9-0.5-1.9-1-2.8-1.6L259.6,85.8z M254.8,86c1.1-4.1,1.6-8.4,3-12.1c-0.4,3.9-1,8-2.5,11.7
			C255,86.2,254.9,86.6,254.8,86z M251.1,90c2.8,2.2,5.7,4.9,8.7,7.4c-3.6-2.4-7-5.6-10.3-8.3C250.2,88.7,249.6,88.8,251.1,90z
			 M257.7,99.3c-4.1-2.1-7.8-5.7-11.4-8.5l-0.3-0.4l0.2,0.1C249.7,93.4,253.8,95.7,257.7,99.3z M243.5,88.5
			c0.2-4.6,0.8-8.8,1.6-12.8c-0.1,4.4,0,9.3-1.1,13.5l0,1.2C243.7,89.8,243.5,89.2,243.5,88.5z M243.4,95.1l0.2,0.3
			c-0.9-0.8-2.1-1.6-3-2.4c0-0.1,0.1-0.2,0.1-0.2C241.4,93.9,242.5,94,243.4,95.1z M238.2,90.9c0.8-3.7,0.4-8.2,0.6-12.1
			c0,4.2,0.5,9.3-0.3,13.3c-0.2,0.3,0.4,0.7-0.1,0.7C238.1,92.4,238.1,91.5,238.2,90.9z M229.8,99.4l0.3-0.2c0.7,0.8,1.6,1.3,2,2.5
			C231.3,100.8,230.6,100,229.8,99.4z"/>
	</g>
	<g>
		<path class="st4" d="M232.4,348.4c1.6,0.2,3,1.1,4,2.8c0.8,1.3,1.4,3,1.8,5c0.4,2,0.5,4.1,0.5,6.4c0,3.6-0.3,6.9-0.8,10.1
			c-0.5,3.2-0.9,5.2-1.2,6.1c-0.3,1-0.6,2-0.9,2.9c-0.3,0.9-0.7,1.8-1.1,2.6c0.8,1.1,1.7,2.1,2.5,3.1c0.9,0.9,1.9,1.7,3.1,2.5
			c0.5,0.2,1.1,0.4,1.8,0.5c0.7,0.1,1.4,0.2,2.1,0.2c1.1,0,2.3-0.2,3.5-0.5c2.7-0.6,4.7-1.6,6.1-2.8c1.4-1.3,2.6-2.8,3.4-4.5
			l-0.8-0.6c-1.4-1.2-2.6-2.6-3.5-4.1c-0.9-1.5-1.6-3.1-2.1-4.6c-0.6-1.6-1.1-3.2-1.5-4.8c-0.4-1.6-0.5-3.2-0.5-5
			c0-0.9,0.1-1.8,0.2-2.7c0.1-0.9,0.3-1.8,0.6-2.7c0.4-1,0.9-1.8,1.4-2.4c0.5-0.5,1-0.8,1.4-0.9c0.6-0.6,1.1-1,1.5-1.1
			c0.3-0.1,0.6-0.2,0.8-0.2c0.3-0.1,0.5-0.1,0.8-0.1c1.1,0,2.1,0.4,2.9,1.2c1.1,1.1,1.9,2.8,2.3,5.1c0.4,2.2,0.6,4.6,0.6,7
			c0,2.7-0.1,5.1-0.4,7.3c-0.3,2.2-0.4,3.4-0.5,3.8l-0.3,1.4c0.6,0.9,1.3,1.8,2.1,2.6c0.8,0.8,1.7,1.6,2.7,2.4
			c0.5,0.2,1,0.3,1.6,0.3c0.6,0,1.1,0,1.8,0c3.8,0,6.9-1.5,9.3-4.6c0.7-0.8,1.2-1.5,1.4-2c-0.3-0.1-0.6-0.2-0.8-0.3
			c-0.3-0.1-0.5-0.3-0.8-0.5c-1.8-1.1-3.4-2.5-4.6-4.1c-0.5-0.8-1-1.7-1.4-2.7c-0.4-1-0.6-2-0.6-3.1v-0.9c0.2-1.3,0.8-2.5,1.7-3.4
			c0.5-0.8,1.1-1.5,1.7-2c1.3-1.1,2.6-1.7,3.8-1.7c0.4,0,0.9,0.1,1.5,0.3c1.7,0.5,2.9,1.8,3.4,4c0.2,0.5,0.3,1,0.3,1.6
			c0,0.6,0,1.1,0,1.8c0,1.3-0.1,2.8-0.4,4.3c-0.3,1.5-0.6,3-1.1,4.4l1.1,1.8c0.5,0.1,0.9,0.2,1.3,0.2c0.4,0,0.7,0.1,1.1,0.1
			c3.4,0,6.2-1.6,8.6-4.9c0.9-1.4,1.7-2.8,2.4-4.1c0.7-1.3,1.4-2.5,2-3.8c1.4-2.9,3-5.5,4.7-7.9c1.7-2.4,4.4-4.5,8.1-6.4
			c2.5-1.1,5.1-1.7,8-1.7c1.7,0,3.4,0.3,4.9,0.8c1.5,0.5,3,1.4,4.3,2.6c1.6,1.6,2.5,3.6,2.5,6c0,0.5-0.1,1.3-0.3,2.3
			c-0.8,2.6-2.6,4-5.4,4.3l-0.2-1.4c2.1-0.3,3.5-1.4,4-3.4c0.2-0.8,0.3-1.5,0.3-2.1c0-2-0.6-3.6-1.8-4.6c-1.1-1.1-2.4-1.9-3.8-2.4
			c-1.4-0.5-2.9-0.7-4.4-0.7c-1.3,0-2.6,0.2-3.8,0.5c-1.2,0.3-2.4,0.7-3.5,1.2c-3.5,1.7-6,3.8-7.6,6c-1.6,2.3-3.1,4.8-4.5,7.4
			c-0.7,1.3-1.4,2.7-2.1,4c-0.7,1.3-1.5,2.7-2.5,4.1c-2.8,3.7-6,5.5-9.8,5.5c-0.1,0-0.6-0.1-1.4-0.2c-0.8-0.2-1.6-0.3-2.5-0.5
			c-0.2-0.1-0.5-0.2-0.9-0.2c-0.2,0.4-0.4,0.8-0.7,1.2c-0.3,0.4-0.6,0.8-1,1.2c-2.6,3.3-6,5-10.4,5.2c-2.3,0-4.6-0.4-6.7-1.2
			c-1.1-0.3-2.1-0.8-3.1-1.4c-0.8,1.7-2,3.3-3.6,4.7c-1.6,1.4-3.9,2.5-6.8,3.2c-1.5,0.3-3,0.5-4.3,0.5c-0.9,0-1.6-0.1-2.1-0.2
			c-1.4,0-3-0.3-4.7-0.8c-1.5-0.6-2.9-1.4-4.1-2.3c-4.1,7.5-9.6,11.2-16.5,11.2c-0.7,0-1.2-0.1-1.5-0.2h-0.9c-2.3,0-4.5-0.5-6.6-1.4
			c-1.4-0.6-2.7-1.4-3.9-2.3c-1.2-0.9-2.3-1.9-3.3-3.1l-2.9-4c-1.1,0.8-2.4,1.5-3.8,2.1c-1.4,0.6-3,0.8-4.7,0.8
			c-0.3,0-0.6,0-0.9-0.1c-0.3-0.1-0.6-0.1-0.9-0.1h-0.9c-1.5,0-3.1-0.3-4.7-0.8c-1.6-0.6-3-1.4-4.2-2.5c-1.6-1.4-3-3-4.1-4.7
			c-2.2,1.6-5.2,2.5-8.7,2.5c-3.3-0.2-6.1-1.1-8.6-2.6c-2-1.3-3.6-2.9-4.8-4.6c-0.8,0.2-1.4,0.3-1.8,0.3c-0.2,0-0.4,0-0.7,0.1
			c-0.3,0.1-0.5,0.1-0.7,0.1c-3.8,0-6.8-1.4-9.2-4.3c-1.3-1.4-2.5-2.9-3.4-4.5c-1-1.6-1.9-3.2-2.7-4.8c-1.7-3.2-3.7-6.1-5.7-8.7
			c-2.1-2.6-5.1-4.3-9-5.1c-0.5-0.1-1.3-0.2-2.3-0.2c-2.1,0-4.3,0.5-6.5,1.4c-2.2,0.9-3.8,2.3-4.8,4.1c-0.5,1-0.8,2.1-0.8,3.4
			c0,1,0.2,1.9,0.6,2.6c0.4,1,1.2,1.7,2.5,2l-0.2,1.4c-1.6-0.3-2.9-1.2-3.7-2.8c-0.5-1.2-0.8-2.3-0.8-3.2c0-1.5,0.4-2.9,1.1-4.1
			c1.1-2,2.9-3.6,5.4-4.7c2.5-1.1,4.9-1.6,7.3-1.6c0.4,0,0.8,0,1.2,0c0.4,0,0.8,0,1.2,0.2c4.2,0.9,7.4,2.8,9.7,5.6
			c2.3,2.8,4.2,5.8,6,9c0.8,1.6,1.7,3.2,2.7,4.7c1,1.5,2.1,3,3.3,4.4c1.1,1.2,2.4,2.1,3.8,2.8c1.4,0.6,2.9,0.9,4.4,0.9h1.1
			c0.3-0.1,0.7-0.2,1.2-0.2l-0.8-1.5c-1.2-2.5-1.8-5-1.8-7.5c0-0.3,0-0.6,0.1-0.9c0.1-0.3,0.1-0.6,0.1-0.9c0.1-0.8,0.3-1.6,0.5-2.4
			c0.3-0.8,0.7-1.6,1.3-2.5c0.3-0.4,0.6-0.8,1-1.1c0.4-0.3,0.8-0.5,1.3-0.6l1.2-0.6c0.6-0.2,1.1-0.3,1.5-0.3c1.2,0,2.6,0.6,4,1.7
			c0.8,0.7,1.4,1.5,1.8,2.4c0.4,0.9,0.5,1.8,0.5,2.7c0,1.2-0.2,2.4-0.7,3.7c-0.5,1.2-0.9,2.2-1.5,3.1c-0.4,0.7-0.9,1.4-1.4,2
			c-0.5,0.6-1,1.2-1.5,1.7c0.6,1.4,1.4,2.7,2.5,3.8c1.2,1.3,2.6,2.7,4.1,4.1c0.3,0,0.6,0,1,0.1c0.4,0.1,0.8,0.1,1.3,0.1
			c3.1,0,5.6-0.7,7.7-2.1c-0.5-0.7-0.9-1.5-1.2-2.2c-0.3-0.8-0.6-1.6-0.9-2.4c-0.6-2-1.1-4.1-1.4-6.1c0-0.4,0-0.8-0.1-1.2
			c-0.1-0.4-0.1-0.8-0.1-1.2c0-0.6,0-1.2,0.1-1.8c0-0.6,0.1-1.2,0.2-1.8c0.2-2,0.7-4,1.4-6c0.2-0.5,0.4-1,0.7-1.5
			c0.3-0.5,0.5-0.9,0.8-1.5c0.5-0.5,1.1-0.9,1.7-1.2l0.6-0.8c0.8-0.8,1.8-1.2,2.9-1.2c0.3,0,0.6,0,0.8,0.1c0.3,0.1,0.5,0.1,0.8,0.2
			c1.1,0.4,1.9,1.3,2.4,2.8c0.5,1.4,0.7,3,0.7,4.7c0,2.7-0.3,5.1-0.8,7.4c-0.5,2.3-0.8,3.5-0.8,3.6c-0.7,2.7-1.8,5.1-3.2,7.4
			c0.8,2,1.8,3.9,3.1,5.7c1.6,2.1,3.6,3.8,5.8,4.9c0.5,0.1,1,0.2,1.4,0.2c0.4,0,0.9,0.1,1.4,0.1c1.7,0,3.2-0.3,4.5-0.8
			c1.3-0.5,2.4-1.2,3.4-2c-1-1.7-1.9-3.5-2.5-5.2c-0.7-1.7-1.3-3.5-1.8-5.2c-0.4-1.4-0.7-2.8-1-4.1c-0.3-1.3-0.5-2.7-0.7-4.1
			c-0.3-1.8-0.5-3.7-0.5-5.7c0-0.5,0-1,0-1.6c0-0.6,0.1-1.1,0.2-1.6c0.2-1.4,0.5-2.9,0.9-4.4c0.5-1.7,1.3-3.2,2.5-4.4
			c0.3-0.3,0.6-0.6,1-0.8c0.4-0.3,0.7-0.5,1.2-0.7c1-0.4,1.7-0.6,2.1-0.6c0.8-0.4,1.5-0.6,2.1-0.6c0.2,0,0.4,0,0.5-0.1
			c0.1-0.1,0.3-0.1,0.5-0.1c1.3,0,2.5,0.6,3.5,1.8c0.8,1,1.4,2.4,1.8,4.1c0.4,1.7,0.5,3.6,0.5,5.7c0,1.9-0.1,3.9-0.3,6
			c-0.2,2-0.5,3.9-0.8,5.7c-0.3,1.7-0.6,3.2-0.9,4.4c-0.3,1.2-0.5,2-0.6,2.3c-0.2,0.6-0.5,1.4-0.8,2.2c-0.4,0.9-0.8,1.8-1.5,2.8
			c0.7,2,1.6,4.1,2.8,6.1c0.9,1.6,2,3.2,3.3,4.6c1.3,1.4,2.8,2.7,4.5,3.8c1.2,0.3,2.5,0.5,3.8,0.5c6.3,0,11.4-3.6,15.3-10.9L231,387
			c-1.7-1.6-3.2-3.4-4.3-5.4c-1.1-1.9-2-4-2.8-6.1c-1.2-3.4-1.8-6.8-1.8-10.4c0-0.5,0-1,0-1.5c0-0.5,0.1-0.9,0.2-1.5
			c0.1-2.1,0.7-4.3,1.7-6.6c0.8-1.7,1.9-3.2,3.2-4.4l0.8-1.1c0.8-1.1,2-1.7,3.5-1.7H232.4z M281.2,363.7c-0.3-1.6-1.1-2.6-2.3-2.9
			c-0.2-0.1-0.5-0.2-0.9-0.2c-0.7,0-1.7,0.4-2.9,1.1c-0.1,0.4-0.2,0.8-0.2,1.2v1.8c0,0.4,0.1,0.8,0.3,1.2c0.2,0.5,0.5,1,0.9,1.6
			c0.4,0.6,0.8,1.2,1.2,1.9l3.2,4.3c0.7-2.1,1.1-4.3,1.1-6.6C281.7,365.8,281.6,364.7,281.2,363.7z M259,377.4
			c0.2-0.5,0.4-1.7,0.5-3.7c0.2-1.9,0.2-4.1,0.2-6.6c0-2.4-0.2-4.6-0.5-6.8c-0.3-2.2-1-3.8-2-4.8c-0.5-0.5-1.1-0.8-1.7-0.8
			c-0.3,0-0.8,0.1-1.4,0.3c-1,0.3-1.6,1.6-1.8,3.8c0.2,0.6,0.4,1.2,0.5,1.8c0.1,0.6,0.3,1.3,0.5,2c0.4,1.4,0.9,2.9,1.4,4.3
			c0.5,1.4,1,2.9,1.5,4.3C257,373.4,257.9,375.4,259,377.4z M229,351c-0.7,0.8-1.2,2-1.5,3.6c-0.3,1.6-0.4,3.3-0.4,5.1
			c0,2.2,0.2,4.5,0.5,6.9c0.5,2.6,1.1,4.9,1.8,7c0.5,1.5,1.1,3.1,1.8,4.6c0.7,1.5,1.5,3,2.5,4.4l1.5-4.4c0.3-1.1,0.7-3.2,1.2-6.2
			c0.5-3,0.7-6.1,0.7-9.4c0-2.1-0.1-4.2-0.4-6c-0.2-1.9-0.8-3.4-1.6-4.7c-0.7-1.1-1.7-1.8-3.1-2c-0.2,0-0.3,0-0.4-0.1
			c0-0.1-0.2-0.1-0.4-0.1C230.4,349.8,229.6,350.2,229,351z M202.7,377.8c0.2-0.5,0.4-1.4,0.7-2.6c0.3-1.2,0.5-2.7,0.8-4.4
			c0.3-1.7,0.5-3.5,0.7-5.4c0.2-1.9,0.3-3.8,0.3-5.7c0-1.8-0.1-3.5-0.4-5.1c-0.3-1.6-0.7-2.8-1.5-3.6c-0.5-0.7-1.2-1.1-2.1-1.2
			c0.2,0.2,0.4,0.3,0.6,0.4c0.2,0.1,0.4,0.2,0.6,0.4c-1.6,0-2.9,0.2-3.8,0.6c-1,0.6-1.7,1.4-2,2.3c-0.4,0.9-0.6,2.2-0.6,3.8
			c0,0.5,0,1,0.1,1.5c0.1,0.5,0.1,0.9,0.1,1.5c0.2,1.2,0.4,2.4,0.6,3.7c0.2,1.2,0.4,2.5,0.6,3.8l1.8,7.5c0.3,1.1,0.6,2.2,0.9,3.2
			c0.3,1,0.7,2.1,1.1,3.2c0.4-0.7,0.7-1.4,0.9-2.1C202.3,378.9,202.5,378.3,202.7,377.8z M174.8,355.6c-0.4,0.3-0.7,0.7-1,1.3
			c-0.3,0.6-0.5,1.2-0.7,1.9v1.2l0.5,5.4l0.8,5.5c0.2,0.8,0.4,1.7,0.5,2.5c0.2,0.9,0.3,1.7,0.5,2.5c0.2,0.4,0.4,1,0.6,1.8
			c1.2-2,2.1-4.1,2.6-6.1c0.3-1.1,0.6-2.7,0.9-4.7c0.3-2,0.5-4,0.5-6c0-1.5-0.1-2.9-0.4-4c-0.3-1.1-0.8-1.8-1.6-2
			c-0.6-0.2-1.1-0.3-1.4-0.3C176,354.7,175.4,355,174.8,355.6z M157.3,361.9c-0.5-0.4-1-0.7-1.5-1c-0.5-0.3-0.9-0.4-1.5-0.4
			c-0.1,0-0.2,0-0.3,0.1c-0.1,0.1-0.2,0.1-0.3,0.1c-0.6,0.3-1.1,0.7-1.4,1.1c-0.2,0.3-0.3,0.8-0.3,1.4v0.9c0,0.4,0,0.8,0.1,1.1
			c0,0.4,0.1,0.8,0.2,1.3c0.1,0.6,0.2,1.2,0.3,1.8c0.1,0.6,0.3,1.2,0.5,1.8l0.5,1.8l1.1,2.9c0.9-0.7,1.7-1.7,2.5-3.1
			c0.5-0.7,0.9-1.6,1.3-2.6c0.4-1,0.5-2.1,0.5-3.2C159,364.3,158.5,362.9,157.3,361.9z"/>
	</g>
	<g>
		<path class="st3" d="M166.3,321.7c-2.7-0.4-5.3-1-8-1.7c-0.1,0-0.2,0-0.3,0c-0.1,0-0.3,0-0.5,0c-4.9,1.1-9.5,4.4-11,9.4
			c-0.1,0.2,0.2,0.2,0.3,0.2c7.6,1.1,14.8-1.8,19.7-7.7C166.7,321.8,166.5,321.8,166.3,321.7z"/>
		<path class="st3" d="M158.3,299.4c-0.9-0.4-1.7-0.8-2.6-1.1c-0.5-0.2-1.3,0-1.5,0.5c-1,3.4-0.5,7.5,1.2,10.7
			c1.3,2.6,3.9,5.5,6.7,6.6c1.9,0.8,4.6,0.7,6.7,0.9c0.4,0,1.2-0.2,1.2-0.7C168.9,308.9,164.7,302.9,158.3,299.4z"/>
		<path class="st2" d="M182.2,318.5c-0.7-0.3-1.9,0-2.6,0c-2.8,0.1-5.6,0-8.4-0.2c-6.3-0.5-12.4-1.8-18.4-3.8
			c-1.8-0.6-2.7-0.4-2.9-2.2c-0.1-0.7,1-2.9,1.2-3.7c0.6-2.8,0.5-5.7,0.1-8.6c0-0.3-0.5-0.4-0.7-0.3c-0.4,0.1-0.9,0.1-1.3,0.2
			c-0.4,0.1-1,0.3-0.9,0.8c0.3,2.8,0.3,5.3-0.2,7.9c-0.4-1.6-1.1-3-2.1-4.5c-0.3-0.5-1.2-0.2-1.5,0.1c-0.3,0.3-0.6,0.6-0.9,1
			c-0.2,0.2-0.2,0.4-0.1,0.6c1.3,1.9,1.8,3.6,2,5.7c-5.6-2.8-10.6-6.4-15.1-10.7c-0.1-0.1-0.1-0.1-0.2-0.1c-0.2-0.1-0.4-0.1-0.5,0
			c0,0,0,0,0,0c-0.1,0-0.1,0-0.1,0c-0.1,0-0.1,0-0.2,0.1c-0.1,0-0.2,0.1-0.2,0.1c-0.1,0.1-0.2,0.2-0.2,0.3c-0.1,0.2-0.3,0.5-0.4,0.7
			c-0.1,0.1-0.1,0.3,0,0.4c2.9,2.9,5.9,5.5,9.4,7.8c1.7,1.1,3.8,2,5.4,3.2c0.2,0.1,0.7,0.3,0.8,0.5c0.1,0.5-2,0.5-2.3,0.5
			c-1.3,0-2.7,0-4-0.1c-0.4-0.1-1,0.2-1.1,0.6c-0.1,0.4-0.3,0.7-0.4,1.1c-0.2,0.4,0.2,0.6,0.5,0.6c2.4,0.3,4.7,0.3,7-0.2
			c-3.7,3.2-8.8,3.8-13.6,3.5c-0.4,0-1.1,0.2-1.1,0.6c0,0.4,0,0.9,0,1.3c0,0.3,0.3,0.5,0.5,0.5c4.7,0.3,9.4,0,13.6-2.4
			c1.5-0.8,2.8-1.8,3.9-3.1c0.2-0.2,0.8-1.3,1.1-1.5c0.3-0.1,0.5,0.4,1.5,0.8c5.4,2.4,11.4,3.7,17.1,4.5c4.4,0.7,10.3,1.8,14.6,0.8
			C182.7,321.1,184.5,319.6,182.2,318.5z"/>
		<g>
			<path class="st1" d="M145.1,292.4c0.2-0.1,0.3-0.2,0.4-0.2c0,0,0.1,0,0.1,0c1.4-1.2,2.5-1.9,2.8-3.9c0.2-1.4-0.2-2.8-1.1-3.9
				c-1.7-2.1-4.8-2.3-7.2-1.2c-2.5,1.2-3.9,4.2-2.7,6.8C138.8,293.1,142.3,293.6,145.1,292.4z"/>
			<path class="st1" d="M108.9,302.2c1.8,0.6,4.2,0,5.4-1.6c1.6-2.1,0.5-4.7-1.7-5.7c-1.9-0.6-4.2,0-5.4,1.6
				C105.7,298.6,106.6,301.4,108.9,302.2z"/>
			<path class="st1" d="M120.5,289c2.1,0.6,4.6,0,5.9-1.9c1.5-2.2,0.5-5.2-2-6.1c-2-0.7-4.5,0-5.8,1.7
				C116.9,285,118,287.9,120.5,289z"/>
			<path class="st1" d="M112.4,309.4c0,0-0.1-0.1-0.1-0.1c-1.8-0.5-3.9,0-5,1.6c-1.2,1.8-0.4,4.2,1.6,5c1.7,0.6,3.9,0,4.9-1.4
				C115.2,312.7,114.3,310.3,112.4,309.4z"/>
			<path class="st1" d="M130.6,286.3C130.7,286.3,130.7,286.3,130.6,286.3c0.1,0,0.1,0,0.1,0c1.8,0.5,4.1,0,5.2-1.5
				c1.4-1.9,0.6-4.6-1.6-5.4c-1.7-0.6-4,0-5.2,1.4C127.6,282.6,128.5,285.3,130.6,286.3z"/>
			<path class="st1" d="M127.2,293.4c-3.1-3.5-10.4-2.9-11.5,2.9c-0.7,3.6,2.2,6.9,5.8,7c3.5,0.2,6.2-2.1,7-5.4c0.1-1.2,0-2.2-0.4-3
				c0.7,0.8,1.7,1.3,2.8,1.4c2.5,0.3,5.1-1,6-3.3c0.8-2.8-0.9-5.7-4-5.9c-2.3-0.2-5,1-5.8,3.3C126.8,291.5,126.9,292.5,127.2,293.4z
				"/>
			<path class="st1" d="M110.2,292.3c2.2,0.8,5.1,0,6.5-1.9c2-2.6,0.7-6-2.2-7.2c-2.4-0.7-5.2,0-6.6,2.1
				C106.1,287.7,107.3,291.2,110.2,292.3z"/>
			<path class="st1" d="M142,295.5c-2.2-1.2-5.3-0.6-7,1.2c-2.3,2.4-1.7,6.2,1.1,7.9c0,0,0,0,0.1,0c0,0,0,0,0.1,0
				c2.6,1.1,5.9,0.5,7.5-1.9C145.4,300.3,144.6,296.9,142,295.5z"/>
			<path class="st1" d="M149.2,291.9c-2-0.6-4.2,0.5-5,2.4c0,0,0,0,0,0.1c0,0,0,0,0,0.1c-0.6,2,0.6,4.1,2.7,4.5
				c1.9,0.4,4.1-0.6,4.8-2.5C152.2,294.5,151.1,292.4,149.2,291.9z"/>
			<path class="st1" d="M133,307.5c-2.3-1.2-5.5-0.5-7.3,1.3c-0.3,0.3-0.6,0.7-0.8,1.1c0.5-2.3-0.8-4.6-3.1-5.6
				c-2.5-0.8-5.3,0.1-6.5,2.5c-1.4,2.6-0.1,5.8,2.7,6.8c2.3,0.8,5.2-0.1,6.4-2.3c0,0,0-0.1,0-0.1c-0.5,2.2,0.5,4.5,2.6,5.8
				c0,0,0,0,0.1,0c0,0,0,0,0.1,0c2.6,1.1,5.8,0.5,7.6-1.7C136.7,312.8,135.9,309,133,307.5z"/>
			<path class="st1" d="M125.1,316C125.1,316,125.1,316,125.1,316c-0.1,0-0.1,0-0.2,0c-2.1-0.6-4.7,0.1-5.9,2.1
				c-1.4,2.2-0.3,5.1,2.1,6c2.1,0.8,4.7,0,5.9-1.8C128.7,319.9,127.6,317.1,125.1,316z"/>
		</g>
	</g>
</g>
</svg>
