<?xml version="1.0" encoding="utf-8"?>
<!-- Generator: Adobe Illustrator 20.1.0, SVG Export Plug-In . SVG Version: 6.00 Build 0)  -->
<svg version="1.1" id="Calque_1" xmlns="http://www.w3.org/2000/svg" xmlns:xlink="http://www.w3.org/1999/xlink" x="0px" y="0px"
	 viewBox="0 0 432 432" style="enable-background:new 0 0 432 432;" xml:space="preserve">
<style type="text/css">
	.st0{fill:#BE1622;}
	.st1{fill-rule:evenodd;clip-rule:evenodd;fill:#A3195B;}
	.st2{fill:#00A19A;}
	.st3{fill:#590D2F;}
	.st4{fill:#D60B52;}
</style>
<g>
	<g>
		<g>
			<path d="M177.7,148.9c-0.6-0.2-0.9,0.6-1.2,0.9c-0.5,0.9-4.5,8.7-6.3,11.2c-0.9,1.8-2,3.2-3.2,4.3l-0.8,0.6
				c-1.1,0.6-2.4,0.3-3.2-0.9l-1.7-3.7l-0.9-3.2c-0.6-3.4-0.9-7.2-0.9-10.7V146c0-2.2,2-20,8.4-24.8c0.3-0.5,0.9-0.5,1.4-0.9
				c0.6-0.3,0.9-0.3,1.4,0l0.7,0.9c0.9,0.9,1.7,1.5,2.6,2c1.8,0.6,3.2,0.3,4.3-0.5c0.6-0.9,0.9-1.8,0.3-2.6l-0.9-1.2
				c-2-1.7-4.3-3.2-6.6-4c-2-0.9-4.3-1.1-6.3-0.9c-0.9,0.3-2,0.3-2.9,0.6c-3.3,1.1-4.3,2.9-6.1,4.9c-8.9,7.5-9.7,24-7.2,34.9
				c0.6,2.3,3.6,14.7,9.1,18.2c0.8,0.3,1.4,0.6,2.2,0.6h2.3c1.7,0,3.5-0.6,4.9-1.1c1.3-0.6,2-0.9,3-1.4c2.3-1.8,4.6-3.5,5.8-6
				c1.4-2.9,2.8-5.8,3.9-8.9c1.4-4.7,0.9-4.3,0.9-5.2C180.6,148.7,178.6,149.1,177.7,148.9z"/>
			<path d="M217,169.2c0-0.9-0.4-1.5-0.7-2.4c-0.6-1.3-1.2-2.6-1.6-3.9l-0.8-3.2c-0.4-2.5-2-13.3-2.4-14.7
				c-0.5-3.7-0.9-7.3-1.5-11.1c-0.5-2.7-1.2-5.5-1.6-8.3c-0.5-2.6-1-5.1-1.2-7.8c-0.1-1.1-0.3-2.2-0.6-3.3c-0.3-0.9-0.9-1.7-2-1.8
				c-0.9-0.2-1.6-0.5-2.5-1c-0.8-0.5-1.7-0.7-2.6-0.8c-1.3-0.1-2.5,0.2-3.7,0.7c-1.4,0.6-2.7,1.4-3.4,3.1c-0.1,0.3-0.2,0.7-0.4,1
				c-1.5,2.7-2.6,5.7-3.6,8.7c-0.9,3-1.5,6-2.2,9c-0.8,3.2-1.2,6.4-1.4,9.6l-0.9,8.4c0,0.3,0.1,0.6-0.1,0.9
				c-0.3,1.2-0.3,2.4-0.4,3.7c0,2-0.1,4-0.2,6c0,0.3,0,0.6,0.1,0.9c0,0.4,0.1,0.9,0.1,1.4c0.3,2.9-0.2,1.9,1.8,4.3
				c0.1,0,0.1,0.2,0.2,0.2c1.1,1.2,2.5,1.6,4,1.3c0.5-0.1,0.9-0.3,1.4-0.4c0.2-0.3,0.5-0.7,0.6-1c0.2-0.4,0.3-0.9,0.4-1.2
				c0-0.8,0.3-1.4,0.5-2.2l0.5-1.7c0.6-3.2,1.3-6.5,1.9-9.8l0.3-0.8c0.3-0.9,0.7-1.2,1.6-1.1c2,0,4.1-0.3,6.1-0.5
				c0.9-0.2,1.8-0.3,2.6-0.3c0.5,0,1,0.4,1,0.9c0,1,0.4,2,0.7,2.9c0.3,1.2,0.4,2.5,0.7,3.7c0.3,1.7,1.5,6.6,2.6,9.1
				c0.3,0.4,0.3,1,0.3,1.5c-0.1,0.7,0.3,1.3,0.7,1.7l0.9,0.9c0.9,0.7,1.8,1.3,3.1,1.2c0.8,0,1.4-0.3,1.9-1.1c0.3-0.6,0.8-1.4,0.2-2
				C217,169.5,217,169.3,217,169.2z M205.4,146.1c0,0.4-0.3,0.8-0.7,0.9c-0.3,0.1-0.7,0.1-1,0.2c-1.7,0.1-3.2,0.7-4.9,0.9
				c-0.5,0.2-1,0.4-1.6,0.6c-0.3,0.1-0.4,0.2-0.9,0.3c0.1-0.5,0-0.9,0-1.2c0.9-2.6,1.5-5.1,2.3-7.8c0.9-2.7,1.7-5.5,2.2-8.3
				c0.3-1.3,0.5-2.5,1.1-3.6l0.3-0.3c0.1-0.1,0.2-0.1,0.3-0.1c0.2,0,0.3,0.1,0.3,0.2c0.1,0.3,0.3,0.6,0.3,0.9
				c0.4,2.8,0.9,5.5,1.2,8.4c0.1,0.7,0.8,5.8,0.9,6.5c0,0.5,0.2,1.1,0.3,1.6C205.4,145.5,205.5,145.7,205.4,146.1z"/>
			<path d="M264.8,112.7c-0.3-0.2-0.5-0.3-0.8-0.4c-0.8-0.5-1.4-0.9-2.4-0.9c-1.1-0.1-2.3-0.1-3.6,0.1c-1.4,0.3-2.7,0.8-4.2,1.2
				c-1.3,0.5-2.2,1.4-2.2,3.2c-0.2,0.3,0,0.5-0.1,0.8l-1,7.7c-0.1,1-0.2,2-0.3,3.2c-0.3,1.2-0.4,2.6-0.6,3.8v0.6
				c-0.2,1.3-0.2,2.4-0.3,3.6l0.3,10.7c0,0.1-0.2,0.3-0.3,0.4c-0.5-0.5-1.1-1.2-1.4-1.7l-1.6-2.4c-2.4-3.5-4.3-7-6.1-10.8
				c-1-1.5-4.9-12.6-5.5-13.7c-0.3-0.5-0.8-0.8-1.2-0.8c-0.5,0-1,0.1-1.5-0.1c-0.6-0.2-1.3,0.1-1.9-0.1c-0.9-0.1-1.9,0-2.6,0.3
				c-0.7,0-1.4,0.3-2,0.5c-1.1,0.1-1.7,0.9-1.4,7.8c0,0.3-0.2,0.7-0.2,1.3c0.2,1.1-1,21.9-1,23.6l0.2,0.7l-0.5,11l0.6,4.6
				c0.3,0.3-0.9,5.7,3.8,5.7c0.9,0.3,1.8,0.1,2.6,0.2c1.2-0.2,2-0.6,2.8-1.3c0.8-0.3,1.3-1.1,1.5-1.5c0.6-0.6,1.3-1.2,1.3-2.2
				c0-1.3,0.1-2.4,0.3-3.7c-0.2-2.6-0.4-5.2-0.4-7.9c-0.1-2.5,0.1-4.9,0.1-7.4c0.1-2.3,0.3-4.5,0.4-6.9l0.1-1.6
				c0-0.3,0.3-0.5,0.4-0.5c0.3,0.1,0.5,0.4,0.5,0.6c0.8,1.6,1.8,3,2.6,4.7c0.9,2.3,2.1,4.6,3.2,7c0.7,0.9,1.3,2.1,2,3.3
				c0.2,0.1,0.3,0.3,0.4,0.7c0.3,0.3,0.6,0.8,0.9,1.2c1,2.1,2.1,3.8,3.2,5.7c1,1.1,1.4,1.4,2.6,2c2.2,0.9,4,0.7,6-0.3
				c1.1-0.6,1.4-1.5,1.7-2.6c0.1-0.4,0.3-0.9,0.1-1.4c-0.3-0.9,0-1.7,0.1-2.5c0.1-0.8,0.2-1.4,0.2-2c0.3-1.8,0.3-3.8,0.3-5.7
				c0.3-1.3,0.3-2.5,0.5-3.7c0.3-2.2,0.3-4.6,0.6-6.8c0.2-1.2,0.3-2.3,0.3-3.4c0.3-2,0.6-3.8,0.9-5.9c0-0.8,0.1-1.6,0.3-2.3
				c-0.1-0.7,0.1-1.3,0.1-2c0.4-1.8,0.5-3.6,0.8-5.5c0.3-0.9,0.5-1.9,0.8-2.9c0.3-1.1,0.6-2.6,1-3.7c0-0.1,0.1-0.3,0-0.4
				C265.1,113.4,265,113.1,264.8,112.7z"/>
			<path d="M271.7,117.9c0.8,0.1,1,0,1.4-0.6c0.9-1.6,1.5-3.2,2-5c0.3-1.6,0.4-3.4,0.6-5.2c0-0.3-0.3-0.5-0.7-0.5l-2.2-0.4
				c-0.7,0.3-1.1,0.9-1.2,1.5l-0.8,4.4c-0.2,1.1-0.3,2.1-0.5,3.2c-0.2,0.9,0.2,1.4,0.4,2C270.9,117.9,271.3,117.9,271.7,117.9z"/>
			<path d="M282.8,119.6c0.4,0.1,0.9,0.1,1.4,0.1c0.4,0,0.6,0,1-0.1c0.8-0.1,1.7-0.2,2.5-0.2c0.4-0.1,0.8,0,1.2,0
				c0,0.5,0.2,0.7,0.2,1.1c-0.3,1.4-0.3,2.9-0.5,4.3c-0.1,0.9-0.3,1.8-0.4,2.7c-0.2,1.6-0.3,3.2-0.3,4.8c-0.3,3-0.4,6-0.5,8.9
				c-0.3,2.6-0.3,5.2-0.5,7.6c0,1.4-0.1,2.9-0.1,4.3l-0.6,10.5c-0.2,0.3-0.2,0.8,0,0.9c0.2,0.7,0.4,1.4,0.7,1.8
				c0.2,0.3,0.5,0.4,0.7,0.5c0.5,0.2,0.9,0.3,1.4,0.3c2,0.8,4.1,1.4,6.1,2.3c1.3,0.4,2.5,0.4,3.7,0.1c1-0.3,1.5-0.9,1.8-1.8
				c0.3-0.9,0.4-2,0.3-2.8c-0.2-1.1-0.2-2.1,0-3.2c0-0.5,0-1.1-0.2-1.6c-0.1-2-0.2-9.7-0.2-11.3c0.1-2.4-0.2-4.8,0.1-7.2
				c0.1-0.3,0-0.6,0-0.9c0-0.3-0.1-0.9-0.1-1.4c0.1-1.7,0.2-3.4,0.3-5.1c0.1-3,0.6-6,0.9-8.9c0.4-3.8,0.9-5,0.9-6.2
				c0.3-2,0.6-2.1,2.5-2.6c1.3-0.3,2.6-0.6,4-0.8c2.9-0.5,5.5-1.1,8.4-1.5c1.4-0.3,2.7-0.5,4-0.6c0.6,0,1-0.1,1.5-0.3
				c0.8-0.6,0.9-1.5,0.3-2.2c-0.3-0.4-0.8-0.7-1.2-1c-0.3-0.3-0.6-0.5-1-0.3c-1.4,0.1-2.7,0.1-4.3,0.3c-3.6,0.5-7.2,1.3-10.9,2.1
				c-1.4,0.3-3.1,0.5-4.7,0.7c-4.9,1.2-16.8,3.2-19.9,4.3c-0.3,0.2-0.7,0.3-0.6,0.9l0.9,1C282,119.6,282.4,119.6,282.8,119.6z"/>
		</g>
		<g>
			<path d="M364.2,237.1c-0.1,0.2-0.3,0.3-0.3,0.6c-0.5,1.4-1.3,2.8-2.3,4.2c-0.7,0.9-1.4,2-2,3.1c-0.9,1.9-2.9,2.8-4.5,3.8
				c-0.4,0.4-0.9,0.2-1.4-0.1c-1.5-0.9-2.4-2.4-2.8-4.1c-0.5-2-0.5-4.2,0-6.4c0.9-4.1,0.8-8.3,1.1-12.5c0.3-2.1-0.9-3.7-2.7-4.6
				c-0.3-0.1-0.6-0.2-0.8-0.4c-0.9-0.3-1.9-0.4-2.8-0.2c-1.6,0.3-3.3,0.9-4.7,1.7c-2.6,1.5-5,3.4-6.8,6c-0.6,0.8-1.2,1.5-2,1.9
				c-0.7-0.5-0.9-1.1-0.9-1.9c-0.1-0.4,0-0.8-0.1-1c0.3-3.4,0.4-6.7,0.6-10.1c0-0.7,0.3-1.4,0.8-2c0.6-0.4,1.1-1,1.7-1.7
				c1.4-1.3,2.7-2.7,4.2-4.2c0.9-1,5.2-8.3,5.9-10.1c1.1-2.5,1.6-4.9,1.9-7.7c0.1-3-2-5.2-4.9-5.6c-0.6,0-1-0.1-1.5-0.1
				c-0.9-0.3-1.8,0-2.6,0.6c-1.5,1.2-2.8,2.7-3.7,4.5c-1.5,2.8-2.8,5.6-4.2,8.4c-0.7,1.6-1.7,3.3-2,5c-0.6,3.1-2.5,5.1-3.5,16.5
				c0,0.1,0,0.1,0,0.2c-1.3,1.6-2.7,3.2-3.9,4.3c-7.6,7.1-12.7,9-13.1,9.1c-0.8,0.1-5.6-0.1-5.9-0.4c-0.4-0.4-1-0.9-1.3-1.3
				c-0.5-1.2-0.7-1.8-0.9-2.6c-0.3-1.8-0.6-3.6-0.5-5.1c0.1-4.2,0.3-5.8,0.5-7.6c0.3-1.5,0.8-2.8,1.4-4.1c0.8-1.4,1.8-2.6,3-3.7
				c0.3-0.4,1-0.7,1.3-0.6c1.8,0.9,3.2,1.3,4.3,2.4c0.9,1.3,1.6,2.5,2.4,3.4c0.4,0.6,0.7,0.8,1.4,0.9c1.4-0.2,1.5-0.3,2.1-0.9
				c0.3-0.6,0.3-1,0.2-1.7c-0.4-0.3-0.5-0.8-0.7-1.3c-1.4-1.7-3.4-2.8-5.3-4.1c-5.5-3.7-13.5-2.9-15.5,0.9c-0.6,1.2-1.4,2.1-1.6,3.2
				c-0.8,2.2-1.3,4.3-1.6,6.4c-0.1,0.4-0.2,0.9-0.2,1.4c-0.1,0.3-0.3,0.6-0.4,0.9L287,226l-5.1,9.1c-0.5,0.9-1.4,1.7-2.2,2.4
				c-0.3,0.4-0.9,1.1-1.6,0.8c-2.3-1.1-1.5-7.2-1.5-8.4c0-1.3,0.3-2.6,0.9-3.9c0.1-0.3,0.2-0.8,0.3-1.1c0.2-0.6,0.3-1.4,0.5-1.9
				c3.3-8.5,3.7-9.7,4.3-11.1c0.2-0.6,0.3-1.2,0.2-1.9c-0.2-1-1.3-1.7-2.6-1.6c-0.3,0.1-0.8,0.1-1.2,0.1c-1.2,0.1-2,0.4-2.6,1.1
				c-2.1,1.9-3.5,4.1-8.4,13.2v0.1c-0.8,0.9-1.4,1.6-2.1,2.3c-0.7,0.9-1.4,1.4-2.2,2c-0.3,0.4-0.7,0.7-1,0.8
				c-0.2,0.3-0.4,0.3-0.8,0.2c-0.2,0-0.3-0.3-0.3-0.5c-0.1-0.3-0.1-0.8,0-1.1c0.4-2.3,0.9-4.6,1.4-6.9c0.3-1.9,0.5-3.8,0.6-5.8
				c0.2-0.3,0-0.8-0.1-1.2c-0.3-0.9-0.7-1.6-1-2.5c-0.3-0.8-0.8-0.9-1.6-1c-0.5,0-0.9,0-1.4,0.3c-0.4,0.3-2,0.7-2.5,1.1
				c-0.8,0.6-0.9,1.3,0,1.9c0.2,0,0.3,0,0.3,0.1c0.1,0,0.1,0.1,0.1,0.1l-0.1,0.6c-0.3,0.5-0.4,0.9-0.5,1.4c-0.1,0.4-0.2,0.8-0.4,1.2
				c-0.3,0.2-0.5,0.4-0.8,0.6c-4.9,3.2-8.1,5.5-10.1,5.5c-0.9-0.3-0.9-0.9-0.8-1.4c-0.2-1.7-0.4-4.3-1.6-5.7
				c-1.8-2.5-4.4-3.5-7.6-3.2c-1.2,0.1-2.3,0.5-3.5,0.9c-1.1,0.2-2.2,0.7-3.1,1.4c-0.6,0.3-1.1,0.9-1.4,1.3
				c-0.4,0.7-0.7,1.2-1.1,1.7c-2.2,1.8-4.8,6.6-11.8,14.1l-0.3,0.3c-1.6,1.6-2.6,3.5-3.8,4.5c-1.3,1-2.2,2.3-3.5,3.2
				c-1,0.8-1.7,0.6-2.3-0.6c-0.3-0.5-0.5-1.1-0.7-1.8c-0.8-2.6-1.2-5.4-1-8.2c0.2-2.6,0.4-5.1,0.7-7.7c0.2-1,0.3-2,0.5-3.1
				c0.9-4.4,1.4-8.9,2-13.4c0.3-2,0.6-3.8,0.9-5.7c0.3-1.3,0.7-1.5,2-1.6c1.7-0.1,3.3-0.2,5-0.3c3-0.3,5.7-1.2,8.6-1.9
				c2.5-0.5,4.6-1.7,6.7-2.9c1.1-0.7,1.7-1.7,2.2-2.7c0.2-0.3,0.3-0.8,0.2-1.2c-0.2-1-0.9-2.8-2.4-4.2c-0.7-0.6-1.4-0.4-1.7,0.4
				c-0.4,1.3-1,2.3-1.7,3.4c-0.8,1.3-1.9,2.1-3.2,2.7c-0.7,0.3-1.4,0.7-2.2,0.9c-2.3,0.5-4.7,1-7,1.4c-1.4,0.3-2.9,0.2-4.3,0.2
				c-0.8-0.1-1.1-0.4-1.2-1.3v-2.6c0-1.4-0.2-2.8-0.7-4.2c-0.8-1.8-2-2.4-3.8-1.5c-0.3,0.1-0.6,0.3-0.9,0.4
				c-0.8,0.3-1.1,0.9-1.3,1.6c-0.4,2-0.9,3.9-1.4,5.8c-0.9,2.9-0.8,2.5-3.1,2.9c-0.8,0.2-1.4,0.2-2.1,0.3c-1.1,0.2-2.2,0.4-3.3,0.7
				c-0.9,0.2-1.6,0.5-2.5,0.7c-3.2,0.8-5.9,2.4-8.5,4.2c-0.5,0.3-0.9,0.8-1.3,1.1c-0.2,0.3-0.2,0.6-0.3,0.9c0.9,0.9,1.8,0.9,2.7,0.4
				c0.4-0.3,0.9-0.6,1.4-0.9c0.9-0.7,1.9-1.2,3-1.4c2-0.6,4.2-1.2,6.3-1.5c1.4-0.3,2.8-0.3,4.3-0.3c0.8,0,1.2,0.5,1.1,1.3
				c-0.2,0.7-0.3,1.4-0.5,2c-0.9,2.9-1.5,5.9-2.3,8.8c-1.4,5.5-2.5,11-3.2,16.7c-0.5,4.4,0.1,8.7,2.1,12.7c2.1,4.3,5.7,6,10.2,6.3
				c0.4,0,0.9-0.1,1.4-0.3c2-0.9,4-1.3,5.6-2.7c0.3-0.3,0.7-0.3,1-0.5c0.3-0.3,0.8-0.3,1-0.6c2.6-2.4,4.5-5.2,6.4-8
				c0.3-0.3,0.3-0.5,0.4-0.9l3.5-5.7c0.2,1.6,0.7,3.1,1.9,4.6c0.3,0.3,0.4,0.7,0.7,1c0.3,0.3,0.5,0.7,0.8,0.8c1,0.9,2,1.6,3.2,2.4
				c2,1.4,4.4,1.4,6.6,0.4c3.6-1.4,6.4-5.5,7.3-9.4c4.9-0.9,7.5-2.6,10.7-5.1c-0.1,1-0.1,1.9-0.2,2.8c-0.3,1.9,0.1,3.7,1.1,5.4
				c1,1.7,5.5,2.6,7.2,1.1c1.1-0.9,2.5-1.8,3.7-2.8c0.5-0.3,0.8-0.7,1.1-1.1c0.8-0.7,1.4-1.4,2-2.1c0.1-0.1,0.8-1,1.1-1.1
				c0,0.4-0.4,1.6-0.4,1.9c-0.4,1.5-0.2,3,0.1,4.4c0.2,1,0.3,2,0.4,2.9c0.3,1.4,0.8,3.1,1.5,4.6c0.7,1.3,1.9,2.2,3.7,2.7l1.2,0.3
				c1.9,0.6,5.7-0.4,6.9-2c0.5-0.9,1.3-1.5,1.8-2.4l2.6-4.9c1.2-1.8,1.1-2.7,1.9-3.5c0.1-0.2,0.2-0.3,0.3-0.4
				c0.1,0.9,0.2,1.8,0.3,2.5c0.1,0.6,0.7,1.2,1.1,1.9c0.9,2,2.6,3.1,5.5,4.7c0.1,0.2,0.6,0.3,0.8,0.3c1.4,0.4,3.2,1,5.1,1.5
				c1,0.3,2,0.4,2.6,0.3c5.1,0,12.5-5.2,18.1-10.7c0.1,2.3,0.2,4.5,0.3,6.8c0,1.9,0.2,4,0.9,5.9c0.6,2.2,2.2,3.7,4.7,4.2
				c0.2,0.1,0.7-0.2,0.9-0.3c0.5-0.3,0.8-0.9,0.8-1.3c-0.1-1,0.3-1.9,0.9-2.6c0.3-0.3,0.4-0.7,0.6-1c0.3-0.9,1-1.8,1.5-2.6
				c0.9-1.4,1.9-2.5,3-3.7c0.5-0.8,2.5-3.9,3.2-4.9c1.2-1.4,2.8-2.8,4.1-3.8c0.1-0.2,0.3-0.1,0.6-0.1c0.2,0.1,0.3,0.3,0.3,0.5
				c-0.1,0.8-0.1,1.4-0.3,2.3c-0.6,4.3-3.2,11-2.9,15.3c0.1,2,0.5,3.9,1.6,5.5c0.4,0.5,0.7,0.9,0.9,1.4c1,2.1,2.7,3.4,4.7,4.5
				c0.9,0.5,1.7,0.5,2.6,0.6c2.3,0.1,4.3-0.5,6.6-1.3c1.3-0.4,2.5-1.2,3.2-2.6c1.4-2.2,2.8-4.5,3.8-7.2c0.3-0.7,0.4-1.4,0.4-2.2
				c0-0.9,0-1.7,0.5-2.4c0.3-0.3,0.3-0.8,0.3-1.1c0-0.3,0-0.6-0.2-0.8C366.3,235.5,365,235.6,364.2,237.1z M334.9,203.3
				c0-0.5,0.2-0.8,0.3-1.1c0.5-3.2,2.3-7.9,4.2-9.6c0.4-0.6,0.9-1.3,1.4-1.8c0.2-0.3,0.5-0.1,0.7-0.1c0.1,0,0.2,0.2,0.2,0.3
				c0,0.9-0.1,1.7-0.2,2.5c-1,2.6-2,5-3.6,7.2c-0.8,1-1.5,2-2.1,3c0,0.1-0.4,0.2-0.6,0C335,203.6,334.8,203.3,334.9,203.3z
				 M237.4,228.3c-0.7,1-1.4,2-2.4,2.6c-0.5,0.1-0.9,0-1.4-0.3c-0.5-1.2-0.6-2.4-0.1-3.6c0.1-0.2,0.3-0.4,0.7-0.4
				c0.5,0,1,0.1,1.4,0.1l1.1,0.2C237.5,227.2,237.8,227.8,237.4,228.3z M240.1,222.3c0,0.5-0.1,0.9-0.9,1.4
				c-2.2,0.7-4.7,0.3-5.2-0.3c0.2-0.6,0.2-1.1,0.3-1.7c0.5-1.4,1-2.7,1.4-4.3c0.2-0.4,0.6-0.8,1.1-0.9c2.5-0.1,2.6-0.4,3.1,2.2
				C240.2,220,240.1,221.2,240.1,222.3z"/>
		</g>
		<g>
			<path d="M204.1,264.6c-0.3-0.3-0.6-0.5-1-0.3c-1.4,0.1-2.7,0.1-4.3,0.3c-3.6,0.5-7.2,1.3-10.9,2.1c-1.4,0.3-3.1,0.5-4.7,0.7
				c-4.9,1.2-16.8,3.2-19.9,4.3c-0.3,0.2-0.7,0.3-0.6,0.9l0.9,1c0.3,0.3,0.8,0.3,1.2,0.3c0.4,0.1,0.9,0.1,1.4,0.1c0.4,0,0.6,0,1-0.1
				c0.8-0.1,1.7-0.2,2.5-0.2c0.4-0.1,0.8,0,1.2,0c0,0.5,0.2,0.7,0.2,1.1c-0.3,1.4-0.3,2.9-0.5,4.3c-0.1,0.9-0.3,1.8-0.4,2.7
				c-0.2,1.6-0.3,3.2-0.3,4.8c-0.3,3-0.4,6-0.5,8.9c-0.3,2.6-0.3,5.2-0.5,7.6c0,1.4-0.1,2.9-0.1,4.3l-0.6,10.5
				c-0.2,0.3-0.2,0.8,0,0.9c0.2,0.7,0.4,1.4,0.7,1.8c0.2,0.3,0.5,0.4,0.7,0.5c0.5,0.2,0.9,0.3,1.4,0.3c2,0.8,4.1,1.4,6.1,2.3
				c1.3,0.4,2.5,0.4,3.7,0.1c1-0.3,1.5-0.9,1.8-1.8c0.3-0.9,0.4-2,0.3-2.8c-0.2-1.1-0.2-2.1,0-3.2c0-0.5,0-1.1-0.2-1.6
				c-0.1-2-0.2-9.7-0.2-11.3c0.1-2.4-0.2-4.8,0.1-7.2c0.1-0.3,0-0.6,0-0.9c0-0.3-0.1-0.9-0.1-1.4c0.1-1.7,0.2-3.4,0.3-5.1
				c0.1-3,0.6-6,0.9-8.9c0.4-3.8,0.9-5,0.9-6.2c0.3-2,0.6-2.1,2.5-2.6c1.3-0.3,2.6-0.6,4-0.8c2.9-0.5,5.5-1.1,8.4-1.5
				c1.4-0.3,2.7-0.5,4-0.6c0.6,0,1-0.1,1.5-0.3c0.8-0.6,0.9-1.5,0.3-2.2C205,265.2,204.5,264.9,204.1,264.6z"/>
			<path d="M245.9,269.3c-0.3-1.3-1.3-2.5-2.7-2.5c-0.9,0-1.9-0.1-2.9-0.2c-1.4-0.1-1.3,0.1-2.7,0c-0.3,0.2-0.8,0.1-1.2-0.1
				c-0.4-0.3-0.8,0-0.9,0.5c-0.3,0.5-0.4,1.1-0.4,1.7c-0.1,0.6,0,1.5-0.2,2.1c0,1.1-0.3,2.3-0.3,3.4c-0.3,2.4-0.3,4.8-0.6,7.2
				l-0.3,5.5c0.2,1.3,0,2.1,0,3.2c-0.3,1.4-0.3,3-0.3,4.4c0,1-0.2,8.9-0.2,11.4c-0.1,0.3-0.3,0.4-0.3,0.5c-0.2,0.1,0.2,0.3-0.3,0.3
				c-1.8-0.1-3.6-0.3-5.4-0.3c-0.8-0.3-7,0.5-9.3,0c-0.1,0-0.1-0.2-0.3-0.2c-0.1-0.6-0.1-1.4-0.3-2c-0.3-1.9-0.2-3.7-0.3-5.7
				c-0.2-2.8-0.2-5.8-0.2-8.6c-0.1-1.6-0.3-3.2-0.3-4.8c0-2.5,0.1-5,0.2-7.5c-0.1-2.1,0.1-3.9,0.3-6c0-0.5-0.2-1-0.2-1.5
				c0-0.8-0.7-1.3-1.5-1.4c-0.2-0.1-0.3-0.1-0.4-0.1c-1.2-0.2-2.3-0.5-3.4-0.6c-1.2-0.2-2.3-0.3-3.4-0.3c-0.6,0.2-0.9,0.3-1.1,1
				c-0.4,1.7-0.9,3.5-0.9,5.3c-0.1,0.4-0.1,0.9-0.1,1.4c-0.4,2-0.4,3.7-0.4,5.6c0.1,2.7,0.3,5.5,0.5,8.4c0.1,2.7,0.2,14.2,0.2,15.6
				c0.1,2.2,0.5,4.3,0.6,6.6c0,0.3,0,0.6,0.1,0.9c-0.1,2.4,1,3.7,1.4,6.1c0.4,2.6,1.2,3.2,2.2,3.3c1.9,0.3,3.8,0.3,5.7,0.3
				c0.8,0,1.1-0.3,1.3-0.9c0.1-0.3,1.1-4.9,0.9-5.3c-0.1-2-0.3-3-0.6-4.9v-1.2c-0.1-0.3,0.3-0.4,0.6-0.4c0.2,0.1,0.3,0.1,0.6,0.2
				c0.9,0.3,7.9-0.3,10.5-0.1c0.8-0.1,1.8,0.1,2.6,0.1c0.6,0.2,0.9,0.5,1,1.3l0.1,0.6c0.2,2.1,0.3,4.2,0.6,6.2
				c0,1.1,0.2,2.2,0.3,3.4c0.2,0.6,0.3,0.9,0.9,1.4c0.4,0.5,0.9,0.8,1.9,0.8c0.6,0.3,1,0.5,1.7,0.6c0.8,0.1-0.3,0.3,0.4,0.4
				c0.2,0.1,0.5,0.1,0.8,0.2l2.6-0.2c0.9,0,1.3-0.8,2-1.1c0.2-0.4,0.2-0.9,0.4-1.4c-0.2-2.6-0.3-5.1-0.2-7.5c0-2.6-0.1-4.9,0.1-7.5
				c-0.1-0.6,0.1-1.3,0.1-1.9c0.1-2.4,0.1-4.7,0.2-7.1c0.3-2.1,0.3-4.2,0.3-6.3c0.2-1.5,0.1-3,0.3-4.5c0.2-2.8,0.4-5.7,0.3-8.5
				c0-2.2,0.1-4.5,0.2-6.9C246.2,271.1,245.9,270.3,245.9,269.3z"/>
			<path d="M260.8,268.4c-0.6,0-1.2,0-1.7-0.1c-1-0.1-2-0.2-3,0.1c-2.9,0-3.7-0.7-4.2,8.1c-0.1,0.4-0.1,0.9-0.1,1.4
				c0,1.3,0,2.6-0.1,4.1c0,1.5-0.1,3.2-0.1,4.8c-0.2,3.7-0.3,7.5-0.3,11.2c0,3,0,5.7,0.1,8.6c0.1,2,0,3.9-0.1,6
				c-0.1,1.2-0.1,2.4,0,3.6c0.2,1.5,0.3,3.1,0.4,4.6c0.1,1.1,0.5,2,1.3,2.8c0.3,0.1,0.3,0.2,0.5,0.4c0.3,0.3,0.6,0.3,0.9,0.3
				c0.5,0.2,1,0.1,1.4,0c0.5-0.2,0.9-0.3,1.4-0.3c1.4-0.3,2.7-0.9,4.1-1.3c0.6-0.2,0.9-0.5,0.9-1.2c0.1-0.3-0.1-0.7,0-1
				c-0.2-2-0.6-4-0.5-6.1v-1.9c-0.3-1.6-0.2-3-0.2-4.5c0.1-2,0.1-4.2,0.1-6.2c0-1.3,0-2.4,0.1-3.7c0.3-2.1,0.1-4.3,0.3-6.6
				c0.2-1.8,0.2-3.7,0.3-5.5c0-2,0.1-4.2,0.1-6.2c-0.2-1,0.1-2,0.3-3.1c0.1-0.7,0.2-1.4,0.2-2c0-1,0-2,0.1-3.2
				c0-0.2,0.1-0.3,0.1-0.5c0-0.9-0.3-1.4-0.9-2C261.8,268.5,261.3,268.4,260.8,268.4z"/>
			<path d="M294,299c-1.1-1.6-2.3-3.2-3.9-4.3c-0.7-0.4-1.3-1.1-2-1.4c-0.9-0.4-1.8-0.9-2.7-1.5c-0.8-0.6-1.5-1-2.3-1.5
				c-0.8-0.3-1.4-0.8-2.1-1.3c-0.7-0.3-1.2-0.9-1.5-1.4c-0.2-0.3-0.5-0.6-0.7-0.9c-0.8-0.9-1.4-2-1.8-3.1c-0.2-0.7-0.3-1.3-0.6-2
				c-0.8-2.6,0.3-5.1,2.1-7.6c4.3-3.9,10.9,1.7,15.9,7.4c0.3,0.6,0.9,0.9,1.4,1c0.5,0.2,0.9-0.1,1.3-0.3c0.1-0.1,0.3-0.2,0.5-0.3
				c0.3-0.2,0.5-0.5,0.6-0.9c0-0.6,0-1.3-0.1-1.9c-0.3-2-0.9-4-2.2-6.6c-0.5-0.7-1-1.3-1.6-2c-0.7-0.8-1.4-1.4-2.4-1.7l-2.5-1.2
				c-2-0.9-8.5-2.7-13,0.7c-0.5,0.4-1.1,0.9-1.6,1.4c-0.4,0.3-5,4.5-4.9,9.4c0,1.2,0,2.3,0.1,3.5c0.1,1.4,0.3,2.7,0.5,4.1
				c0,0.2,0.2,0.4,0.3,0.7c0.3,1.1,0.9,2.3,1.3,3.5l0.3,0.6c0.8,1,1.4,2,2.1,3.1l0.8,1.1c1.9,2.7,3.9,5.3,6.5,7.4
				c1.8,1.5,3.4,3.3,4.8,5c3.4,4.8,1,13.9-4.2,10.2c-0.2-0.2-0.4-0.2-0.6-0.3c-1.7-1-3.3-2.4-4.3-4.3c-0.8-1.2-1.6-2.4-2-3.7
				c-0.1-0.3-0.2-0.4-0.3-0.5c-0.3-0.9-1-1.4-2-1.8c-0.7-0.2-1.4-0.1-2,0.3c-0.4,0.3-0.9,0.4-1.4,0.9c-0.3,0.3-0.6,0.7-0.9,1.3
				c-0.7,1.3-2,1.9,2,7.9c0.2,0.3,0.4,0.6,0.7,0.8c1.3,1.4,2.6,2.7,4.1,3.9c1.9,1.6,4,2.8,6.6,3.2c2.9,0.6,5.8,0.2,8.4-1.6
				c0.4-0.4,0.9-0.7,1.4-1.1c3-2.3,5.1-5.2,6.2-8.9c1.2-4.2,0.7-8.1-1.9-11.8L294,299z"/>
		</g>
	</g>
	<path class="st0" d="M64.9,303.1c0,0.1,0,0.3,0.2,0.5c0,0,0,0,0,0c0,0,0,0,0,0c0.1,0.2,0.2,0.3,0.4,0.5c2.5,2.6,6.9,0.7,9.5-0.7
		c1.2-0.7,3.6-2.2,5-4c19.5,5.1,39,10.1,58.5,15.2c0.3,0.1,0.5,0.2,0.8,0.2c0.2,0,0.3,0,0.4-0.1c0.1-0.1,0.1-0.1,0.1-0.2
		c3.8-18.9,10.7-36.7,20.1-53.5c5.5-9.9,12.1-19.2,17.4-29.2c2.9-5.5,6.4-13.1,3.2-19.3c-5.5-10.8-19.7,1.9-27.6,10.2
		c3.6-13.4,5.6-28.8,1.3-41.7c-4.8-14.4-21.9-19.7-34.6-12c-14,8.4-20.6,26.8-25.3,41.6c-5.8,18.4-9.1,37.5-12,56.6
		c-1.1,7.1-2,14.2-3.1,21.3c-0.1,0.8-0.3,3.4-0.7,5.7c-2.2-0.5-5.1,0.7-6.9,1.6C69.2,296.7,64.1,299.8,64.9,303.1z M68.3,302.9
		c-0.2,0-0.4,0.1-0.5,0.1c0.3-1.5,3.5-3.7,4.3-4.2c1.2-0.8,2.5-1.5,3.9-2c0.5-0.2,0.9-0.3,1.4-0.4c0.1,0,0.1,0,0.2,0
		c0,0,0.1,0,0.1,0c0,0,0,0.1,0,0.1c-0.1,0.1-0.1,0.3-0.2,0.4c-0.2,0.4-0.5,0.7-0.8,1.1c-0.1,0.1-0.3,0.3-0.4,0.4
		c-0.8,0.8-1.8,1.6-2.7,2.2c-1.2,0.8-2.5,1.5-3.9,2C69.3,302.7,68.8,302.9,68.3,302.9z"/>
</g>
</svg>
