<?xml version="1.0" encoding="utf-8"?>
<!-- Generator: Adobe Illustrator 20.1.0, SVG Export Plug-In . SVG Version: 6.00 Build 0)  -->
<svg version="1.1" id="Calque_1" xmlns="http://www.w3.org/2000/svg" xmlns:xlink="http://www.w3.org/1999/xlink" x="0px" y="0px"
	 viewBox="0 0 432 432" style="enable-background:new 0 0 432 432;" xml:space="preserve">
<style type="text/css">
	.st0{fill:#7B6A58;}
	.st1{fill:#CA9E67;}
	.st2{fill:#BE1622;}
	.st3{fill:#6B993B;}
	.st4{fill:#008D36;}
	.st5{fill:#AC1920;}
	.st6{fill:#5E2C28;}
	.st7{fill:#D85759;}
</style>
<g>
	<g>
		<g>
			<path d="M166,98.1c-0.2-0.2-0.6-0.5-1-0.3c-1.4,0.1-2.6,0.1-4,0.2c-3.4,0.5-6.8,1.2-10.2,2c-1.4,0.2-2.9,0.5-4.4,0.6
				c-4.6,1.1-15.8,3-18.6,4.1c-0.2,0.2-0.6,0.3-0.6,0.8l0.9,1c0.3,0.2,0.7,0.2,1.1,0.3c0.4,0.1,0.9,0.1,1.3,0.1s0.6,0,1-0.1
				c0.7-0.1,1.6-0.2,2.3-0.2c0.4-0.1,0.7,0,1.1,0c0,0.5,0.2,0.6,0.2,1c-0.2,1.4-0.3,2.7-0.5,4.1c-0.1,0.9-0.3,1.7-0.4,2.6
				c-0.2,1.5-0.2,3-0.2,4.5c-0.3,2.8-0.4,5.6-0.5,8.3c-0.2,2.4-0.3,4.9-0.5,7.1c0,1.4-0.1,2.7-0.1,4.1l-0.6,9.8
				c-0.2,0.3-0.2,0.7,0,0.9c0.2,0.6,0.4,1.4,0.6,1.7c0.2,0.3,0.5,0.4,0.6,0.5c0.5,0.2,0.9,0.3,1.3,0.3c1.9,0.7,3.8,1.4,5.7,2.2
				c1.2,0.4,2.3,0.4,3.5,0.1c1-0.3,1.4-0.9,1.7-1.7c0.2-0.9,0.4-1.8,0.2-2.6c-0.2-1-0.2-2,0-3c0-0.5,0-1-0.2-1.5
				c-0.1-1.8-0.2-9.1-0.2-10.6c0.1-2.2-0.2-4.5,0.1-6.7c0.1-0.2,0-0.6,0-0.8c0-0.3-0.1-0.8-0.1-1.3c0.1-1.6,0.2-3.2,0.3-4.8
				c0.1-2.8,0.6-5.6,0.9-8.3c0.4-3.6,0.8-4.7,0.9-5.8c0.2-1.8,0.6-2,2.3-2.5c1.2-0.2,2.5-0.6,3.8-0.7c2.7-0.5,5.2-1,7.8-1.4
				c1.3-0.3,2.6-0.5,3.8-0.6c0.6,0,1-0.1,1.4-0.2c0.7-0.6,0.8-1.4,0.2-2.1C166.8,98.6,166.4,98.4,166,98.1z"/>
			<path d="M205.2,102.6c-0.2-1.2-1.2-2.3-2.6-2.3c-0.9,0-1.8-0.1-2.7-0.2c-1.4-0.1-1.2,0.1-2.6,0c-0.2,0.2-0.7,0.1-1.1-0.1
				c-0.4-0.2-0.7,0-0.8,0.5c-0.2,0.5-0.4,1-0.4,1.6c-0.1,0.6,0,1.4-0.2,2c0,1-0.3,2.2-0.3,3.2c-0.2,2.2-0.3,4.5-0.6,6.7l-0.2,5.1
				c0.2,1.2,0,2,0,3c-0.2,1.4-0.2,2.8-0.2,4.2c0,1-0.2,8.3-0.2,10.7c-0.1,0.3-0.3,0.4-0.3,0.5c-0.2,0.1,0.2,0.2-0.2,0.2
				c-1.7-0.1-3.4-0.2-5-0.2c-0.7-0.3-6.6,0.5-8.7,0c-0.1,0-0.1-0.2-0.3-0.2c-0.1-0.6-0.1-1.4-0.2-1.9c-0.2-1.8-0.2-3.4-0.2-5.4
				c-0.2-2.6-0.2-5.4-0.2-8.1c-0.1-1.5-0.2-3-0.2-4.5c0-2.3,0.1-4.7,0.2-7c-0.1-2,0.1-3.7,0.2-5.6c0-0.5-0.2-1-0.2-1.4
				c0-0.7-0.6-1.2-1.4-1.4c-0.2-0.1-0.3-0.1-0.4-0.1c-1.1-0.2-2.2-0.5-3.2-0.6c-1.1-0.2-2.2-0.3-3.2-0.2c-0.6,0.2-0.8,0.2-1,1
				c-0.4,1.6-0.9,3.3-0.8,5c-0.1,0.4-0.1,0.8-0.1,1.3c-0.4,1.8-0.4,3.5-0.4,5.3c0.1,2.6,0.3,5.2,0.5,7.9c0.1,2.6,0.2,13.4,0.2,14.6
				c0.1,2.1,0.5,4.1,0.6,6.2c0,0.3,0,0.6,0.1,0.8c-0.1,2.2,1,3.5,1.3,5.8c0.4,2.5,1.1,3,2.1,3.1c1.8,0.2,3.6,0.2,5.4,0.3
				c0.7,0,1-0.3,1.2-0.8c0.1-0.3,1-4.6,0.9-5c-0.1-1.9-0.2-2.8-0.6-4.6v-1.1c-0.1-0.3,0.3-0.4,0.6-0.4c0.2,0.1,0.3,0.1,0.6,0.2
				c0.9,0.2,7.4-0.3,9.8-0.1c0.7-0.1,1.7,0.1,2.5,0.1c0.6,0.2,0.8,0.5,1,1.2l0.1,0.6c0.2,2,0.3,3.9,0.6,5.8c0,1,0.2,2.1,0.2,3.2
				c0.2,0.6,0.3,0.9,0.8,1.4c0.4,0.5,0.9,0.7,1.8,0.7c0.6,0.2,1,0.5,1.6,0.6c0.7,0.1-0.2,0.3,0.4,0.4c0.2,0.1,0.5,0.1,0.7,0.2
				l2.5-0.2c0.8,0,1.2-0.7,1.9-1c0.2-0.4,0.2-0.9,0.4-1.4c-0.2-2.4-0.2-4.8-0.2-7c0-2.5-0.1-4.6,0.1-7c-0.1-0.6,0.1-1.2,0.1-1.8
				c0.1-2.2,0.1-4.4,0.2-6.6c0.3-2,0.2-3.9,0.2-5.9c0.2-1.4,0.1-2.8,0.2-4.2c0.2-2.6,0.4-5.4,0.3-8c0-2.1,0.1-4.2,0.2-6.5
				C205.5,104.2,205.2,103.4,205.2,102.6z"/>
			<path d="M242,153.3c0-0.8-0.4-1.4-0.6-2.2c-0.6-1.2-1.1-2.5-1.5-3.7l-0.7-3c-0.4-2.3-1.9-12.5-2.2-13.8
				c-0.5-3.4-0.9-6.9-1.4-10.4c-0.5-2.6-1.1-5.2-1.5-7.8c-0.5-2.4-1-4.8-1.1-7.3c-0.1-1-0.3-2.1-0.6-3.1c-0.2-0.9-0.9-1.6-1.8-1.7
				c-0.9-0.2-1.5-0.5-2.3-1c-0.7-0.5-1.6-0.6-2.5-0.7c-1.2-0.1-2.3,0.2-3.4,0.6c-1.4,0.6-2.6,1.4-3.2,2.9c-0.1,0.3-0.2,0.6-0.4,1
				c-1.4,2.6-2.5,5.4-3.4,8.2c-0.9,2.8-1.4,5.6-2.1,8.5c-0.7,3-1.1,6-1.4,9l-0.9,7.8c0,0.3,0.1,0.6-0.1,0.8
				c-0.2,1.1-0.3,2.2-0.4,3.4c0,1.8-0.1,3.8-0.2,5.7c0,0.3,0,0.6,0.1,0.9c0,0.4,0.1,0.8,0.1,1.3c0.2,2.7-0.2,1.8,1.7,4
				c0.1,0,0.1,0.2,0.2,0.2c1,1.1,2.3,1.5,3.8,1.2c0.5-0.1,0.8-0.2,1.3-0.4c0.2-0.3,0.5-0.6,0.6-1c0.2-0.4,0.3-0.8,0.4-1.1
				c0-0.7,0.2-1.4,0.5-2.1l0.5-1.6c0.6-3,1.2-6.1,1.8-9.2l0.2-0.7c0.3-0.9,0.6-1.1,1.5-1c1.9,0,3.8-0.2,5.8-0.5
				c0.8-0.2,1.7-0.2,2.5-0.3c0.5,0,1,0.4,1,0.8c0,1,0.4,1.8,0.6,2.7c0.2,1.1,0.4,2.3,0.6,3.4c0.2,1.6,1.4,6.2,2.4,8.6
				c0.2,0.4,0.3,1,0.2,1.4c-0.1,0.6,0.2,1.2,0.6,1.6l0.9,0.9c0.8,0.6,1.7,1.2,2.9,1.1c0.7,0,1.4-0.2,1.8-1c0.3-0.6,0.7-1.3,0.2-1.9
				C242,153.6,242,153.4,242,153.3z M231.1,131.6c0,0.4-0.2,0.7-0.6,0.8c-0.3,0.1-0.6,0.1-1,0.2c-1.6,0.1-3,0.6-4.6,0.9
				c-0.5,0.2-1,0.4-1.5,0.6c-0.2,0.1-0.4,0.2-0.9,0.2c0.1-0.5,0-0.9,0-1.1c0.8-2.4,1.4-4.8,2.2-7.3c0.8-2.6,1.6-5.2,2.1-7.8
				c0.3-1.2,0.5-2.3,1-3.4l0.2-0.3c0.1-0.1,0.2-0.1,0.2-0.1c0.2,0,0.2,0.1,0.3,0.2c0.1,0.3,0.2,0.6,0.2,0.9c0.4,2.6,0.8,5.2,1.1,7.8
				c0.1,0.6,0.7,5.4,0.9,6.1c0,0.5,0.2,1,0.2,1.5C231.1,131,231.1,131.3,231.1,131.6z"/>
			<path d="M286.1,98.1c-0.2-0.2-0.6-0.5-1-0.3c-1.4,0.1-2.6,0.1-4,0.2c-3.4,0.5-6.8,1.2-10.2,2c-1.4,0.2-2.9,0.5-4.4,0.6
				c-4.6,1.1-15.8,3-18.6,4.1c-0.2,0.2-0.6,0.3-0.6,0.8l0.9,1c0.3,0.2,0.7,0.2,1.1,0.3s0.9,0.1,1.3,0.1c0.4,0,0.6,0,1-0.1
				c0.7-0.1,1.6-0.2,2.3-0.2c0.4-0.1,0.7,0,1.1,0c0,0.5,0.2,0.6,0.2,1c-0.2,1.4-0.3,2.7-0.5,4.1c-0.1,0.9-0.3,1.7-0.4,2.6
				c-0.2,1.5-0.2,3-0.2,4.5c-0.3,2.8-0.4,5.6-0.5,8.3c-0.2,2.4-0.3,4.9-0.5,7.1c0,1.4-0.1,2.7-0.1,4.1l-0.6,9.8
				c-0.2,0.3-0.2,0.7,0,0.9c0.2,0.6,0.4,1.4,0.6,1.7c0.2,0.3,0.5,0.4,0.6,0.5c0.5,0.2,0.9,0.3,1.3,0.3c1.9,0.7,3.8,1.4,5.7,2.2
				c1.2,0.4,2.3,0.4,3.5,0.1c1-0.3,1.4-0.9,1.7-1.7c0.2-0.9,0.4-1.8,0.2-2.6c-0.2-1-0.2-2,0-3c0-0.5,0-1-0.2-1.5
				c-0.1-1.8-0.2-9.1-0.2-10.6c0.1-2.2-0.2-4.5,0.1-6.7c0.1-0.2,0-0.6,0-0.8c0-0.3-0.1-0.8-0.1-1.3c0.1-1.6,0.2-3.2,0.3-4.8
				c0.1-2.8,0.6-5.6,0.9-8.3c0.4-3.6,0.8-4.7,0.9-5.8c0.2-1.8,0.6-2,2.3-2.5c1.2-0.2,2.5-0.6,3.8-0.7c2.7-0.5,5.2-1,7.8-1.4
				c1.3-0.3,2.6-0.5,3.8-0.6c0.6,0,1-0.1,1.4-0.2c0.7-0.6,0.8-1.4,0.2-2.1C287,98.6,286.5,98.4,286.1,98.1z"/>
			<path d="M292.1,94.6l-2.1-0.4c-0.6,0.3-1,0.8-1.1,1.4l-0.7,4.2c-0.2,1-0.2,2-0.5,3c-0.2,0.8,0.2,1.4,0.4,1.9
				c0.2,0.4,0.6,0.5,1,0.5c0.7,0.1,1,0,1.3-0.6c0.9-1.5,1.4-3,1.8-4.7c0.3-1.5,0.4-3.2,0.6-4.9C292.7,94.7,292.5,94.6,292.1,94.6z"
				/>
			<path d="M324,133.4l-2.2-3c-1-1.5-2.2-3-3.7-4c-0.6-0.4-1.2-1-1.9-1.4c-0.9-0.4-1.7-0.9-2.6-1.4c-0.7-0.6-1.4-1-2.2-1.4
				c-0.7-0.2-1.4-0.7-2-1.2c-0.6-0.3-1.1-0.8-1.4-1.4c-0.2-0.2-0.5-0.6-0.6-0.9c-0.7-0.8-1.3-1.8-1.7-2.9c-0.2-0.6-0.3-1.2-0.6-1.8
				c-0.7-2.5,0.2-4.8,2-7.1c4.1-3.7,10.2,1.6,15,7c0.2,0.6,0.8,0.9,1.4,1c0.5,0.2,0.8-0.1,1.2-0.3c0.1-0.1,0.3-0.2,0.5-0.3
				c0.3-0.2,0.5-0.5,0.6-0.8c0-0.6,0-1.2-0.1-1.8c-0.2-1.9-0.8-3.8-2.1-6.2c-0.5-0.6-1-1.2-1.5-1.8c-0.6-0.7-1.4-1.3-2.2-1.6
				l-2.3-1.1c-1.8-0.9-8-2.6-12.2,0.6c-0.5,0.4-1,0.8-1.5,1.3c-0.4,0.2-4.7,4.2-4.6,8.8c0,1.1,0,2.2,0.1,3.3
				c0.1,1.3,0.3,2.6,0.5,3.8c0,0.2,0.2,0.4,0.2,0.6c0.3,1,0.8,2.2,1.2,3.3l0.3,0.6c0.7,1,1.4,1.9,2,2.9l0.7,1c1.8,2.6,3.7,5,6.1,7
				c1.7,1.4,3.2,3.1,4.5,4.7c3.2,4.5,1,13-3.9,9.6c-0.2-0.2-0.4-0.2-0.6-0.3c-1.6-1-3.1-2.2-4.1-4c-0.7-1.1-1.5-2.2-1.8-3.5
				c-0.1-0.2-0.2-0.4-0.2-0.5c-0.3-0.9-1-1.4-1.8-1.7c-0.6-0.2-1.3-0.1-1.8,0.2c-0.4,0.2-0.9,0.4-1.4,0.8c-0.3,0.2-0.6,0.6-0.9,1.2
				c-0.6,1.2-1.8,1.8,1.9,7.4c0.2,0.2,0.4,0.6,0.6,0.7c1.2,1.3,2.5,2.6,3.8,3.7c1.8,1.5,3.8,2.6,6.2,3c2.7,0.6,5.4,0.2,7.8-1.5
				c0.4-0.4,0.9-0.6,1.4-1c2.8-2.2,4.8-4.9,5.8-8.4C326.9,140.5,326.4,136.8,324,133.4z"/>
		</g>
		<g>
			<path d="M142.4,202.6c-0.1,0.2-0.4,0.4-0.4,0.8c-0.7,2-1.8,3.9-3.2,5.8c-1,1.3-1.9,2.7-2.7,4.3c-1.3,2.6-4,3.9-6.3,5.4
				c-0.6,0.6-1.2,0.2-1.9-0.1c-2.1-1.3-3.3-3.3-3.9-5.7c-0.7-2.9-0.7-5.8,0-8.9c1.3-5.7,1.1-11.5,1.5-17.5c0.4-3-1.2-5.2-3.8-6.4
				c-0.4-0.1-0.8-0.2-1.1-0.6c-1.3-0.5-2.6-0.6-3.9-0.2c-2.3,0.5-4.6,1.2-6.5,2.4c-3.6,2.1-7,4.8-9.5,8.3c-0.8,1.1-1.7,2.1-2.9,2.6
				c-1-0.7-1.2-1.5-1.2-2.6c-0.1-0.6,0-1.1-0.1-1.4c0.5-4.8,0.6-9.4,0.8-14c0-1,0.4-2,1.1-2.7c0.8-0.6,1.5-1.4,2.4-2.4
				c2-1.8,3.8-3.8,5.8-5.8c1.3-1.4,7.3-11.5,8.2-14c1.5-3.5,2.3-6.9,2.6-10.7c0.1-4.2-2.7-7.3-6.8-7.9c-0.8,0-1.4-0.1-2.1-0.1
				c-1.3-0.4-2.5,0-3.7,0.8c-2.1,1.7-3.9,3.8-5.2,6.3c-2.1,3.9-3.9,7.9-5.8,11.8c-1,2.3-2.4,4.6-2.7,7c-0.8,4.3-3.5,7.1-4.9,23.1
				c-0.1,1.2-0.1,2.4,0,3.6c-0.1,5.2,0.1,10.4,0.5,15.7c0,2.6,0.2,5.6,1.2,8.2c0.8,3.1,3.1,5.2,6.5,5.8c0.2,0.1,1-0.2,1.3-0.5
				c0.7-0.4,1.1-1.2,1.1-1.8c-0.1-1.4,0.4-2.6,1.3-3.7c0.4-0.5,0.6-1,0.8-1.4c0.5-1.3,1.4-2.5,2.1-3.6c1.3-1.9,2.6-3.5,4.2-5.1
				c0.7-1.1,3.5-5.5,4.5-6.8c1.7-2,3.9-3.9,5.7-5.4c0.1-0.2,0.5-0.1,0.8-0.1c0.2,0.1,0.4,0.5,0.4,0.7c-0.1,1.1-0.1,2-0.4,3.2
				c-0.8,6-4.5,15.4-4,21.3c0.1,2.7,0.7,5.5,2.3,7.7c0.6,0.7,1,1.2,1.2,1.9c1.4,3,3.8,4.8,6.5,6.3c1.2,0.7,2.4,0.7,3.7,0.8
				c3.2,0.1,6.1-0.7,9.2-1.8c1.8-0.6,3.5-1.7,4.5-3.7c2-3.1,3.9-6.3,5.4-10c0.4-1,0.6-1.9,0.6-3.1c0-1.2,0-2.4,0.7-3.3
				c0.4-0.5,0.4-1.1,0.4-1.5c0-0.5,0-0.8-0.2-1.1C145.2,200.3,143.4,200.6,142.4,202.6z M101.4,155.3c0-0.7,0.2-1.1,0.4-1.5
				c0.7-4.4,3.2-11.1,5.8-13.5c0.6-0.8,1.3-1.8,1.9-2.5c0.2-0.4,0.7-0.1,1-0.1c0.1,0,0.2,0.2,0.2,0.4c0,1.3-0.1,2.4-0.2,3.5
				c-1.4,3.7-2.9,7-5,10.1c-1.1,1.4-2.1,2.9-3,4.2c0,0.1-0.6,0.2-0.8,0C101.5,155.8,101.3,155.4,101.4,155.3z"/>
			<path d="M254.3,172.2c-3.8,1.5-12.1,3.3-15.2,2.5c-2-0.2-3.6-0.8-4.5-3.2c-0.1-0.2-0.4-0.5-0.5-0.6c-0.6-0.4-1-1-1.9-0.7
				c-1,0.2-1.7,0.5-2.7,0.5c-0.4,0.1-1,0.4-1.1,1.2l0.7,0.8c0.8,1.3,1.5,2.7,1.7,4.4c0.2,1.9,0.1,3.7,0.4,5.5c0,2.4-1.9,14-2.5,17.7
				c-0.6,2.5-1.5,5.1-1.9,7.5c-0.4,1.3-1.2,2.1-1.7,2.9c-0.1,0.5-0.6,0.5-0.8,0.1c-0.2-0.2-0.6-0.5-0.8-0.8
				c-0.8-3.1-1.5-6.2-1.3-9.4c-0.1-0.7-0.1-1.2,0-1.5c-0.5-3.9-0.5-7.7-0.6-11.7c0-4,0-4-2.5-6.8c-1.3-1.4-2.7-3-5-2.9
				c-1.3,0-2.6-0.2-3.9,0.4c-2.7,1.3-4.8,5.1-5.4,5.8c-0.4,0.8-1,1.4-1.2,1.9c-1.8,2.3-3.6,4.8-5.7,7.1c-1.2,1.4-2.5,3-3.9,4.2
				c-0.2,0.4-0.6,0.6-1.1,0.5c0-0.2,0-0.5,0.1-1c0.1-1.5,0.5-3.5,0.8-5.5c2.1-12.6,2.5-16.1,3-19.6c0.1-1.3-0.1-1.9-1.3-2.6
				c-0.2-0.1-0.6-0.2-0.7-0.2c-2.5-0.5-5-0.4-7.3,0.7c-0.1,0.6-0.3,1.1-0.4,1.7c-1.4,0.4-2.5,1.6-3.8,2.5c-6.9,4.4-11.3,7.7-14,7.7
				c-1.2-0.4-1.2-1.3-1.1-2c-0.2-2.4-0.6-6.1-2.3-8c-2.5-3.5-6.2-4.9-10.6-4.5c-1.7,0.1-3.2,0.7-4.9,1.2c-1.5,0.2-3.1,1-4.3,2
				c-0.8,0.5-1.5,1.2-1.9,1.8c-0.8,1.7-1.5,2.5-2.7,3.8c-1,0.6-1.5,1.8-1.9,3c-0.4,2-1.1,3.9-1.2,6c-0.2,3.7,0.1,7.3,2.7,10.5
				c0.5,0.4,0.6,1,1,1.4c0.5,0.5,0.7,1,1.1,1.1c1.4,1.3,2.9,2.3,4.5,3.3c2.7,1.9,6.2,1.9,9.3,0.6c5-2,8.9-7.7,10.2-13.1
				c7.5-1.3,11.1-4,16.2-8.1c0.4-0.4,0.5-0.7,0.6-0.8c1-0.7,1.5-1.5,2.3-2.4v0.2c-0.6,3.1-2.3,16.1-2.9,18.9c-0.5,2-0.7,3.8-0.7,5.7
				c0,1.9,0.2,3.6,0.6,5.6c0.1,0.2,0.2,0.6,0.5,0.8c0.4,1.1,1.2,2,1.9,2.9c2,2.3,3.9,2.1,6-0.1c0.7-0.7,1.3-1.3,2-2.5
				c2.3-2.4,4.6-5,6.9-7.7c2-2.7,4.5-5.2,6.7-8c0.2-0.7,0.6-1.4,1.9-1.7v2.4c0.2,2.6,0.1,4.9,0.4,7.5c0,2.9,0.7,5.5,1.5,8.2
				c1.4,4.4,4.2,8.1,7.5,10.6c1.9,1.4,4.2,1.4,6.1,0.8c1.8-0.6,3.6-1.9,4.8-3.9c0.5-0.4,1.1-1.1,1.5-1.8c1-1.7,1.9-3.3,2.3-5.2
				c1.1-2.7,1.4-5.6,2.1-8.5c0.2-0.8,0.2-2.1,0.2-3.3c1-5.5,1-11.1,0.4-16.5c-0.5-2.5,0.1-3,2.3-2.9c1.9,0.6,3.8,0.7,5.7,0.4
				c0.7,0.1,4-0.8,7.7-2.4c1.4-0.8,2.6-2.1,3-4.2L254.3,172.2z M158,190.3c-1,1.4-1.9,2.9-3.3,3.7c-0.7,0.1-1.3,0-1.9-0.5
				c-0.7-1.7-0.8-3.3-0.1-5c0.1-0.2,0.5-0.6,1-0.6c0.7,0,1.4,0.1,2,0.1l1.5,0.2C158.1,188.8,158.5,189.6,158,190.3z M161.6,182
				c0,0.7-0.1,1.3-1.2,1.9c-3.1,1-6.5,0.5-7.3-0.4c0.2-0.8,0.2-1.5,0.5-2.4c0.7-2,1.4-3.8,2-6c0.2-0.6,0.8-1.1,1.5-1.2
				c3.5-0.1,3.6-0.6,4.3,3.1C161.9,178.8,161.8,180.4,161.6,182z"/>
		</g>
		<g>
			<path d="M154.8,229.8c-0.6,0-1.1,0-1.6-0.1c-1-0.1-1.8-0.2-2.8,0.1c-2.7,0-3.4-0.6-3.9,7.6c-0.1,0.4-0.1,0.8-0.1,1.3
				c0,1.2,0,2.5-0.1,3.8c0,1.4-0.1,3-0.1,4.5c-0.2,3.5-0.3,7-0.3,10.5c0,2.8,0,5.4,0.1,8.1c0.1,1.8,0,3.7-0.1,5.6
				c-0.1,1.1-0.1,2.2,0,3.4c0.2,1.4,0.2,2.9,0.4,4.3c0.1,1,0.5,1.9,1.2,2.6c0.2,0.1,0.3,0.2,0.5,0.4c0.2,0.2,0.6,0.3,0.8,0.3
				c0.5,0.2,1,0.1,1.4,0c0.5-0.2,0.9-0.2,1.4-0.3c1.3-0.3,2.6-0.9,3.8-1.2c0.6-0.2,0.8-0.5,0.9-1.1c0.1-0.3-0.1-0.6,0-1
				c-0.2-1.9-0.6-3.8-0.5-5.8v-1.8c-0.2-1.5-0.2-2.8-0.2-4.2c0.1-1.9,0.1-3.9,0.1-5.8c0-1.2,0-2.2,0.1-3.4c0.2-2,0.1-4,0.3-6.2
				c0.2-1.7,0.2-3.4,0.2-5.2c0-1.9,0.1-3.9,0.1-5.8c-0.2-1,0.1-1.9,0.2-2.9c0.1-0.6,0.2-1.3,0.2-1.8c0-1,0-1.9,0.1-3
				c0-0.2,0.1-0.3,0.1-0.5c0-0.9-0.2-1.4-0.8-1.9C155.7,229.9,155.3,229.8,154.8,229.8z"/>
			<path d="M212.5,258.9c0.3-0.1,0.6-0.1,1.1-0.1c0.2,0,4-1,5.7-1.7c1.9-0.6,3.9-1.7,5.7-3c1.3-0.8,2.4-1.8,3.2-3
				c0.7-1,1.7-1.9,2.2-3.3c3.8-7.2,3.8-11-1.6-14.2c-1-0.4-2.3-0.6-3.5-0.6c-1,0.2-1.9,0.2-3,0.7c-1.8,0.7-3.9,1.4-6.7,4.1
				c-0.6,0.5-1,1-1.7,1.7c-1.4,1.5-2.7,2.9-3.9,4.8c-0.2,0.3-0.6,0.8-1.1,0.8c0.1-0.2-0.1-0.3-0.1-0.6c0.2-0.6,0-1.2,0.2-1.9
				c0.4-3,1-5.9,1.4-9.1c0-0.6,0.2-1,0.2-1.6c0.1-1.1-0.6-1.8-1.8-2c-5.1-0.3-12.5-0.1-12.6,2.7c-0.5,0.8-0.5,1.6-0.5,2.5
				c0,1-0.1,1.9-0.2,5.5c-0.4,3-0.6,5.9-0.9,8.8c0,1.6-0.2,3.1-0.2,4.8c0.1,0.4,0.1,0.5,0,0.6c-0.2,2.3-0.2,4.4-0.2,6.5l-0.2,3.5
				c0,1.2-0.1,2.6,0,3.9c0,8.6,0.1,10.6,0.5,12.2c0.4,0.4,0.7,0.7,1,1c0.6,0.2,1,0.5,1.4,0.7c2.3,1,4.6,1.4,6.8,1.9
				c0.4,0.1,1,0.1,1.4,0c1-0.2,1.4-0.6,1.4-1.7v-0.3c0.1-1.3,0-2.5,0.2-3.8c0-0.7,0.1-1.4,0-2.1c0.1-1.6-0.1-3.3,0.2-4.8
				c0.1-0.2,0.1-0.6,0-0.7c0.1-2,0.1-3.8,0.2-5.8l0.5-5.4c-0.1-0.3,0-0.6,0.2-0.9c1.2,0.3,2.9,3.4,3.8,5.4c1.4,3,3.6,5.6,5.6,8.1
				c2.2,2.2,4.5,4.2,7.5,5.1c1.4,0.6,3,0.7,5,0.5c0.5-0.2,1-0.3,1.5-0.8c0.7-0.2,0.9-1.4,0.4-2.2c-0.4-0.4-1.2-0.8-1.8-1
				c-1.1,0-2.4-0.2-3.4,0.6c-0.4,0.1-0.8,0.2-1.1-0.1c-1.4-0.5-2.8-1.1-4-2.2c-2.2-2.1-4-4.6-5.3-7l-2.2-3.9c-0.6-0.7-1-1.4-1.4-2.1
				C212,259.1,212.2,258.9,212.5,258.9z M209.8,255c0-0.2,2.1-4,3-5.4c1.6-2.6,3.4-5,5.3-7c1-1,1.8-1.8,2.8-2.6c1.3-1.2,2.6-2,4-2.9
				c0.6-0.2,1.4-0.3,2-0.4c0.2-0.1,0.3-0.1,0.4-0.1c1.3,0,1.8,1.5,1.3,4.2c0,0.5-1.1,4.7-6.5,10.6v0.1c-1.2,1-3,2.1-3.3,2.1
				c-1.2,0.4-2.5,0.9-3.6,1.3c-0.9,0.2-2,0.6-2.9,0.6C211.5,255.4,210.7,255.4,209.8,255z"/>
			<path d="M270.9,242.5c-0.1-1-0.2-1.8-0.4-2.8c-1.2-5.4-10.8-14.5-19.9-10.5c-2.6,1.1-4.5,2.3-6.3,4.5c-1,1.2-1.8,2.6-2.5,4
				c-1.1,2.6-1.9,5.1-2.6,7.8c-0.6,2.2-1,4.5-1.3,9.4c0.1,2.1,0.2,4.1,0.6,6.1c0.7,3.4,1.8,6.5,3.3,9.4c1.4,2.6,3.1,4.8,5.4,6.8
				c2.1,1.7,4.6,3,7.2,4c1.1,0.6,2.3,0.6,3.7,0.4c1.6-0.4,2.9-1.1,4-2.1c0.7-0.8,1.4-1.6,2-2.4c1.4-2,2.2-4,3.1-6.2
				c0.5-1.1,1-2.5,1.4-3.8c0.5-1.1,0.9-2.2,1.2-3.2c0.4-1.4,0.7-2.7,0.8-4.1c0.2-1.4,0.2-2.8,0.4-4.2l0.4-7.3c0-1.4-0.2-2.6-0.2-4.2
				C271.1,243.8,271.1,243.1,270.9,242.5z M265.7,258.1c-2.2,11.9-7.1,27-14.2,9.5c-1.4-3.8-1.7-8.4-1.7-9.6c0-3.2,0.1-6.4,0.7-9.6
				c0-0.6,0.1-1,0.1-1.6c0.5-3.3,1.4-6.6,2.7-9.9c0.7-1.4,1.6-2.9,2.6-4.2c0.5-0.6,1-1,1.8-1.2c2.3-0.5,9.2,3.9,9.2,12.1v1.1
				C267.1,245.1,267.8,247.5,265.7,258.1z"/>
			<path d="M309.3,273.8c-0.2-1.4-0.3-2.7-0.6-4.2c-0.1-0.8-0.9-1.3-1.7-1.1c-0.2,0-0.4,0.2-0.6,0.2c-2.5,1-5,1.5-7.4,2
				c-0.7,0.1-1.4,0.2-2.2,0.3c-1.5,0.6-3.2,0.6-4.7,1c-0.7,0.2-1.4,0.2-2.1,0.3c-1.2,0.1-1.5-0.1-1.7-1.2l-0.2-2
				c-0.2-2.6-0.4-5.2-0.4-7.6c0-1.9-0.1-3.8,0-5.6c-0.1-1.5,0-3-0.2-4.6c0.1-0.6,0.1-1.2,0.1-1.7c-0.2-3.4,0-6.7-0.1-10
				c-0.1-2.7,0.1-5.4,0.4-8.1c0-0.6,0-1.1-0.1-1.5c-0.1-0.7-0.4-1.2-1.1-1.4c-0.5-0.2-1.2-0.5-1.7-0.6c-0.9-0.1-1.8,0.1-2.6,0.1
				c-1.4-0.2-2.7,0.1-3,1.8c-0.3,0.5-0.6,1-0.6,1.7c-0.1,0.5-0.1,1-0.2,1.5c-0.7,2.6-1.1,5.3-1.6,7.8c-0.6,2.8-0.6,5.5-0.8,8.3
				c-0.2,0.9-0.2,2-0.2,3c0,0.4-0.1,0.8-0.1,1.3v1.8l0.1,4.6c0.1,1.8,0.1,3.8,0.1,5.8c0.1,0.8,0.6,6.7,1,8.8c0.3,2.1,1,3.8,2.2,5.7
				c0.6,1.3,1.7,1.8,3,1.7c1-0.2,2.2-0.3,1.8-0.2c-1.4,0.3,2.8-0.1,10.2-0.6c1.2-0.1,2.3-0.2,3.4-0.4c1.4-0.2,2.6-0.4,4-0.7
				c1.4-0.2,2.5-0.3,3.8-0.3c0.8,0,1.6-0.1,2.4-0.2c0.4,0,1-0.2,1.1-0.6c0.4-0.3,0.6-0.6,0.9-0.8c-0.2-0.3-0.2-0.6-0.2-0.7
				C309.6,276.1,309.3,275,309.3,273.8z"/>
			<path d="M348.6,277.4c-0.3-1.4-0.6-2.4-0.6-3.7c-0.2-1.4-0.3-2.7-0.6-4.2c-0.1-0.8-0.9-1.3-1.7-1.1c-0.2,0-0.4,0.2-0.6,0.2
				c-2.5,1-5,1.5-7.4,2c-0.7,0.1-1.4,0.2-2.2,0.3c-1.5,0.6-3.2,0.6-4.7,1c-0.7,0.2-1.4,0.2-2.1,0.3c-1.2,0.1-1.5-0.1-1.7-1.2l-0.2-2
				c-0.2-2.6-0.4-5.2-0.4-7.6c0-1.9-0.1-3.8,0-5.6c-0.1-1.5,0-3-0.2-4.6c0.1-0.6,0.1-1.2,0.1-1.7c-0.2-3.4,0-6.7-0.1-10
				c-0.1-2.7,0.1-5.4,0.4-8.1c0-0.6,0-1.1-0.1-1.5c-0.1-0.7-0.4-1.2-1.1-1.4c-0.5-0.2-1.2-0.5-1.7-0.6c-0.9-0.1-1.8,0.1-2.6,0.1
				c-1.4-0.2-2.7,0.1-3,1.8c-0.3,0.5-0.6,1-0.6,1.7c-0.1,0.5-0.1,1-0.2,1.5c-0.7,2.6-1.1,5.3-1.6,7.8c-0.6,2.8-0.6,5.5-0.8,8.3
				c-0.2,0.9-0.2,2-0.2,3c0,0.4-0.1,0.8-0.1,1.3v1.8l0.1,4.6c0.1,1.8,0.1,3.8,0.1,5.8c0.1,0.8,0.6,6.7,1,8.8c0.3,2.1,1,3.8,2.2,5.7
				c0.6,1.3,1.7,1.8,3,1.7c1-0.2,2.2-0.3,1.8-0.2c-1.4,0.3,2.8-0.1,10.2-0.6c1.2-0.1,2.3-0.2,3.4-0.4c1.4-0.2,2.6-0.4,4-0.7
				c1.4-0.2,2.5-0.3,3.8-0.3c0.8,0,1.6-0.1,2.4-0.2c0.4,0,1-0.2,1.1-0.6c0.4-0.3,0.6-0.6,0.9-0.8
				C348.6,277.8,348.6,277.6,348.6,277.4z"/>
		</g>
	</g>
	<path class="st1" d="M336.5,343.4c1.2-17.8-43-17.4-52.8-13.5c3.5-22.1-7-19.6-26.2-22.6c-22.5-3.5-45.1-7.1-67.6-10.7
		c-21.5-3.4-43-6.8-64.6-10.2c-15.7-2.4-24.5-5.9-27.2,12.7c-7.6-6.2-52.3-19.4-54.9-0.5C40.9,316.4,85.9,318,95.5,314
		c-3.5,19.6,7,18,23.3,20.6c22.9,3.6,45.8,7.2,68.8,10.8c21.9,3.4,43.7,7,65.6,10.5c17.2,2.7,25.5,6,28.4-13
		C288.6,348.3,335.2,361.4,336.5,343.4C336.8,338.9,336.5,343.5,336.5,343.4z"/>
</g>
</svg>
