<?xml version="1.0" encoding="utf-8"?>
<!-- Generator: Adobe Illustrator 21.1.0, SVG Export Plug-In . SVG Version: 6.00 Build 0)  -->
<svg version="1.1" id="Calque_1" xmlns="http://www.w3.org/2000/svg" xmlns:xlink="http://www.w3.org/1999/xlink" x="0px" y="0px"
	 viewBox="0 0 432 432" style="enable-background:new 0 0 432 432;" xml:space="preserve">
<style type="text/css">
	.st0{fill:#CCCCCC;}
	.st1{fill:#B3B3B3;}
	.st2{fill:#D06C5D;}
	.st3{fill:#961F21;}
	.st4{fill:#8AC640;}
	.st5{fill:#CCA1CC;}
	.st6{fill:#BCD601;}
	.st7{fill:#FFCB39;}
	.st8{fill:#FC8792;}
	.st9{fill:#F5CED3;}
	.st10{fill:#1A1A1A;}
	.st11{fill:#F9F1DA;}
	.st12{fill:#E6E6E6;}
	.st13{fill:#DDC2A8;}
	.st14{fill:#97B87F;}
	.st15{fill:#FAA821;}
	.st16{fill:#333333;}
	.st17{fill:#4EBEB8;}
	.st18{fill:#ABDFEC;}
	.st19{fill:#FAA74B;}
	.st20{fill:#8C6239;}
	.st21{fill:#F06386;}
	.st22{fill:#F8E7D6;}
	.st23{fill:#D3C7BE;}
	.st24{fill:#E2D2C3;}
	.st25{fill:#9294CD;}
	.st26{fill:#E66667;}
	.st27{fill:#FFD602;}
	.st28{fill:#B776BA;}
	.st29{fill:#C69C6D;}
	.st30{fill:#E49F90;}
	.st31{fill:#EAC0B4;}
	.st32{fill:#D3B1AF;}
	.st33{fill:#F2F2F2;}
	.st34{fill:#9CCCB2;}
	.st35{fill:#CDB48C;}
	.st36{fill:#73C977;}
	.st37{fill:none;}
	.st38{fill:#EFB156;}
	.st39{fill:#D7F5F3;}
	.st40{fill:#DA407B;}
	.st41{fill:#DA4147;}
	.st42{fill:#912D61;}
	.st43{fill:#BFB49D;}
	.st44{fill:#FFFFFF;}
	.st45{fill:#23B6DB;}
	.st46{fill:#D7DD50;}
	.st47{fill:#DA444C;}
	.st48{fill:#4D4D4D;}
	.st49{fill:#97857A;}
	.st50{fill:#84735F;}
	.st51{fill:#6E2521;}
	.st52{fill:#3F3C35;}
	.st53{fill:#A1B099;}
	.st54{fill:#D4CEB9;}
	.st55{fill:#854E4C;}
	.st56{fill:#B9986D;}
	.st57{fill:#BAAC91;}
	.st58{fill:#3F4650;}
	.st59{fill:#7B7B73;}
	.st60{fill:#5A5B60;}
	.st61{fill:#984831;}
	.st62{fill:#B1885C;}
	.st63{fill:#653F34;}
	.st64{fill:#DCC69D;}
	.st65{fill:#727D6D;}
	.st66{fill:#9B7455;}
	.st67{fill:#826D56;}
	.st68{fill:#C3A88B;}
	.st69{fill:#96967A;}
	.st70{fill:#9F6B56;}
</style>
<g>
	<g>
		<path class="st21" d="M319,285.6c-5.8-2.1-8.7-6.4-10.3-11.8c-2.5-8.5,1-16.2,7-20.6c2.4-1.7,5.1-2.6,8-2.3c3.8,0.4,7,2.2,9.4,5.2
			c1.6,2.1,2.7,4.4,3.6,6.9c0.1,0.3,0.2,0.6,0.4,1.1c0.1-0.3,0.2-0.5,0.3-0.7c0.7-2.9,1.8-5.7,3.3-8.2c2.9-4.7,7.1-7.6,12.4-8.8
			c4.7-1,9.6,0.6,12.5,5.4c2.3,3.9,2.8,8.1,1.6,12.5c-0.9,3.2-2.6,5.8-4.8,8.2c-1.8,1.9-3.8,3.4-5.9,4.8c-0.3,0.2-0.6,0.4-1.2,0.8
			c0.5,0,0.8,0.1,1,0.1c3.4,0.1,6.6,0.6,9.8,1.8c2.7,1.1,5.2,2.6,7.1,4.9c2.5,3,3.2,6.4,2.3,10.2c-0.4,1.6-1.2,3.1-2.3,4.3
			c-3.1,3.3-6.9,5.1-11.5,5.1c-2.1,0-4.1-0.5-5.9-1.5c-1.3-0.6-2.5-1.4-3.8-2.1c-0.3-0.2-0.5-0.3-1-0.6c0.1,0.5,0.2,0.8,0.3,1.1
			c0.7,2.6,1.2,5.3,1.1,8c-0.3,5.4-2.7,9.6-7.4,12.3c-5.4,3.1-10.3,0.7-12.9-2.7c-1.7-2.3-2.6-4.9-2.5-7.8c0-0.3,0-0.6,0-1.1
			c-0.3,0.2-0.5,0.3-0.7,0.5c-2.7,2.3-5.8,3.8-9.4,4.3c-3,0.4-6,0.2-8.8-0.9c-4.8-2-7.6-5.8-8.3-10.9c-0.3-1.9,0.2-3.8,1-5.6
			c1.3-2.9,3.4-5.1,6-6.9c2.2-1.6,4.7-2.8,7.2-4C317.4,286.4,318.1,286,319,285.6z M354.2,281.7c-0.5,0-1,0-1.5,0c-0.5,0-1,0-1.6,0
			c-0.5,0-0.9,0-1.4-0.1c-1.6-0.4-2.1-2.1-0.9-3.2c0.4-0.4,1-0.8,1.5-1.1c1.2-0.8,2.5-1.4,3.7-2.2c2.1-1.4,4.1-2.9,5.9-4.7
			c1.8-1.9,3.2-4,4-6.6c1-3.5,0.7-6.8-1.2-10c-1.8-3.1-4.5-4.4-8-4c-2.8,0.3-5.2,1.4-7.4,3.1c-2.7,2.1-4.4,4.8-5.7,8
			c-1.1,2.8-1.6,5.8-2.1,8.7c-0.2,1.1-0.4,2.2-0.6,3.3c-0.2,0.9-0.9,1.4-1.7,1.4c-0.8,0-1.4-0.5-1.7-1.5c-0.1-0.4-0.2-0.9-0.3-1.3
			c-0.5-2.7-1-5.3-1.9-7.9c-0.6-1.7-1.4-3.3-2.5-4.8c-1.8-2.5-4.2-3.9-7.2-4.3c-2.6-0.4-4.9,0.4-6.8,2.1c-4.1,3.4-6.2,7.8-5.9,13.2
			c0.2,3.8,1.5,7.2,4,10.1c1.1,1.4,2.5,2.4,4.2,2.9c2.6,0.7,5.3,0.7,7.9-0.1c0.7-0.2,1.4-0.5,2.1-0.6c0.5-0.1,1,0,1.4,0.1
			c0.6,0.2,0.8,0.7,0.8,1.4c0,0.6-0.3,1.1-0.9,1.4c-0.7,0.3-1.4,0.6-2.2,0.9c-4.3,1.3-8.4,3.3-12.4,5.3c-1.5,0.8-3,1.7-4.4,2.6
			c-2,1.4-3.6,3.1-4.7,5.3c-0.6,1.2-0.9,2.5-0.8,3.8c0.2,3.8,3.1,7.4,6.9,8.6c1.2,0.4,2.6,0.6,3.9,0.6c4.2,0.2,7.9-1.4,10.9-4.3
			c2.1-2,3.8-4.3,5.1-6.9c0.2-0.4,0.4-0.8,0.7-1.2c0.5-0.6,1.3-0.7,2-0.4c0.7,0.3,1.1,1.1,0.9,1.9c-0.1,0.4-0.2,0.8-0.3,1.1
			c-0.4,1.1-0.8,2.1-1.2,3.2c-0.7,1.9-1.3,3.8-1.5,5.8c-0.3,3.1,0.8,5.6,3.2,7.5c1.9,1.5,4,1.8,6.3,0.8c1.4-0.6,2.6-1.4,3.5-2.6
			c2.5-2.9,3.3-6.2,2.9-9.9c-0.4-3.5-1.5-6.9-3.2-10c-0.2-0.4-0.4-0.8-0.5-1.3c-0.2-0.7,0-1.4,0.6-1.8c0.6-0.5,1.3-0.5,1.9-0.2
			c0.3,0.2,0.5,0.4,0.8,0.6c0.6,0.5,1.2,1,1.8,1.5c2.2,1.8,4.5,3.4,7.1,4.6c4.6,2.1,9.9,0.9,13.2-2.8c0.8-0.8,1.4-1.8,1.6-2.9
			c0.6-2.6,0.2-5-1.5-7.1c-1.8-2.2-4.2-3.5-6.9-4.4C360.7,281.8,357.4,281.6,354.2,281.7z"/>
		<g>
			<path class="st0" d="M167,257c-0.4-0.3-0.6-0.4-0.8-0.5c-6.5-3.6-12.7-7.6-18.8-11.9c-6.7-4.8-12.1-11.1-16.6-18
				c-0.4-0.7-0.9-1.3-1.3-2c-4.2-7.5-8.7-14.8-12.2-22.7c-3.9-9-6.8-18.2-8.2-27.9c-0.6-3.8-0.9-7.6-1.3-11.4
				c-0.5-5.1-0.5-10.3-0.3-15.5c0.2-5,0.6-10,1.3-14.9c1.2-9.2,3.3-18.3,6.1-27.1c3.5-10.8,7.9-21.2,13.2-31.3
				c1.1-2.1,2.5-4.1,3.8-6.2c0.3-0.5,0.7-1,1.2-1.4c1.5-1.6,3.2-1.8,5-0.6c1.4,0.9,2.8,1.9,3.8,3.3c1.2,1.6,2.3,3.2,3.3,4.8
				c3.5,6,6.5,12.2,9.3,18.5c7.1,15.8,13.5,31.8,19,48.2c4.5,13.4,8,27.1,10.8,41c1.1,5.6,2.2,11.2,2.8,16.9
				c0.4,3.6,0.7,7.3,1.1,10.9c0.3,2.9,0.5,5.7,0.7,8.6c0.2,3.1,0.2,6.1,0.3,9.2c0,2.9,0,5.9,0,8.8c0,1.1,0.1,1.2,1.1,1.3
				c0.7,0.1,1.4,0.1,2.1,0.1c1.2,0,2.4,0,3.5,0c5.6,0.1,11.2,0.2,16.9,0.4c4.3,0.2,8.5,0.5,12.8,0.8c2.8,0.2,5.5,0.7,8.3,1
				c0.2,0,0.4,0,0.6,0c0.1-0.6,0.2-1.1,0.2-1.7c0.3-4.7,1.3-9.3,2.3-13.9c2.8-13,6.9-25.7,11.6-38.1c4.2-11.3,8.6-22.5,12.6-33.8
				c5.3-14.8,10.3-29.7,15.5-44.5c3.7-10.7,7.5-21.3,11.8-31.8c0.3-0.7,0.5-1.3,0.8-2c0.2-0.5,0.5-1,0.8-1.5c1-1.5,2.7-1.8,4.1-0.6
				c0.8,0.6,1.5,1.4,2,2.3c1.5,2.5,3.1,4.9,4.4,7.5c4.1,7.7,7.3,15.8,9.9,24.2c3.9,12.4,7.1,25.1,9.7,37.8c1.1,5.6,2,11.3,2.3,17
				c0.2,3.5,0.3,7,0.1,10.5c-0.2,3.4-0.4,6.8-0.9,10.1c-2.1,14.6-6.2,28.4-14.1,41c-4.8,7.7-11,14.3-18,20c-5.3,4.3-10.8,8.1-17,11
				c-2.9,1.4-5.9,2.4-8.9,3.6c-0.3,0.1-0.6,0.2-1,0.4c0.2,0.2,0.3,0.4,0.4,0.5c0.4,0.4,0.8,0.8,1.2,1.1c2.6,2.2,4.7,4.9,6.3,7.9
				c4.4,8,7.5,16.5,9.1,25.6c1.1,6.3,1.6,12.6,1.3,19c-0.4,8.1-2,15.9-5.5,23.2c-4,8.1-9.9,14.5-17.2,19.6
				c-7.5,5.3-15.8,8.7-24.6,10.7c-3.9,0.9-7.9,1.6-11.9,1.9c-3.7,0.3-7.4,0.5-11.1,0.5c-6.4,0-12.7-0.7-19-2
				c-5.7-1.2-11.2-2.9-16.5-5.2c-8.5-3.7-15.3-9.5-20.6-17.1c-4.8-6.9-7.8-14.6-9.6-22.8c-0.9-3.8-1.3-7.7-1.4-11.7
				c-0.1-5.6,0.7-11,2.3-16.3c2-6.9,4.6-13.5,8.3-19.6c3.4-5.6,7.1-10.8,12-15.2C166.6,257.2,166.7,257.1,167,257z M136.2,68.3
				c-0.1,0.2-0.2,0.4-0.4,0.6c-2.3,2.9-4.5,5.9-6.2,9.3c-2.6,5.2-4.8,10.6-7.1,15.9c-4.3,10.3-7.3,20.9-9.3,31.8
				c-0.8,4.1-1.3,8.2-1.7,12.3c-0.4,4.1-0.6,8.1-0.7,12.2c0,4.1,0.3,8.2,0.7,12.2c0.7,6.9,1.8,13.7,3.4,20.5
				c1.3,5.5,2.8,10.9,5,16.2c3.3,7.8,7.5,15.1,12.2,22.1c3.3,5,7.1,9.6,11.4,13.8c3.2,3.1,6.6,5.9,10,8.8c3.3,2.8,6.8,5.3,10.4,7.7
				c1.6,1.1,3.3,2.1,5.2,2.7c0.2,0,0.3,0.1,0.5,0.2c1,0.5,1.3,1.4,1.1,2.4c-0.2,0.8-0.7,1.4-1.2,1.9c-1.6,1.6-3.3,3.2-4.8,4.9
				c-1.5,1.8-2.9,3.7-4.3,5.6c-1,1.3-1.9,2.7-2.7,4.1c-3.2,5.2-5.5,10.9-7.5,16.7c-1.9,5.7-3.1,11.6-3,17.7c0.1,6.6,1.2,13,3.5,19.2
				c2.1,5.7,4.6,11.2,8.5,16c4.5,5.6,9.9,10.2,16.4,13.2c4.3,2,8.8,3.6,13.5,4.7c9.1,2.3,18.3,3.1,27.7,2.6
				c4.2-0.2,8.5-0.6,12.6-1.4c6.7-1.3,13.1-3.2,19.2-6.3c7.2-3.5,13.4-8.3,18.5-14.4c2-2.4,3.7-5.1,5.1-7.9
				c3.9-7.5,5.4-15.6,5.7-23.9c0.2-6.5-0.4-12.9-1.7-19.3c-1.6-7.9-4.5-15.4-8.4-22.5c-1.3-2.2-2.7-4.3-4.6-6
				c-1.1-0.9-2.1-1.9-3.1-2.8c-0.4-0.4-0.8-0.8-1.1-1.3c-0.8-1.2-0.4-2.6,0.9-3.2c0.5-0.3,1.1-0.4,1.6-0.6c3.1-1.2,6.3-2.3,9.3-3.7
				c6.2-2.8,11.7-6.7,17-11c9.9-8,17.5-17.7,22.7-29.4c4.4-10.1,7.1-20.6,8.4-31.5c0.7-6,0.8-12,0.4-18c-0.3-5.2-1.1-10.4-2.1-15.5
				c-2.3-11.7-5.1-23.2-8.6-34.6c-2.6-8.6-5.6-17-9.6-25c-1.6-3.3-3.4-6.5-5.4-9.5c-0.3-0.4-0.6-0.8-1-1.2c-0.3,0.6-0.5,1.1-0.7,1.6
				c-4.5,11.3-8.6,22.8-12.6,34.3c-5.3,15.2-10.5,30.4-15.9,45.5c-4,11.1-8.3,22.1-12.4,33.1c-4.1,11-7.8,22.2-10.4,33.7
				c-1.2,5.1-2.3,10.2-2.7,15.4c-0.1,0.9-0.2,1.8-0.3,2.6c-0.3,1.3-1.1,1.9-2.4,1.9c-0.9,0-1.9-0.1-2.8-0.2
				c-5.3-0.6-10.5-1.2-15.8-1.4c-4.7-0.2-9.3-0.4-14-0.5c-3.4-0.1-6.7,0-10.1,0c-1.1,0-2.2-0.1-3.3-0.3c-1.9-0.4-2.9-1.6-3.1-3.5
				c-0.1-0.9-0.1-1.8-0.1-2.7c0-7.1-0.1-14.2-0.6-21.3c-0.1-2.1-0.2-4.2-0.5-6.3c-0.6-4.2-1.3-8.5-2-12.7
				c-1.5-8.9-3.4-17.7-5.6-26.4c-2.1-8.4-4.8-16.6-7.7-24.8c-4.2-11.8-8.5-23.7-12.9-35.4c-3-8-6.1-15.8-9.9-23.4
				c-2.2-4.4-4.5-8.8-7.7-12.6C138.1,70.1,137.4,69.2,136.2,68.3z"/>
			<g>
				<path class="st16" d="M210.6,336.4c-0.3-0.1-0.5-0.2-0.7-0.3c-1.7-0.6-3-1.8-3.7-3.5c-0.5-1.2-0.9-2.5-1.2-3.8
					c-0.3-1.5,0.4-2.7,1.9-3.2c0.8-0.3,1.7-0.5,2.6-0.5c2.2-0.1,4.3-0.2,6.5-0.2c0.9,0,1.8,0.1,2.6,0.2c2.2,0.3,3.5,2,3.1,4.2
					c-0.6,3.5-2.6,5.8-5.9,7c-0.2,0.1-0.5,0.2-0.7,0.2c0,0-0.1,0-0.2,0.1c0,0.3,0,0.7,0,1.1c0,1.7,0.2,3.3,0.7,4.9
					c0.5,1.7,1.5,3.1,2.9,4.2c0.5,0.4,1.1,0.7,1.6,0.9c1.6,0.6,3,0,3.8-1.5c0.4-0.7,0.6-1.5,0.9-2.3c0.2-0.4,0.3-0.8,0.5-1.1
					c0.4-0.6,1-0.7,1.6-0.6c0.6,0.1,0.9,0.7,0.9,1.2c0,5.8-4.5,9-8.9,7.4c-2.8-1-4.7-2.9-6-5.5c-0.1-0.3-0.3-0.6-0.5-1
					c-0.2,0.4-0.4,0.6-0.5,0.9c-1.9,3-4.4,5-7.9,5.8c-2.7,0.6-5.5-0.7-6.7-3.2c-0.7-1.4-1-3-1.2-4.5c-0.1-0.9,0.4-1.6,1.1-1.7
					c0.7-0.1,1.6,0.3,1.9,1.1c0.2,0.5,0.3,1.1,0.4,1.6c0.2,0.6,0.3,1.2,0.6,1.8c0.7,1.5,2,2.1,3.6,1.7c3.1-0.9,5.2-2.9,6.2-6
					C210.5,339.9,210.7,338.2,210.6,336.4z"/>
				<g>
					<path class="st16" d="M261.1,301.7c0,1.5-0.3,3-1.1,4.3c-0.8,1.4-2,2.4-3.6,3c-1.2,0.4-2.3,0.3-3.4-0.2
						c-3.3-1.4-4.7-4.1-4.9-7.5c-0.2-2.8,0.6-5.2,2.9-7c2.1-1.6,4.4-1.7,6.5-0.1C259.8,296.1,261,298.6,261.1,301.7z"/>
					<path class="st16" d="M178.7,301.6c0,1.8-0.3,3.1-1.1,4.4c-0.4,0.7-1,1.4-1.7,1.9c-1.1,0.9-2.4,1.3-3.7,1.4
						c-1.8,0.1-3.3-0.6-4.5-2c-2.3-2.7-2.6-7.3-0.7-10.3c0.8-1.3,1.9-2.2,3.2-2.7c2-0.8,3.9-0.5,5.5,0.9
						C177.9,296.9,178.5,299.3,178.7,301.6z"/>
				</g>
			</g>
		</g>
		<g>
			<path class="st15" d="M129,306c-0.8-6.1-2-12-3.5-18c-1.5-5.7-3.3-11.4-5.7-16.8c-1-2.2-2.1-4.3-3.5-6.2c-1.9-2.7-4.5-4.6-7.5-6
				c-3-1.4-6.1-2-9.4-2c-0.3,0-0.5,0-0.8-0.1c0-0.1-0.1-0.1-0.1-0.2c0.1-0.1,0.3-0.2,0.4-0.3c2.4-2,4-4.6,5-7.5
				c1.5-4.4,1.5-8.9,0.5-13.4c-0.5-2.4-1.2-4.7-2.5-6.8c-0.5-0.8-1.1-1.6-1.8-2.2c-1.2-1.1-2.5-1.2-3.9-0.4c-0.5,0.3-1,0.7-1.5,1.1
				c-1.8,1.6-3.6,3.2-5.1,5.1c-0.2,0.2-0.4,0.4-0.7,0.7c-0.1-1-0.2-1.8-0.2-2.6c-0.5-5.8-2.2-11.2-4.9-16.3
				c-2.1-4.1-5.4-7.1-9.4-9.3c-0.7-0.4-1.5-0.7-2.3-0.9c-1.8-0.4-3.2,0.4-3.8,2.2c-0.1,0.2-0.1,0.4-0.1,0.7
				c-0.1,1.5-0.3,3.1-0.3,4.6c0,2.5,0,5,0.1,7.5c0.1,3.6,0.6,7.2,1.3,10.8c0.3,1.4,0.7,2.8,1,4.3c-0.4-0.2-0.6-0.3-0.9-0.4
				c-1.1-0.5-2.3-1-3.4-1.4c-1.5-0.5-3-0.7-4.5-0.5c-1.1,0.1-2.1,0.5-3,1.1c-1.2,0.8-1.7,2-1.5,3.4c0.1,0.8,0.4,1.6,0.7,2.3
				c0.9,1.9,1.8,3.8,2.8,5.6c1.5,2.8,3.4,5.3,5.8,7.3c0.1,0.1,0.2,0.2,0.3,0.3c-0.5,0.1-0.8,0.2-1.2,0.3c-1.9,0.4-3.8,1-5.5,1.9
				c-1,0.5-1.9,1.2-2.6,2.1c-2.2,2.6-1.6,5.4,1.4,7c0.1,0,0.1,0.1,0.2,0.1c2.9,1.3,5.9,2.1,9,2.6c1.6,0.3,3.2,0.3,5,0.5
				c-0.4,0.3-0.7,0.5-0.9,0.7c-1.6,1.2-3,2.5-4.2,4.1c-1.6,2.1-2.4,4.5-2.4,7.1c0,2.6,0.8,4.9,1.8,7.3c1.6,3.4,3.6,6.6,5.7,9.7
				c4.9,7.1,10.2,13.8,16.1,20.1c4.7,5,9.6,9.9,14.9,14.4c3,2.6,6.1,4.9,9.6,6.8c1.7,0.9,3.4,1.6,5.3,2c3.6,0.7,6.4-0.5,8.2-3.7
				c0.6-1,1-2.2,1.4-3.3c1.1-3.2,1.4-6.5,1.5-9.8C130,316.4,129.7,311.1,129,306z M61.4,261.2c-0.6-0.2-1.2-0.6-1.8-1
				c-0.6-0.4-0.6-0.8-0.3-1.4c0.4-0.7,1.1-1.2,1.8-1.7c1.9-1.1,3.9-1.8,6.1-2.1c1.5-0.3,3-0.4,4.5-0.6c0.3,0,0.6-0.1,0.9-0.2
				c0.6-0.2,1-0.7,1.1-1.4c0.1-0.7-0.2-1.2-0.7-1.6c-0.3-0.2-0.7-0.4-1-0.5c-2.2-0.9-4-2.3-5.5-4.1c-1.4-1.7-2.5-3.5-3.5-5.4
				c-0.7-1.4-1.4-2.8-2-4.2c-0.2-0.4-0.3-0.8-0.4-1.3c1.2-0.8,2.4-0.8,3.5-0.5c1.1,0.3,2.3,0.7,3.3,1.2c1.6,0.8,3.2,1.7,4.9,2.5
				c0.5,0.2,1,0.4,1.5,0.5c1,0.1,1.8-0.7,1.8-1.7c0-0.5-0.1-1-0.3-1.4c-2-4.1-2.7-8.6-3.3-13.1c-0.6-4.8-0.6-9.5-0.3-14.3
				c0-0.5,0.1-1,0.2-1.6c0.4,0.2,0.7,0.3,1,0.4c3.2,1.8,5.9,4,7.7,7.2c2.6,4.4,4.2,9.2,4.8,14.3c0.3,2.2,0.4,4.4,0.6,6.5
				c0,0.4,0.1,0.8,0.2,1.1c0.6,1.7,2.2,2.2,3.5,0.9c0.4-0.4,0.8-0.9,1.2-1.4c1.8-2.4,3.9-4.6,6.2-6.5c0.3-0.3,0.7-0.5,1.1-0.8
				c0.4,0.5,0.8,1,1.1,1.4c1.1,1.7,1.7,3.7,2.1,5.7c0.9,4,0.9,8-0.5,12c-0.9,2.4-2.2,4.5-4.3,6.1c-1.6,1.2-3.2,2.4-4.8,3.5
				c-0.4,0.3-0.8,0.4-1.3,0.5c-4,1-7.8,2.5-11.5,4.5c-0.9,0.5-1.7,0.7-2.7,0.8C71.1,263.7,66.2,263.1,61.4,261.2z M125.5,329
				c-0.2,1-0.6,1.9-0.9,2.9c-0.2,0.4-0.4,0.8-0.6,1.2c-1.1,1.9-2.4,2.4-4.5,2c-1.7-0.3-3.2-1-4.7-1.8c-3.3-1.8-6.3-4.2-9.2-6.7
				c-9.7-8.6-18.6-17.9-26.3-28.3c-0.9-1.2-1.8-2.5-2.8-3.7c-2.7-3.4-4.6-7.2-6.4-11.1c-0.7-1.4-1.2-3-1.3-4.6
				c-0.1-2,0.4-3.9,1.5-5.6c1-1.4,2.1-2.6,3.5-3.5c1.4-1,2.7-1.9,4.2-2.8c4-2.5,8.2-4.4,12.8-5.5c2.9-0.7,5.9-1.3,8.9-1.3
				c4,0.1,7.7,1.2,10.9,3.7c1.8,1.4,3.2,3.2,4.4,5.1c1.6,2.6,2.7,5.4,3.8,8.3c2.5,6.8,4.3,13.9,5.7,21.1c0.9,4.7,1.6,9.3,1.9,14.1
				c0.1,1.6,0.1,3.1,0.2,4.7C126.5,321.2,126.5,325.1,125.5,329z"/>
			<path class="st15" d="M103,275.1c0.6-0.2,1.1-0.4,1.6-0.6c0.5-0.2,0.8-0.6,0.8-1.1c0-0.6-0.3-1.1-0.9-1.3
				c-0.4-0.1-0.9-0.2-1.4-0.1c-0.7,0-1.3,0.1-1.9,0.2c-4.5,1-8.7,2.7-12.5,5.4c-2.1,1.5-3.8,3.3-5.2,5.5c-0.2,0.3-0.4,0.7-0.5,1.1
				c-0.2,0.6-0.1,1.2,0.4,1.6c0.5,0.4,1.1,0.4,1.7,0c0.5-0.3,0.9-0.7,1.2-1.1c2.9-3.6,6.5-6.1,10.8-7.7
				C99,276.3,101,275.8,103,275.1z"/>
			<path class="st15" d="M108.7,289.1c0.6-0.2,0.9-0.6,0.9-1.3c0-0.6-0.4-1.2-1.1-1.4c-0.9-0.3-1.7-0.1-2.5,0.1
				c-2.8,0.8-5.4,1.8-7.9,3.3c-1.5,0.9-3,1.9-4.2,3.2c-1.3,1.4-2.4,2.9-3,4.8c-0.3,0.8-0.1,1.4,0.5,1.7c0.5,0.3,1.2,0.2,1.7-0.3
				c0.6-0.6,1.2-1.2,1.7-1.9c1.8-2.4,4-4.2,6.7-5.4c1.7-0.8,3.6-1.4,5.3-2.1C107.4,289.6,108.1,289.4,108.7,289.1z"/>
			<path class="st15" d="M114.2,306.4c0.4-0.2,0.8-0.4,1.2-0.7c0.8-0.7,0.6-1.8-0.4-2.1c-0.4-0.1-0.8-0.2-1.2-0.2
				c-0.5,0.1-0.9,0.1-1.4,0.2c-2.6,0.6-4.9,1.8-6.9,3.5c-1.4,1.2-2.3,2.7-2.9,4.4c-0.3,0.7-0.1,1.3,0.4,1.7c0.5,0.3,1.1,0.3,1.7-0.3
				c0.6-0.6,1.2-1.2,1.8-1.8c1.3-1.7,3-2.8,4.9-3.6C112.4,307.1,113.3,306.8,114.2,306.4z"/>
			<path class="st15" d="M118.6,317.5c-0.1,0-0.4,0-0.6,0.1c-2.2,0.4-4.1,1.4-5.7,2.8c-0.4,0.4-0.8,0.8-1.2,1.3
				c-0.4,0.6-0.3,1.1,0.1,1.5c0.3,0.4,1,0.5,1.5,0.3c0.1,0,0.2-0.1,0.3-0.2c1.9-1.4,4-2.4,6.3-3.1c1-0.3,1.4-0.9,1.3-1.6
				C120.5,317.9,119.8,317.5,118.6,317.5z"/>
		</g>
	</g>
	<g>
		<path class="st16" d="M91.6,182.2l-5.2-0.2c0,0,0.2-4.7-0.4-10c-0.7-6.5-2.1-11.3-4.1-13.3c-0.7-0.8-1.5-1.1-2.4-1.1c0,0,0,0,0,0
			c-1.1,0-2,0.4-2.9,1.3c-1.8,1.9-3.2,5.8-3.8,11c-0.5,4.2-0.4,7.8-0.4,7.9h0l0.1,4.2l-5.2,0.1l-1-46.9l5.2-0.1l0.4,21.3
			c0.3-0.4,0.6-0.8,1-1.2c1.8-1.9,4.1-2.8,6.6-2.8c0,0,0,0,0,0c2.3,0,4.4,1,6.1,2.7C92.2,161.8,91.7,180.1,91.6,182.2z"/>
		<path class="st16" d="M120.9,152.3V182h-5.2v-1.7c-1.8,1.4-4.2,2.3-7.3,2.3c-4,0-7.4-1.8-9.7-5.2c-1.8-2.7-2.9-6.4-2.9-10.3
			c0-3.8,0.9-7.4,2.7-10.2c2.1-3.4,5.2-5.3,8.8-5.3c3,0,5.9,1,8.4,2.8v-2.1H120.9z M115.7,162.9c0-1.8-3.6-6.1-8.4-6.1
			c-1.7,0-3.2,0.9-4.4,2.8c-1.2,1.9-1.9,4.7-1.9,7.5c0,3.8,1.5,10.3,7.3,10.3c6,0,7.2-5.7,7.3-6.7V162.9z"/>
		<path class="st16" d="M147.7,172.2c-3.2,5.6-9.4,9-17.3,9.6l-0.2,19.5l-5.2-0.1l0.6-48.2l2.2-0.4c1.6-0.3,15.3-2.3,20.2,5.4
			C150.4,162,150.3,167.6,147.7,172.2z M143.5,160.9c-2.1-3.3-8.8-3.6-12.8-3.3l-0.2,19c7.9-0.6,11.3-4.5,12.7-6.9
			C144.8,166.7,145,163.2,143.5,160.9z"/>
		<path class="st16" d="M176.6,172.2c-3.2,5.6-9.4,9-17.3,9.6l-0.2,19.5l-5.2-0.1l0.6-48.2l2.2-0.4c1.6-0.3,15.3-2.3,20.2,5.4
			C179.3,162,179.2,167.6,176.6,172.2z M172.4,160.9c-2.1-3.3-8.8-3.6-12.8-3.3l-0.2,19c7.9-0.6,11.3-4.5,12.7-6.9
			C173.7,166.7,173.8,163.2,172.4,160.9z"/>
		<path class="st16" d="M204.3,198.4c-1.8,1.9-4,2.8-6.7,2.8c-8.1,0-12.3-8.5-12.3-14.6h5.2c0,3.4,2.4,9.4,7.1,9.4
			c1.2,0,2.1-0.4,2.9-1.2c2.7-2.8,3.6-10.1,3.8-18.8c-0.5,0.7-1,1.3-1.5,1.9c-2.1,2.2-4.6,3.3-7.5,3.3c-2.9,0-5.5-1.1-7.5-3.3
			c-2.8-3.1-4.5-8.4-5-15.6c-0.3-5.2,0.1-9.5,0.1-9.6l2.6,0.2l2.6,0.2v0c-0.4,4.4-0.6,16.7,3.6,21.3c1,1.1,2.1,1.6,3.6,1.6
			c1.5,0,2.7-0.5,3.8-1.7c4.4-4.6,4.8-16.9,4.6-21.3c0,0,0,0,0,0l5.2-0.3c0,0,0,0,0,0C210,176.2,210.3,192,204.3,198.4z"/>
		<path class="st16" d="M244.4,173.8l5.1,0.8c-0.8,5.2-3.9,8.5-8.1,8.5c-0.1,0-0.2,0-0.2,0c-5-0.2-10.5-5.3-11.4-16.5
			c-0.4-4.4,0.2-8.1,1.8-10.9c1.6-2.7,4-4.4,6.8-4.7c5.1-0.5,11,3.8,12,12.7l0.3,2.5l-15.4,2.3c1.1,6.7,4.2,9.3,6.1,9.4
			C242.8,177.9,244,176.3,244.4,173.8z M244.7,161.8c-1.1-3.7-3.4-5.7-5.5-5.7c-0.1,0-0.2,0-0.3,0c-2,0.2-3.8,2.5-4,7.1L244.7,161.8
			z"/>
		<path class="st16" d="M279.8,152.3V182h-5.2v-1.7c-1.8,1.4-4.2,2.3-7.3,2.3c-4,0-7.4-1.8-9.7-5.2c-1.8-2.7-2.9-6.4-2.9-10.3
			c0-3.8,0.9-7.4,2.7-10.2c2.1-3.4,5.2-5.3,8.8-5.3c3,0,5.9,1,8.4,2.8v-2.1H279.8z M274.6,170.7v-7.8c0-1.8-3.6-6.1-8.4-6.1
			c-1.7,0-3.2,0.9-4.4,2.8c-1.2,1.9-1.9,4.7-1.9,7.5c0,3.8,1.5,10.3,7.3,10.3C273.3,177.4,274.4,171.7,274.6,170.7L274.6,170.7z"/>
		<path class="st16" d="M298.7,171c1.8,2.9,1.8,6,0,8.4c-1.4,1.9-3.7,2.9-6,2.9c-0.7,0-1.5-0.1-2.2-0.3c-1.8-0.5-5.9-2.5-6.5-9.6
			l5.2-0.4c0.2,2.8,1.2,4.6,2.8,5c1,0.3,2.1,0,2.6-0.7c0.6-0.8,0.2-1.8-0.3-2.5c-0.7-1.1-2.1-2-3.5-3c-2.3-1.6-5-3.4-6.2-6.6
			c-1.2-3.3-0.4-6.8,2.1-9.2c2.7-2.6,6.8-3.4,10-2.1c3.3,1.4,5.2,4.9,5.2,9.5h-5.2c0-1.4-0.3-3.9-2-4.7c-1.3-0.6-3.2-0.1-4.4,1.1
			c-0.7,0.7-1.5,1.9-0.8,3.6c0.6,1.7,2.4,2.9,4.2,4.1C295.5,167.7,297.4,169,298.7,171z"/>
		<path class="st16" d="M317.6,144.6v5.2h-5.4l0,32.1H307v-32.1h-4.3v-5.2h4.3v-9.5h5.2v9.5H317.6z"/>
		<path class="st16" d="M330.6,173.8l5.1,0.8c-0.8,5.2-3.9,8.5-8.1,8.5c-0.1,0-0.2,0-0.2,0c-5-0.2-10.5-5.3-11.4-16.5
			c-0.4-4.4,0.2-8.1,1.8-10.9c1.6-2.7,4-4.4,6.8-4.7c5.1-0.5,11,3.8,12,12.7l0.3,2.5l-15.4,2.3c1.1,6.7,4.2,9.3,6.1,9.4
			C329,177.9,330.2,176.3,330.6,173.8z M330.9,161.8c-1.1-3.7-3.4-5.7-5.5-5.7c-0.1,0-0.2,0-0.3,0c-2,0.2-3.8,2.5-4,7.1L330.9,161.8
			z"/>
		<path class="st16" d="M362.5,165l-5.2,0c-0.1-5.4-2.2-8.2-3.7-8.2c0,0,0,0,0,0c-2.4,0-7.4,6.2-7.4,25.1h-5.2v-29.1h5.2v3.6
			c2.7-4.1,5.7-4.8,7.4-4.8c0,0,0,0,0,0C358.7,151.7,362.4,157.2,362.5,165z"/>
		<path class="st16" d="M374.4,178.7c0,2.1-1.7,3.9-3.9,3.9c-2.1,0-3.9-1.7-3.9-3.9s1.7-3.9,3.9-3.9
			C372.6,174.8,374.4,176.5,374.4,178.7z M367.9,170.3V135h5.2v35.4H367.9z"/>
	</g>
</g>
</svg>
