<?xml version="1.0" encoding="utf-8"?>
<!-- Generator: Adobe Illustrator 22.0.0, SVG Export Plug-In . SVG Version: 6.00 Build 0)  -->
<svg version="1.1" id="Calque_1" xmlns="http://www.w3.org/2000/svg" xmlns:xlink="http://www.w3.org/1999/xlink" x="0px" y="0px"
	 viewBox="0 0 432 432" style="enable-background:new 0 0 432 432;" xml:space="preserve">
<style type="text/css">
	.st0{fill:#E5DAC7;}
	.st1{fill:#FAF3E3;}
	.st2{fill:#C7B29A;}
	.st3{fill:#972021;}
	.st4{fill:#E9EAE4;}
	.st5{fill:#8C633A;}
	.st6{fill:#F39323;}
	.st7{fill:#ED6F71;}
	.st8{fill:#FFFFFF;}
	.st9{fill:#B6CE3F;}
	.st10{fill:#95AF23;}
	.st11{fill:#18B0C1;}
	.st12{fill:#C2E1D1;}
	.st13{fill:#9F1E29;}
	.st14{fill:#E6E9EA;}
	.st15{fill:#020203;}
	.st16{fill:#4D9564;}
	.st17{fill:#754D24;}
	.st18{fill:#A67D52;}
	.st19{fill:#F0D2B5;}
	.st20{fill:#E1BC9E;}
	.st21{fill:#97509A;}
	.st22{fill:#603914;}
	.st23{fill:#E83078;}
	.st24{fill:#E89125;}
	.st25{fill:#89BF4A;}
	.st26{fill:#82171C;}
	.st27{fill:#6CC2EE;}
	.st28{fill:#1861A9;}
	.st29{fill:#E00825;}
	.st30{fill:#109F3D;}
	.st31{fill:#808181;}
	.st32{fill:#D79A5D;}
	.st33{fill:#C68448;}
	.st34{fill:#D62416;}
	.st35{fill:#F9D61D;}
	.st36{fill:#A9191E;}
	.st37{fill:#F3E4E7;}
	.st38{fill:none;}
	.st39{fill:#E8CAA3;}
	.st40{fill:#64121D;}
	.st41{fill:#15A57E;}
	.st42{fill:#167157;}
	.st43{fill:#CF8916;}
	.st44{fill:#B26F14;}
	.st45{fill:#901D81;}
	.st46{fill:#612261;}
	.st47{fill:#B88E5C;}
	.st48{fill:#EBDCC8;}
	.st49{fill:#F3A0BE;}
	.st50{fill:#FAD7E3;}
	.st51{fill:#EAD797;}
	.st52{fill:#E18CAC;}
	.st53{fill:#A8D9DD;}
	.st54{fill:#67C2C6;}
	.st55{fill:#4EADAD;}
	.st56{fill:#CDCCCC;}
	.st57{fill:#D4C3B3;}
	.st58{fill:#CAB9A7;}
	.st59{fill:#C69C6C;}
	.st60{fill:#D7C5B3;}
	.st61{fill:#96877C;}
	.st62{fill:#EFE8E9;}
	.st63{fill:#B4B4B4;}
	.st64{fill:#F0CC53;}
	.st65{fill:#EE7D54;}
	.st66{fill:#F5D29D;}
	.st67{fill:#5D403F;}
	.st68{fill:#F9CBCC;}
	.st69{fill:#F6DEB8;}
	.st70{fill:#D6A14D;}
	.st71{fill:#B09878;}
	.st72{fill:#C1292E;}
	.st73{fill:#5B4841;}
	.st74{fill:#E0C399;}
	.st75{fill:#EBDA8C;}
	.st76{fill:#363A3D;}
	.st77{fill:#BFC1D7;}
	.st78{fill:#7188BA;}
	.st79{fill:#A34F4D;}
	.st80{fill:#D9CD7A;}
	.st81{fill:#D9AF66;}
	.st82{fill:#E6C776;}
	.st83{fill:#575756;}
	.st84{fill:#C3BF5B;}
	.st85{fill:#63622A;}
	.st86{fill:#E1AE9D;}
	.st87{fill:#D9C7AB;}
	.st88{fill:#B3625C;}
	.st89{fill:#D4BB78;}
	.st90{fill:#009245;}
	.st91{fill:#0B7B3A;}
	.st92{fill:#911A29;}
	.st93{fill:#571419;}
	.st94{fill:#9A9999;}
	.st95{fill:#A81922;}
	.st96{fill:#A3282E;}
	.st97{fill:#B3713B;}
	.st98{fill:#998675;}
	.st99{fill:#6189B1;}
	.st100{fill:#E0EDF3;}
	.st101{fill:#A5C0DF;}
	.st102{fill:#DBDBDB;}
	.st103{fill:#067838;}
	.st104{fill:#E5AEBF;}
	.st105{fill:#9982BC;}
	.st106{fill:#E7E6E6;}
	.st107{fill:#706F6F;}
	.st108{fill:#746458;}
	.st109{fill:#412413;}
	.st110{fill:#544842;}
	.st111{fill:#DAA405;}
	.st112{fill:#D06C5D;}
	.st113{fill:#8C694B;}
	.st114{fill:#C8C8CE;}
	.st115{fill:#D286A7;}
	.st116{fill:#C6CCCC;}
	.st117{fill:#A65F42;}
	.st118{fill:#343434;}
	.st119{fill:#A56E45;}
	.st120{fill:#F2F2F2;}
	.st121{fill:#8AC18A;}
	.st122{fill:#4B6678;}
	.st123{fill:#324C5B;}
	.st124{fill:#97AFBC;}
	.st125{fill:#B27D63;}
	.st126{fill:#6A737A;}
	.st127{fill:#72403F;}
	.st128{fill:#8D7968;}
	.st129{fill:#1B1B1B;}
	.st130{fill:#6B141A;}
	.st131{fill:#E4DCCC;}
	.st132{fill:#B33949;}
	.st133{fill:#6D141B;}
	.st134{fill:#911825;}
	.st135{fill:#821622;}
	.st136{fill:#1F1D1D;}
	.st137{fill:#CC1417;}
	.st138{fill:#69362D;}
	.st139{fill:#ECC9AE;}
	.st140{fill:#471E19;}
	.st141{fill:#2B1D1C;}
	.st142{fill:#BE1622;}
	.st143{fill:#E6332A;}
	.st144{fill:#D8EAF8;}
	.st145{fill:#D4AE8E;}
	.st146{fill:#883B4C;}
	.st147{fill:#C74A54;}
	.st148{fill:#F2959C;}
	.st149{fill:#3C3C3B;}
</style>
<g>
	<path class="st13" d="M248.5,147.7l-0.4,0l-0.2-1.7c-0.2-1.4-0.3-2.7-0.5-4.1c0-0.2,0-0.4,0.2-0.6c1.1-1.7,2-3.5,2.7-5.6
		c0.5-1.5,0.7-2.9,0.7-4.4c0-1.6-0.6-3.1-1.8-4.5c-1-1.2-2.4-1.3-3.6-0.4c-0.3,0.2-0.6,0.5-0.8,0.8c-0.7,0.8-1.2,1.8-1.4,3
		c-0.3,1.5-0.4,3.1-0.2,5.1c0.2,1.9,0.4,3.8,0.6,5.7c0,0.3,0,0.5-0.2,0.6c-0.4,0.4-0.8,0.9-1.1,1.3l-0.3,0.4
		c-0.4,0.4-0.7,0.8-1.1,1.2c-0.9,1-1.8,2-2.6,3.1c-0.6,0.8-1.1,1.7-1.5,2.6l-0.1,0.2c-0.4,0.8-0.6,1.7-0.5,2.7
		c0.3,3.3,1.9,5.7,4.9,7.1c1.2,0.6,2.4,0.9,3.7,0.9c0,0.1,0,0.2,0,0.3l0,0.6c0,0.6,0,1.2,0,1.8c0,1.7,0,3.4,0,5.1
		c0,0.8-0.2,1.4-0.5,2c-0.3,0.5-0.9,0.7-1.4,0.6c-0.8-0.3-1.3-0.9-1.4-1.8l0.2,0.1c1,0.3,1.9-0.2,2.2-1.1c0.3-0.7,0.1-1.6-0.3-2.3
		c-0.5-0.7-1.3-1.2-2-1.2c-1.4,0-2.7,0.9-3,2.3c-0.1,0.6-0.2,1.3-0.2,2.1c0.1,1.9,0.9,3.3,2.5,4.4c0.7,0.5,1.6,0.7,2.6,0.7
		c0.5,0,0.9-0.1,1.4-0.2c1.3-0.4,2.3-1.2,2.8-2.3c0.2-0.4,0.4-0.9,0.5-1.4c0.2-0.7,0.3-1.4,0.3-2.2c0-1.4,0-2.9,0-4.3l0-3.5l0,0
		c3.1-1.2,4.8-3.4,5.1-6.6C253.9,150.8,251.6,148,248.5,147.7z M244.8,158c-2.5-0.3-4.6-2.2-5.1-4.5c-0.2-0.8-0.1-1.5,0.2-2.2
		c0.4-0.7,0.7-1.4,1.2-2c0.9-1.1,1.8-2.2,2.7-3.2l0.6-0.7c0.1,0.9,0.2,1.8,0.3,2.9l-0.1,0c-0.2,0.1-0.4,0.2-0.6,0.4
		c-1,0.7-1.5,1.4-1.8,2.3c-0.1,0.4-0.1,0.7,0,1.1c0.1,0.6,0.5,1,1.1,0.9c0.2,0,0.8-0.1,0.9-0.9c0.1-0.4,0.3-0.7,0.6-1
		C244.8,152.9,244.9,156.6,244.8,158z M246.8,136.3c-0.2-2-0.4-3.9-0.1-5.8c0.1-0.5,0.3-1,0.4-1.5c0-0.1,0.1-0.1,0.1-0.2
		c0.6,0.8,0.9,1.6,0.9,2.4C248.2,132.5,247.6,134.7,246.8,136.3C246.8,136.3,246.8,136.3,246.8,136.3z M249.6,156.6
		c-0.4,0.4-0.7,0.7-1.1,0.9l-0.2-7.1c0.8,0.2,1.4,0.7,1.8,1.5C251,153.3,250.8,155.3,249.6,156.6z"/>
	<path class="st13" d="M180.7,129.5c0.3-4,0.2-8.1,0.1-12.2c0-0.6-0.1-1.2-0.2-1.7c-0.2-1.4-1.2-2.1-2.7-1.9c-0.1,0-0.2,0-0.4,0.1
		c-0.2,0-0.4,0.1-0.6,0.1c-3.2,0.3-6.3,1-9.1,1.7c-0.3,0.1-0.7,0.2-1,0.3c-1.3,0.6-2.1,1.6-2.2,3c-0.1,1.7-0.2,3.3-0.4,5
		c-0.1,1.2-0.2,2.4-0.3,3.6c-0.1,1.5-0.3,3.1-0.4,4.6c0,0.3-0.1,0.3-0.4,0.5c-1.9,0.6-3.6,1.5-4.9,2.8c-0.6,0.5-1.1,1.2-1.4,1.8
		c-0.4,0.8-0.3,1.6,0.1,2.3c0.4,0.7,1.2,1.1,2.1,1.1c0,0,0.1,0,0.1,0c0.5,0,1-0.1,1.4-0.2c1.9-0.5,3.4-1.6,4.6-3.1
		c0.7-1,1.1-1.9,1.1-3c0-0.6,0-1.3,0.1-2c0.2-2.2,0.4-4.4,0.6-6.7c0.1-1.2,0.3-2.5,0.4-3.7c0.1-0.8,0.2-1.6,0.3-2.4
		c0.1-0.6,0.2-0.8,0.6-0.9c0.8-0.2,1.6-0.4,2.4-0.7c1.1-0.3,2.2-0.6,3.4-0.9c0.9-0.2,1.9-0.4,3-0.4l0,1.4c0,1.4,0,2.8-0.1,4.1l0,0.9
		c-0.1,1.8-0.1,3.6,0.1,5.5c0,0.3,0,0.7,0.1,1.1l0,0.3c-0.2,0.1-0.3,0.2-0.4,0.2c-1.8,1.1-2.9,2.4-3.6,3.9c-0.3,0.8-0.3,1.5,0.1,2.2
		c0.4,0.7,1,1.1,1.9,1.2c0.9,0.1,1.7,0,2.6-0.4c1.6-0.8,2.9-2.1,3.7-4c0.4-0.9,0.3-1.8-0.2-2.4C180.6,130.5,180.6,130.1,180.7,129.5
		z"/>
	<path class="st13" d="M311.1,103.9c-0.4-0.2-0.9-0.4-1.3-0.5c-0.2-0.1-0.5-0.1-0.7-0.2l-0.4-0.2c-0.8-0.3-1.5-0.6-2.3-0.9
		c-0.7-0.3-1.1-0.8-1.4-1.5c-0.1-0.3-0.3-0.7-0.4-1l-0.3-0.8c-0.3-0.6-0.7-1-1.4-1c-0.7,0-1.3,0.4-1.5,1c-0.1,0.4-0.2,0.8-0.2,1.1
		l0.1,2.1c0.1,2.2,0.1,4.5,0.2,6.8c0.1,2.5,0.4,5.1,0.6,7.6l0.2,2.8c0.1,0.6,0.1,1.3,0.2,2l0.1,0.5c-0.8,0.1-1.4,0.5-2,1
		c-1.2,1.1-2,2.4-2.4,3.8c-0.2,0.8-0.2,1.6-0.1,2.4c0.2,1,0.7,1.7,1.4,2c0.3,0.1,0.6,0.2,1,0.2c0.5,0,1-0.2,1.6-0.5
		c1-0.5,1.7-1.3,2.3-2.2c0.8-1.4,1.5-2.9,2.1-4.1c0.2-0.3,0.2-0.8,0.2-1.3c0-0.6-0.1-1.3-0.2-1.9c0-0.5-0.1-1-0.1-1.6
		c-0.3-4.1-0.6-8.2-0.9-12.4c0-0.7-0.1-1.4-0.1-2.1l0-0.2c0.3,0.2,0.6,0.3,1,0.5c0.7,0.3,1.4,0.5,2.1,0.7c0.3,0.1,0.6,0.2,0.9,0.3
		c1,0.3,1.3,0.7,1.1,1.8c-0.1,0.5-0.3,1.1-0.5,1.6l-0.1,0.2c-0.4,1.1,0.1,1.6,0.5,1.8c0.3,0.2,0.7,0.2,1,0.1
		c0.4-0.1,0.7-0.4,0.8-0.7c0.6-1.1,1.1-2.5,1.1-4C313,105.6,312.3,104.5,311.1,103.9z"/>
	<path class="st13" d="M114,145.2c-0.4-0.9-0.7-1.8-1-2.7c-0.8-2.1-1.6-4.3-2.3-6.5l-1.4-3.8c-0.1-0.3-0.3-0.6-0.4-0.9
		c-0.3-0.5-0.7-0.7-1.2-0.6c-0.6,0.1-0.9,0.6-0.9,1.1c0,0.3,0,0.6,0.1,1l0.1,0.6c0.2,0.9,0.4,1.9,0.7,2.8c0.5,1.6,1,3.5,1.6,5.4
		c0.4,1.1,0.8,2.2,1.2,3.3c0.1,0.4,0.3,0.8,0.4,1.2c-0.7,0.7-1.2,1.5-1.6,2.4c-0.4,1-0.4,1.9-0.2,2.9c0.2,0.8,0.8,1.4,1.6,1.6
		c0.2,0,0.3,0.1,0.5,0.1c0.6,0,1.1-0.3,1.5-0.8c0.2-0.2,0.4-0.4,0.5-0.7l0.2-0.5c0.3-0.6,0.6-1.3,0.9-2c0.4-1,0.3-2.1-0.1-3
		L114,145.2z"/>
</g>
<g>
	<ellipse class="st14" cx="303.9" cy="259.2" rx="41.1" ry="45.6"/>
	<g>
		<g>
			<path class="st6" d="M264.1,234.3c-0.6,0.1-1.3,0.2-1.9,0.4c-1.4,0.5-2.3,1.6-2.3,3.1c0,1,0.2,2,0.7,2.8c0.7,1.3,1.5,2.6,2.4,3.7
				c4,5.3,8.5,10.2,13.4,14.8c1.8,1.7,3.7,3.3,5.9,4.5c4.1,2.2,7,1.9,10.6-1c2.5-2,4.2-4.5,5.7-7.3c1-1.9,0.7-3.7-0.8-5.2
				c-1.1-1.1-2.3-2.2-3.7-2.9c-6.3-3.4-12.4-7.1-19.1-9.7c-2.8-1.1-5.8-1.9-8.7-2.8C265.6,234.5,264.9,234.5,264.1,234.3z"/>
			<ellipse class="st15" cx="283.8" cy="279" rx="5.1" ry="6.6"/>
			<g>
				<g>
					<path class="st15" d="M319.4,240.7c-2.3-5.2-8.5-8.1-13.6-4.7c-1.5,1-0.1,3.4,1.4,2.4c3.9-2.7,8.1-0.2,9.8,3.7
						C317.7,243.7,320.1,242.3,319.4,240.7L319.4,240.7z"/>
				</g>
				<g>
					<path class="st15" d="M288,235.1c3.2-2.6,8-2.6,10.1,1.3c0.9,1.6,3.2,0.2,2.4-1.4c-3.1-5.6-9.9-5.5-14.5-1.9
						C284.7,234.3,286.7,236.2,288,235.1L288,235.1z"/>
				</g>
			</g>
		</g>
		<g>
			<path d="M293.4,199.3c2.1-6.9,4.6-13.5,7.2-20c1.5-3.9,3.1-7.8,5.2-11.5c2.6-4.7,6.6-6.8,11.9-6.4c3.1,0.2,6,1,8.9,2
				c5.6,1.9,10.8,4.5,15.9,7.5c6.9,4,13.7,8.3,20.2,12.9c2.3,1.6,4.5,3.3,6.5,5.3c1.4,1.4,2.6,2.9,3.5,4.8c1,2.3,1.2,4.7,0.4,7.2
				c-0.7,2.4-1.9,4.5-3.3,6.6c-2.3,3.2-4.6,6.4-7,9.6c-2.3,3.1-4.7,6.3-7,9.4c-1.5,2-2.9,3.9-4.4,5.9c-0.2,0.2-0.3,0.4-0.5,0.7
				c0.3,0.3,0.6,0.6,0.9,0.8c1.7,1.5,3.2,3.2,4.5,5.1c1,1.5,1.7,3.1,1.8,4.9c0.1,2.5-1.2,4.5-3.9,5c-1.5,0.3-3,0.1-4.5-0.3
				c-3-0.8-5.9-2-8.6-3.3c-6.8-3.4-13.5-7.2-20.1-11c-5.4-3.1-10.7-6.1-15.9-9.4c-6.3-4-12.5-8.2-18.7-12.3c-2-1.3-3.8-2.9-5.5-4.5
				c-1.1-1-2-2.3-2.8-3.6c-0.5-0.8-0.9-1.8-1-2.8c-0.5-2.6,0.9-4.8,3.5-5.5c1.5-0.4,3.1-0.4,4.5,0.1c2.4,0.7,4.7,1.6,7.1,2.5
				C292.5,198.9,292.9,199.1,293.4,199.3z"/>
			<g>
				<path class="st16" d="M342.5,228.8c-0.4-2.8,3.8-2.4,4.6-5.2c0.7-2.7,0.6-5.7,2.3-5.7c1.7,0,3.1,3.4,6.3,3.2
					c3.1-0.3,7.2-5.9,8.5-5.8c1.3,0.1,2.7,4.2,5.2,4.3c2.5,0.1,7.7-3.7,8.6-1.5c0.9,2.2-2.8,4.2-3.7,6.2c-0.9,2,0,5.5-1.3,6.5
					c-1.3,0.9-6.7-2.4-9.9-1.6c-3.2,0.8-3.7,6.9-6.1,6.7c-2.3-0.1-3.3-5.7-6.9-6.1S342.8,230.9,342.5,228.8z"/>
				<path class="st13" d="M346.3,227.5c1-1.3,1.5-2.8,1.5-4.5c0-4.1-3.3-7.4-7.4-7.4c-4.1,0-7.4,3.3-7.4,7.4s3.3,7.4,7.4,7.4
					c0.1,0,0.2,0,0.4,0c-0.2,0.6-0.4,1.2-0.4,1.8c0,2.7,2.2,4.9,4.9,4.9c2.7,0,4.9-2.2,4.9-4.9C350.1,229.9,348.5,227.9,346.3,227.5
					z"/>
			</g>
		</g>
	</g>
</g>
<g>
	<g>
		<g>
			<path class="st17" d="M92.2,231.3c6.2-7.1-2.3-4.8-3.5-15.2c-1.3-10.3,0-13.6-3.8-13.9c-2.1-0.2-1,12-2.3,12.6
				c-1.3,0.6-5.3-36.5-10.5-37.7c-6.1-1.4-0.6,21.1-3.8,22.2s-11.3-7.8-13.9-3.5c-3.2,5.3,15.3,9.5,14.4,12.6
				c-0.8,3.1-9.1-0.6-9.3,3.7s7.5,3,13.9,6.2S87.4,236.8,92.2,231.3z"/>
			<path class="st17" d="M109,227.7c-6.2-7.1,2.3-4.8,3.5-15.2c1.3-10.3,0-13.6,3.8-13.9c2.1-0.2,1,12,2.3,12.6
				c1.3,0.6,5.3-36.5,10.5-37.7c6.1-1.4,0.6,21.1,3.8,22.2c3.3,1.1,11.3-7.8,13.9-3.5c3.2,5.3-15.3,9.5-14.4,12.6s9.1-0.6,9.3,3.7
				s-7.5,3-13.9,6.2S113.9,233.2,109,227.7z"/>
		</g>
		<path class="st18" d="M136.5,218.3c-12-12.9-19.1-2.2-21.3,6.9c-3.1-1.4-6.4-2.2-9.9-2.2c-6.8,0-13,2.9-18.1,7.9
			c-3.8-8.1-11.7-15.6-21.2-2.2c-8.7,12.2,3.3,14.5,12.6,15.1c-2.7,6.3-4.3,13.6-4.3,21.5c0,23.3,13.9,42.2,31,42.2s31-18.9,31-42.2
			c0-12-3.7-22.8-9.6-30.5C135.8,232.9,146.4,228.9,136.5,218.3z"/>
	</g>
	<g>
		<g>
			
				<ellipse transform="matrix(0.9764 -0.2162 0.2162 0.9764 -53.9415 31.5255)" class="st13" cx="117.2" cy="262.4" rx="14.8" ry="10"/>
			<g>
				<g>
					<path class="st15" d="M92.5,253.4c1.9-4.3,6.6-7.1,11-4.1c1.5,1,2.8-1.4,1.4-2.4c-5.5-3.7-12.2-0.6-14.8,5.1
						C89.4,253.6,91.8,255,92.5,253.4L92.5,253.4z"/>
				</g>
				<g>
					<path class="st15" d="M126.7,243.7c-5-3.9-12.4-4-15.7,2c-0.9,1.6,1.5,2.9,2.4,1.4c2.4-4.4,7.8-4.4,11.4-1.5
						C126.1,246.8,128.1,244.8,126.7,243.7L126.7,243.7z"/>
				</g>
			</g>
			<ellipse class="st15" cx="120.1" cy="286.2" rx="5.6" ry="7.3"/>
		</g>
		<g>
			<path class="st17" d="M119.3,226.8c1.9-4.4,5.1-12.3,11.2-7c6.1,5.3,2.5,9.7-4.8,11.7C123,229.3,119.3,226.8,119.3,226.8z"/>
			<path class="st17" d="M84,233.5c-3.2-3.6-8.7-10.1-12.9-3.2s0.7,10,8.3,9.6C81.2,237.1,84,233.5,84,233.5z"/>
		</g>
	</g>
</g>
<g>
	<circle class="st19" cx="204.1" cy="252.4" r="33.8"/>
	<g>
		<g>
			<path class="st13" d="M166.2,232.8c-5.7-21.4-8.4-49.7-20.9-52.6c13.1-3.7,94.7-15.1,95.5,45c-32.1-17.6-38.6-18.4-47.7-15.8
				C184,211.9,166.2,232.8,166.2,232.8z"/>
			<path class="st1" d="M248.1,249.4c-0.1-1.6-0.4-2.8-0.8-3.8c1.6-4.5,1.7-10.1-0.5-17c-5.9-17.8-25.7-29.6-39.3-29.6
				s-32.5,2.3-43.4,23.3c-5.6,10.8-5.5,19.2-2.6,25.2c-0.3,0.6-0.4,1.2-0.5,1.9c-0.6,10.7,4.8,33.2,16.7,50.4
				c25.2,36.6,74.5,46.2,55,18.1S249.2,265,248.1,249.4z M203.1,248c-6.7-0.1-15.2-1.8-22.8-2.9c5.5-14.9,10.7-22,23.8-22.9
				c12.7-0.9,19.5,8.4,24.8,22.6C222.1,246.4,213.6,248.2,203.1,248z"/>
			<circle class="st1" cx="145.4" cy="180.3" r="6.7"/>
		</g>
		<g>
			<g>
				<g>
					<path class="st15" d="M190.3,238.8c2.3-3.3,6.7-2.5,9.5-0.5c1.4,1,2.8-1.4,1.4-2.4c-4.2-3-10.2-3-13.2,1.5
						C186.9,238.9,189.3,240.3,190.3,238.8L190.3,238.8z"/>
				</g>
				<g>
					<path class="st15" d="M220,237.4c-3.1-4.5-9.1-4.5-13.2-1.5c-1.4,1-0.1,3.4,1.4,2.4c2.8-2,7.2-2.8,9.5,0.5
						C218.6,240.3,221,238.9,220,237.4L220,237.4z"/>
				</g>
			</g>
			<ellipse class="st15" cx="204.6" cy="262.4" rx="4" ry="5.3"/>
			<ellipse class="st20" cx="204.6" cy="248.2" rx="7.1" ry="4.2"/>
		</g>
	</g>
</g>
</svg>
