<?xml version="1.0" encoding="utf-8"?>
<!-- Generator: Adobe Illustrator 22.0.1, SVG Export Plug-In . SVG Version: 6.00 Build 0)  -->
<svg version="1.1" id="Calque_1" xmlns="http://www.w3.org/2000/svg" xmlns:xlink="http://www.w3.org/1999/xlink" x="0px" y="0px"
	 viewBox="0 0 432 432" style="enable-background:new 0 0 432 432;" xml:space="preserve">
<style type="text/css">
	.st0{fill:#940808;}
	.st1{fill:#E56B6B;}
	.st2{fill:#1A1A1A;}
	.st3{fill:#DD5151;}
	.st4{fill:#6B313C;}
	.st5{fill:#B65165;}
	.st6{fill:#EB899F;}
	.st7{fill:#9C0000;}
	.st8{fill:#4D4D4D;}
	.st9{fill:#C4924B;}
	.st10{fill:#333333;}
	.st11{fill-rule:evenodd;clip-rule:evenodd;fill:#9C0000;}
	.st12{fill:#F68484;}
	.st13{fill:#AB1F1F;}
	.st14{fill:#A45F6F;}
	.st15{fill:#DEB0B0;}
	.st16{fill:#BA3434;}
	.st17{fill:#A57B7C;}
	.st18{fill:#F2F2F2;}
	.st19{fill:#EC1C24;}
	.st20{fill:#A54550;}
	.st21{fill:#FFFFFF;}
	.st22{fill:#AE5B65;}
	.st23{fill:#F5D3D1;}
	.st24{fill:#687A6E;}
	.st25{fill:#231F20;}
	.st26{fill-rule:evenodd;clip-rule:evenodd;fill:#333333;}
	.st27{fill:#F4E6E5;}
	.st28{fill:#EFBB75;}
	.st29{fill:#D8A160;}
	.st30{fill:#EFDDCA;}
	.st31{fill:#A55B6A;}
	.st32{fill:#92A182;}
	.st33{fill:#CCCCCC;}
	.st34{fill:#944E3C;}
	.st35{fill:#C1272D;}
	.st36{fill:#C67B32;}
	.st37{fill:#72696D;}
	.st38{fill:#E3A8A4;}
	.st39{fill:#9FC8C2;}
	.st40{fill:#8B8285;}
	.st41{fill:#71796C;}
	.st42{fill-rule:evenodd;clip-rule:evenodd;fill:#E9C8C3;}
	.st43{fill:#C06666;}
	.st44{fill:#96A4A5;}
	.st45{fill:#C53C3C;}
	.st46{fill:#EA6B74;}
	.st47{fill:#406D8F;}
	.st48{fill:#77A3C0;}
	.st49{fill:#F25850;}
	.st50{fill:#253245;}
	.st51{fill:#FFAA96;}
	.st52{fill:#E0C8A4;}
	.st53{fill:#39ABA9;}
	.st54{fill:#F6DE96;}
	.st55{fill:#F1D2CD;}
	.st56{fill:#E8C3C3;}
	.st57{fill:#AB2130;}
	.st58{fill:#982A3A;}
	.st59{fill:#E19F78;}
	.st60{fill:#FEDED2;}
	.st61{fill:#FFB0A1;}
	.st62{fill:#DB3434;}
	.st63{fill:#C76B6A;}
	.st64{fill:#E05E90;}
	.st65{fill:#CE9F5C;}
	.st66{fill:#FF8D71;}
	.st67{fill:#B75041;}
	.st68{fill:#FCE4B6;}
	.st69{fill:#B24A58;}
	.st70{fill:#3C0303;}
	.st71{fill:#8B1111;}
	.st72{fill:#B02121;}
	.st73{fill:#29285B;}
	.st74{fill:#E6E6E6;}
	.st75{fill:#D59D79;}
	.st76{fill:#F0C880;}
	.st77{fill:#B3B3B3;}
	.st78{fill:#C6C6C6;}
	.st79{fill:#A6A6A6;}
	.st80{fill:#603813;}
	.st81{fill:#BC2A34;}
	.st82{fill:#999966;}
	.st83{fill:#666633;}
	.st84{fill:#CC6666;}
	.st85{fill:#663333;}
	.st86{fill-rule:evenodd;clip-rule:evenodd;fill:#FEDED2;}
	.st87{fill:#534741;}
</style>
<g>
	<path class="st46" d="M121.2,267c0.3-0.6,0.4-0.9,0.6-1.3c0.9-2.2,2.3-4,4.2-5.4c3.4-2.6,7.8-2.7,11.4-0.4c1.9,1.3,3.4,3,4.7,4.9
		c2.4,3.6,3.9,7.6,4.9,11.8c1.2,5.1,2.3,10.1,3.4,15.2c1.4,6,3.4,11.9,6.3,17.3c3.5,6.6,8.5,11.8,15,15.6c2.5,1.5,5.2,2.4,8.1,2.9
		c0.3,0.1,0.5,0.1,0.8,0.1c1,0.3,1.6,1.1,1.6,2c-0.1,0.9-0.8,1.7-1.9,1.8c-3.1,0.3-6.1,1.1-9.2,0.8c-3.9-0.3-7.7-1-11.5-2
		c-13.4-3.4-25.3-9.5-36.1-18c-4.4-3.5-8.8-7.1-12.6-11.2c-5.1-5.5-9.7-11.4-13.4-17.9c-3.3-5.8-6.6-11.5-9.1-17.7
		c-1.4-3.5-2.4-7-2.9-10.7c-0.3-2.6-0.4-5.3,0.4-7.8c1.5-4.5,4.4-7.6,9.3-8.4c3-0.5,5.7,0.3,8.4,1.6c2.8,1.5,5.1,3.6,7.1,6.2
		c2.5,3.2,4.5,6.8,6.2,10.5c1.3,2.8,2.5,5.8,3.8,8.6C120.8,265.9,121,266.4,121.2,267z M166.8,327.8c0-0.2,0-0.2-0.1-0.2
		c-0.1-0.1-0.2-0.2-0.3-0.3c-6.6-4.2-11.3-10-14.8-16.9c-3.4-6.6-5.5-13.6-7-20.8c-1-4.6-2.4-9.1-4.5-13.4c-1.1-2.3-2.5-4.5-4.3-6.4
		c-1.7-1.8-3.3-1.4-5,0.1c-0.5,0.4-0.9,1-1.1,1.6c-0.6,1.4-1.3,2.7-1.6,4.2c-0.4,2.3-0.6,4.6-0.8,6.9c-0.1,1.6-0.2,3.2-0.3,4.8
		c-0.1,1.5-1.3,2.2-2.6,1.3c-0.4-0.3-0.8-0.6-1.1-1c-0.6-0.8-1.2-1.6-1.6-2.5c-1.3-2.5-2.7-5-3.9-7.6c-1.8-3.9-4-7.6-6.3-11.2
		c-2-3.3-4.4-6.4-7-9.1c-1.5-1.5-3.2-2.9-4.9-4.2c-0.9-0.7-2-1.1-3-1.5c-1.9-0.7-3.3,0.1-4.1,2c-0.5,1.2-0.6,2.5-0.4,3.7
		c0.8,4.8,1.8,9.5,4.3,13.8c1.2,2.2,2.4,4.5,3.6,6.7c5.3,9.6,12,18.1,20.2,25.5c2,1.8,4.1,3.4,6.2,5.1c11.4,9.2,24.2,15.5,38.4,19
		C165.5,327.5,166.1,327.7,166.8,327.8z"/>
	<g>
		<path class="st2" d="M237.2,281.2c15.8-6.5,32-11,48.2-15.9c1.8-0.5,3.6-1.1,5.4-1.6c0.8-0.2,1.3-0.6,1.6-1.5
			c4.6-12.8,9-25.8,12.5-39c2.4-9.2,4.7-18.5,7.1-27.7c0.6-2.4,1.3-4.8,2-7.2c0.1-0.2,0.1-0.5,0.2-1c-0.4,0.3-0.6,0.4-0.8,0.6
			c-3,3.4-6.9,4.8-11.3,5.1c-4.4,0.3-8-1.6-10.7-5c-1.9-2.3-2.8-5-3.5-7.8c-0.8-3.6-1.1-7.3-0.9-11c0-0.4,0-0.8,0-1.2
			c0,0-0.1,0-0.2-0.1c-0.2,0.4-0.4,0.8-0.7,1.2c-3,5.8-6.3,11.5-10.1,16.8c-1.7,2.4-3.7,4.6-6.1,6.3c-2.2,1.6-4.5,2.7-7.2,3
			c-4.8,0.5-8.6-1.4-11.8-4.9c-2.1-2.3-3.3-5.2-4.1-8.1c-0.1-0.4-0.2-0.8-0.4-1.4c-0.4,0.5-0.6,0.8-0.9,1.1
			c-1.9,2.7-3.8,5.4-5.8,8.1c-2.3,3.2-5,6.2-8.1,8.7c-0.2,0.1-0.3,0.3-0.6,0.6c0.4,0,0.7,0.1,0.9,0.1c6.7-0.4,12.6,1.7,18.2,5.3
			c8.8,5.8,14,14.1,16.9,24c1.4,4.7,2.2,9.6,2.1,14.5c-0.2,6.3-1.8,12.3-5.5,17.5c-2,2.8-4.5,5-8,5.9c-4.1,1.1-8,0.5-11.7-1.4
			c-3.3-1.7-6-4.2-8.6-6.9c-3.9-4.1-6.9-8.8-9.5-13.8c-4.5-8.6-7.5-17.8-9.4-27.3c-0.6-3.1-1.1-6.2-1.6-9.3c0-0.2-0.1-0.3-0.2-0.6
			c-0.5,0.3-0.8,0.6-1.2,0.8c-1.8,1.3-3.7,2.2-5.8,2.6c-2.5,0.5-4.8,0.1-7-0.9c-2.8-1.3-5.1-3.3-6.9-5.9c-2.5-3.5-3.7-7.5-4.3-11.7
			c-0.7-4.8-0.5-9.6-0.1-14.4c0.3-4,0.7-7.9,1.7-11.8c0.4-1.3,0.8-2.6,1.3-3.8c1.6-3.6,5.9-4.7,9-2.2c1.9,1.5,2.8,3.6,3,5.9
			c0.2,1.8,0.2,3.6,0.2,5.4c0,4.1,0,8.2,0.1,12.3c0.1,4.8,0.9,9.5,2.8,13.9c0.4,0.9,0.7,1.8,1.2,2.6c0.5,0.7,1,1.4,1.7,1.9
			c1.2,0.9,2.6,0.5,3.4-0.8c0.2-0.3,0.1-0.7,0.1-1c-0.3-3.4-0.6-6.7-0.9-10.1c-0.7-8.2-0.8-16.4-0.7-24.7c0.2-9.5,1-18.9,2-28.3
			c0.9-9.1,2.2-18.1,4.3-27.1c1.3-5.5,2.9-10.8,5.3-15.9c1.1-2.4,2.4-4.7,4-6.8c1-1.4,2.2-2.6,3.6-3.6c3.4-2.3,6.6-1.7,9.1,1.5
			c1.9,2.5,2.9,5.4,3.5,8.4c1.2,6,1.4,12.2,1.3,18.3c-0.1,8.5-0.9,16.9-2.2,25.3c-1.2,7.4-3,14.6-5,21.8c-2.4,8.4-5.4,16.5-8.5,24.7
			c-0.4,0.9-0.6,1.8-0.5,2.8c0.1,2.4,0.2,4.8,0.3,7.2c0,0.5,0.1,0.9,0.2,1.6c0.4-0.3,0.7-0.4,1-0.6c2.6-2,4.9-4.3,6.9-6.9
			c2.7-3.5,5.4-7.1,8.1-10.7c0.4-0.5,0.3-1.1,0.3-1.6c-0.2-6,0.6-12,2.3-17.7c0.7-2.4,1.7-4.8,3.2-6.9c1.4-2,3-3.8,5.2-4.9
			c1.1-0.6,2.4-1,3.6-1.2c4.8-0.6,8.7,2.8,9,7.7c0.2,2.8-0.3,5.5-1.5,8.1c-1.9,4.3-4.7,7.9-8.6,10.6c-0.6,0.4-0.8,0.9-0.8,1.6
			c0.2,2.7,0.6,5.3,1.4,7.9c0.7,2.4,2,4.4,4.1,5.8c0.9,0.6,1.7,0.7,2.6,0.1c1.7-1,3.3-2.2,4.6-3.6c3.8-3.8,7-8.1,9.7-12.7
			c2.7-4.8,5.3-9.8,7.7-14.8c1.4-2.8,2.2-5.9,3.3-8.8c0.6-1.5,1.1-3,1.8-4.5c0.7-1.6,1.8-2.9,3.3-3.8c0.4-0.3,0.9-0.5,1.4-0.7
			c3.2-1.3,6-0.1,7.2,3.2c0.5,1.5,0.7,3,0.6,4.5c-0.3,3-0.6,6-1,9c-0.8,6.5-1.9,12.9-2.1,19.4c-0.1,2.4,0.2,4.8,0.5,7.2
			c0.1,1.3,0.7,2.5,1.6,3.5c0.4,0.5,0.9,0.6,1.5,0.4c1.2-0.4,2.2-1,3.2-1.8c2.7-2.3,4.9-5.1,6.5-8.3c4.4-8.8,8.1-17.8,10.8-27.3
			c1.1-4,2.5-7.8,4-11.7c0.5-1.5,1.4-2.8,2.3-4.1c1.2-1.8,3-2.5,5.1-1.9c0.4,0.1,0.8,0.1,1.2,0.2c1.8,0.5,2.9,2,2.9,4.1
			c0,1.8-0.2,3.6-0.3,5.4c-0.8,9.2-2.6,18.3-5,27.2c-4.3,16.4-8.8,32.8-13.1,49.2c-3.4,12.7-6.7,25.4-10.8,38
			c-0.1,0.2-0.1,0.3-0.2,0.7c0.5-0.2,0.9-0.4,1.3-0.6c15.7-8.4,28.4-20.1,37.7-35.4c6.5-10.7,10.9-22.2,14.2-34.2
			c2-7.6,3.6-15.3,4.4-23.2c0.5-4.4,0.5-8.8,0.3-13.2c-0.2-5.3-0.5-10.7-1.9-15.9c-3.1-12.5-8.9-23.6-18.8-32.1
			c-7.8-6.7-16.9-10.8-27.1-12.3c-5.5-0.8-10.8,0-16.1,1.4c-1.7,0.5-3.3,1.1-5,1.7c-1.6,0.6-3.1,1.5-4.3,2.7
			c-3.6,3.4-6.6,7.1-8.1,11.9c-0.7,2.1-1.1,4.3-1,6.6c0.1,2.6,1.6,4.2,3.8,5.2c2.3,1.1,4.4,0.7,6.4-0.9c0.2-0.1,0.3-0.3,0.5-0.5
			c0.8-0.6,1.5-0.8,2.2-0.4c0.8,0.4,1.1,1.1,1,2c-0.2,1.7-0.9,3.2-2.2,4.4c-1.3,1.1-2.7,2.1-4.1,3c-2.2,1.4-4.6,1.6-7.1,1
			c-2.6-0.7-4.9-2-6.7-4c-4.5-5.2-6.1-11-3.8-17.7c1.3-3.9,3.5-7.4,6.4-10.3c6.1-6,13.2-10.1,21.7-11.7c2.7-0.5,5.3-1,8-1.4
			c4.7-0.6,9.4-0.2,13.9,0.9c17.1,4.1,30.1,13.7,39.2,28.8c3.7,6.2,6.7,12.7,8.2,19.8c0.8,3.7,1.2,7.4,1.7,11.2
			c0.5,5.1,0.6,10.1,0.3,15.2c-0.5,8-1.8,15.8-3.6,23.6c-2,8.3-4.4,16.6-7.9,24.4c-5,11.2-11.3,21.5-19.3,30.8
			c-4.9,5.7-10.6,10.4-16.5,15c-5.9,4.5-12.2,8.2-18.9,11.2c-0.9,0.4-1.4,1-1.7,1.9c-3.6,11.2-7.7,22.3-12.7,33
			c-3.9,8.4-8.4,16.4-14,23.8c-5.4,7.1-11.4,13.6-18.8,18.7c-3.9,2.8-8.1,5.2-12.4,7.3c-4.8,2.3-9.8,3.6-15.1,4.1
			c-2.6,0.3-5.2,0.5-7.9,0.5c-7.4,0.1-14.2-1.9-20.4-5.9c-11.8-7.6-19.3-18.3-23-31.8c-1.7-6.1-2.6-12.3-2.4-18.7
			c0.1-6.1,1.3-11.9,3.5-17.5c2.2-5.6,5.9-10.1,11.2-13.1c6.9-4,14.1-4,21.2-0.7c7.6,3.5,13.4,9.1,17.5,16.5
			C236.8,280.4,237,280.8,237.2,281.2z M226.4,287.5c-0.3-1.1-0.6-2.2-1-3.2c-1.6-5.4-4.9-9.7-9.2-13.3c-0.5-0.4-1-0.8-1.5-1
			c-5.1-1.8-10-1.7-14.7,1.5c-3.2,2.2-5.4,5.2-7,8.7c-2.2,5.2-3.2,10.6-3.1,16.2c0.1,5.3,0.9,10.5,2.3,15.7
			c3.2,11.4,9.5,20.5,19.5,27.1c4.1,2.7,8.6,4.5,13.6,4.9c5.6,0.4,11-0.2,16.4-1.6c5.7-1.5,10.7-4.3,14.6-8.9
			c2.9-3.5,5.5-7.2,7.8-11.2c1.4-2.5,2.8-5,4.1-7.6c2.8-5.6,5.4-11.3,8.2-16.9c2-4.1,4.1-8.2,6.1-12.3c2-4,3.9-8,5.7-12.1
			c0.5-1,0.8-2,1.2-3.2c-0.6,0.2-1.1,0.3-1.5,0.4c-9.6,2.9-19.1,5.9-28.7,8.8c-6.3,1.9-12.6,3.9-18.7,6.5c-0.4,0.2-0.8,0.4-1.3,0.6
			c1.2,3.9,1.9,7.7,2.2,11.6c0.3,4.6-0.3,9-2,13.3c-1.6,3.9-4.1,7-7.8,9c-3.3,1.8-6.7,2.2-10.3,1.1c-5-1.6-8.4-6.2-8-12.3
			c0.6-7.8,3.7-14.3,9.8-19.3C224.2,289.2,225.2,288.4,226.4,287.5z M230.7,204.2c0,0.3-0.1,0.4-0.1,0.5c0.1,0.6,0.2,1.2,0.3,1.8
			c2.2,10.6,6,20.6,11.4,30c2.2,3.8,4.6,7.5,7.5,10.9c2.2,2.6,4.6,5,7.5,6.7c0.7,0.4,1.5,0.8,2.3,1c1.1,0.3,1.5,0,1.9-1
			c0.1-0.3,0.2-0.7,0.3-1c1.5-2.8,2-5.9,2.3-9c0.4-5.4-0.3-10.7-1.9-15.9c-2.7-8.8-7.8-15.7-15.9-20.3c-4.3-2.4-9-3.9-14-3.8
			C231.8,204.1,231.2,204.2,230.7,204.2z M229.3,174.2c0.1,0,0.1,0,0.2,0c0.2-0.4,0.4-0.9,0.5-1.3c2.3-6,4.2-12.1,5.9-18.3
			c3.1-11.3,4.9-22.7,5.6-34.4c0.2-2.7,0.3-5.3,0.4-8c0.2-4.6,0.1-9.3-0.5-13.9c-0.2-1.3-0.5-2.6-0.7-4.1c-0.8,0.4-1.1,1-1.3,1.6
			c-0.7,2-1.4,4-1.8,6c-2.4,10.1-4.3,20.3-5.3,30.6c-0.7,7.8-1.5,15.6-2.1,23.4c-0.4,5.1-0.7,10.2-1,15.3
			C229.2,172.2,229.3,173.2,229.3,174.2z M227.5,293.2c-0.4,0.2-0.6,0.3-0.8,0.5c-4.4,3.3-7.2,7.7-8.5,13c-0.4,1.7-0.6,3.5-0.3,5.2
			c0.3,2.2,1.4,4,3.4,5.2c1.2,0.7,1.7,0.5,2.5-0.6c2.1-2.8,3.3-6.1,3.8-9.5c0.6-3.9,0.4-7.8,0.1-11.6
			C227.7,294.7,227.6,294,227.5,293.2z M258.5,165.4c0.1,0,0.3,0.1,0.4,0.1c2.1-2.5,3.8-5.3,4.5-8.6c0.2-0.8,0.3-1.7,0.2-2.6
			c-0.1-0.7-0.4-1.4-0.7-2.1c-0.4-0.7-1.1-0.7-1.5,0c-0.5,0.7-0.9,1.5-1.1,2.4c-0.5,2.2-1,4.3-1.4,6.5
			C258.7,162.5,258.6,163.9,258.5,165.4z"/>
		<path class="st2" d="M160.2,107.2c-1.9,1-3.7,1.8-5.7,2.2c-5,1-9.4-0.1-13-3.8c-2.3-2.3-3.2-5.1-2.8-8.3c0.5-4.8,4.8-7.7,9.6-6.6
			c2.2,0.5,4.1,1.5,5.8,2.9c2.3,1.7,4.2,3.8,6.1,6c0.4,0.4,0.7,0.9,1.2,1.4c0.5-0.5,1.1-0.9,1.5-1.3c2.1-2,3.8-4.4,5.3-6.8
			c1-1.6,2.1-3.1,3.2-4.7c0.3-0.5,0.8-0.9,1.3-1.2c0.5-0.4,1.1-0.3,1.6,0.1c0.5,0.4,0.6,0.9,0.4,1.5c-0.1,0.2-0.2,0.5-0.4,0.7
			c-2,3.2-3.9,6.5-6,9.7c-1.3,1.9-2.8,3.7-4.3,5.5c0,0,0,0.1,0.1,0.2c5.4,8.1,8.9,17,11.8,26.2c2.4,7.6,4.1,15.5,5.5,23.4
			c1.4,8.2,2.4,16.5,3,24.9c0.6,8.4,0.7,16.9,0.5,25.3c-0.3,13.1-1.7,26.1-4.7,38.9c-1,4.4-2.4,8.7-4.4,12.7c-1,2-2.1,3.8-3.5,5.5
			c-4.4,5.2-10.7,6.6-17,3.9c-2.7-1.2-5-3-7.1-5c-5.2-5.1-8.8-11.2-11.5-17.9c-2.6-6.6-4.3-13.4-5.5-20.3
			c-1.7-10.3-2.1-20.7-1.4-31.1c0.1-1.7,0.2-3.5,0.3-5.2c0-0.1,0-0.2-0.1-0.3c-0.5,0.3-0.5,0.8-0.7,1.2c-2,4.8-4.4,9.5-7.1,14
			c-2.6,4.3-5.7,8.2-9.4,11.5c-2.7,2.4-5.7,4.2-9.2,5.2c-4.7,1.4-9,0.6-13.1-2c-3-1.9-5.2-4.5-6.9-7.6c-2-3.7-3.3-7.6-4.2-11.7
			c-1.6-7.4-2-14.9-1.4-22.4c0-0.5,0.1-0.9,0.1-1.5c-0.5,0.2-0.8,0.3-1.1,0.4c-5,2.3-10.2,3.5-15.7,4.2c-1.7,0.2-3.5,0.3-5.2-0.2
			c-0.5-0.1-1.1-0.3-1.6-0.6c-0.3-0.2-0.5-0.7-0.4-1c0.1-0.3,0.5-0.6,0.8-0.7c0.2-0.1,0.5-0.1,0.8-0.1c6.8-0.2,13.1-2.4,19.2-5.3
			c1.1-0.5,2.1-1.2,3.2-1.7c0.7-0.3,0.9-0.8,1.1-1.5c2.2-11,6.5-21.2,13-30.4c3.2-4.5,7-8.4,11.6-11.5c1.8-1.2,3.8-2.3,5.9-2.6
			c1.3-0.2,2.6-0.3,3.9,0c3,0.6,4.7,3,4.8,6.3c0.1,2.4-0.4,4.7-1.1,7c-1,2.9-2.4,5.6-4.2,8.1c-3.2,4.6-7,8.8-11.2,12.5
			c-2.1,1.9-4.4,3.8-6.6,5.6c-0.6,0.5-1.1,1.1-1.2,1.9c-1,4.6-1.7,9.3-2.1,14c-0.4,4.2-0.7,8.5-0.3,12.7c0.4,5,1.3,9.9,2.9,14.6
			c0.6,1.8,1.5,3.5,2.7,5.1c0.6,0.8,1.3,1.1,2.3,1c3-0.3,5.8-1.3,8.3-3.1c3.5-2.6,6.5-5.7,9-9.3c4-5.6,7.2-11.7,10.1-17.9
			c2.8-6,4.8-12.3,6-18.8c0.6-3.2,1.5-6.4,2.4-9.5c0.7-2.4,2-4.3,4.4-5.4c4.4-2,9.3-0.4,11.7,3.8c1.6,2.9,2.4,6,2.4,9.3
			c0.1,4.2,0,8.4-0.1,12.6c-0.2,6.9-0.5,13.7-0.6,20.6c-0.1,7,0,14.1,0.2,21.1c0.5,11.1,1.9,22,4.9,32.8c0.4,1.5,1,3,1.5,4.5
			c0.6,1.7,1.6,3.1,2.9,4.3c0.7,0.7,1.6,1.2,2.5,1.6c1.5,0.6,2.7,0.3,3.6-1c1-1.5,2-3.1,2.8-4.7c1.9-3.9,3.1-8,4-12.2
			c1.6-6.8,2.4-13.8,3-20.8c0.7-9.3,0.8-18.6,0.4-27.9c-0.6-18.5-2.9-36.9-7.6-54.9c-1.8-7-4-13.9-7.1-20.6
			C163.2,112.1,161.9,109.6,160.2,107.2z M113.3,127.3c-0.7,0.5-1.3,0.9-1.9,1.4c-2.4,2.2-4.6,4.6-6.4,7.5c-3,5-5.7,10.1-7.6,15.6
			c-0.1,0.3-0.2,0.6-0.4,1.2c0.5-0.3,0.7-0.5,0.9-0.7c2.5-2.5,5.1-5,7.5-7.6c2.2-2.3,4.1-4.9,5.6-7.7c1.2-2.2,2.1-4.4,2.4-6.9
			C113.7,129.3,113.8,128.4,113.3,127.3z M157.5,103.3c-1.2-1.7-2.4-3.1-4.1-4.1c-1.2-0.6-2.5-1-3.9-1.1c-1.1-0.1-1.8,0.5-1.9,1.4
			c-0.2,1.2,1,3.7,2.1,4.1C152.2,104.7,154.9,105,157.5,103.3z"/>
		<path class="st2" d="M197.2,154c-3,0.1-5.6-2.2-5.8-5.9c-0.1-2.7,2.8-5.5,5.8-5.5c2.9-0.1,5.9,2.9,6,5.9
			C203.3,151.4,200.5,154,197.2,154z"/>
	</g>
</g>
</svg>
