<?xml version="1.0" encoding="utf-8"?>
<!-- Generator: Adobe Illustrator 21.1.0, SVG Export Plug-In . SVG Version: 6.00 Build 0)  -->
<svg version="1.1" id="Calque_1" xmlns="http://www.w3.org/2000/svg" xmlns:xlink="http://www.w3.org/1999/xlink" x="0px" y="0px"
	 viewBox="0 0 432 432" style="enable-background:new 0 0 432 432;" xml:space="preserve">
<style type="text/css">
	.st0{fill:#D87160;}
	.st1{fill:#D0B188;}
	.st2{fill:#81503F;}
	.st3{fill:#D6A294;}
	.st4{fill:#919677;}
	.st5{fill:#875544;}
	.st6{fill:#1A1A1A;}
	.st7{fill:#A07060;}
	.st8{fill:#989290;}
	.st9{fill:#93A080;}
	.st10{fill:#989898;}
	.st11{fill:#333333;}
	.st12{fill:#A37B72;}
	.st13{fill:#7F7E7B;}
	.st14{fill:#876E67;}
	.st15{fill:#87806E;}
	.st16{fill:#87503E;}
	.st17{fill:#A5B4B7;}
	.st18{fill:#EAB888;}
	.st19{fill:#818084;}
	.st20{fill:#D6B47C;}
	.st21{fill:#A099A6;}
	.st22{fill:#354268;}
	.st23{fill:#A54748;}
	.st24{fill:#B3B3B3;}
	.st25{fill:#B88D52;}
	.st26{fill:#CCCCCC;}
	.st27{fill:#5A6054;}
	.st28{fill:#70796B;}
	.st29{fill:#CCA985;}
	.st30{fill:#D9B442;}
	.st31{fill:#998F8F;}
	.st32{fill:#AD9DAF;}
	.st33{fill:#D9AFA2;}
	.st34{fill:#1B1E55;}
	.st35{fill:#6E8BC4;}
	.st36{fill:#B22931;}
	.st37{fill:#DA8F92;}
	.st38{fill:#C82933;}
	.st39{fill:#191464;}
	.st40{fill:#E4C877;}
	.st41{fill:#AA5539;}
	.st42{fill:#FBB03B;}
	.st43{fill:#A34E4C;}
	.st44{fill:#B27C62;}
	.st45{fill:#C1272D;}
	.st46{fill:#808080;}
	.st47{fill:#AFC1B4;}
	.st48{fill:#C0C9A0;}
	.st49{fill:#D2ACA0;}
	.st50{fill:#BEC1A4;}
	.st51{fill:#713F3E;}
	.st52{fill:#A5A184;}
	.st53{fill:#7A8E78;}
	.st54{fill:#888993;}
	.st55{fill:#6F9B83;}
	.st56{fill:#C67161;}
	.st57{fill:#936357;}
	.st58{fill:#C99587;}
	.st59{fill:#D85B6B;}
	.st60{fill:#8D7867;}
	.st61{fill:#C69C6D;}
	.st62{fill:#BC8A7D;}
	.st63{fill:#D9AD9E;}
	.st64{fill:#C4A1A1;}
	.st65{fill:#BC8370;}
	.st66{fill:#4D2011;}
	.st67{fill:#736357;}
</style>
<g>
	<path class="st56" d="M328.9,91.1c-2-1.8-5.2-1.6-7.1,0.3c-1.8,1.7-2,4.3-1.1,6.4c0.4,0.8,0.3,1.4-0.1,2.2
		c-1.7,2.8-3.4,5.5-5.9,7.6c-1.9,1.6-4,2.8-6.6,3c-0.2,0-0.5,0-0.8,0c0.1-0.2,0.1-0.4,0.2-0.5c3.5-3,5.6-6.8,7-11
		c1.2-3.5,1.9-7.1,2.2-10.8c0.1-0.8,0.2-1.4,0.9-1.9c1-0.7,1.8-1.7,2.1-2.9c1.1-3.5-1.7-7.1-5.3-6.8c-2.3,0.1-4,1.2-4.9,3.4
		c-0.9,2.2-0.4,4.1,1.2,5.8c0.4,0.4,0.9,0.8,1.4,1.3c-0.6,7.2-2.5,13.8-7.8,19.1c-0.3-4-0.6-7.9-1-12c1.4-1,2.5-2.4,2.4-4.5
		c-0.1-1.3-0.7-2.4-1.6-3.2c-2.2-1.9-6-1.4-7.6,0.9c-1.8,2.5-0.9,5.4,2.5,7.6c0.2,3.9,0.4,7.9,0.6,12.1c-0.4-0.3-0.7-0.4-0.9-0.6
		c-2.5-2.5-4.4-5.4-5.8-8.6c-1-2.2-1.7-4.5-2.6-6.7c-0.2-0.6-0.2-1,0.2-1.6c1.1-1.4,1.3-3.2,1-4.9c-0.3-2-1.6-3.2-3.5-3.8
		c-2.4-0.7-5.3,0.5-6.4,2.7c-1.2,2.4-0.7,5.3,1.3,7c0.4,0.3,0.9,0.6,1.4,0.8c0.4,0.2,0.9,0.3,1.5,0.5c1.5,7.4,4.4,14.3,10.4,19.4
		c-1.4,0.2-3.4-0.4-4.8-1.5c-1.7-1.3-3.1-2.8-4.4-4.5c-0.5-0.7-0.9-1.4-1.4-2c-0.7-0.9-1-1.9-0.9-3.1c0.2-2.8-2.6-5.4-5.4-5.4
		c-3,0-5.4,2.6-5.3,5.5c0.2,3.1,2.8,5.3,5.9,5c0.6-0.1,1.2-0.2,1.8-0.3c1.7,3.4,3.8,6.6,7.2,8.6c3.3,1.9,6.8,3.2,10.9,2.4
		c0.5,3.6,0.4,7.2-0.1,10.9c-0.9-1-1.7-1.9-2.5-2.7c-2.8-2.8-6.3-4.6-10-6.1c-2.3-0.9-4.6-1.7-6.9-2.6c-0.4-0.1-0.8-0.2-1.1-0.3
		c-1.5-0.2-2.7,0.5-3.3,1.8c-0.8,1.7-0.7,3.5-0.3,5.3c0.6,2.7,2.1,4.9,3.9,7c2.7,3.1,6,4.9,10.2,5.1c2.4,0.1,4.8,0.1,7.2-0.4
		c0.5-0.1,0.9-0.3,1.4-0.5c0.1,5.3-8.6,20.3-14.5,25.4c0-0.4-0.1-0.7-0.1-1c-0.2-1.8-0.4-3.7-0.7-5.5c-0.3-1.7-0.8-3.5-1-5.2
		c-0.4-2.6-2.6-3.8-5-2.2c-5,3.4-8.3,9.6-3.8,16.6c0.7,1.1,1.7,2.1,2.6,3.3c-0.5,0.3-0.9,0.6-1.4,0.8c-12.4,6.8-25.6,11-39.7,11.2
		c2.4-5.4,4.5-12.7-1.4-15.9c-5.9-3.1-16.1,5.6-18.4,11.3c-2.6-5.5-13.2-13.7-19-10.2c-5.3,3.2-3.5,9.6-1.1,14.7
		c-13.1-0.7-25.3-4.8-36.9-11.1c-0.5-0.3-0.9-0.5-1.4-0.8c0.9-1.2,1.9-2.2,2.6-3.3c4.5-7,1.2-13.2-3.8-16.6c-2.4-1.6-4.6-0.4-5,2.2
		c-0.2,1.7-0.7,3.5-1,5.2c-0.3,1.8-0.5,3.7-0.7,5.5c0,0.3-0.1,0.6-0.1,1c-6-5.1-14.6-20.1-14.5-25.4c0.5,0.2,1,0.4,1.4,0.5
		c2.4,0.5,4.8,0.5,7.2,0.4c4.2-0.2,7.5-2,10.2-5.1c1.8-2.1,3.3-4.3,3.9-7c0.4-1.8,0.4-3.6-0.3-5.3c-0.6-1.4-1.8-2.1-3.3-1.8
		c-0.4,0.1-0.8,0.2-1.1,0.3c-2.3,0.8-4.6,1.7-6.9,2.6c-3.7,1.5-7.1,3.2-10,6.1c-0.8,0.8-1.6,1.7-2.5,2.7c-0.5-3.7-0.6-7.3-0.1-10.9
		c4,0.8,7.5-0.4,10.9-2.4c3.4-2,5.6-5.1,7.2-8.6c0.7,0.1,1.2,0.2,1.8,0.3c3.1,0.3,5.7-1.9,5.9-5c0.2-3-2.2-5.5-5.3-5.5
		c-2.9,0-5.6,2.6-5.4,5.4c0.1,1.2-0.2,2.2-0.9,3.1c-0.5,0.7-0.9,1.4-1.4,2c-1.3,1.7-2.7,3.2-4.4,4.5c-1.4,1-3.4,1.6-4.8,1.5
		c6.1-5.2,8.9-12,10.4-19.4c0.6-0.2,1.1-0.3,1.5-0.5c0.5-0.2,1-0.4,1.4-0.8c2-1.7,2.5-4.5,1.3-7c-1.1-2.2-4-3.5-6.4-2.7
		c-1.9,0.6-3.2,1.8-3.5,3.8c-0.3,1.7-0.1,3.5,1,4.9c0.4,0.6,0.4,1,0.2,1.6c-0.9,2.2-1.7,4.5-2.6,6.7c-1.4,3.2-3.3,6.1-5.8,8.6
		c-0.2,0.2-0.5,0.3-0.9,0.6c0.2-4.2,0.4-8.2,0.6-12.1c3.4-2.3,4.3-5.1,2.5-7.6c-1.7-2.3-5.4-2.8-7.6-0.9c-1,0.8-1.5,1.9-1.6,3.2
		c-0.2,2.1,1,3.5,2.4,4.5c-0.3,4.1-0.6,7.9-1,12c-5.4-5.4-7.3-11.9-7.8-19.1c0.5-0.5,1-0.8,1.4-1.3c1.5-1.7,2-3.7,1.2-5.8
		c-0.9-2.2-2.7-3.2-4.9-3.4c-3.7-0.2-6.4,3.3-5.3,6.8c0.4,1.2,1.2,2.2,2.1,2.9c0.7,0.5,0.8,1.1,0.9,1.9c0.3,3.7,1,7.3,2.2,10.8
		c1.4,4.2,3.5,8.1,7,11c0.1,0.1,0.1,0.2,0.2,0.5c-0.3,0-0.6,0-0.8,0c-2.5-0.3-4.7-1.4-6.6-3c-2.5-2.1-4.2-4.9-5.9-7.6
		c-0.5-0.7-0.5-1.3-0.1-2.2c0.9-2.1,0.7-4.6-1.1-6.4c-1.9-1.9-5.1-2-7.1-0.3c-2,1.7-2.3,4.5-0.7,6.8c0.8,1.1,1.7,1.9,3,2.3
		c0.6,0.2,1,0.6,1.2,1.2c1.1,3.1,2.7,5.8,4.9,8.1c3.6,3.8,7.8,6.6,13.1,7.3c0.1,0,0.3,0.1,0.5,0.2c-0.4,4.6-0.2,9.2,0.7,13.7
		c-0.2,0-0.3,0-0.3,0c-0.3-0.2-0.6-0.5-0.9-0.7c-4.1-3.1-8.6-4.4-13.7-3.7c-1.6,0.2-3.2,0.7-4.4,1.8c-2.1,1.7-2,4.1,0.2,5.5
		c3.3,2.1,6.7,4.1,10.5,5.2c3.3,1,6.6,0.9,9.8-0.5c0.2-0.1,0.4-0.1,0.7-0.2c3.2,9.7,8.5,18.1,16,25.2c-0.7,0.1-1.1,0.2-1.5,0.3
		c-3.1,0.8-6.3,1.4-9.4,2.3c-1.8,0.5-2.4,2.1-1.6,3.9c0.2,0.4,0.4,0.8,0.7,1.1c3.7,5.1,12.2,6.1,17.1,2c1-0.9,2-1.9,3-2.9
		c0.5,0.3,1,0.6,1.5,0.9c7.7,4.9,15.9,8.5,24.8,10.3c6.5,1.3,13.1,1.8,19.7,1.7c3.1,4.9,7.2,9.6,11.8,13.3c1.9,1.5,3.8,2.9,5.9,4.1
		c2-1.3,3.8-2.8,5.6-4.4c4.1-3.7,7.7-8.3,10.5-13c7.5,0.1,14.9-0.3,22.2-1.7c9-1.8,17.2-5.4,24.8-10.3c0.5-0.3,1-0.6,1.5-0.9
		c1,1,2,2,3,2.9c4.9,4.1,13.4,3.1,17.1-2c0.3-0.4,0.5-0.7,0.7-1.1c0.8-1.7,0.3-3.3-1.6-3.9c-3.1-0.9-6.3-1.6-9.4-2.3
		c-0.4-0.1-0.8-0.2-1.5-0.3c7.6-7.1,12.8-15.5,16-25.2c0.3,0.1,0.5,0.1,0.7,0.2c3.2,1.4,6.5,1.5,9.8,0.5c3.8-1.1,7.2-3,10.5-5.2
		c2.2-1.5,2.3-3.8,0.2-5.5c-1.3-1.1-2.8-1.6-4.4-1.8c-5.1-0.7-9.6,0.6-13.7,3.7c-0.3,0.2-0.6,0.5-0.9,0.7c0,0-0.1,0-0.3,0
		c0.9-4.6,1-9.1,0.7-13.7c0.2-0.1,0.3-0.2,0.5-0.2c5.3-0.7,9.5-3.5,13.1-7.3c2.2-2.3,3.9-5,4.9-8.1c0.2-0.6,0.5-1,1.2-1.2
		c1.3-0.4,2.2-1.2,3-2.3C331.2,95.6,330.9,92.8,328.9,91.1z"/>
	<path class="st57" d="M377.2,245c-0.7-1.2-1.6-2.3-2.6-3.4c-1.9-2-4.2-3.6-6.7-5c-5.6-3.1-11.5-5.4-17.7-7.1
		c-0.5-0.1-1-0.3-1.5-0.4c0-0.1,0-0.2,0-0.3c1.2-0.4,2.4-0.8,3.6-1.3c2.5-0.9,4.8-2.2,6.8-4c1.7-1.5,3-3.3,3.7-5.4
		c0.9-2.6,0.3-5.1-1.3-7.2c-1.8-2.4-5-2.9-8.2-1.5c-2.1,0.9-3.9,2.3-5.5,3.9c-1.5,1.5-2.9,2.9-4.3,4.5c-3,3.3-6.8,5.1-11.1,5.9
		c-4,0.8-8,1.3-12.1,1.1c-4.2-0.1-8.3,0.2-12.4,0.9c-0.4,0.1-0.8,0.1-1.5,0.1c0.7-0.7,1.2-1.2,1.6-1.8c2-2.1,3.8-4.5,5-7.2
		c1-2.4,1.5-4.8,0.7-7.3c-1-3.2-2.8-5.5-6.3-6.1c-2.6-0.5-4.7,0.3-6.6,2c-1.2,1.2-2,2.5-2.5,4.1c-0.8,2.8-1.6,5.6-2.4,8.3
		c-0.1,0.2-0.1,0.4-0.1,0.6c-1.3,6.3-4.9,10.6-10.9,12.8c-1.4,0.5-2.8,1-4.3,1.6c-0.3-0.4-0.7-0.7-0.9-1c-5.8-7.3-16.4-10.3-25.1-7
		c-1.7,0.6-3.3,1.5-4.6,2.8c-3.9,3.9-3.7,9.9,0.4,13.9c2.4,2.3,5.3,3.3,8.5,3.5c3.1,0.3,6.2-0.3,9.1-1.1c2.6-0.8,5.1-1.6,7.9-2.5
		c0,0.6,0.1,1.1,0.1,1.7c-0.1,1.6-0.8,3-1.8,4.3c-2.4,3.3-5.8,5.5-9.6,6.8c-9.5,3.2-18.9,2.4-28.3-0.8c-1.8-0.6-3.5-1.4-5.1-2.2
		c0.8-1.4,1.6-2.8,2.2-4.2c2.6-5.4,6-14.2-0.6-17.6c-5.9-3.1-16.1,5.6-18.4,11.3c-2.6-5.5-13.2-13.7-19-10.2
		c-6.4,3.8-2.5,12.4,0.4,17.6c0.8,1.4,1.6,2.8,2.5,4.1c-1,0.5-2.1,0.9-3.2,1.3c-9.3,3.2-18.8,4-28.3,0.8c-3.8-1.3-7.1-3.4-9.6-6.8
		c-0.9-1.3-1.7-2.7-1.8-4.3c0-0.5,0-1.1,0.1-1.7c2.8,0.9,5.3,1.8,7.9,2.5c3,0.9,6,1.4,9.1,1.1c3.2-0.3,6.1-1.3,8.5-3.5
		c4.2-4,4.3-10,0.4-13.9c-1.3-1.3-2.9-2.2-4.6-2.8c-8.7-3.2-19.3-0.2-25.1,7c-0.3,0.3-0.6,0.6-0.9,1c-1.5-0.5-2.9-1-4.3-1.6
		c-6-2.3-9.6-6.5-10.9-12.8c0-0.2-0.1-0.4-0.1-0.6c-0.8-2.8-1.5-5.6-2.4-8.3c-0.5-1.6-1.3-2.9-2.5-4.1c-1.9-1.8-4-2.5-6.6-2
		c-3.4,0.7-5.3,2.9-6.3,6.1c-0.8,2.5-0.3,5,0.7,7.3c1.2,2.7,3,5,5,7.2c0.5,0.5,1,1,1.6,1.8c-0.7-0.1-1.1-0.1-1.5-0.1
		c-4.1-0.7-8.3-1-12.4-0.9c-4.1,0.1-8.1-0.4-12.1-1.1c-4.3-0.8-8.1-2.6-11.1-5.9c-1.4-1.5-2.8-3-4.3-4.5c-1.6-1.6-3.4-3-5.5-3.9
		c-3.1-1.4-6.3-0.8-8.2,1.5c-1.7,2.1-2.2,4.6-1.3,7.2c0.7,2.2,2,3.9,3.7,5.4c2,1.8,4.3,3.1,6.8,4c1.2,0.4,2.4,0.8,3.6,1.3
		c0,0.1,0,0.2,0,0.3c-0.5,0.1-1,0.3-1.5,0.4c-6.2,1.7-12.1,4-17.7,7.1c-2.4,1.4-4.8,2.9-6.7,5c-1,1-1.9,2.1-2.6,3.4
		c-1.8,3.4-0.3,6.8,3.4,7.9c2.8,0.9,5.5,0.6,8.2-0.5c2.4-1,4.5-2.4,6.4-4.1c2.3-2,4.7-4.1,6.8-6.2c4.2-4.1,9.1-6.9,14.5-8.9
		c1.3-0.5,2.6-0.8,3.9-0.9c-0.3,0.4-0.6,0.6-0.9,0.9c-2.1,1.9-4.3,3.7-6.4,5.6c-2,1.9-3.6,4.1-4.6,6.7c-0.6,1.6-0.9,3.2-0.6,4.9
		c0.5,3.3,3.5,5.2,6.7,4.4c1.4-0.3,2.6-1,3.4-2.1c0.9-1.2,1.8-2.5,2.4-3.9c1.1-2.6,1.9-5.2,2.8-7.9c1.3-3.7,3.5-6.5,6.8-8.6
		c1.9-1.2,3.9-1.8,6.1-1.8c6.2,0.1,12.2,1,18.2,2.3c0.3,0.1,0.7,0.2,1.2,0.4c-0.9,0.3-1.5,0.5-2.2,0.7c-3.6,1.1-7.1,2.2-10.5,3.9
		c-3.3,1.7-6.2,3.7-8.4,6.8c-1.3,1.8-2.2,3.7-2.2,6c-0.1,4.1,3,6.9,7.1,6c0.9-0.2,1.8-0.5,2.6-1c0.9-0.5,1.7-1.2,2.3-2
		c1.9-2,3.3-4.4,4.4-6.9c0.6-1.3,1.1-2.7,2-3.8c2.7-3.5,6.3-5.4,10.6-6c3.4-0.5,6.7-0.1,9.8,1.6c-1.6,7.4,1.5,12.9,6.9,17.5
		c3,2.5,6.5,4.2,10.2,5.3c9.9,3,19.6,2.6,29.3-0.8c2.6-0.9,5.1-2,7.5-3.3c2.2,2.5,4.6,4.9,7.1,7c1.9,1.5,3.8,2.9,5.9,4.1
		c2-1.3,3.8-2.8,5.6-4.4c2.5-2.3,4.8-4.8,6.9-7.6c2.8,1.8,5.8,3.1,8.9,4.2c9.7,3.4,19.5,3.8,29.3,0.8c3.7-1.1,7.2-2.8,10.2-5.3
		c5.4-4.6,8.5-10.1,6.9-17.5c3.1-1.7,6.4-2.2,9.8-1.6c4.3,0.7,7.9,2.6,10.6,6c0.8,1.1,1.4,2.5,2,3.8c1.1,2.5,2.5,4.9,4.4,6.9
		c0.7,0.8,1.5,1.5,2.3,2c0.8,0.5,1.7,0.8,2.6,1c4.1,0.8,7.2-1.9,7.1-6c-0.1-2.2-1-4.2-2.2-6c-2.1-3.1-5.1-5.1-8.4-6.8
		c-3.3-1.7-6.9-2.8-10.5-3.9c-0.6-0.2-1.3-0.4-2.2-0.7c0.5-0.2,0.8-0.3,1.2-0.4c6-1.4,12-2.2,18.2-2.3c2.2,0,4.3,0.6,6.1,1.8
		c3.2,2.1,5.5,4.9,6.8,8.6c0.9,2.6,1.8,5.3,2.8,7.9c0.6,1.4,1.5,2.7,2.4,3.9c0.8,1.1,2.1,1.8,3.4,2.1c3.2,0.8,6.2-1.2,6.7-4.4
		c0.3-1.7,0-3.3-0.6-4.9c-1-2.6-2.6-4.8-4.6-6.7c-2.1-1.9-4.3-3.7-6.4-5.6c-0.3-0.3-0.7-0.5-0.9-0.9c1.4,0.1,2.7,0.4,3.9,0.9
		c5.4,2,10.4,4.8,14.5,8.9c2.2,2.2,4.5,4.2,6.8,6.2c1.9,1.7,4.1,3.1,6.4,4.1c2.7,1.1,5.4,1.4,8.2,0.5
		C377.5,251.7,379,248.3,377.2,245z M272.4,236.6c-1.9,0.6-3.8,1.1-5.6,1.6c-2.1,0.5-4.3,0.9-6.5,0.8c-1.4-0.1-2.8-0.3-4.1-1.1
		c-1.2-0.7-2.1-1.7-2-3.2c0.1-1.4,1.3-2,2.4-2.5c5.7-2,11-1.1,15.7,2.7c0.4,0.3,0.7,0.7,1.1,1.1C273,236.3,272.7,236.5,272.4,236.6z
		 M159.6,235c4.7-3.8,10-4.8,15.7-2.7c1.2,0.4,2.3,1,2.4,2.5c0.1,1.5-0.8,2.5-2,3.2c-1.2,0.8-2.6,1-4.1,1.1
		c-2.2,0.1-4.4-0.3-6.5-0.8c-1.9-0.5-3.8-1.1-5.6-1.6c-0.3-0.1-0.6-0.3-1-0.5C159,235.7,159.3,235.3,159.6,235z"/>
	<g>
		<path class="st58" d="M194.7,326.3c-4.2-2.3-8.7-3.8-13.4-4.6c-2.9-0.5-5.9-0.7-8.9-1.1c-3.8-0.5-6.8-2-7.8-6.2
			c-0.4-1.6-0.9-3.2-1.4-4.8c-0.9-2.9-2.8-5-5.5-6.4c-4.8-2.4-9.6-2.3-14.5-0.6c-0.5,0.2-0.9,0.4-1.3,0.7c-2.1,1.4-2.2,3.1-0.3,4.8
			c2,1.7,4,3.4,5.9,5.1c1.8,1.7,3.6,3.5,5.4,5.2c0.5,0.5,1.1,0.9,1.8,1.5c-3.3,0.3-6.3,0.5-9.2-0.2c-0.8-0.2-1.6-0.7-2.4-1.1
			c-0.4-0.2-0.8-0.6-1-1c-0.6-0.9-0.3-1.6,0.7-1.9c0.5-0.2,1.1-0.2,1.6-0.3c0.6-0.1,1.1-0.4,1.2-1.1c0.1-0.7-0.3-1.1-0.9-1.4
			c-3-1.3-7,0.6-6.9,4.2c0,1.7,0.7,3.1,1.8,4.4c0.3,0.3,0.6,0.6,0.9,1c-1.3,0.2-2.5,0.5-3.6,0.6c-1.4,0.2-2-0.5-1.8-1.9
			c0.1-1,0.2-1.9,0.4-2.9c1.2-6.1-2.8-10.5-6.9-12.1c-2.2-0.8-4.4-1-6.6-0.2c-2.3,0.9-2.9,2.7-1.8,4.8c0.7,1.4,1.3,2.8,2,4.1
			c1.2,2.4,2.5,4.8,3.7,7.2c0.1,0.3,0.3,0.5,0.5,1c-0.5-0.1-0.7-0.2-0.9-0.3c-4.8-1.8-9.8-1.8-14.8-0.8c-3.8,0.8-6.7,3-8.8,6.2
			c-2.5,3.6-3.3,7.8-3.7,12.1c-0.2,2.1,1.1,3.4,3.4,3.2c4.4-0.2,8.7-0.5,13-1.1c4.5-0.6,8.4-2.8,11.6-6.2c0.2-0.2,0.4-0.4,0.8-0.7
			c-0.3,1.4-0.5,2.5-0.7,3.7c-0.3,1.7-0.7,3.5-1,5.2c-0.2,1.4,0.4,2.3,1.9,2.4c0.9,0.1,1.9-0.1,2.7-0.3c2.3-0.7,4.3-1.9,6-3.6
			c2.1-2,3.2-4.5,3-7.5c-0.1-0.6-0.1-1.3-0.1-1.9c-0.1-2.3,0.8-3.4,3.1-3.7c5.2-0.6,10.4-1.1,15.6-1.7c0.5,0,0.9,0,1.4,0
			c0,0.1,0,0.1,0,0.2c-1.4,0.6-2.9,1.2-4.3,2c-4.2,2.3-7.3,5.6-8.6,10.3c-0.8,3.1-0.5,6.1,1,9c1,2,2.5,2.3,4.2,1
			c1.4-1.1,2.9-2.2,4.2-3.4c2-1.7,3.8-3.5,5.1-5.8c1.2-2,2.3-4.1,3.6-6.1c1-1.5,2.3-2.8,3.5-4.2c0.4-0.4,1-0.7,1.5-1
			c-0.5,1.6-1.4,2.8-1.8,4.3c-1.9,6,3.2,11.6,9.2,10.3c1.7-0.3,3.1-1.1,4.1-2.6c1.5-2.2,0.8-5.2-2.2-6.5c-0.6-0.2-1.2-0.2-1.6,0.4
			c-0.4,0.5-0.3,1.1,0.2,1.7c0.2,0.3,0.5,0.5,0.7,0.7c0.6,0.7,0.5,1.4-0.3,2c-0.3,0.2-0.7,0.4-1.1,0.5c-1.5,0.3-2.9,0-4-1.2
			c-1-1.2-1.1-2.6-0.6-4c0.9-2.4,2.6-3.9,5-4.7c3.4-1.1,6.9-1.4,10.4-0.4c3.3,0.9,6.4,2.1,9.1,4.4c3.4,2.8,3.8,6.9,1.1,10.5
			c-1.5,1.9-3.3,3.3-5.5,4.3c-1.9,0.8-3.8,1.5-5.7,2.3c-0.6,0.3-1.3,0.5-1.8,0.9c-0.9,0.8-0.5,2,0.6,2.2c0.5,0.1,1.1,0.1,1.6,0
			c2.3-0.6,4.6-1.1,6.8-1.8c2.9-1,5.4-2.6,7.4-4.9c4.6-5.1,4.7-12,0.2-17.2C199.2,329.2,197.1,327.6,194.7,326.3z"/>
		<path class="st58" d="M333.8,340.3c-0.4-4.3-1.2-8.5-3.7-12.1c-2.1-3.2-5.1-5.3-8.8-6.2c-5-1.1-9.9-1-14.8,0.8
			c-0.2,0.1-0.5,0.1-0.9,0.3c0.2-0.5,0.4-0.7,0.5-1c1.2-2.4,2.5-4.8,3.7-7.2c0.7-1.4,1.3-2.8,2-4.1c1.1-2.2,0.4-4-1.8-4.8
			c-2.2-0.9-4.4-0.7-6.6,0.2c-4.1,1.6-8.1,6-6.9,12.1c0.2,1,0.3,1.9,0.4,2.9c0.2,1.4-0.4,2.1-1.8,1.9c-1.2-0.1-2.3-0.4-3.6-0.6
			c0.4-0.4,0.7-0.7,0.9-1c1.1-1.2,1.8-2.7,1.8-4.4c0.1-3.6-3.9-5.5-6.9-4.2c-0.6,0.3-0.9,0.7-0.9,1.4c0.1,0.7,0.6,1,1.2,1.1
			c0.5,0.1,1.1,0.1,1.6,0.3c1,0.3,1.3,1,0.7,1.9c-0.3,0.4-0.6,0.8-1,1c-0.8,0.4-1.6,0.9-2.4,1.1c-2.9,0.8-5.9,0.6-9.2,0.2
			c0.7-0.6,1.3-1,1.8-1.5c1.8-1.7,3.5-3.5,5.4-5.2c1.9-1.8,3.9-3.4,5.9-5.1c1.9-1.6,1.8-3.4-0.3-4.8c-0.4-0.3-0.8-0.5-1.3-0.7
			c-4.9-1.7-9.8-1.8-14.5,0.6c-2.7,1.4-4.6,3.5-5.5,6.4c-0.5,1.6-1.1,3.2-1.4,4.8c-1,4.2-4,5.7-7.8,6.2c-3,0.4-5.9,0.6-8.9,1.1
			c-4.7,0.8-9.2,2.2-13.4,4.6c-2.4,1.3-4.5,3-6.3,5c-4.5,5.2-4.4,12.1,0.2,17.2c2.1,2.3,4.6,3.9,7.4,4.9c2.2,0.7,4.5,1.3,6.8,1.8
			c0.5,0.1,1.1,0.1,1.6,0c1.1-0.2,1.5-1.5,0.6-2.2c-0.5-0.4-1.2-0.7-1.8-0.9c-1.9-0.8-3.9-1.4-5.7-2.3c-2.2-1-4-2.4-5.5-4.3
			c-2.7-3.5-2.3-7.6,1.1-10.5c2.6-2.2,5.8-3.5,9.1-4.4c3.5-1,7-0.7,10.4,0.4c2.3,0.8,4.1,2.3,5,4.7c0.5,1.4,0.5,2.8-0.6,4
			c-1.1,1.2-2.5,1.5-4,1.2c-0.4-0.1-0.8-0.2-1.1-0.5c-0.8-0.5-0.9-1.3-0.3-2c0.2-0.3,0.5-0.5,0.7-0.7c0.5-0.6,0.6-1.3,0.2-1.7
			c-0.4-0.5-1-0.6-1.6-0.4c-3,1.3-3.7,4.3-2.2,6.5c1,1.5,2.4,2.3,4.1,2.6c6.1,1.2,11.1-4.4,9.2-10.3c-0.4-1.4-1.3-2.7-1.8-4.3
			c0.5,0.3,1.1,0.6,1.5,1c1.2,1.3,2.5,2.7,3.5,4.2c1.3,1.9,2.4,4,3.6,6.1c1.3,2.3,3.2,4.1,5.1,5.8c1.4,1.2,2.8,2.3,4.2,3.4
			c1.7,1.3,3.2,1,4.2-1c1.5-2.9,1.8-5.9,1-9c-1.3-4.8-4.4-8-8.6-10.3c-1.4-0.8-2.8-1.3-4.3-2c0-0.1,0-0.1,0-0.2c0.5,0,0.9,0,1.4,0
			c5.2,0.5,10.4,1.1,15.6,1.7c2.2,0.3,3.1,1.4,3.1,3.7c0,0.6-0.1,1.3-0.1,1.9c-0.2,3,0.8,5.5,3,7.5c1.7,1.6,3.7,2.9,6,3.6
			c0.9,0.3,1.8,0.4,2.7,0.3c1.4-0.1,2.1-1,1.9-2.4c-0.3-1.7-0.6-3.5-1-5.2c-0.2-1.1-0.5-2.3-0.7-3.7c0.4,0.3,0.6,0.5,0.8,0.7
			c3.2,3.4,7.1,5.5,11.6,6.2c4.3,0.6,8.7,0.8,13,1.1C332.7,343.7,334,342.4,333.8,340.3z"/>
		<path class="st58" d="M233.6,297.5c-5.9-3.1-16.1,5.6-18.4,11.3c-2.6-5.5-13.2-13.7-19-10.2c-6.4,3.8-2.5,12.4,0.4,17.6
			c3.2,6,8,11.8,13.5,16.3c1.9,1.5,3.8,2.9,5.9,4.1c2-1.3,3.8-2.8,5.6-4.4c5.2-4.8,9.7-10.8,12.6-17
			C236.8,309.7,240.2,300.9,233.6,297.5z"/>
	</g>
</g>
</svg>
