<?xml version="1.0" encoding="utf-8"?>
<!-- Generator: Adobe Illustrator 21.1.0, SVG Export Plug-In . SVG Version: 6.00 Build 0)  -->
<svg version="1.1" id="Calque_1" xmlns="http://www.w3.org/2000/svg" xmlns:xlink="http://www.w3.org/1999/xlink" x="0px" y="0px"
	 viewBox="0 0 432 432" style="enable-background:new 0 0 432 432;" xml:space="preserve">
<style type="text/css">
	.st0{fill:#EFC9AF;}
	.st1{fill:#C69C6C;}
	.st2{fill:#020203;}
	.st3{fill:#603914;}
	.st4{fill:#C1292E;}
	.st5{fill:#A67D52;}
	.st6{fill:#343434;}
	.st7{fill:#C7B29A;}
	.st8{fill:#754D24;}
	.st9{fill:#412413;}
	.st10{fill:#1B1B1B;}
	.st11{fill:#9E1460;}
	.st12{fill:#E7267A;}
	.st13{fill:#998675;}
	.st14{fill:#676767;}
	.st15{fill:#BEC1A5;}
	.st16{fill:#8D7968;}
	.st17{fill:#A6A184;}
	.st18{fill:#5B4841;}
	.st19{fill:#C1A07F;}
	.st20{fill:#72403F;}
	.st21{fill:#AA8767;}
	.st22{fill:#D6B394;}
	.st23{fill:#A34F4D;}
	.st24{fill:#B47B61;}
	.st25{fill:#E5C292;}
	.st26{fill:#B4AFA8;}
	.st27{fill:#9E9A98;}
	.st28{fill:#F39323;}
	.st29{fill:#F9B03D;}
	.st30{fill:#50B162;}
	.st31{fill:#106B40;}
	.st32{fill:#8C633A;}
	.st33{fill:#231F20;}
	.st34{fill:#2C2F32;}
	.st35{fill:#E52328;}
	.st36{fill:#C2C3C3;}
	.st37{fill:#2DABE3;}
	.st38{fill:#F9EA31;}
	.st39{fill:#E52629;}
	.st40{fill:#746458;}
	.st41{fill:#0D71B9;}
	.st42{fill:#E52521;}
	.st43{fill:#F6D9A7;}
	.st44{fill:#F4A5A6;}
	.st45{fill:#6E6F70;}
	.st46{fill:#929497;}
	.st47{fill:#F29A26;}
	.st48{fill:#E0C399;}
	.st49{fill:#F9CBCC;}
	.st50{fill:#EBDA8C;}
	.st51{fill:#30358C;}
	.st52{fill:#F6DEB8;}
	.st53{fill:#FFFFFF;}
	.st54{fill:#959FA1;}
	.st55{fill:#6A737A;}
	.st56{fill:#6CC0A9;}
	.st57{fill:#2C7179;}
	.st58{fill:#F2F2F2;}
	.st59{fill:#D83747;}
	.st60{fill:#C92C3F;}
	.st61{fill:#E67525;}
	.st62{fill:#FFD471;}
	.st63{fill:#F0832C;}
	.st64{fill:#90CDBC;}
	.st65{fill:#1E1B3C;}
	.st66{fill:#3C3C3B;}
	.st67{fill:#E94E1B;}
	.st68{fill:#BE1622;}
	.st69{fill:#665F4A;}
	.st70{fill:#3A3320;}
	.st71{fill:#13110C;}
	.st72{fill:#EDECED;}
	.st73{fill:#24211E;}
	.st74{fill:#DBD9DA;}
	.st75{fill:#D01419;}
	.st76{fill:#E1E0E0;}
	.st77{fill:#ECECEC;}
	.st78{fill:#F8F8F9;}
	.st79{fill:#6A6621;}
	.st80{fill:#89454C;}
	.st81{fill:#CBC135;}
	.st82{fill:#F8C8CB;}
	.st83{fill:#C45853;}
	.st84{fill:#729BA5;}
	.st85{fill:#F8AB00;}
	.st86{fill:#3B3835;}
	.st87{fill:#FAD3D7;}
	.st88{fill:#ECBABB;}
	.st89{fill:#F8CFB4;}
	.st90{fill:#844C16;}
	.st91{fill:#D49F61;}
	.st92{fill:#55514F;}
	.st93{fill:#B57D44;}
	.st94{fill:#FCE1E4;}
	.st95{fill:#D5D4D4;}
	.st96{fill:#B92932;}
	.st97{fill:#97C01E;}
	.st98{fill:#00AED3;}
	.st99{fill:#FFCE00;}
	.st100{fill:#E30613;}
	.st101{fill:#F28E36;}
	.st102{fill:#9B6228;}
	.st103{fill:#F6A753;}
	.st104{fill:#CB3749;}
	.st105{fill:#E4E1E1;}
	.st106{fill:#FDEA00;}
	.st107{fill:#53BFCC;}
	.st108{fill:#C2171F;}
	.st109{fill:#EA5139;}
	.st110{fill:#0098B0;}
	.st111{fill:#F28B00;}
	.st112{fill:#898584;}
	.st113{fill:#FAB84F;}
	.st114{fill:#E74310;}
	.st115{fill:#CC5E16;}
	.st116{fill:#00A33A;}
	.st117{fill:#F18600;}
	.st118{fill:#2C2523;}
	.st119{fill:#006633;}
	.st120{fill:#063141;}
	.st121{fill:#1488A9;}
	.st122{fill:#5CBCB8;}
	.st123{fill:#00472A;}
	.st124{fill:#ECC876;}
	.st125{fill:#EBA700;}
	.st126{fill:#F4E3BC;}
	.st127{fill:#BEBBBB;}
	.st128{fill:#A29F9D;}
	.st129{fill:#72C4BE;}
	.st130{fill:#DACCA3;}
	.st131{fill:#AAC5DD;}
	.st132{fill:#1B6DA2;}
	.st133{fill:#F9B233;}
	.st134{fill:#F39200;}
	.st135{fill:#5E5957;}
	.st136{fill:#BACFDD;}
	.st137{fill:#DBC6AF;}
	.st138{fill:#B17F4A;}
	.st139{fill:#467A97;}
	.st140{fill:#95C11F;}
	.st141{fill:#1D71B8;}
	.st142{fill:#2FAC66;}
	.st143{fill:#00A19A;}
	.st144{fill:#0B3958;}
	.st145{fill:#3AAA35;}
	.st146{fill:#1B4B64;}
	.st147{fill:none;}
	.st148{fill:#EBD53E;}
	.st149{fill:#EFF0F1;}
	.st150{fill:#F1BE00;}
	.st151{fill:#DFA600;}
	.st152{fill:#DAEEEE;}
	.st153{fill:#E9E7EA;}
	.st154{fill:#DE0B15;}
	.st155{fill:#AA1918;}
	.st156{fill:#76232F;}
	.st157{fill:#DC0C1F;}
	.st158{fill:#DC3015;}
	.st159{fill:#AA7F47;}
	.st160{fill:#DAAC71;}
	.st161{fill:#342D45;}
	.st162{fill:#F6F5F9;}
	.st163{fill:#1B1814;}
	.st164{fill:#E03D13;}
	.st165{fill:#BF2B17;}
	.st166{fill:#F5F0EF;}
	.st167{fill:#F19500;}
	.st168{fill:#D8870D;}
	.st169{fill:#31AD71;}
	.st170{fill:#2F7C55;}
	.st171{fill:#1A1814;}
	.st172{fill:#4B4845;}
	.st173{fill:#FAEEF0;}
	.st174{fill:#D19B09;}
	.st175{fill:#F1D7B5;}
	.st176{fill:#FCFCFD;}
	.st177{fill:#93BEC8;}
	.st178{fill:#D8D3D2;}
	.st179{fill:#4D4843;}
	.st180{fill:#4EABB8;}
	.st181{fill:#383835;}
	.st182{fill:#D5DADB;}
	.st183{fill:#9EBABB;}
	.st184{fill:#B4181C;}
	.st185{fill:#DD6A10;}
	.st186{fill:#F0F0F1;}
	.st187{fill:#753811;}
	.st188{fill:#DB0D1B;}
	.st189{fill:#DA213C;}
	.st190{fill:#BCDBB6;}
	.st191{fill:#9A9999;}
	.st192{fill:#4DA354;}
	.st193{fill:#DBBC9A;}
	.st194{fill:#A48A7B;}
	.st195{fill:#C5C2C2;}
	.st196{fill:#CC1417;}
	.st197{fill:#44403D;}
	.st198{fill:#F8D000;}
	.st199{fill:#974493;}
	.st200{fill:#F0811A;}
	.st201{fill:#58B034;}
	.st202{fill:#5BC4E9;}
	.st203{fill:#F8D71A;}
	.st204{fill:#E52921;}
	.st205{fill:#DDAE76;}
	.st206{fill:#F9DCBB;}
	.st207{fill:#CC6F22;}
	.st208{fill:#9CCDC5;}
	.st209{fill:#49998B;}
	.st210{fill:#9F3148;}
	.st211{fill:#DDA519;}
	.st212{fill:#EDC4A2;}
	.st213{fill:#5F3B17;}
	.st214{fill:#191517;}
	.st215{fill:#D9A67E;}
	.st216{fill:#C47713;}
	.st217{fill:#A91917;}
	.st218{fill:#DBC8CE;}
	.st219{fill:#9C6E80;}
	.st220{fill:#BC738E;}
	.st221{fill:#1E1E1C;}
	.st222{fill:#EAEAEA;}
	.st223{fill:#4E4D4D;}
	.st224{fill:#E7E6E6;}
	.st225{fill:#FED063;}
	.st226{fill:#FCBF0A;}
	.st227{fill:#AA5A9F;}
	.st228{fill:#833081;}
	.st229{fill:#882C87;}
	.st230{fill:#A4B639;}
	.st231{fill:#B9C95E;}
	.st232{fill:#D690BB;}
	.st233{fill:#AB6F97;}
</style>
<g>
	<g>
		<g id="_x34_xadUL_1_">
			<g>
				<path class="st126" d="M363,213.2c-4.7,11.3-10.8,21.9-17.8,31.8c-2.4,3.4-5,6.8-7.6,10.1c-0.1,0.1-0.2,0.2-0.3,0.3
					c-0.7,0.9-1.4,1.8-2.2,2.7c-11,13.3-23.2,25.3-36.1,36.6c-8.5,7.5-17.1,14.9-25.7,22.2c-10,8.6-20,17.2-30,25.8
					c-0.3,0.3-0.6,0.5-0.9,0.8c0,0,0,0-0.1,0c-5.3,4.6-10.6,9.1-15.9,13.7c-2.9,2.5-5.8,5.1-8.7,7.6c-1.8,1.6-3.9,2.2-6.1,2.4
					c-1,0.1-2.3-0.8-3.2-1.5c-5.8-4.7-11.6-9.4-17.2-14.3c-11.6-10-23.3-19.9-34.6-30.1c-19-17.2-37.6-34.8-54.4-54.3
					c-15.7-18.2-28.2-38.3-36.3-61c-4.4-12.3-6.3-25.1-6.7-38.1c-0.4-13.7,1.2-27.1,5.2-40.2c3.9-12.5,11.3-22.6,20.9-31.2
					c8-7.2,16.7-13.2,27-16.6c20.6-6.8,40.4-4.2,59.3,6.1c16.4,9,27.3,22.8,33.9,40.1c0.2,0.4,0.3,0.8,0.4,1c0,0,0,0,0,0
					c2.6-5,5-10.2,7.8-15c7.4-12.6,17-23.3,28.8-31.8c13.8-9.9,29.5-14.6,46.3-15.4c18.5-0.9,35.2,4.3,49.5,16.1
					c10.7,8.9,18.4,20.1,24.3,32.7c6.4,13.7,9.5,28.1,10,43.2C373.4,176.3,370.6,195.2,363,213.2z"/>
			</g>
		</g>
		<g>
			<g id="_x32_SW6TW_1_">
				<g>
					<path class="st120" d="M345.2,245c-2.4,3.4-5,6.8-7.6,10.1c-0.1,0.1-0.2,0.2-0.3,0.3c-0.7,0.9-1.4,1.8-2.2,2.7
						c-11,13.3-23.2,25.3-36.1,36.6c-8.5,7.5-17.1,14.9-25.7,22.2c-10,8.6-20,17.2-30,25.8c-0.3,0.3-0.6,0.5-0.9,0.8c0,0,0,0-0.1,0
						c-5.3,4.6-10.6,9.1-15.9,13.7c-2.9,2.5-5.8,5.1-8.7,7.6c-1.8,1.6-3.9,2.2-6.1,2.4c-1,0.1-2.3-0.8-3.2-1.5
						c-5.8-4.7-11.6-9.4-17.2-14.3c-11.6-10-23.3-19.9-34.6-30.1c-19-17.2-37.6-34.8-54.4-54.3c-15.7-18.2-28.2-38.3-36.3-61
						c-4.4-12.3-6.3-25.1-6.7-38.1c-0.4-13.7,1.2-27.1,5.2-40.2c3.9-12.5,11.3-22.6,20.9-31.2c8-7.2,16.7-13.2,27-16.6
						c20.6-6.8,40.4-4.2,59.3,6.1c16.4,9,27.3,22.8,33.9,40.1c0.2,0.4,0.3,0.8,0.4,1c0,0,0,0,0,0c0.6,2.2,1.2,4.4,1.7,6.6
						c2.2,9.7,2.7,19.4,2.3,29.3c-0.1,1.6-0.4,3.3-0.7,4.9c-0.4,1.9-1.7,3.1-3.2,3.1c-1.5,0.1-2.7-0.9-3.4-2.9c-1.7-5-3.1-10-5-14.9
						c-1.3-3.3-2.7-6.7-4.7-9.7c-6.8-10.6-21.3-14.1-32.6-8c-9.9,5.3-15.5,13.8-18,24.6c-2.5,10.9-0.9,21.5,3.4,31.6
						c2,4.7,4.2,9.2,6.6,13.4c1.4,2.4,2.8,4.8,4.4,7.1c10.4,15.5,24,27.2,41.1,34.9c6.6,3,13.6,5.4,21.2,7.2c2.4,0.6,4.7,1,6.9,1.4
						c8,1.4,15.8,1.8,27,1.8c11.3-0.1,23.8-1.1,36.3-2.8C308,252.2,326.6,248.8,345.2,245z"/>
				</g>
			</g>
			<g id="_x32_SW6TW_2_">
				<g>
					<path class="st121" d="M335.1,258.1c-11,13.3-23.2,25.3-36.1,36.6c-6.5,5.7-13,11.3-19.5,16.9c-2.1,1.8-4.1,3.5-6.2,5.3
						c-9.8,8.5-19.7,16.9-29.5,25.3c-0.2,0.1-0.3,0.3-0.5,0.4c-0.3,0.3-0.6,0.5-0.9,0.8c0,0,0,0,0,0.1c-0.6-0.2-1.1-0.4-1.7-0.6
						c-23.8-8.4-45.2-20.6-63.7-37.3c-7.6-6.9-14.5-14.6-19.1-23.9c-10.2-20.5-11.6-41.8-3.5-63.8c0.7-1.9,1.5-3.8,2.4-5.6
						c3.6-7.5,8.5-14.1,14.9-19.6c1.6-1.4,3.3-2.7,5.1-4c13.9-9.7,29.1-12.3,45.1-7.5c12.1,3.7,22,10.7,30.3,19.9
						c4.9,5.4,8.7,11.4,11.9,17.9c0.5,1.1,0.9,2.2,1.2,3.4c0.4,1.4,0,2.6-1,3.2c-0.9,0.6-2.1,0.4-3.3-0.6c-2.9-2.5-5.6-5.2-8.6-7.7
						c-2-1.7-4.2-3.2-6.5-4.5c-8.3-4.3-19.1-1.2-24.5,6.9c-3.2,4.8-4.5,9.7-4.4,14.9c0.1,2.4,0.5,4.9,1.2,7.4
						c1.5,5.3,4.2,9.9,7.7,13.7c1.7,1.9,3.6,3.6,5.7,5.2c21,15.9,44.5,20.7,70.7,13c8.1-2.4,14.1-5.1,23.6-10.4
						C329,261.9,332,260.1,335.1,258.1z"/>
				</g>
			</g>
			<g id="_x32_SW6TW_3_">
				<g>
					<path class="st122" d="M284.9,290.4c-0.1,0.7-0.6,1.1-1.6,1.1c-2.5,0-4.9-0.1-7.3,0.1c-1.7,0.1-3.3,0.2-4.9,0.7
						c-5.5,1.5-9.9,8.5-6.2,13.8c3,4.2,8.7,5.4,14.6,5.6c-2.1,1.8-4.1,3.5-6.2,5.3c-9.8,8.5-19.7,16.9-29.5,25.3
						c-0.2,0.1-0.3,0.3-0.5,0.4c-2.2-2.7-4.1-5.6-6-8.7c-0.7-1.2-1.4-2.4-1.9-3.7c-2.5-5.1-3.9-10.4-4.2-15.7
						c-0.1-1.4-0.1-2.7,0-4.1c0.5-10.6,5.2-18.4,14-22.9c6.7-3.4,14.2-4.3,22.3-3.5c4.7,0.5,9.3,1.7,13.9,3.4
						c0.8,0.3,1.5,0.7,2.2,1.1C284.5,288.9,284.9,289.7,284.9,290.4z"/>
				</g>
			</g>
		</g>
	</g>
	<circle class="st124" cx="306.7" cy="131.9" r="36.3"/>
</g>
</svg>
