<?xml version="1.0" encoding="utf-8"?>
<!-- Generator: Adobe Illustrator 20.1.0, SVG Export Plug-In . SVG Version: 6.00 Build 0)  -->
<svg version="1.1" id="Calque_1" xmlns="http://www.w3.org/2000/svg" xmlns:xlink="http://www.w3.org/1999/xlink" x="0px" y="0px"
	 viewBox="0 0 432 432" style="enable-background:new 0 0 432 432;" xml:space="preserve">
<style type="text/css">
	.st0{fill:none;}
	.st1{fill:#020203;}
	.st2{fill:#12100B;}
	.st3{fill:#12100E;}
	.st4{fill:#EDCCA3;}
	.st5{fill:#EB5C2C;}
	.st6{fill:#F49523;}
	.st7{fill:#F39208;}
	.st8{fill:#95C11F;}
</style>
<g>
	<g>
		<g>
			<path d="M184.1,125.5c2.3-0.4,4.4-0.5,6.6-0.9c2.7-0.5,5.3-1,7.7-2.5c0.6-0.5,1.2-1,1.8-1.5c0.4-0.4,0.9-0.9,1.3-1.5
				c0.8-1,1.4-2.3,2.3-3.5c0-0.9,0-1.7-0.1-2.7c0-0.4,0-0.8-0.1-1.2c-0.3-0.6-0.5-1.4-0.8-1.9c-0.2-0.3-0.5-0.2-0.8,0
				c-1.4,1.6-3.1,2.8-4.7,4.1c-1.9,1.4-3.9,2.7-6,3.9c-1.4,0.8-3.2,1.4-4.9,1.6c-4.1,0.8-8.6,1.3-12.8,1.4c-2.5,0.2-5.1,0.1-7.6-0.2
				c-0.5,0-0.8-0.1-1.3-0.1c-0.9,0.1-1.8,0.1-2.6,0.2c-2.5,0-4.9,0-7.4,0.4c-2.9,0.5-5.7,0.9-8.3,2c-1.7,0.7-3.4,1.4-4.8,2.5
				c-1.9,1.4-3.2,3.2-4.6,4.9c-0.2,0.1-0.3,0.3-0.3,0.5c-0.2,0.5,0.1,1.1,0.7,1.3c0.7,0.2,1.6,0.4,2.3-0.1c2-0.7,3.9-1.5,5.4-3
				c0.8-0.7,2-1.4,3.3-1.9c3.1-1.1,6.2-1.7,9.3-2.2c2.2-0.2,4.1-0.1,6.3,0l0.5,0.1c0.2,0.1,0.3,0.3,0.3,0.4c0.1,0.2-0.1,0.4-0.1,0.5
				c-0.3,1.8-0.7,3.2-1,5c-0.4,2.3-0.7,4.6-1.2,6.9c-0.4,2.1-0.6,4.2-1.1,6.3c-0.1,0.6-0.4,1.4-0.5,2.1c-0.3,2.3-0.6,4.5-0.9,6.9
				c-0.5,2.3-0.8,4.8-1.3,7c-0.7,3.5-1.3,6.9-2.1,10.3c-0.9,3.8-1.4,7.6-1.9,11.5l-0.5,7.3c-0.1,1.3-0.1,2.6-0.3,4
				c0.1,0.5,0.2,1.1,0.6,1.8c0.4,1,1.2,1.9,1.7,3.1c0.6,0.7,1.3,1.5,2.3,1.6c0.4,0.2,0.5,0.4,0.8,0.5c1.5,0.6,4.1-0.1,5-1.3
				c0.2-0.3,0.4-0.6,0.4-0.9c0.4-2.4,0.9-4.8,0.8-7c0-1.4,0.2-2.6,0.4-3.8c0-0.9,0.2-1.8,0.3-2.8c0.2-3,0.4-6,0.8-8.9
				c0.7-3.3,1.2-6.6,1.5-9.8l0.8-8c0.1-0.5,0.2-1.1,0.2-1.6c0.1-0.6,0.2-1.4,0.2-2.1c0.2-0.8,0.1-1.6,0.4-2.5
				c0.3-1.1,0.5-2.3,0.5-3.2c0.2-3.8,0.5-7.5,0.8-11.2c0.4-2.3,0.4-4.5,0.8-6.8c0.2-1.3,0.5-2.6,0.3-3.9c0,0,0-0.1,0.1-0.2
				c0.5-0.5,1.2-0.3,1.7-0.4c2.8,0.1,5.7,0.1,8.5,0.1C183.4,125.5,183.7,125.6,184.1,125.5z"/>
			<path d="M255.1,202l-0.3-0.3c-0.5,0-0.5-0.3-0.6-0.7c-0.9-1.7-1.9-3.5-2.6-5.1c-0.9-1.8-1.7-3.8-2.3-5.9c-0.4-0.4-0.7-1-0.8-1.6
				c-0.7-2.3-1.9-4.2-3.7-6c-0.3-0.3-0.5-0.4-0.6-0.6c0.1-0.3-0.1-0.6,0.2-0.7c0.7-0.3,1.2-0.6,1.7-1.1c4.3-1.4,7.3-4.2,9.6-7.8
				c0.5-0.3,0.6-0.7,0.7-1c0.6-1,1.1-8.7-2.7-5.8l-6.1,6.9c-0.2,0.3-0.6,0.4-0.8,0.5c-2.2,1.4-4.9,2.3-7.3,3.2
				c-0.7,0.3-1.8,0.5-3,0.5c-2.5,0.1-2.9-0.4-2.9-2.6c0.1-0.9,0.3-1.6,0.2-2.5c0.6-8.2-0.2-8.8,0.4-9.4c2.1-2.3,4-4.4,6.3-6.9
				c2-1.8,3.4-4.1,5-6.2c1.3-1.8,2.2-3.3,3.2-5.1c0-0.3,0.1-0.5,0.2-0.5c1-2.2,1.8-4.2,2.6-6.3c1-2.4,1.4-4.7,0.5-7
				c-0.3-1.6-3.1-3.7-5.7-3.5c-7.1,0.9-11.3,3.9-12.4,5.5c-0.9,0.6-1.4,1.3-2,1.8c-0.6,0.5-4.5,8.8-6,14.2c-0.6,2.3-1.4,4.7-1.5,7
				c0,3.2,0.1,5.4-0.2,9.2c-0.4,0.7-0.7,1.5-1.2,2.2c-2.4,3.9-3,6.5-6,10.1c-0.9,1.2-4.2,4.2-5.5,5c-3.2,1.9-6.6-0.6-8.3-4.4
				c-1.3-3.1-1.5-6.3-1.2-9.6c0.5-4,0.3-7.8-0.6-11.8c-0.4-1.9-2.5-3.1-4.5-2.6c-1.8,0.3-2,0-2,1.9c-0.3,1.2-0.5,1.8-1.8,1.7
				c-0.8-0.1-1.4,0-2.3-0.1c-1.7-0.3-3.2,0.1-5,0.3c-2.2,0.6-3.5,2-4.2,3.9c-0.5,2.1-1.3,3.9-1.8,5.6c-0.5,1.8-0.5,3.6,0.3,5.4
				c1.2,2.8,2.9,5.1,5.3,6.9c2.1,1.3,4.9,1.1,6.6-0.6c1.1-1,2-2.4,2.7-3.3c0.3-0.4,0.5-0.5,1-0.6c1,0.4,1.2,1.4,1.4,2
				c0.7,1.9,1.7,3.4,2.9,5c2.6,3.4,5.7,5.6,10.2,5.5c0-0.1,0.3,0,0.4-0.1c0.6,0,1.6-0.1,2.4-0.4c4.8-1,9.1-8.6,9.4-9.2
				c0.4-0.8,0.7-1.4,1-2.1c0,0.3-0.1,0.6-0.1,0.9c0.2,2.6,0.2,5.5-0.1,8.3c-0.1,1.4,0,2.6,0.1,3.7c0,1.7,0.2,3.4,1.8,5.1
				c0.3,0.2,0.5,0.5,0.6,0.7c0.6,0.8,3.3,1.2,4.4,1.1c0.9-0.1,1.8-0.5,2.2-1.4c0.2-1.4,1.1-2.7,1.1-4.2c0.2-1.4,0.3-2.7,0.2-4.1
				c0.1-0.5,0-1,0-1.3c0.1-0.9,0.8-1.4,1.4-1c1.9,0.4,3.4,1.3,4.1,2.8c0.8,1,1.2,1.9,1.4,3.1c1.6,4.1,3.6,8.5,6.1,12.5
				c1.1,2.5,3.1,4.4,5.5,6c0.5,0.4,1.4,0.8,2.2,1.1c0.6,0.2,1.1,0.1,1.7,0.1c0.9-0.2,2.1-0.3,2.9-0.7c1.4-0.5,1.8-1.9,0.7-3
				C258.2,202.8,257.3,201.5,255.1,202z M233.9,154.8c2-8.8,3-16.6,7.9-21.3l0.7-1.2c0.5-0.8,1.2-1.6,2.1-2c0.5-0.4,0.7-0.6,1.2-0.9
				c0.6-0.2,1.2,0.1,1.3,0.5c0.1,0,0.2,0.2,0.2,0.3c0.1,0.9,0.5,2,0.3,3.1c-0.7,2.3-1.3,4.3-2.2,6.3c-1.3,1.7-1.6,3.7-2.9,5.4
				c-1,1.8-2.1,3.4-3.2,5.1c-1.5,1.6-2.1,3.2-3.6,5c-0.5,0.5-0.7,0.8-1.4,1.5c-0.2,0.1-0.4-0.2-0.4-0.4
				C233.9,155.6,233.8,155.1,233.9,154.8z M193,162.3c-1.3,3-2.7,5.6-4.1,8.4c-0.6,0.9-1.3,1.9-2.6,2.4c-0.3-0.5-0.5-0.6-0.5-1.1
				c-0.1-0.7-0.2-1.4-0.1-2.2c0.5-2.3,1.3-4.8,1.9-7c0.2-1,1.1-1.8,1.8-2.5c0.8-0.7,1.8-1,3.1-0.8c0.5,0.1,0.9,0.7,0.9,1.3
				C193.3,161.2,193.2,161.8,193,162.3z"/>
			<path d="M293,160.5c0,0-0.1,0-0.2-0.2c-0.2,0.5-0.5,0.5-0.5,0.6c-1.4,1.4-6.3,7.2-7,8c-0.7,0.8-1.6,1.8-2.2,2.6
				c-0.8,0.5-1.2,1.4-1.8,2.1c-0.6,0.5-9.6,9-11,5.1l-0.7-0.8c-0.4-1.1-0.7-2.1-0.7-3.2c-0.1-1.2,0.3-3.8,0.2-5
				c0.2-1.4,0.8-2.3,2-3.2c2.1-1.4,3.8-3,5.3-5c0.5-0.5,1.3-1.2,1.9-2.3c3.2-5.7,1.6-8.5-4.1-8.8c-0.6,0-1.2-0.1-1.6,0.1
				c-1.2,0.5-2.7,1-3.8,1.7c-1.7,1.6-3.4,3.2-4.6,5.2c-0.8,1.3-1.5,2.6-2.2,3.9c-0.5,1.7-1.1,3.5-1.2,5.2c-0.2,1.9-0.4,5.7,0.1,7.4
				c0.3,0.7,0.5,1.3,0.5,1.8c1,2.4,2.2,4.8,4,6.9c0.9,1.1,1.9,1.7,3.4,2c7.7,0.8,10.4-2,11.3-2.5c0.9-0.8,2.4-1.4,3.1-2.9
				c1.9-2.3,3.7-4.6,5.5-6.6c3.4-5.7,6.4-7.1,6.7-10C295.3,161.1,295.2,161,293,160.5z M270.1,159.6c0.7-1.5,1.8-2.9,3-4.3
				c0.5-0.7,1.1-1.3,2-1.8c0.5-0.4,1-0.2,1.1,0.5c0.2,0.7-0.1,1.5-0.3,2c-0.5,1.4-1.4,2.8-2.4,4.1c-0.5,0.6-0.9,1.1-1.4,1.9l-2,1.5
				c-0.3,0.3-0.5,0.1-0.6-0.3C269.2,162,269.6,160.7,270.1,159.6z"/>
		</g>
		<g>
			<path d="M185.7,201.3l-0.6-0.2c-0.4-0.1-0.9-0.2-1.3-0.2c-0.4,0-0.8-0.1-1.3-0.1c-1.9,0.1-3.9,0.2-5.8,0.4
				c-0.1,0-0.4,0.1-0.4,0.1c-1.2,0.1-2.5,0.1-3.6,0.3c-0.7,0.1-1.3,0.1-1.9,0.4c-1.6,0.3-3.1,0.5-4.4,0.7c-0.7,0.1-1.3,0.2-1.9,0.4
				c-0.4,0.1-0.7,0.6-0.8,1c0.1,0.8,0,1.8,0.1,2.6c0,0.3,0.3,0.4,0.5,0.5c0.7,0.1,1.2-0.1,1.2-0.7c0.1-0.6,0.1-1.3,0.4-1.8
				c0.8-0.4,1.8-0.4,2.8-0.4c0.7,0,1.6-0.1,2.5,0.1c0.1,0.2,0.1,0.5,0.1,0.8c-0.1,1.5-0.3,3.1-0.2,4.6c0,1.6-0.3,3.1,0,4.6
				c0,0.1,0,0.4-0.1,0.6c0,0.8-0.1,1.7-0.1,2.6v1.5c-0.1,1.6-0.1,3.2-0.2,4.9c-0.1,1.4-0.4,2.8-0.4,4.2c-0.1,1.2-0.2,2.4-0.1,3.5
				c0,1.3,0.1,2.7,0.1,4c0.1,0.9,0.1,1.7,0.1,2.6c-0.1,1-0.1,2.2,0,3.2c0.2,0.5,0.1,1,0.1,1.6c0,0.4-0.3,0.6-0.7,0.7
				c-0.3,0-0.6,0.2-0.8,0.3c-0.2,0.1-0.7,0.1-1,0.1c-0.4,0.2-0.6,0.5-0.4,0.9c0.4,0.5,0.9,0.8,1.4,0.9c1,0.2,2,0.3,2.9,0.2
				c1,0,2-0.1,3,0.1c1,0.1,1.7-0.1,2.2-0.8c0.2-0.2,0.3-0.4,0.3-0.7c-0.1-0.3-0.4-0.4-0.7-0.5c-0.4,0-0.7,0.1-1.1,0.1
				c-0.4,0-0.6-0.2-0.7-0.5c0.2-1.5,0.4-2.9,0.1-4.4c0-0.1,0.1-0.3,0.1-0.5c0.1-0.8,0.1-1.6,0.1-2.4c0.1-0.8-0.1-1.6,0.1-2.2
				c0.1-1.5,0.1-2.8,0.4-4.3l0.3-4.1l0.2-3.8c0.1-0.2,0.1-0.5,0.1-0.8c0-0.7,0-1.3,0.1-1.9c0.1-1.5,0.2-2.9,0.4-4.4
				c0.2-2.6,0.4-5.2,0.3-7.9c-0.1-0.9-0.1-2-0.5-2.8v-0.4c0.1-0.1,0.2-0.2,0.3-0.2c1.7-0.2,3.5-0.4,5.2-0.4c0.3-0.1,0.5,0,0.7,0
				c0.4,1.3,0.5,1.4,1.6,2.2c0.1,0.1,0.1,0.2,0.2,0.2c0.4,0.3,0.9,0.3,1.2-0.1c0.2-0.4,0.4-0.7,0.5-1c0-0.6,0.1-1.3,0.2-2.1
				C186.7,201.9,186.3,201.4,185.7,201.3z"/>
			<path d="M213.6,200.8c-1-0.2-1.9-0.2-2.8-0.2c-0.8,0-1.6,0.2-2.2,0.3c-0.2,0.1-0.3,0.5-0.1,0.6c0.6,0.6,1.2,1,1.9,1.5v1.8
				c-0.1,1.6-0.1,3.3-0.2,4.9c-0.1,1.6-0.5,5.4-0.7,7c-0.1,0.9-0.4,1.2-1.6,1.3h-0.4c-3.4,0.1-3.8,0.1-7.1,0.4h-0.6
				c-1,0-2.2,0.1-3.1,0.1c-0.4,0-0.7-0.1-0.8-0.1c-0.1-0.2-0.1-0.3-0.1-0.4c0.1-1.8,0.4-5.8,0.3-7.4c-0.1-0.8,0-1.4,0-2.2
				c0-1.5,0.4-3.2,0.3-4.9c0.4,0,1.3-0.2,1.7-0.3c0.4-0.1,1.6-0.7,1.7-1.2c0.1-0.2-0.1-0.5-0.8-0.7c-0.7-0.2-1.6-0.5-2.4-0.3
				c-1.1,0.4-2.3,0.4-3.5,0.3c-0.4,0-0.8-0.1-1.3-0.1c-0.4,0-0.7,0.1-1,0.1c-0.6,0.2-1.2,0.5-1.2,0.7c0.1,0.4,0.4,0.6,0.8,0.8
				c0.7,0.4,1,0.9,1,1.6c0,0.3,0.1,0.5,0,0.8c-0.1,2.4-0.2,4.8-0.4,7.2c-0.5,6.1-0.8,9.9-0.7,11.6c0.1,3.5-0.4,6.9-0.2,10.5
				c0.1,1.8,0.1,3.7,0.1,5.7c0,1.3,0.1,2.8,0.7,4c0.1,0.2,0,0.4,0,0.7c-0.5,0.2-1.1,0.3-1.6,0.4c-0.4,0.2-0.8,0.4-0.7,0.7
				c0.2,0.4,0.7,0.4,1,0.4c1.9,0.1,3.8,0.3,5.8,0.4c0.9,0,1.4-0.6,1.9-1.3c-0.6-0.8-1.7-0.5-2.6-1.3c0.1-0.4,0.1-0.7,0.3-1.2
				c0.3-1.1,0.4-2.5,0.3-3.7l0.1-5.5c0.1-1.4,0.1-2.8,0.1-4.3l0.2-4.3c0-1.3,0.2-2.6,0.3-3.9c0.1-1-0.1,0.1,0-0.8
				c0-0.2,0.1-0.2,0.1-0.3c0-0.1,0.1-0.1,0.2-0.1c2-0.2,4-0.3,6.1-0.4h5.1c0.4,0,0.8,0.1,1.3,0.1c0.3,0.1,0.4,0.3,0.5,0.6
				c0,0.2,0,0.4,0.1,0.7c-0.2,1.9-0.1,1.4-0.1,3.2c-0.1,0.9-0.1,1.6-0.1,2.5l-0.2,7.6c0.1,3.3-0.3,6.3,0.4,9.5
				c0,0.1-0.1,0.2-0.1,0.4c-0.1,0.1-0.3,0.1-0.4,0.1c-0.3,0.2-0.7,0.3-0.6,0.7c0.1,0.3,0.4,0.4,0.6,0.5c0.1,0.1,0.2,0.1,0.3,0.2
				c1.6,0.4,3.3,0.2,4.9,0.1c0.6-0.1,1.2-0.3,1.9-0.4c0.2-0.1,0.3-0.3,0.4-0.4c0.1-0.2,0.1-0.7-0.1-0.7c-0.4,0-0.6-0.1-0.9-0.2
				c-0.7-0.1-1.4-0.1-2.2-0.1c0-0.6,0.1-1,0.1-1.6c0-3.7,0.4-7.2,0.3-11c0-0.6,0.1-1.3,0.1-2.1c0.1-2.2,0.4-4.5,0.6-6.8
				c0.1-1-0.2,0.4-0.1-0.6c0.3-2.1,0.7-4.1,0.7-6.1c0-0.7,0.3-3.7,0.4-4.3c0.1-2.3,0.4-4.8,0.3-7.2c0-0.5-0.1-1.2,0.3-1.6l1.6-0.6
				c0.2-0.1,0.3-0.4,0.6-0.6c-0.4-0.3-0.6-0.6-0.9-0.7C215.7,201,214.6,200.8,213.6,200.8z"/>
			<path d="M239.1,207.9c0.2,0.1,0.4,0.5,0.5,0.7c0.9,1,1.7,1,2.1,0.1c0.1-0.1,0.1-0.3,0.1-0.5c0.1-1.3,0.3-2.6,0.5-4
				c0-0.2,0.1-0.4,0.1-0.8c-0.1-0.8-0.4-1.3-1.1-1.6c-0.7-0.1-1.3-0.2-1.9-0.4c-0.5-0.1-0.9-0.1-1.4-0.1l-9-0.2
				c-1.1-0.1-2.2-0.1-3.3,0.1c-0.6,0.1-1.1,0.1-1.7,0.2c-1,0.2-1.9,0.4-2.8,0.5c-0.4,0.2-0.7,0.5-0.7,0.9c-0.1,0.7,0,1.5,0.3,2.2
				c0.1,0.4,0.4,0.5,0.8,0.5c0.4,0,0.7-0.1,0.8-0.6c0.1-0.2,0.1-0.5,0.3-0.8c0.1-0.2,0.4-0.4,0.7-0.2c0.1,0.1,0.4,0.3,0.4,0.4
				c0,0.6-0.1,1.3-0.1,2c0.1,1.4-0.1,2.8-0.2,4.3c-0.2,3.3-0.4,6.6-0.5,10c-0.1,1.9-0.1,3.8-0.2,5.8c-0.4,5.1-0.6,10.1-0.3,15v1.3
				c0,0.4,0.4,0.7,0.1,1.3c-0.4,0.2-0.9,0.1-1.4,0.1h-1.6c-0.1,0-0.4,0.1-0.4,0.3c-0.1,0.3,0,0.7,0.1,0.9c0.3,0.1,0.5,0.3,0.8,0.4
				c1.6,0.6,3.3,0.9,4.9,0.9c1.7,0.1,3.5-0.1,5.3-0.2c1-0.1,1.9-0.1,3-0.2c0.5,0,1,0,1.6,0.1c1.6,0.2,3.4,0.1,5,0
				c0.4-0.1,0.7-0.1,0.9-0.4c0.4-0.4,0.7-1.2,0.9-1.9l0.2-2.4c0.1-0.7-0.1-1-0.7-1.4c-0.2-0.1-0.4-0.2-0.7-0.3
				c-0.4-0.2-0.8-0.1-1,0.4l-0.4,1.6c-0.1,0.5-0.4,0.8-0.9,0.9c-0.4,0.1-0.9,0.2-1.3,0.2l-2.5,0.2c-1.3,0-2.7,0.1-4,0.1
				c-0.7,0-1.3-0.1-1.9-0.2c-0.4-1.6-0.6-3-0.5-4.6c0-0.9,0.1-1.9,0.1-2.9c-0.1-3.4,0.3-6.7,0.6-10c0.1-0.4,0.1-0.8,0.5-1
				c0.7,0,1.4,0.2,2.2,0.3c0.8,0.2,1.6,0.2,2.2,0.2c0.1,0.3,0.2,0.3,0.2,0.4c0.2,1.4,1,2,2,2.6c0.6,0.5,1.2,0,1.2-0.8
				c0-0.3,0-0.7-0.1-1c0-1-0.1-2-0.2-3c-0.1-0.4-0.3-1-0.4-1.5c-0.2-0.6-0.6-0.8-1.2-1c-0.7-0.3-1.2,0.1-1.4,1v0.3
				c-0.1,0.3-0.3,0.6-0.4,0.7c-1.2,0.2-2.3,0.4-3.5,0.2c-0.4-0.1-0.7-0.3-0.7-1v-0.6c0.1-2.8,0.3-5.5,0.4-8c0.1-3.2,0.1-6.4-0.4-9.7
				c0,0,0-0.1,0.1-0.1c0.3-0.4,0.8-0.2,1.3-0.1l7.8,0.1c0.1,0,0.1,0.1,0.1,0.1c0.2,0.4,0.1,1,0,1.4
				C238,206.1,238.2,207.1,239.1,207.9z"/>
		</g>
		<g>
			<path d="M224.7,259.3c0.4,0.2,0.9,0.3,1.4,0.3c0.5-0.2,0.8-0.6,0.6-1.1c-0.3-0.7-0.6-1.4-0.8-2.1c-0.3-0.6-0.5-1.2-1.1-1.4
				c-0.7-0.3-1.4-0.2-2.1,0.3c0,0.7,0.3,1.4,0.5,2.1C223.5,258.2,224.1,258.9,224.7,259.3z"/>
			<path d="M280.7,285c-1.3,1.4-3.2,12-7.3,9.3c-0.3,0.4-0.9-0.5-1.2-0.9c-0.5-0.5-1-1.1-1.4-1.8c-0.6-0.8-1.1-1.7-1.4-2.6
				c-1-2.1-3.2-13.2-3.7-15.4c-0.5-2.2-0.9-4.1-0.1-6.3c1.3-3.5,2.5-7,3.6-10.6c1.4-4.1,2.6-8.2,3.6-12.4c0.8-3.4,1.2-6.8,0.7-10.3
				c-0.1-1.4-0.5-2.7-1.4-3.9c-1-1.1-4.2-2.8-5.7-2.9c-1.1-0.1-2.2-0.2-3.2-0.2c-1.7,0.1-3.4,0.6-4.5,2.2c-0.7,1.1-1.4,2.3-2,3.5
				c-1.1,2.3-2.1,4.6-3,6.9c-0.3,0.6-0.5,1.4-0.6,2c-0.5,2.3-0.9,4.8-0.7,7.2c0.1,3.2,0.4,6.6,0.5,9.9c0,0.5-0.1,0.9-0.1,1.4
				c-0.5,0-1-0.1-1.4-0.1c-0.8,0.1-1.8,0-2.5,0.4c-2,0.8-3.8,2-5,4c-0.4,0.6-0.7,1.1-1,1.7c-0.1,0-0.1,0-0.2,0
				c-0.3,0.5-0.8,0.9-1,1.4c-1.5,2.4-5.7,8.2-7.7,10.2c-1.5,1.8-3.6,3.8-7.6,6.8c-0.3,0.2-0.7,0.4-1.2,0c0-0.2-0.2-0.5-0.2-0.8
				c-0.1-0.6,0.2-3.9,0.2-4.5c0.2-2.3,0.4-6.5,1.4-8.6c1.1-2.1,1.3-5.6-0.6-6c-1.1-0.3-1.9-0.9-3-1.1c-0.9,0.1-1.7,0.4-2.1,1.4
				c-0.3,0.5-0.4,0.9-0.5,1.4c-0.1,0.4-0.3,0.6-0.4,0.9c0,0,0,0.1,0,0.1c-0.3,0.3-0.6,0.9-1,1.9c-0.9,2.3-2.6,5.9-4.9,9.7
				c-1.6,3.8-8.4,12.8-10.7,16.1c-0.3,0.5-0.5,0.8-0.9,1c-0.6,0.5-1.1,1.5-2,1.2c-0.7-0.4-0.5-1.4-0.7-2c0-0.4-0.1-0.8-0.1-1.2
				c0-1.7,0.1-3.4,0.3-5.2c0.4-2.6,0.9-5.2,1.3-7.8c0.1-0.5,0.4-1,0.3-1.5c0.1-2.9,0.4-5.8,0.9-8.6c0.5-2.4-0.8-4.2-2.3-5.9
				c-0.5-0.7-1.4-1.3-2.3-1.6c-1.1-0.5-2.2-0.8-3.4-0.3c-0.2,0.1-0.4,0.1-0.6,0.1c-1.2,0.4-1.6,0.1-2-1l-0.5-2.2
				c-0.2-0.5-0.5-0.9-0.9-1.2c-2.3-1.4-4.7-2.3-7.3-2.2c-2.1,0.1-3.2,1.6-2.5,3.7c0.3,0.8,0.7,1.6,1,2.5c0.4,1.2,1.1,2.2,2,3.1
				l0.7,0.5c1.2,0.4,3.6,5.1,10.1,2.6c0,0.5,0.1,1.2-0.1,1.7c-0.5,2.1-1.1,4.1-1.7,6.1c-1.4,4.2-2.4,8.4-2.4,12.9
				c0,4.1,1.4,7.7,3.9,10.8c0.9,1.2,2,2,3.4,2.3c3.1,0.5,5.9,0.1,8.1-2.3c0.9-0.9,1.7-1.8,2.5-2.8c1.8-2,3.2-4.2,4.5-6.5l1.3-1.8
				c0.4-1,3.4-6.2,4.8-8.7c0.3,2.6,1.2,5,3.1,7.2c1.9,2.2,3.2,2.8,6.1,1.5c0.5,0,0.9-0.3,1.4-0.5c3.9-2.3,8.7-8.5,10.8-11.5
				c0.1-0.1,0.2-0.2,0.3-0.4c0.1,0.2,0.1,0.4,0.2,0.6c0.7,1.9,1.7,3.6,3.2,5.1c0.7,0.7,1.5,1.2,2.6,1.4c2.4,0.5,4.8,0.1,6.9-1.1
				c1.4-0.7,2.7-1.4,3.9-2.5c0.3-0.3,0.5-0.5,0.7-0.6c0.7-0.5,1.3-0.5,1.8,0.2c0.3,0.3,0.5,0.7,0.6,1c0.7,1.4,4.6,16.8,12.2,17.3
				c2.1,0.2,4,0.6,6,0c0.6-0.3,1.1-0.5,1.4-1.1c1.4-2.4,1.6-4.2,2.7-7.4c0.2-0.5,0.4-1,0.4-1.5C282.8,287.2,282.6,285.7,280.7,285z
				 M186.1,264.4c-0.4-0.1-0.7-0.1-0.9-0.3c-1.1-0.9-1.4-2.1-1.4-3.4c0-0.7,0.5-1.3,1.3-1.4c0.7-0.1,1.3,0.3,1.5,1l0.1,0.4
				C186.7,262,186.5,263.2,186.1,264.4z M255,274.6c-1.7,2.4-4,4.1-6.5,5.4c-0.4,0.1-0.5,0.3-0.8,0.4c-1.1,0.4-1.9,0-2.2-1.2v-0.7
				c0.2-3,0.5-5.7,1.5-8.3c0.6-1.5,1.2-3.1,1.6-4.6c0.4-1,1-1.6,2-1.7c0.5-0.1,0.9-0.2,1.4-0.2c0.6,0,1.1,0.2,1.3,0.8l0.3,0.6
				c0.7,2.3,1.4,4.6,2.1,6.9C255.9,273.1,255.7,273.8,255,274.6z M263.9,251.9c-0.5-0.6-0.4-1.3-0.4-1.8c0.5-3.7,0.8-7.4,1.9-10.9
				c0.4-1.5,0.6-3.1,1.3-4.5c0.1-0.1,0.2-0.3,0.5-0.5c0.1-0.1,0.3,0.1,0.5,0.1c0,0,0.1,0.1,0,0.2c0,1.5,0.1,3.2-0.2,4.6
				c-0.5,3.8-1.5,7.4-2.6,11C264.6,250.7,264.5,251.4,263.9,251.9z"/>
			<path d="M313.4,266.5c0,0-0.1,0-0.2-0.2c-0.2,0.5-0.5,0.5-0.5,0.6c-1.4,1.4-6.3,7.2-7,8s-1.6,1.8-2.2,2.6
				c-0.8,0.5-1.2,1.4-1.8,2.1c-0.6,0.5-9.6,9-11,5.1l-0.7-0.8c-0.4-1.1-0.7-2.1-0.7-3.2c-0.1-1.2,0.3-3.8,0.2-5
				c0.2-1.4,0.8-2.3,2-3.2c2.1-1.4,3.8-3,5.3-5c0.5-0.5,1.3-1.2,1.9-2.3c3.2-5.7,1.6-8.5-4.1-8.8c-0.6,0-1.2-0.1-1.6,0.1
				c-1.2,0.5-2.7,1-3.8,1.7c-1.7,1.6-3.4,3.2-4.6,5.2c-0.8,1.3-1.5,2.6-2.2,3.9c-0.5,1.7-1.1,3.5-1.2,5.2c-0.2,1.9-0.4,5.7,0.1,7.4
				c0.3,0.7,0.5,1.3,0.5,1.8c1,2.4,2.2,4.8,4,6.9c0.9,1.1,1.9,1.7,3.4,2c7.7,0.8,10.4-2,11.3-2.5c0.9-0.8,2.4-1.4,3.1-2.9
				c1.9-2.3,3.7-4.6,5.5-6.6c3.4-5.7,6.4-7.1,6.7-10C315.7,267,315.7,266.9,313.4,266.5z M290.6,265.5c0.7-1.5,1.8-2.9,3-4.3
				c0.5-0.7,1.1-1.3,2-1.8c0.5-0.4,1-0.2,1.1,0.5c0.2,0.7-0.1,1.5-0.3,2c-0.5,1.4-1.4,2.8-2.4,4.1c-0.5,0.6-0.9,1.1-1.4,1.9l-2,1.5
				c-0.3,0.3-0.5,0.1-0.6-0.3C289.7,267.9,290,266.7,290.6,265.5z"/>
		</g>
	</g>
	<g>
		<path class="st7" d="M116.8,124.7c0.1-0.2,0.1-0.2,0.2-0.3c-0.1-0.1,0.1-0.2,0.2-0.3c1.7-1.3,3.5-0.9,5.3,0.3l0,0
			c0.6,0.2,1.1,1.2,1.2,1.8c0.1,0.5,0.2,0.7,0.2,1.1c0,0.5-0.1,0.7-0.2,1.3l0,0c0.1,0.3,0.1,0.6,0,1c0.1,0.1-0.1,0.2-0.1,0.4
			c0,0.3-0.4,0.4-0.7,0.5c0.8,6.7,1.8,13.1,3.1,19.5c1.2,6.3,2.7,12.4,4.5,18.3c1.7,6.1,3.4,12.2,5.3,18c0.9,2.9,1.8,5.8,2.7,8.6
			c0.9,2.9,1.7,5.9,2.7,8.6c3.5,11.5,7.1,23,10.4,34.6c1.6,5.9,3.4,11.7,5.1,17.7c0.7,2.1,1.4,4.2,2,6.3c0.6-1.6,1.7-3.5,1.1-5.2
			c-0.1-0.4,0.5-0.5,0.6-0.1c0,0.1,0,0.3,0.1,0.4c0.9,1.3,2.3,2.4,2.5,4.2c0.2-0.6,0.3-1.4,0.4-2.1c0.1-0.3,0.5-0.4,0.7-0.1
			c0.4,0.5,0.7,1.1,0.9,1.8c0.5-1.4,1.1-2.8,2-3.9c0.1-0.2,0.4-0.2,0.6,0.1c0.9,1.4,0.9,2.6,0.2,4l0,0c-0.7,2.6-0.9,5.3-0.8,8
			c0.1,2.7,0.3,5.4,0.5,8.1c0,0,0.1-0.2,0.3-0.2c0.1,0,0.1-0.2,0.3,0c1,0.9,1.2,1.8,0.9,2.9c1.3,1.2,1.3,2.5,0.7,3.8
			c0.4,0.7,0.4,1.3,0.3,1.7c0.6,0.8,0.8,1.8,0.6,2.6c1,1.1,1.1,2.1,0.7,3c2,2.3,3.8,4.9,5.7,7.4c1.9,2.6,3.6,5.2,5.4,7.8
			c1.7,2.2,3.5,4.4,5.2,6.4c1.9,2.1,3.8,3.8,5.8,5.6c3.5,3,7.4,6.2,11.5,8.8c4.2,2.5,8.7,4.2,13.2,4.3c0.3,0,0.3,0.3,0.1,0.5
			c0,0.1,0,0.1,0,0.2c-6.6-0.4-13.8,0-20.1-3.1c4.2,3.6,8.8,6.5,14,8.5c0.3,0.2,0.1,0.5-0.1,0.5c-4.3-0.9-8.6-1.5-12.6-3.4
			c0.3,0.5,0.7,0.8,1,1.1c1.1,1.4,2.4,2.7,3.5,4.3c2.2,1.2,4.4,2.2,6.4,3.8c0.1,0.2,0.1,0.3,0.1,0.3c0,0,0,0,0,0.2
			c-2.7,1.6-6.1-0.1-9-2.2c0.8,0.8,1.6,1.8,2.2,2.7c1.6,2.4,2.8,5.1,4.7,7.3c0.3,0.3,0,0.6-0.3,0.5c-2.3-1.7-5.1-2.3-7.3-4.4
			c0.5,1,1.1,1.9,1.7,2.9c0.7,1,1.3,1.8,2,2.6c1.5,1.7,3.1,2.9,5.2,3.6c0,0,0,0,0.1,0c0,0.1,0.1,0.1,0.1,0.2c0,0.2,0,0.5-0.3,0.3
			c0,0-0.1,0-0.1,0c-4.6-0.3-8.8-3.9-11.9-7.6c0.1,0.2,0.3,0.3,0.3,0.6c2.1,4.1,4.3,8.2,7.3,11.4l0,0l0,0c0.1,0.2,0.1,0.3,0,0.3
			c0,0.2-0.1,0.1-0.3,0.1c0,0-0.1,0-0.1,0c-4.1-1.6-6.8-5.2-9.3-9.3c-2.3-4.1-4.3-8.8-7.1-12.3c3.4,5.7,5,12.5,8.9,17.7
			c0.3,0.3-0.2,0.8-0.4,0.4c-0.1-0.1-0.2-0.2-0.3-0.3l0,0c-5.5-3.8-10.3-9.9-13.4-16.4c0.9,2.6,2,5.2,2.9,7.8
			c0.1,0.5-0.3,0.6-0.6,0.4c-2.2-1-3.8-3-5.2-5.1c0.1,0.6,0.1,1,0.2,1.6c0,0,0,0,0,0.1c0.4,1.9,0.7,3.9,1.1,5.9
			c0.1,0.3-0.4,0.4-0.6,0.3c-1-1.7-2-3.4-2.9-5.2c-0.9-1.8-1.7-3.6-2.5-5.5c0.2,1.9,0.5,3.8,0.7,5.8c0.2,1.9,0.3,3.9,0.3,5.8
			c0.1,0.2,0.2,0.3,0.3,0.5c0.3,0.5-0.5,0.7-0.7,0.3l0,0c0,0-0.1-0.2-0.1-0.3c0,0,0-0.1,0-0.1c-1.8-4.4-2.7-8.8-3.5-13.4
			c-0.2,0.7-0.3,1.3-0.6,2c-0.1,0.3-0.4,0.1-0.6,0c-0.4-1.2-0.9-2.4-1.3-3.5c0,0.6,0.1,1.2,0.1,1.9c0,0,0,0.1,0,0.1l0,0
			c0.1,0.6-0.6,0.9-0.7,0.3c-1.9-6.4-5.9-11.9-8-18.2c0.2,3.6,0.7,7,1,10.6c0.1,0.4,0.3,0.9,0.4,1.3c0.1,0.6-0.6,0.7-0.7,0.3
			c-1.4-3-2.2-6.3-3-9.7c-0.8-3.4-1-6.8-1.3-10.1c0-1-0.1-2-0.1-2.8c0-0.9,0.1-1.9,0.1-2.9c-0.5,1-0.9,2-1.2,3
			c0,0.4-0.1,0.9-0.1,1.1c0,0.3-0.4,0.4-0.6,0.2l0,0c-0.1-0.1-0.1-0.1-0.2-0.3c0.3-6.5,1.4-13,0.4-19.6c0,0,0,0,0-0.1
			c-0.9-0.8-1.6-1.7-1.7-3.3c0,0,0-0.1,0-0.1c-0.3-0.4-0.5-0.8-0.6-1.4c0-0.1,0-0.1,0-0.3c-0.3-0.4-0.5-0.8-0.5-1.2
			c0-0.1,0.1-0.3,0.1-0.4c-0.1,0-0.1-0.1-0.2-0.1c-0.2-0.1-0.3-0.4-0.2-0.5c0.1-0.2,0.2-0.5,0.3-0.7c0,0,0,0,0,0c0,0-0.1,0-0.2-0.1
			c-0.2-0.1-0.3-0.4-0.2-0.5c0.5-0.8,0.2-0.5,1-1l0,0c0.4-6.1-4.1-10.8-7-15.8c-0.2-0.4,0.3-0.9,0.5-0.5c0.4-0.1,0.8,0,1.2,0.3
			c-0.5-1.8-1.1-3.5-1.3-5.4c0-0.3,0.3-0.5,0.5-0.4c0.8,0.9,1.7,1.7,2.5,2.6c0-1.9,0.1-3.6,0.3-5.4c0-0.3,0.4-0.3,0.4-0.1
			c0.9,1,1.6,2.1,2.2,3.1c0-0.9,0.2-1.6,0.3-2.5c0-0.1,0.1-0.3,0.2-0.6c-4.9-19.3-10.9-38.4-17.3-57.3c-1-2.8-2-5.9-2.8-8.8
			c-1-2.9-1.8-5.9-2.7-8.8c-1.8-6-3.4-12.2-5.1-18.7c-1.4-5.7-3.2-11.7-4.8-17.7c-1.6-6-3.1-12.4-3.8-19.1c-0.1,0.1-0.3,0-0.5-0.3
			C116,127.6,116.4,126.2,116.8,124.7z"/>
	</g>
</g>
</svg>
