<?xml version="1.0" encoding="iso-8859-1"?>
<!-- Generator: Adobe Illustrator 19.0.0, SVG Export Plug-In . SVG Version: 6.00 Build 0)  -->
<svg version="1.1" id="Capa_1" xmlns="http://www.w3.org/2000/svg" xmlns:xlink="http://www.w3.org/1999/xlink" x="0px" y="0px"
	 viewBox="0 0 512 512" style="enable-background:new 0 0 512 512;" xml:space="preserve">
<g>
	<g>
		<path d="M499.837,150.271c-7.063-1.358-14.094,2.481-16.764,9.159l-30.095,75.238c-13.685,34.21-34.396,65.835-60.734,93.021
			c2.597-38.905,9.29-77.456,20.02-115.015l38.158-133.552c1.937-6.779-1.108-13.992-7.317-17.331
			c-6.209-3.338-13.906-1.904-18.494,3.449l-43.334,50.556c-19.76,23.053-37.599,47.55-53.439,73.347
			c-5.532-45.495-17.378-85.234-27.763-113.426c-15.303-41.54-30.547-67.315-31.188-68.392C266.183,2.783,261.286,0,256,0
			s-10.183,2.783-12.888,7.324c-0.641,1.077-15.885,26.852-31.188,68.392c-10.385,28.192-22.231,67.931-27.763,113.426
			c-15.84-25.797-33.679-50.294-53.439-73.347L87.389,65.238c-4.588-5.353-12.284-6.789-18.494-3.449
			c-6.209,3.339-9.254,10.552-7.317,17.331l38.158,133.552c10.73,37.559,17.423,76.11,20.02,115.015
			c-26.338-27.185-47.049-58.811-60.734-93.021l-30.095-75.238c-2.67-6.677-9.701-10.515-16.764-9.159C5.103,151.63,0,157.81,0,165
			v120c0,60.143,23.569,116.988,66.366,160.064C109.25,488.229,165.942,512,226,512h30h30c60.058,0,116.75-23.771,159.634-66.936
			C488.431,401.988,512,345.143,512,285V165C512,157.81,506.897,151.63,499.837,150.271z M30,285v-42.11
			c22.146,55.355,56.324,99.578,99.507,134.125c39.837,31.87,69.6,52.329,101.169,104.986C111.544,482,30,388.899,30,285z
			 M150.917,355.724c-0.772-51.187-8.266-102.048-22.335-151.292l-19.3-67.548c72.47,85.194,117.139,190.711,128.707,302.094
			C209.426,400.367,186.365,384.083,150.917,355.724z M234.82,293.876c-7.016-19.118-14.962-37.741-23.8-55.835
			c0.438-81.889,28.073-153.754,44.996-190.131c16.927,36.319,44.528,108.054,44.964,190.13
			c-8.838,18.095-16.784,36.718-23.8,55.836c-8.574,23.365-15.64,47.104-21.18,71.129C250.46,340.98,243.395,317.241,234.82,293.876
			z M402.719,136.883l-19.3,67.549c-14.069,49.244-21.563,100.105-22.335,151.292c-35.512,28.41-58.417,44.519-87.072,83.254
			C285.579,327.595,330.248,222.078,402.719,136.883z M482,285c0,103.581-81.222,197-200.676,197
			c33.49-55.863,65.326-75.633,104.062-107.338c0.082-0.066,0.164-0.131,0.244-0.198c42.361-34.729,74.958-78.062,96.37-131.574V285
			z"/>
	</g>
</g>
<g>
</g>
<g>
</g>
<g>
</g>
<g>
</g>
<g>
</g>
<g>
</g>
<g>
</g>
<g>
</g>
<g>
</g>
<g>
</g>
<g>
</g>
<g>
</g>
<g>
</g>
<g>
</g>
<g>
</g>
</svg>
