<?xml version="1.0" encoding="iso-8859-1"?>
<!-- Generator: Adobe Illustrator 19.0.0, SVG Export Plug-In . SVG Version: 6.00 Build 0)  -->
<svg version="1.1" id="Capa_1" xmlns="http://www.w3.org/2000/svg" xmlns:xlink="http://www.w3.org/1999/xlink" x="0px" y="0px"
	 viewBox="0 0 512.235 512.235" style="enable-background:new 0 0 512.235 512.235;" xml:space="preserve">
<g>
	<g>
		<g>
			<path d="M506.176,211.956C482.27,123.991,394.234,70.643,306.162,88.584c-36.899-35.19-82.148-61.576-132.487-76.117
				l-5.877,20.512c42.759,12.345,81.583,33.848,114.18,62.37c-18.549,6.669-35.328,16.285-49.954,28.16
				c-7.676-5.737-15.681-11.063-24.023-15.895l-10.667,18.475c6.461,3.74,12.713,7.793,18.74,12.133
				c-12.378,12.968-22.631,27.774-30.419,43.817c-9.913-7.211-20.64-13.404-32.054-18.403l-8.533,19.552
				c11.618,5.098,22.427,11.603,32.237,19.29c-10.448,31.124-12.117,65.573-2.861,99.633c0.487,1.804,1.44,3.448,2.763,4.768
				l3.531,3.531l-7.648,7.648c-0.002,0.002-0.004,0.004-0.006,0.006c-12.553,12.557-12.551,32.913,0.006,45.466l0.128,0.128
				L99.883,436.99c-18.186,16.785-19.406,45.105-2.731,63.392c7.773,7.648,18.28,11.873,29.184,11.733
				c12.867-0.104,25.169-5.306,34.208-14.464l73.333-73.333l0.011,0.011c6.021,6.046,14.208,9.437,22.741,9.419
				c8.529,0.015,16.712-3.375,22.731-9.419l7.648-7.648l3.563,3.563c1.32,1.323,2.964,2.275,4.768,2.763
				c14.584,3.928,29.622,5.915,44.725,5.909c15.308,0.022,30.55-2.001,45.322-6.016
				C476.992,398.004,531.071,303.562,506.176,211.956z M112.235,485.3c-7.504-8.993-7.22-21.902,0.128-30.565l30.435,30.435
				C134.134,492.514,121.229,492.798,112.235,485.3z M157.914,470.116l-30.496-30.496l60.88-60.881l30.496,30.496L157.914,470.116z
				 M264.309,409.279c-4.285,4.084-11.022,4.084-15.307,0l-60.8-60.8c-4.225-4.228-4.225-11.079,0-15.307l7.648-7.648l76.091,76.091
				L264.309,409.279z M486.213,293.844c-20.252,80.6-102.008,129.521-182.607,109.269L194.336,293.844
				c-6.048-24.072-6.048-49.266,0-73.338c0.159-0.634,0.333-1.26,0.5-1.89c13.689,14.777,24.407,32.31,31.297,51.687l20.181-7.115
				c-9.147-25.721-24.204-48.589-43.625-66.985c7.455-16.875,17.801-31.871,30.283-44.541c18.361,16.102,34.054,35.15,46.387,56.454
				l18.453-10.688c-13.04-22.513-29.524-42.706-48.732-59.941c15.099-11.489,32.296-20.094,50.667-25.25
				c28.694,29.58,51.364,65.142,66.023,104.86l20.011-7.349c-14.073-38.126-35.036-72.678-61.354-102.251
				c17.121-1.814,34.846-0.701,52.516,3.739C457.543,131.488,506.464,213.244,486.213,293.844z"/>
			
				<rect x="291.529" y="345.28" transform="matrix(0.7071 -0.7071 0.7071 0.7071 -163.2191 317.9548)" width="21.333" height="21.44"/>
			
				<rect x="314.257" y="368.118" transform="matrix(-0.7071 -0.7071 0.7071 -0.7071 286.9301 876.419)" width="21.44" height="21.333"/>
			
				<rect x="337.092" y="345.339" transform="matrix(-0.7071 -0.7071 0.7071 -0.7071 342.0174 853.68)" width="21.44" height="21.333"/>
			<path d="M170.667,85.449c0-47.128-38.205-85.333-85.333-85.333S0,38.321,0,85.449s38.205,85.333,85.333,85.333
				C132.44,170.73,170.614,132.555,170.667,85.449z M85.333,149.449c-35.346,0-64-28.654-64-64c0-35.346,28.654-64,64-64
				c35.332,0.035,63.965,28.668,64,64C149.333,120.795,120.68,149.449,85.333,149.449z"/>
			<path d="M85.333,42.782v21.333c11.782,0,21.333,9.551,21.333,21.333H128C128,61.885,108.897,42.782,85.333,42.782z"/>
		</g>
	</g>
</g>
<g>
</g>
<g>
</g>
<g>
</g>
<g>
</g>
<g>
</g>
<g>
</g>
<g>
</g>
<g>
</g>
<g>
</g>
<g>
</g>
<g>
</g>
<g>
</g>
<g>
</g>
<g>
</g>
<g>
</g>
</svg>
