<?xml version="1.0" encoding="iso-8859-1"?>
<!-- Generator: Adobe Illustrator 19.0.0, SVG Export Plug-In . SVG Version: 6.00 Build 0)  -->
<svg version="1.1" id="Capa_1" xmlns="http://www.w3.org/2000/svg" xmlns:xlink="http://www.w3.org/1999/xlink" x="0px" y="0px"
	 viewBox="0 0 482.22 482.22" style="enable-background:new 0 0 482.22 482.22;" xml:space="preserve">
<g>
	<rect x="248.163" y="124.604" style="fill:#4DCFE0;" width="31.347" height="80.98"/>
	<rect x="331.755" y="124.604" style="fill:#4DCFE0;" width="31.347" height="80.98"/>
</g>
<g>
	<path style="fill:#1185E0;" d="M476.996,194.09l-84.637-80.98c-3.135-2.612-6.792-4.18-10.971-4.18H225.176
		c-4.18,0-7.837,1.567-10.971,4.18l-79.935,76.8H15.673C6.792,189.91,0,196.702,0,205.584v106.58
		c0,8.882,6.792,15.673,15.673,15.673h32.914c6.269,26.122,29.78,45.453,57.992,45.453s51.2-19.331,57.992-45.453h148.898
		c6.269,26.122,29.78,45.453,57.992,45.453s51.2-19.331,57.992-45.453h37.094c8.882,0,15.673-6.792,15.673-15.673v-106.58
		C481.698,201.404,480.131,197.224,476.996,194.09z M106.58,341.943c-15.673,0-28.212-12.539-28.212-28.212
		s12.539-28.212,28.212-28.212s28.212,12.539,28.212,28.212S122.253,341.943,106.58,341.943z M370.939,341.943
		c-15.673,0-28.212-12.539-28.212-28.212s12.539-28.212,28.212-28.212s28.212,12.539,28.212,28.212S386.612,341.943,370.939,341.943
		z M450.351,296.49h-22.465c-7.314-24.555-30.302-42.318-56.947-42.318c-26.645,0-49.633,17.763-56.947,42.318H163.527
		c-7.314-24.555-30.302-42.318-56.947-42.318s-49.633,17.763-56.947,42.318H31.347v-75.233h109.192c4.18,0,7.837-1.567,10.971-4.18
		l79.935-76.8h143.673l75.233,72.098V296.49z"/>
	<rect x="140.539" y="189.91" style="fill:#1185E0;" width="325.486" height="31.347"/>
</g>
<g>
</g>
<g>
</g>
<g>
</g>
<g>
</g>
<g>
</g>
<g>
</g>
<g>
</g>
<g>
</g>
<g>
</g>
<g>
</g>
<g>
</g>
<g>
</g>
<g>
</g>
<g>
</g>
<g>
</g>
</svg>
