<?xml version="1.0" encoding="iso-8859-1"?>
<!-- Generator: Adobe Illustrator 19.0.0, SVG Export Plug-In . SVG Version: 6.00 Build 0)  -->
<svg version="1.1" id="Capa_1" xmlns="http://www.w3.org/2000/svg" xmlns:xlink="http://www.w3.org/1999/xlink" x="0px" y="0px"
	 viewBox="0 0 512 512" style="enable-background:new 0 0 512 512;" xml:space="preserve">
<g>
	<g>
		<path d="M331,151c-21.432,0-41.556,3.356-59.811,9.977c-0.063,0.023-0.126,0.042-0.189,0.064v-19.828l4.394-4.394
			C286.24,125.973,300.661,120,316,120c57.897,0,105-47.103,105-105c0-8.284-6.716-15-15-15h-90c-41.355,0-75,33.645-75,75v0.041
			C228.456,65.603,212.871,60,196,60c-8.284,0-15,6.716-15,15s6.716,15,15,15c24.813,0,45,20.187,45,45v26.041
			c-0.063-0.022-0.126-0.041-0.189-0.064C222.556,154.356,202.432,151,181,151c-87.26,0-150,54.658-150,150
			c0,47.429,15.687,99.894,41.961,140.343C102.559,486.907,140.927,512,181,512c9.18,0,18.424-1.345,27.474-3.997
			c31.536-9.243,63.516-9.242,95.052,0C312.576,510.655,321.82,512,331,512c40.073,0,78.441-25.093,108.039-70.657
			C465.313,400.894,481,348.429,481,301C481,205.749,418.341,151,331,151z M271,75c0-24.813,20.187-45.2,45-45.2h73.493
			C382.524,63.991,352.219,90,316,90c-16.107,0-31.55,4.326-45,12.43V75z M413.88,425.001C390.351,461.225,360.142,482,331,482
			c-6.323,0-12.729-0.938-19.037-2.786c-18.569-5.442-37.263-8.163-55.963-8.163c-18.696,0-37.398,2.722-55.963,8.163
			C193.729,481.063,187.323,482,181,482c-29.142,0-59.351-20.775-82.88-56.999C74.876,389.219,61,342.864,61,301
			c0-75.14,44.86-120,120-120c17.935,0,34.617,2.752,49.584,8.18c3.409,1.236,6.893,2.2,10.416,2.922v32.046
			c-13.204-1.659-26.175-5.506-38.292-11.564c-7.409-3.705-16.42-0.702-20.125,6.708s-0.701,16.419,6.708,20.125
			c20.885,10.442,43.796,15.664,66.708,15.664s45.823-5.221,66.708-15.664c7.41-3.705,10.413-12.715,6.708-20.125
			c-3.705-7.41-12.716-10.414-20.125-6.708c-12.117,6.058-25.088,9.905-38.292,11.564v-32.046c3.523-0.722,7.007-1.686,10.417-2.922
			c14.968-5.428,31.65-8.18,49.585-8.18c75.14,0,120,44.86,120,120C451,342.864,437.124,389.219,413.88,425.001z"/>
	</g>
</g>
<g>
</g>
<g>
</g>
<g>
</g>
<g>
</g>
<g>
</g>
<g>
</g>
<g>
</g>
<g>
</g>
<g>
</g>
<g>
</g>
<g>
</g>
<g>
</g>
<g>
</g>
<g>
</g>
<g>
</g>
</svg>
