<?xml version="1.0" encoding="utf-8"?>
<!-- Generator: Adobe Illustrator 20.1.0, SVG Export Plug-In . SVG Version: 6.00 Build 0)  -->
<svg version="1.1" id="Calque_1" xmlns="http://www.w3.org/2000/svg" xmlns:xlink="http://www.w3.org/1999/xlink" x="0px" y="0px"
	 viewBox="0 0 432 432" style="enable-background:new 0 0 432 432;" xml:space="preserve">
<style type="text/css">
	.st0{fill:#5F3210;}
	.st1{fill:#683C11;}
	.st2{fill:#D60B52;}
	.st3{fill:#020203;}
	.st4{fill:none;}
</style>
<g>
	<g>
		<path class="st0" d="M177.7,211.8c-3.7-22.7-6.6-52.1,4-78.3c3.7-9.1,8.4-17.6,13.9-25.3c-2.4-2.3-4.8-4.5-7.3-6.6
			c-11.4,5-24.2,10.5-37.7,16.5c-18.7,8.4-35.8,16.6-50,23.1c-0.5,20.4,3.7,43.7,13.9,66.4c10.3,22.7,25,41.3,40.5,54.4
			c9.2-4.1,19.8-8.6,31.1-13.6C182.7,236.8,179.8,224.6,177.7,211.8z M164.8,237.8c0.4,0.4,1,1,1.7,1.6c0.6,0.6,1.2,1.1,1.7,1.5
			c0.5,0.4,0.8,0.7,0.8,0.7c0.8,0.7,0.9,1.9,0.2,2.7c-0.7,0.8-1.9,0.9-2.7,0.1c0,0-0.3-0.3-0.8-0.7c-0.5-0.4-1.1-1-1.7-1.6
			c-0.6-0.6-1.3-1.2-1.7-1.6c-0.5-0.4-0.8-0.7-0.8-0.7l-5.4,5.5c-0.7,0.7-2,0.7-2.9-0.2c-0.8-0.9-0.9-2.1-0.1-2.9l5.6-5.4
			c0,0-0.5-0.5-1.3-1.3c-0.8-0.8-1.8-1.9-2.7-3c-1-1.1-1.9-2.2-2.6-3.1c-0.7-0.8-1.2-1.4-1.2-1.4l-6.1,4.8c-0.8,0.7-2.1,0.4-2.8-0.5
			c-0.7-0.9-0.6-2.2,0.2-2.9l6.2-4.6c0,0-1.8-2.4-3.4-4.8c-0.8-1.2-1.6-2.5-2.2-3.4c-0.6-0.9-1-1.6-1-1.6l-6.6,4.1
			c-0.9,0.6-2.1,0.2-2.7-0.8c-0.6-1-0.3-2.3,0.6-2.8l6.7-3.9c0,0-0.4-0.6-0.9-1.6c-0.5-1-1.2-2.3-1.9-3.6c-0.7-1.3-1.3-2.6-1.8-3.6
			c-0.5-1-0.8-1.7-0.8-1.7l-7,3.3c-1,0.4-2.1-0.1-2.6-1.1c-0.5-1.1-0.1-2.3,0.9-2.7l7.1-3.1c0,0-0.3-0.7-0.7-1.7
			c-0.4-1-1-2.4-1.5-3.8c-0.5-1.4-1-2.8-1.4-3.8c-0.4-1-0.6-1.7-0.6-1.7l-7.4,2.5c-1,0.3-2.1-0.3-2.5-1.4c-0.3-1.1,0.2-2.3,1.2-2.6
			l7.4-2.2c0,0-0.2-0.7-0.5-1.8c-0.3-1.1-0.7-2.5-1.1-3.9c-0.7-2.9-1.3-5.7-1.3-5.7l-7.6,1.6c-1,0.2-2.1-0.5-2.3-1.7
			c-0.2-1.2,0.4-2.3,1.5-2.4l7.6-1.4c0,0-0.1-0.7-0.3-1.8c-0.2-1.1-0.4-2.5-0.6-4c-0.2-1.5-0.4-2.9-0.5-4c-0.1-1.1-0.2-1.8-0.2-1.8
			l-7.7,0.7c-1,0.1-2-0.8-2.1-2c-0.1-1.2,0.7-2.2,1.8-2.3l7.7-0.4c0,0,0-0.4-0.1-1.1c0-0.6-0.1-1.5-0.1-2.4c0-0.9,0-1.7,0-2.4
			c0-0.6,0-1.1,0-1.1c0-1.1,0.9-2,1.9-2c1.1,0,1.9,0.9,1.9,2c0,0,0,0.4,0,1c0,0.6,0,1.5,0,2.3c0,0.8,0,1.7,0.1,2.3c0,0.6,0,1,0,1
			l7.7-0.4c1.1-0.1,1.9,0.7,2,1.7c0.1,1-0.7,1.9-1.8,1.9l-7.7,0.7c0,0,0,0.7,0.2,1.8c0.1,1.1,0.3,2.5,0.5,3.9
			c0.2,1.4,0.4,2.8,0.6,3.9c0.2,1.1,0.3,1.8,0.3,1.8l7.6-1.4c1-0.2,2,0.5,2.2,1.4c0.2,1-0.5,1.9-1.5,2.2l-7.6,1.6
			c0,0,0.6,2.8,1.3,5.6c0.4,1.4,0.8,2.8,1,3.8c0.3,1,0.5,1.7,0.5,1.7l7.4-2.2c1-0.3,2.1,0.2,2.3,1.2c0.3,0.9-0.2,2-1.2,2.3l-7.4,2.5
			c0,0,0.2,0.7,0.6,1.7c0.4,1,0.9,2.4,1.4,3.7c0.5,1.3,1.1,2.7,1.5,3.7c0.4,1,0.7,1.6,0.7,1.6l7.1-3.1c1-0.4,2.1,0,2.5,0.9
			c0.4,0.9,0,2-1,2.4l-7,3.3c0,0,0.3,0.6,0.8,1.6c0.5,1,1.1,2.2,1.8,3.5c0.7,1.3,1.4,2.5,1.9,3.5c0.5,0.9,0.9,1.6,0.9,1.6l6.7-3.9
			c0.9-0.5,2-0.2,2.6,0.6c0.5,0.8,0.2,2-0.7,2.5l-6.6,4.1c0,0,0.4,0.6,0.9,1.5c0.6,0.9,1.4,2.1,2.2,3.3c1.6,2.4,3.3,4.7,3.3,4.7
			l6.2-4.6c0.8-0.6,2-0.5,2.6,0.3c0.6,0.8,0.4,1.9-0.4,2.6l-6.1,4.8c0,0,0.4,0.6,1.1,1.4c0.7,0.8,1.6,1.9,2.5,3
			c0.9,1.1,1.9,2.1,2.6,2.9c0.7,0.8,1.2,1.3,1.2,1.3l5.6-5.4c0.8-0.7,1.9-0.7,2.6,0c0.7,0.7,0.7,1.9-0.1,2.6l-5.4,5.5
			C164.1,237.1,164.4,237.3,164.8,237.8z"/>
		<path class="st0" d="M192.5,265.5c-7.4,3-14.4,5.8-21.1,8.2c7.2,4.2,14.2,7.2,20.9,8.8c2.1-1,4.3-1.9,6.4-2.8
			C196.5,275.1,194.4,270.3,192.5,265.5z"/>
		<path class="st0" d="M171.5,89.8c-16.6-9.5-32.8-12.4-44.4-7.2c-11.8,5.3-20.4,19.8-24.2,39.1c11.8-6.4,25.6-13.3,40.4-20
			C153.1,97.3,162.6,93.3,171.5,89.8z"/>
	</g>
	<path class="st2" d="M306.2,81.6c-10.7-6.8-23.2-9.9-35.8-9.9c-12.2,0-24.6,2.9-35.4,8.2c-14.5,7.1-26.7,18.3-36,31.5
		c-5.2,7.4-9.6,15.5-13,23.8c-9.7,23.9-7.8,50.8-3.8,75.8c2,12.1,4.8,24,8.4,35.7c1.8,5.7,3.8,11.4,6,17c2.5,6.2,5.3,12.4,8.3,18.3
		c-1.5,0.6-2.9,1.1-4.3,1.7c-7.8,3.2-15.4,6.8-22.1,11.8c-12.7,9.6-16.5,24.3-19.1,39.3c-1,5.7-1.8,11.4-2.6,17.1
		c-0.7,5,7.2,8.3,13.8,8.3c4.4,0,8.2-1.4,8.6-4.7c2.3-16.1,3-36.5,15-48.6c0.7-0.7-0.1,0,1-0.9c0.7-0.5,1.3-1.1,2-1.6
		c1.5-1.1,3-2.1,4.6-3c3.9-2.3,6.7-3.6,10.7-5.3c0.1-0.1,0.3-0.1,0.4-0.2c2.3,3.7,4.7,7.3,7.4,10.7c2.6,3.4,7.7,4.8,12.2,4.8
		c1,0,1.9-0.1,2.8-0.2c3.7-0.6,8.5-3.3,5.3-7.5c-3.6-4.8-6.9-9.8-9.9-15c5.7-2.3,11.3-4.6,16.8-7.2c23.8-11.5,43.9-28.9,58-51.3
		c9.4-14.9,15.5-31.7,19.8-48.7C333.2,150.1,338.3,102.1,306.2,81.6z M303.3,176.2c-3.6,15.1-8.6,30.2-16.6,43.7
		c-12.9,21.8-30.8,38.8-53.2,50.5c-2.1,1.1-4.2,2.1-6.3,3c-1.3,0.6-2.6,1.1-3.9,1.7c-3-6.4-5.6-12.9-7.9-19.5
		c-2-5.8-3.8-11.6-5.4-17.4c-0.4-1.5-0.8-3-1.2-4.5c-6.2-24.2-10.6-51.5-6.1-76.3c1.8-9.9,5.4-19.7,10.3-28.7
		c6.2-11.4,14.6-21.7,24.5-29.6c8.3-6.6,18-12.2,28.6-14.1c2.9-0.5,5.5-0.7,8-0.7c2.1,0,4.1,0.2,6.1,0.5c0.5,0.1,1.7,0.3,1.8,0.3
		c0,0,0,0,0,0c0.7,0.2,1.3,0.4,2,0.6c0.3,0.1,1.7,0.6,2.2,0.8c0.5,0.2,1.7,0.8,2,0.9c0.3,0.2,1.2,0.7,1.4,0.8c0.7,0.4,1.4,0.9,2,1.4
		c0.7,0.5,1.3,1,2,1.6c1.2,1,0.4,0.2,1.2,1.1c2.2,2.4,4.6,5.5,6,8c3.9,7,5.8,15.1,6.9,23C310.1,140.7,307.4,159.1,303.3,176.2z"/>
</g>
</svg>
