<?xml version="1.0" encoding="iso-8859-1"?>
<!-- Generator: Adobe Illustrator 19.0.0, SVG Export Plug-In . SVG Version: 6.00 Build 0)  -->
<svg version="1.1" id="Capa_1" xmlns="http://www.w3.org/2000/svg" xmlns:xlink="http://www.w3.org/1999/xlink" x="0px" y="0px"
	 viewBox="0 0 512 512" style="enable-background:new 0 0 512 512;" xml:space="preserve">
<g>
	<g>
		<path d="M466,181h-30c-25.602,0-48.239,12.903-61.777,32.539c-4.383-8.041-9.603-15.416-15.638-22.061l7.539-3.77
			c15.344-7.672,24.876-23.095,24.876-40.25V90h15c24.813,0,45-20.187,45-45V15c0-8.284-6.716-15-15-15s-15,6.716-15,15v30
			c0,8.271-6.729,15-15,15h-15V45c0-8.284-6.716-15-15-15s-15,6.716-15,15v45h-15c-8.271,0-15-6.729-15-15V45
			c0-8.284-6.716-15-15-15s-15,6.716-15,15v30c0,24.813,20.187,45,45,45h15v27.459c0,5.718-3.178,10.859-8.292,13.417l-19.54,9.77
			C311.816,157.74,285.556,151,256,151c-29.556,0-55.816,6.74-77.168,19.645l-19.54-9.77c-5.114-2.557-8.292-7.698-8.292-13.417V120
			h15c24.813,0,45-20.187,45-45V45c0-8.284-6.716-15-15-15s-15,6.716-15,15v30c0,8.271-6.729,15-15,15h-15V45
			c0-8.284-6.716-15-15-15s-15,6.716-15,15v15h-15c-8.271,0-15-6.729-15-15V15c0-8.284-6.716-15-15-15S61,6.716,61,15v30
			c0,24.813,20.187,45,45,45h15v57.459c0,17.155,9.532,32.578,24.876,40.25l7.539,3.77c-6.035,6.645-11.254,14.02-15.638,22.061
			C124.239,193.903,101.602,181,76,181H46c-8.284,0-15,6.716-15,15c0,41.355,33.645,75,75,75h15.588
			c-0.387,4.887-0.588,9.887-0.588,15c0,47.545,16.312,99.919,42.804,138.153C162.643,472.151,201.286,512,249.609,512h12.781
			c48.415,0,86.964-39.939,85.805-87.847C374.688,385.919,391,333.545,391,286c0-5.113-0.201-10.113-0.588-15H406
			c41.355,0,75-33.645,75-75C481,187.716,474.284,181,466,181z M106,241c-19.557,0-36.239-12.539-42.43-30H76
			c19.557,0,36.239,12.539,42.43,30H106z M262.391,482H249.61c-34.511,0-60.734-31.012-55.068-65.006l6.391-38.344
			c1.612-9.67,5.621-18.384,11.348-25.598c1.094,2.479-0.307,0.424,28.721,36.708v11.026l-25.606,25.607
			c-5.858,5.858-5.858,15.355,0,21.213c5.857,5.858,15.356,5.858,21.213,0L256,428.213l19.394,19.394
			c5.857,5.858,15.356,5.858,21.213,0c5.858-5.858,5.858-15.355,0-21.213L271,400.787V389.76
			c29.026-36.282,27.626-34.228,28.721-36.708c5.727,7.214,9.736,15.927,11.348,25.597l6.391,38.345
			C323.132,451.036,296.854,482,262.391,482z M241.667,342.57c1.886-6.093,7.559-10.534,14.255-10.569
			c0.026,0.001,0.052-0.001,0.078-0.001s0.052,0.002,0.078,0.002c6.696,0.034,12.369,4.476,14.255,10.569L256,360.487
			L241.667,342.57z M340.997,375.737l-0.336-2.02c-6.9-41.396-42.26-71.476-84.177-71.707c-0.162-0.002-0.321-0.012-0.483-0.012
			s-0.321,0.01-0.483,0.012c-41.917,0.23-77.277,30.311-84.177,71.707l-0.336,2.019C158.439,347.637,151,315.329,151,286
			c0-70.341,42.459-105,105-105c63.556,0,105,35.558,105,105C361,315.329,353.561,347.637,340.997,375.737z M406,241h-12.43
			c6.19-17.461,22.873-30,42.43-30h12.43C442.239,228.461,425.557,241,406,241z"/>
	</g>
</g>
<g>
	<g>
		<circle cx="316" cy="256" r="15"/>
	</g>
</g>
<g>
	<g>
		<circle cx="196" cy="256" r="15"/>
	</g>
</g>
<g>
</g>
<g>
</g>
<g>
</g>
<g>
</g>
<g>
</g>
<g>
</g>
<g>
</g>
<g>
</g>
<g>
</g>
<g>
</g>
<g>
</g>
<g>
</g>
<g>
</g>
<g>
</g>
<g>
</g>
</svg>
