<?xml version="1.0" encoding="iso-8859-1"?>
<!-- Generator: Adobe Illustrator 19.0.0, SVG Export Plug-In . SVG Version: 6.00 Build 0)  -->
<svg version="1.1" id="Capa_1" xmlns="http://www.w3.org/2000/svg" xmlns:xlink="http://www.w3.org/1999/xlink" x="0px" y="0px"
	 viewBox="0 0 480.131 480.131" style="enable-background:new 0 0 480.131 480.131;" xml:space="preserve">
<path style="fill:#D4E1F4;" d="M453.628,324.963c0-0.522-0.522-0.522-1.045-1.045l0,0c-5.225-6.792-12.539-11.494-20.898-13.061
	c-8.882-1.567-17.241,0.522-24.033,5.224c-28.212,19.331-76.278,52.767-87.249,60.082l-75.755-2.612l-10.449-21.42l57.992-5.747
	c17.241-2.09,29.78-16.718,28.735-33.437c0-7.837-3.657-15.673-9.404-21.943c-5.747-5.747-13.061-8.882-21.943-9.404l-115.984-3.135
	c-7.837-0.522-16.196,1.567-22.988,5.747L24.175,366.759c-3.657,2.09-4.702,6.792-2.612,10.449l55.902,99.265
	c1.045,2.09,3.135,3.135,5.224,3.657c0.522,0,1.045,0,1.567,0c1.567,0,3.135-0.522,4.702-1.567l60.082-45.453l156.735,23.51
	c9.927,1.567,19.853-1.045,28.212-6.792l112.327-79.935C460.419,359.445,464.077,339.592,453.628,324.963z"/>
<path style="fill:#4DCFE0;" d="M300.55,250.776c4.18,1.567,7.837,1.567,9.404,1.567c1.567,0,5.225,0,9.404-1.567
	c103.967-42.318,138.971-120.686,126.955-179.2c-7.837-42.841-40.229-71.053-79.412-71.053c-18.808,0-37.616,6.269-56.947,18.286
	C291.146,6.792,271.293,0,252.485,0c-40.229,0-71.576,28.212-79.412,71.053C161.056,130.09,196.06,208.457,300.55,250.776z"/>
<g>
</g>
<g>
</g>
<g>
</g>
<g>
</g>
<g>
</g>
<g>
</g>
<g>
</g>
<g>
</g>
<g>
</g>
<g>
</g>
<g>
</g>
<g>
</g>
<g>
</g>
<g>
</g>
<g>
</g>
</svg>
