<?xml version="1.0" encoding="iso-8859-1"?>
<!-- Generator: Adobe Illustrator 19.0.0, SVG Export Plug-In . SVG Version: 6.00 Build 0)  -->
<svg version="1.1" id="Capa_1" xmlns="http://www.w3.org/2000/svg" xmlns:xlink="http://www.w3.org/1999/xlink" x="0px" y="0px"
	 viewBox="0 0 512 512" style="enable-background:new 0 0 512 512;" xml:space="preserve">
<g>
	<g>
		<g>
			<path d="M501.333,200.16h-74.667v-53.333h10.667c5.891,0,10.667-4.776,10.667-10.667v-21.333c0-17.673-14.327-32-32-32h-12.766
				l43.147-69.011L428.291,2.506l-35.993,57.569c-4.769-11.681-16.236-19.915-29.632-19.915H192c-17.673,0-32,14.327-32,32v10.667
				h-21.333c-17.673,0-32,14.327-32,32v21.333c0,5.891,4.776,10.667,10.667,10.667H128v138.667h-27.056
				c3.633-6.277,5.722-13.559,5.722-21.333c0-19.279-12.79-35.564-30.345-40.852c3.451-10.929,11.883-19.823,23.049-23.66
				l-6.741-20.267c-1.473,0.468-33.083,11.409-38.494,43.271c-18.806,4.453-32.802,21.341-32.802,41.508
				c0,7.919,2.165,15.33,5.925,21.685C11.834,288.137,0,301.432,0,317.494v160c0,17.673,14.327,32,32,32h234.667
				c3.741,0,7.33-0.648,10.667-1.828v1.828H352c41.218-0.047,74.62-33.449,74.667-74.667v-21.333h32
				c29.441-0.035,53.298-23.893,53.333-53.333V210.827C512,204.936,507.224,200.16,501.333,200.16z M181.333,72.16
				c0-5.891,4.776-10.667,10.667-10.667h170.667c5.891,0,10.667,4.776,10.667,10.667v10.667h-192V72.16z M128,114.827
				c0-5.891,4.776-10.667,10.667-10.667h32H384h32c5.891,0,10.667,4.776,10.667,10.667v10.667H384
				c-5.891,0-10.667,4.776-10.667,10.667v96c0.002,3.134-1.375,6.111-3.765,8.139c-2.432,2.042-5.639,2.908-8.768,2.368
				c-5.326-1.302-9.003-6.169-8.8-11.648V200.16c0-5.891-4.776-10.667-10.667-10.667c-5.891,0-10.667,4.776-10.667,10.667
				c0,0.627-0.055,1.254-0.165,1.871c-1.031,5.8-6.569,9.666-12.369,8.635c-5.326-1.302-9.003-6.169-8.8-11.648V136.16
				c0-5.891-4.776-10.667-10.667-10.667H224c-5.891,0-10.667,4.776-10.667,10.667v64c0,0.627-0.055,1.254-0.165,1.871
				c-1.031,5.8-6.569,9.666-12.369,8.635c-5.326-1.302-9.003-6.169-8.8-11.648V136.16c0-5.891-4.776-10.667-10.667-10.667H128
				V114.827z M64,242.827c11.782,0,21.333,9.551,21.333,21.333c0,11.782-9.551,21.333-21.333,21.333
				c-11.782,0-21.333-9.551-21.333-21.333C42.667,252.378,52.218,242.827,64,242.827z M32,306.827h234.667
				c5.891,0,10.667,4.776,10.667,10.667v32h-32c-5.891,0-10.667,4.776-10.667,10.667v64c0,5.891-4.776,10.667-10.667,10.667
				s-10.667-4.776-10.667-10.667v-64c0-5.891-4.776-10.667-10.667-10.667H21.333v-32C21.333,311.603,26.109,306.827,32,306.827z
				 M277.333,402.827H256v-32h21.333V402.827z M192,402.827H21.333v-32H192V402.827z M266.667,488.16H32
				c-5.891,0-10.667-4.776-10.667-10.667V424.16H192c0,17.673,14.327,32,32,32s32-14.327,32-32h21.333v53.333
				C277.333,483.385,272.558,488.16,266.667,488.16z M405.333,434.827c-0.035,29.441-23.893,53.298-53.333,53.333h-55.161
				c1.18-3.337,1.828-6.925,1.828-10.667v-160c0-17.673-14.327-32-32-32H149.333V146.827h21.333v52.192
				c-0.197,15.932,11.051,29.714,26.699,32.715c9.306,1.524,18.813-1.103,26.016-7.189c7.167-6.071,11.295-14.991,11.285-24.384
				v-53.333H288v52.192c-0.144,4.023,0.472,8.037,1.817,11.831c5.902,16.658,24.191,25.378,40.85,19.476v0.693
				c-0.193,15.945,11.077,29.732,26.741,32.715c1.739,0.28,3.497,0.422,5.259,0.427c17.673,0,32-14.327,32-32v-85.333h10.667v64v192
				V434.827z M490.667,360.16c0,17.673-14.327,32-32,32h-32V221.494h64V360.16z"/>
			<rect x="42.667" y="445.494" width="21.333" height="21.333"/>
			<rect x="85.333" y="445.494" width="21.333" height="21.333"/>
			<rect x="128" y="445.494" width="21.333" height="21.333"/>
		</g>
	</g>
</g>
<g>
</g>
<g>
</g>
<g>
</g>
<g>
</g>
<g>
</g>
<g>
</g>
<g>
</g>
<g>
</g>
<g>
</g>
<g>
</g>
<g>
</g>
<g>
</g>
<g>
</g>
<g>
</g>
<g>
</g>
</svg>
