<?xml version="1.0" encoding="iso-8859-1"?>
<!-- Generator: Adobe Illustrator 19.0.0, SVG Export Plug-In . SVG Version: 6.00 Build 0)  -->
<svg version="1.1" id="Capa_1" xmlns="http://www.w3.org/2000/svg" xmlns:xlink="http://www.w3.org/1999/xlink" x="0px" y="0px"
	 viewBox="0 0 512 512" style="enable-background:new 0 0 512 512;" xml:space="preserve">
<g>
	<g>
		<g>
			<path d="M501.333,298.646H360.629c-4.552,0.034-8.59,2.93-10.08,7.232c-0.811,2.315-21.056,56.811-108.981,56.811
				c-72.693,0-101.333,54.123-112,86.4c-3.166,9.538-1.512,20.018,4.437,28.117c3.895,5.348,9.263,9.306,15.328,11.495v12.612
				c0,5.891,4.776,10.667,10.667,10.667h32c5.891,0,10.667-4.776,10.667-10.667v-10.667H224v10.667
				c0,5.891,4.776,10.667,10.667,10.667h32c5.891,0,10.667-4.776,10.667-10.667v-10.667h21.333v10.667
				c0,5.891,4.776,10.667,10.667,10.667h32c5.891,0,10.667-4.776,10.667-10.667v-10.667h21.333v10.667
				c0,5.891,4.776,10.667,10.667,10.667h32c5.891,0,10.667-4.776,10.667-10.667v-10.667H448v10.667
				c0,5.891,4.776,10.667,10.667,10.667h32c5.891,0,10.667-4.776,10.667-10.667v-10.667c5.891,0,10.667-4.776,10.667-10.667V309.313
				C512,303.422,507.224,298.646,501.333,298.646z M367.552,319.98h123.115v21.333H373.333v21.333h117.333v32.63
				c-38.891,4.623-69.861,35.208-74.97,74.037h-28.258c-1.849-30.416-27.478-54.128-58.18-53.333
				c-35.319-7.054-73.545-20.248-90.161-31.973c0.814-0.017,1.633-0.027,2.46-0.027C326.581,383.98,358.304,338.188,367.552,319.98z
				 M437.264,469.313c4.766-27.029,26.296-48.203,53.403-52.515v52.515H437.264z M149.824,455.756
				c8.819-26.754,26.899-57.698,63.91-68.128c18.431,28.769,88.617,44.811,112.357,49.483c0.678,0.137,1.367,0.205,2.059,0.203
				c1.073-0.058,2.148-0.068,3.222-0.031c18.127,0.637,32.659,14.528,34.62,32.031H160.405c-3.611,0.038-7.014-1.685-9.12-4.619
				C149.361,462.135,148.815,458.795,149.824,455.756z"/>
			<path d="M97.514,348.858l4.525-7.545h51.924l9.685,16.16l18.293-10.987l-9.504-15.84l25.6-42.667h51.925l28.896,48.16
				l18.283-10.987l-28.704-47.84l25.009-41.681l0.591-0.985h51.925l28.896,48.16h0l0,0l18.283-10.987l-28.704-47.84l22.053-36.754
				l3.547-5.912h31.883c3.11,14.01,4.702,28.315,4.747,42.667c-0.079,17.102-2.315,34.125-6.656,50.667l20.661,5.333
				c9.772-36.694,9.772-75.306,0-112c-0.027-0.106-0.064-0.207-0.095-0.311c-9.704-37.363-28.897-71.585-55.723-99.347
				c-0.059-0.063-0.111-0.13-0.172-0.193c-27.204-28.045-61.27-48.487-98.816-59.296c-40.407-11.751-83.326-11.751-123.733,0
				c-37.554,10.806-71.628,31.248-98.837,59.296C36.307,96.002,17.024,130.41,7.339,167.98c-9.785,36.692-9.785,75.308,0,112
				c9.677,37.586,28.96,72.01,55.957,99.893c0.111,0.113,0.232,0.213,0.347,0.32C77.958,394.9,94.228,407.568,112,417.836
				l10.667-18.485c-13.841-7.997-26.684-17.607-38.261-28.629L97.514,348.858z M26.08,181.313h31.883l25.6,42.667l-25.6,42.667
				H26.08C19.751,238.554,19.751,209.406,26.08,181.313z M160.222,31.746l19.34,32.234l-25.6,42.667h-51.906L84.416,77.239
				C106.029,56.681,131.913,41.147,160.222,31.746z M249.963,74.646l0.591,0.985l25.009,41.681l-23.531,39.218l-2.069,3.449h-51.925
				l-2.069-3.449l-23.52-39.2l25.611-42.684H249.963z M345.963,127.98l25.6,42.667l-25.6,42.667h-51.925l-0.591-0.985
				l-25.009-41.681l23.531-39.218l2.069-3.449H345.963z M198.037,266.646l-25.6-42.667l25.6-42.667h51.925l25.6,42.667l-25.6,42.667
				H198.037z M102.037,213.313l-0.591-0.985l-25.009-41.681l25.6-42.667h51.925l2.069,3.449l23.531,39.218l-25.009,41.681
				l-0.591,0.985H102.037z M102.037,319.98l-2.069-3.449l-23.531-39.218l25.009-41.681l0.591-0.985h51.925l0.591,0.985
				l25.009,41.681l-25.6,42.667H102.037z M390.037,159.98l-25.6-42.667l14.357-23.936c16.535,19.638,29.186,42.24,37.28,66.603
				H390.037z M348.423,102.544l-2.461,4.102h-51.925l-25.6-42.667l19.339-32.235c28.314,9.403,54.203,24.94,75.819,45.504
				L348.423,102.544z M266.4,25.91l-11.466,19.115l-4.971,8.287h-51.903l-16.441-27.406C209.549,19.799,238.47,19.8,266.4,25.91z
				 M69.203,93.38l14.36,23.933l-23.531,39.218l-2.069,3.449H31.925C40.018,135.618,52.669,113.017,69.203,93.38z M57.963,287.98
				l2.069,3.449l23.525,39.209l-14.338,23.897c-16.534-19.622-29.191-42.207-37.294-66.555H57.963z"/>
		</g>
	</g>
</g>
<g>
</g>
<g>
</g>
<g>
</g>
<g>
</g>
<g>
</g>
<g>
</g>
<g>
</g>
<g>
</g>
<g>
</g>
<g>
</g>
<g>
</g>
<g>
</g>
<g>
</g>
<g>
</g>
<g>
</g>
</svg>
