<?xml version="1.0" encoding="iso-8859-1"?>
<!-- Generator: Adobe Illustrator 19.0.0, SVG Export Plug-In . SVG Version: 6.00 Build 0)  -->
<svg version="1.1" id="Capa_1" xmlns="http://www.w3.org/2000/svg" xmlns:xlink="http://www.w3.org/1999/xlink" x="0px" y="0px"
	 viewBox="0 0 512.007 512.007" style="enable-background:new 0 0 512.007 512.007;" xml:space="preserve">
<g>
	<g>
		<path d="M504.004,96.004h-496c-4.418,0-8,3.582-8,8v152c-0.005,0.221-0.005,0.442,0,0.663c0.183,8.653,7.347,15.52,16,15.337h184
			v-16h-184v-144h480v160c0.221,0.005,0.442,0.005,0.663,0c8.654-0.183,15.52-7.347,15.337-16v-152
			C512.004,99.585,508.422,96.004,504.004,96.004z"/>
	</g>
</g>
<g>
	<g>
		<path d="M43.46,480.004l-3.456-3.456V264.004h-16V479.86c0,2.118,0.841,4.149,2.336,5.648l8.144,8.152
			c1.5,1.5,3.534,2.344,5.656,2.344h239.864v-16H43.46z"/>
	</g>
</g>
<g>
	<g>
		<path d="M312.004,224.004h-112c-4.418,0-8,3.582-8,8v48c0,4.418,3.582,8,8,8h112c4.418,0,8-3.582,8-8v-48
			C320.004,227.585,316.422,224.004,312.004,224.004z M304.004,272.004h-96v-32h96V272.004z"/>
	</g>
</g>
<g>
	<g>
		<rect x="32" y="440" width="216" height="16"/>
	</g>
</g>
<g>
	<g>
		<path d="M368.004,32.004h-224c-4.418,0-8,3.582-8,8v64h16v-56h208v56h16v-64C376.004,35.585,372.422,32.004,368.004,32.004z"/>
	</g>
</g>
<g>
	<g>
		<path d="M384.004,0.004h-256c-8.837,0-16,7.163-16,16v24c0,4.418,3.582,8,8,8h272c4.418,0,8-3.582,8-8v-24
			C400.004,7.167,392.84,0.004,384.004,0.004z M384.004,32.004h-256v-16h256V32.004z"/>
	</g>
</g>
<g>
	<g>
		<rect x="64" y="264" width="16" height="136"/>
	</g>
</g>
<g>
	<g>
		<path d="M40.004,128.004c-4.418,0-8,3.582-8,8v32h16v-24h24v-16H40.004z"/>
	</g>
</g>
<g>
	<g>
		<path d="M376.364,325.548l-6.496,20.136l-53.064,22.984c-1.735,0.742-3.152,2.074-4,3.76l-8,16c-0.54,1.114-0.814,2.338-0.8,3.576
			v120h16V393.892l5.84-11.704l53.728-23.264c2.11-0.914,3.725-2.692,4.432-4.88l7.56-23.584L376.364,325.548z"/>
	</g>
</g>
<g>
	<g>
		<path d="M511.204,388.428l-8-16c-0.848-1.686-2.265-3.018-4-3.76l-53.12-22.984l-6.496-20.136l-15.2,4.912l7.608,23.584
			c0.707,2.188,2.322,3.966,4.432,4.88l53.728,23.264l5.848,11.704v118.112h16v-120
			C512.017,390.766,511.743,389.542,511.204,388.428z"/>
	</g>
</g>
<g>
	<g>
		<path d="M456.004,256.004c-0.136,0-16-0.448-16-8c0-4.418-3.582-8-8-8h-48c-4.418,0-8,3.582-8,8c0,7.552-15.864,8-16,8
			c-4.418,0-8,3.582-8,8v16c0,37.68,23.024,64,56,64s56-26.32,56-64v-16C464.004,259.585,460.422,256.004,456.004,256.004z
			 M448.004,280.004c0,22.144-10.48,48-40,48c-29.52,0-40-25.856-40-48v-8.744c9.621-0.924,18.114-6.67,22.552-15.256h34.896
			c4.438,8.586,12.931,14.332,22.552,15.256V280.004z"/>
	</g>
</g>
<g>
	<g>
		<path d="M354.348,210.348c-1.5,1.5-2.344,3.534-2.344,5.656v48h16v-44.272c11.731-8.097,25.754-12.208,40-11.728v-16
			C388.448,191.156,369.291,197.705,354.348,210.348z"/>
	</g>
</g>
<g>
	<g>
		<path d="M461.66,210.348c-14.943-12.642-34.101-19.192-53.656-18.344v16c14.245-0.483,28.268,3.625,40,11.72v44.28h16v-48
			C464.003,213.882,463.16,211.847,461.66,210.348z"/>
	</g>
</g>
<g>
	<g>
		<path d="M434.348,346.348l-26.344,26.344l-26.344-26.344l-11.312,11.312l32,32c1.5,1.5,3.534,2.344,5.656,2.344
			s4.156-0.844,5.656-2.344l32-32L434.348,346.348z"/>
	</g>
</g>
<g>
	<g>
		<rect x="400" y="384" width="16" height="32"/>
	</g>
</g>
<g>
	<g>
		<rect x="344" y="464" width="16" height="48"/>
	</g>
</g>
<g>
	<g>
		<rect x="456" y="464" width="16" height="48"/>
	</g>
</g>
<g>
</g>
<g>
</g>
<g>
</g>
<g>
</g>
<g>
</g>
<g>
</g>
<g>
</g>
<g>
</g>
<g>
</g>
<g>
</g>
<g>
</g>
<g>
</g>
<g>
</g>
<g>
</g>
<g>
</g>
</svg>
