<?xml version="1.0" encoding="utf-8"?>
<!-- Generator: Adobe Illustrator 20.1.0, SVG Export Plug-In . SVG Version: 6.00 Build 0)  -->
<svg version="1.1" id="Calque_1" xmlns="http://www.w3.org/2000/svg" xmlns:xlink="http://www.w3.org/1999/xlink" x="0px" y="0px"
	 viewBox="0 0 432 432" style="enable-background:new 0 0 432 432;" xml:space="preserve">
<style type="text/css">
	.st0{fill:#CC7B26;}
	.st1{fill:#D60B52;}
	.st2{fill:#020203;}
</style>
<g>
	<g>
		<g>
			<path d="M118.8,160.7c1.8-3.3,3.1-6.8,3.7-10.4c0.6-3.6,0.7-6.9,0.2-10c-0.5-3.1-1.5-5.6-3-7.5c-1.5-1.9-3.5-3-5.9-3.1
				c-2,0-4.2,1.1-6.4,3.2c-2.2,2.1-4.4,4.8-6.5,8c-2.1,3.2-4,6.6-5.8,10.2c-1.8,3.6-3.3,6.9-4.4,9.9c0-3.8-0.3-7-0.8-9.6
				c-0.6-2.6-1.3-4.8-2.2-6.4c-0.9-1.6-1.9-2.8-3.1-3.5c-1.2-0.7-2.5-1-3.9-0.9c-2.2,0.1-4.4,0.9-6.5,2.5c-2.1,1.6-4,3.5-5.7,5.7
				c-1.7,2.2-3,4.7-4,7.3c-1,2.6-1.5,5.1-1.5,7.4c0,2.3,0.6,4.3,1.8,5.8c1.2,1.6,3.2,2.5,6,2.6c1,0.1,2,0,2.9-0.3
				c0.9-0.3,1.7-0.6,2.4-1c0.6-0.3,0.8-0.7,0.6-1.2c-0.3-0.6-0.8-0.6-1.7-0.1c-1,0.6-2.4,0.7-4,0.6c-2.2-0.1-3.8-0.8-4.7-2.2
				c-0.9-1.3-1.3-3-1.2-4.9c0.1-1.9,0.6-4.1,1.6-6.4c1-2.3,2.2-4.4,3.7-6.4c1.5-1.9,3.1-3.6,4.9-5c1.8-1.4,3.6-2.1,5.3-2.2
				c1.5-0.2,2.7,0.3,3.7,1.5c1,1.2,1.5,3.3,1.6,6.2c0.1,2.1,0,4.7-0.3,7.6c-0.3,3-0.7,6.1-1.3,9.4c-0.5,3.3-1.1,6.6-1.7,10
				c-0.7,3.4-1.3,6.5-1.9,9.5c-2.1,1-4.1,2.4-6,4c-1.9,1.7-3.6,3.6-5,5.8c-1.4,2.2-2.6,4.7-3.4,7.5c-0.8,2.8-1.2,5.8-1.2,9.2
				c0.1,4.2,0.9,7.4,2.6,9.9c1.6,2.4,3.7,4.2,6.2,5.3c2.5,1.1,5.2,1.7,8.1,1.7c2.9,0,5.7-0.2,8.4-0.8c4.5-0.8,8.5-2.6,11.9-5.3
				c3.4-2.7,6.2-5.9,8.3-9.6c2.1-3.7,3.5-7.6,4.2-11.7c0.7-4.2,0.6-8.1-0.1-11.9c-0.8-3.8-2.4-7.1-4.8-10.1c-2.4-2.9-5.6-5-9.7-6.2
				c4.5-0.9,8.3-2.7,11.5-5.3C114.5,167,116.9,164,118.8,160.7z M104.4,168.1c-2.2,2.5-4.6,4.5-7.3,5.8c-0.8,0.5-1.2,1-1.2,1.5
				c0,0.6,0.4,0.9,1,1c4.5,0.8,7.9,2.3,10,4.5c2.1,2.2,3.4,4.8,3.7,7.8c0.3,3-0.1,6.2-1.3,9.7c-1.2,3.5-2.9,6.9-5.1,10.2
				c-2.2,3.3-4.7,6.4-7.6,9.2c-2.9,2.8-5.8,5.1-8.7,6.9c-2.2,1.3-4.6,2.1-7,2.4c-2.5,0.3-4.7,0-6.9-0.8c-2.1-0.8-3.9-2.3-5.3-4.4
				c-1.4-2.1-2.1-4.8-2.2-8.3c0-2.9,0.3-5.6,1-8c0.7-2.5,1.7-4.8,2.9-6.8c1.2-2,2.7-3.8,4.3-5.3c1.6-1.5,3.4-2.8,5.2-3.8
				c-0.7,3.2-1.3,6-1.8,8.3c-0.5,2.3-0.8,3.7-1,4.2c-0.3,1.5-0.1,2.5,0.6,3.2c0.7,0.6,1.5,1,2.6,0.9c1,0,2-0.4,3-1.1
				c1-0.7,1.6-1.7,1.9-3.1c0.2-1.2,0.5-3.2,1-5.9c0.5-2.7,1-5.8,1.6-9.2c3.5-0.5,6.8,0,9.8,1.4c3,1.4,5.1,3.9,6.2,7.5
				c0.2,0.7,0.5,1,1,0.7c0.5-0.3,0.7-0.6,0.6-1.1c-1.1-4.2-3.3-7.1-6.5-8.7c-3.2-1.6-6.8-2.2-10.8-1.7c0.5-3.1,0.9-6.2,1.3-9.3
				c0.4-3.1,0.7-6.1,0.9-8.7c0.5-1.5,1.2-3.4,2.1-5.6c0.9-2.3,2-4.7,3.3-7.2c1.3-2.5,2.7-5.1,4.2-7.6c1.5-2.5,3-4.9,4.6-6.9
				c1.6-2.1,3.1-3.8,4.6-5.1c1.5-1.3,2.9-2,4.2-2.1c1.2-0.1,2,0.7,2.4,2.4c0.4,1.7,0.5,3.8,0.1,6.5c-0.3,2.7-1,5.7-2,9
				c-1,3.3-2.3,6.5-4,9.6C108.5,162.8,106.6,165.6,104.4,168.1z"/>
			<path d="M133.3,172.6c1.1,0,2.1-0.5,2.8-1.5c0.8-1,1.2-2.1,1.2-3.4c0-1.4-0.4-2.5-1.2-3.5c-0.8-0.9-1.7-1.4-2.8-1.4
				c-1.1,0-2.1,0.5-2.8,1.4c-0.8,0.9-1.2,2.1-1.2,3.5c0,1.3,0.4,2.4,1.2,3.4C131.3,172.2,132.2,172.6,133.3,172.6z"/>
			<path d="M367.5,190.7c-1.3,3.3-2.7,6.8-4.3,10.3c-1.6,3.5-3.3,6.9-5.3,10.3c-1.9,3.3-4,6.5-6.2,9.4c-2.2,3-4.6,5.5-7.2,7.6
				c1.5-8.5,2.9-16.8,4.3-24.8c1.4-8.1,2.7-16.6,4-25.5c0.2-1.2-0.1-2.2-0.8-3c-0.7-0.8-1.6-1.3-2.6-1.5c-1-0.2-2-0.1-2.9,0.3
				c-0.9,0.4-1.5,1.3-1.7,2.7c-0.7,2.5-1.5,5-2.4,7.4c-0.9,2.4-1.9,4.6-2.9,6.6c-1.1,2-2.2,3.7-3.5,5c-1.2,1.3-2.6,2.2-4,2.6
				c-1.2,0.3-1.9-0.3-2.2-1.6c-0.3-1.3-0.3-3.1-0.1-5.3c0.2-2.2,0.6-4.7,1.3-7.4c0.6-2.7,1.1-5.3,1.6-7.8c0.3-1.1,0-2.1-0.7-2.8
				c-0.7-0.8-1.6-1.3-2.6-1.5c-1-0.2-2-0.2-2.9,0.2c-0.9,0.4-1.5,1.2-1.8,2.4c-0.6,3.1-1,6.4-1.2,9.6c-0.2,2.5-0.2,4.8,0,6.8
				c-0.1,0.4-0.3,0.7-0.4,1.1c-1,2.8-2.1,5.8-3.3,9c-1.2,3.2-2.5,6.5-4,9.7c-1.5,3.2-3,6.2-4.5,8.8c-1.5,2.6-3.1,4.8-4.6,6.5
				c-1.6,1.7-3.1,2.6-4.6,2.6c-0.8,0.1-1.3-0.7-1.3-2.4s0.3-3.8,0.8-6.4c0.6-2.6,1.3-5.5,2.2-8.7c0.9-3.2,1.9-6.4,2.9-9.6
				c1-3.1,2-6.1,2.9-8.8c0.9-2.7,1.7-4.9,2.2-6.5c0.3-0.9,0.3-1.8-0.1-2.5c-0.3-0.7-0.8-1.4-1.5-1.9c-0.6-0.5-1.4-0.9-2.2-1
				c-0.8-0.2-1.6-0.2-2.2,0c-4.4-0.7-8.2-0.6-11.2,0.3c-3.1,1-5.5,2.4-7.4,4.4c-1.9,1.9-3.1,4.1-3.9,6.6c-0.7,2.5-0.9,4.7-0.6,6.9
				c0,0.3,0.1,0.6,0.2,0.9c-0.1,0.4-0.3,0.7-0.4,1.1c-1.2,3.1-2.5,6.4-4,9.6c-1.5,3.3-3,6.2-4.5,8.8c-1.5,2.6-3.1,4.7-4.7,6.5
				c-1.6,1.7-3.1,2.6-4.6,2.7c-0.9,0-1.5-1.3-1.6-3.8c-0.1-2.5,0-5.9,0.4-10.2c0.4-4.3,1.1-9.1,1.9-14.5c0.9-5.4,1.9-11,3-16.7
				c1.1-5.7,2.2-11.4,3.4-16.9c1.2-5.6,2.2-10.6,3.3-15.1c1-4.5,1.9-8.3,2.6-11.3c0.7-3,1.2-4.8,1.4-5.3c0.4-1.1,0.3-2.1-0.3-3.1
				c-0.6-0.9-1.4-1.6-2.4-2c-1-0.4-1.9-0.5-2.9-0.3c-1,0.2-1.6,0.9-2,2c-0.3,0.7-0.8,2.6-1.5,5.7c-0.7,3.1-1.6,6.9-2.6,11.5
				c-1,4.6-2,9.7-3.1,15.3c-1.1,5.6-2,11.4-2.8,17.2c-4.7-0.6-8.7-0.3-11.9,1c-1.2,0.5-2.2,1.1-3.2,1.7c0,0-3.9,3.2-4.4,4
				c-1.9,2.5-3.2,5.2-3.8,8.2c-0.5,2.3-0.7,4.6-0.5,6.7c-0.3,0.9-0.7,1.7-1,2.6c-1.7,4.2-3.4,8.1-5.2,11.7c-1.8,3.7-3.5,6.4-5.2,8.3
				c-0.4,0.5-0.9,0.9-1.5,1.3c-0.6,0.4-1.2,0.6-1.7,0.8c-0.6,0.1-1,0-1.4-0.3c-0.4-0.3-0.6-1-0.6-2.2c0-1.7,0.4-4,1.3-7
				c0.8-3,1.8-6.3,2.9-9.8c1.1-3.5,2.2-7.1,3.2-10.7c1-3.6,1.7-6.9,1.9-9.9c0.3-3,0.1-5.4-0.6-7.2c-0.7-1.8-2.2-2.8-4.6-2.8
				c-2.2,0-4.2,0.7-6,2c-1.8,1.3-3.3,3-4.7,5c-1.4,2-2.6,4.2-3.5,6.5c-1,2.4-1.8,4.5-2.4,6.5c0.2-2.4,0.4-5,0.6-7.8
				c0.2-2.8,0.4-5.8,0.7-8.8c3.1-1.8,6.6-4.3,10.6-7.6c4-3.3,7.8-7,11.3-10.9c3.5-3.9,6.5-8,9-12.1c2.5-4.2,3.7-7.9,3.7-11.2
				c0-4.2-1-7.4-2.8-9.9c-1.9-2.4-4.6-3.6-8.1-3.6c-3.8,0-7.2,1.4-10.3,4.2c-3.1,2.8-5.8,6.5-8.2,11.1c-2.4,4.6-4.5,9.7-6.3,15.5
				c-1.8,5.7-3.3,11.5-4.5,17.3c-1.2,5.8-2.2,11.4-2.8,16.7c-0.2,1.3-0.3,2.5-0.4,3.6c-0.2,0.6-0.5,1.3-0.7,2
				c-1.7,4.4-3.5,8.8-5.6,13.2c-2.1,4.4-4.3,8.1-6.7,11.3c-2.4,3.2-4.7,4.9-6.9,5.1c-0.9,0-1.5-0.9-1.8-2.6c-0.3-1.7-0.3-4-0.2-6.8
				c0.1-2.8,0.5-6.1,1-9.8c0.5-3.7,1.1-7.6,1.8-11.6c0.7-4,1.4-8.1,2.2-12.1c0.8-4.1,1.6-7.9,2.4-11.5c2.8,0.6,5.2,0.9,7.1,0.6
				c2-0.2,4-1.4,6.2-3.5c0.5-0.5,0.5-0.9,0.1-1.4c-0.4-0.5-0.8-0.5-1.2-0.1c-1.9,1.8-3.6,2.6-5.2,2.4c-1.6-0.1-3.7-0.6-6.3-1.3
				c0.8-3.9,1.6-7.1,2.3-9.7c0.7-2.6,1.1-4.2,1.3-4.9c0.4-1.1,0.2-2.1-0.4-3.1c-0.6-0.9-1.5-1.6-2.4-2c-1-0.4-1.9-0.5-2.9-0.3
				c-1,0.2-1.6,0.9-2,2c-0.3,0.7-0.8,2.6-1.5,5.6c-0.7,3-1.5,6.5-2.3,10.7c-1.5-0.2-2.9-0.2-4.3,0c-1.4,0.2-2.8,0.7-4.3,1.7
				c-0.6,0.4-0.6,0.9-0.2,1.6c0.4,0.7,0.9,0.9,1.3,0.8c1.1-0.7,2.2-1.2,3.3-1.2c1.1-0.1,2.3,0,3.6,0.3c-0.7,3.9-1.5,8-2.2,12.4
				c-0.5,3.4-1,6.8-1.4,10.2c-0.8,2.1-1.6,4.4-2.5,6.7c-1,2.5-2,4.9-3.1,7.3c-1.1,2.4-2.2,4.5-3.3,6.4c-1.2,1.9-2.4,3.4-3.6,4.6
				c-1.2,1.2-2.5,1.8-3.7,1.8c-1.3,0.1-2-0.9-2.1-2.8c-0.1-2,0.1-4.4,0.6-7.4c0.5-2.9,1.1-6,2-9.2c0.9-3.2,1.7-6,2.6-8.4
				c0.6-1.5,0.4-2.6-0.4-3.4c-0.8-0.8-1.9-1.4-3.3-1.8c-1.3-0.4-2.7-0.7-4.1-0.9c-1.4-0.2-2.4-0.4-3.1-0.7c0.5-1.2,1-2.8,1.7-4.7
				c0.7-1.9,1.2-3.8,1.4-5.7c0.2-1.8,0.1-3.4-0.5-4.8c-0.6-1.3-1.9-2-3.9-2c-2.1,0.1-3.8,1.1-5.1,3c-1.3,1.9-1.9,4-2,6.5
				c0,1.9,0.4,3.5,1.1,5.1c0.7,1.5,1.7,2.9,2.8,4c0.5,0.5,1.1,1,1.6,1.5c-0.7,1.7-1.4,3.7-2.4,6c-1.2,2.9-2.5,5.8-4.1,8.6
				c-1.6,2.8-3.3,5.3-5.3,7.4c-1.9,2.1-4,3.3-6.2,3.5c-1.3,0-2-1-2.1-3.1c-0.1-2.1,0-4.6,0.5-7.6c0.5-3,1.1-6.2,1.9-9.4
				c0.8-3.3,1.7-6.1,2.5-8.5c0.4-1.1,0.2-2.1-0.4-3c-0.6-0.9-1.5-1.5-2.4-2c-1-0.5-2-0.6-3-0.4c-1,0.2-1.7,0.8-2.1,1.9
				c-0.6,2-1.3,4.3-1.9,6.7c-0.6,2.5-1.2,5-1.5,7.5c-0.4,2.5-0.6,5-0.6,7.4c0,2.4,0.3,4.6,0.9,6.5c0.6,1.9,1.6,3.4,2.9,4.6
				c1.3,1.2,3.2,1.7,5.5,1.7c2.4-0.5,4.7-1.8,6.8-4c2.1-2.2,4-4.7,5.8-7.6c1.7-2.9,3.2-5.9,4.4-9c0.9-2.3,1.7-4.4,2.4-6.2
				c0.2,0.1,0.3,0.2,0.5,0.3c1.3,0.7,2.3,1.1,3.3,1.2c-0.9,3.1-1.7,5.7-2.2,8.1c-0.6,2.3-1,4.8-1.3,7.6c-0.3,2.7-0.2,5.3,0.1,7.6
				c0.4,2.3,1.3,4.3,2.6,5.8c1.4,1.6,3.5,2.4,6.2,2.4c1.8-0.4,3.6-1.3,5.1-2.9c1.6-1.6,3-3.5,4.4-5.7c1.3-2.2,2.5-4.6,3.6-7.2
				c0.8-1.9,1.5-3.8,2.1-5.6c-0.2,2.7-0.4,5.3-0.5,7.8c-0.1,4,0,7.5,0.5,10.5c0.5,3.1,1.2,5.5,2.3,7.3c1.1,1.8,2.5,2.7,4.4,2.7
				c2.5-0.2,5-1.9,7.6-5.2c2.5-3.3,4.9-7.1,7.1-11.6c1.7-3.4,3.2-6.9,4.6-10.4c-0.1,1.3-0.2,2.5-0.2,3.6c-0.1,1.3,0.2,2.3,0.9,3
				c0.7,0.7,1.5,1.1,2.5,1.1c1,0,1.9-0.2,2.8-0.8c0.9-0.6,1.6-1.5,2.1-2.8c0.6-1.8,1.3-4.2,2.4-7.1c1-2.9,2.2-5.6,3.6-8.3
				c1.4-2.6,3-4.9,4.7-6.7c1.8-1.8,3.7-2.7,5.8-2.6c0.5,0,0.8,0.2,1,0.7c0.2,0.5,0.1,1.3-0.3,2.6c-0.6,1.9-1.5,4.4-2.7,7.5
				c-1.2,3.1-2.5,6.3-3.7,9.9c-1.2,3.5-2.2,7-3.1,10.5c-0.9,3.5-1.3,6.7-1.2,9.4c0.1,2.1,0.6,3.9,1.5,5.3c0.9,1.4,1.9,2.5,3.2,3.1
				c1.2,0.6,2.6,0.8,4,0.5c1.4-0.3,2.7-1.2,4-2.6c1.9-2,3.7-4.9,5.6-8.7c1.8-3.7,3.6-7.7,5.3-11.9c0.5,2,1.2,3.7,2.2,5.1
				c1.3,1.9,2.9,2.8,4.9,2.8c1.1,0,2.3-0.7,3.6-2.2c1.3-1.5,2.6-3.4,4-5.7c1.3-2.3,2.6-4.9,3.9-7.7c1.2-2.8,2.4-5.5,3.5-8.1
				c-0.6,3.7-1.1,7.9-1.7,12.6c-0.6,4.7-0.9,9.1-0.9,13.3c0,4.2,0.5,7.7,1.5,10.5c1,2.8,2.9,4.2,5.6,4.2c1.7-0.1,3.4-1,5.1-2.8
				c1.7-1.8,3.4-4,5-6.7c1.6-2.7,3.2-5.7,4.7-9c1.5-3.3,2.9-6.6,4.2-9.8c0.4,0.7,0.8,1.4,1.3,2.1c1.2,1.5,2.9,2.2,5.1,2.1
				c1.8,0,3.4-0.9,4.9-2.6c1.5-1.8,3-3.9,4.4-6.5c-1,3.7-1.9,7.5-2.7,11.5c-0.8,3.9-1.2,7.5-1.2,10.8c0,3.2,0.4,5.9,1.3,8
				c0.9,2.1,2.6,3.1,5.1,3.1c1.7-0.1,3.4-1,5.1-2.8c1.8-1.8,3.4-4,5.1-6.7c1.6-2.7,3.2-5.7,4.7-9c1.5-3.3,2.9-6.6,4.2-9.9
				c1.1-2.9,2.2-5.6,3.1-8.1c0.5,1.9,1.3,3.4,2.4,4.6c1.3,1.5,3.3,2,5.9,1.5c2.4-0.6,4.5-2.1,6.3-4.5c1.8-2.5,3.4-5.3,4.6-8.5
				c-1.2,8-2.3,15.8-3.3,23.4c-1,7.5-2,15.3-3.1,23.2c-2,1.3-4.4,3-6.9,5.1c-2.6,2.1-5,4.5-7.4,7.1c-2.3,2.7-4.2,5.6-5.6,8.7
				c-1.4,3.1-2,6.3-1.6,9.5c0.2,1.5,0.7,2.7,1.7,3.5c0.9,0.9,2.5,1.2,4.6,0.9c3.1-0.4,5.8-1.6,8.2-3.8c2.4-2.2,4.5-5,6.3-8.3
				c1.8-3.4,3.4-7.2,4.6-11.5c1.3-4.3,2.4-8.8,3.3-13.5c5.9-4.9,10.8-10.8,14.7-17.6c3.9-6.8,7.3-14.2,10.3-21.9L367.5,190.7z
				 M212.6,160c1.1-6.1,2.6-11.6,4.4-16.5c1.8-4.9,4-9,6.7-12c2.6-3.1,5.9-4.6,9.6-4.6c3,0.1,5.3,1.2,6.9,3.2c1.6,2,2.4,4.8,2.4,8.3
				c0,3.1-1.1,6.5-3.4,10.3c-2.3,3.8-5.1,7.5-8.4,11.2c-3.3,3.7-6.9,7.2-10.7,10.4c-3.8,3.2-7.2,5.8-10.1,7.6
				C210.6,172,211.5,166,212.6,160z M149.4,182.4c-1.9-1.4-3.2-2.9-3.9-4.6c-0.6-1.7-0.8-3.2-0.6-4.6c0.3-1.4,0.9-2.6,1.8-3.6
				c0.9-1,1.9-1.5,3.1-1.5c1.4,0,2.2,0.6,2.4,1.8c0.2,1.2,0.2,2.6-0.1,4.2c-0.3,1.6-0.7,3.2-1.3,4.8
				C150.3,180.4,149.8,181.6,149.4,182.4z M257.6,191.5c-1.4,3.3-2.8,6.5-4.3,9.4c-1.5,3-2.9,5.5-4.3,7.6c-1.4,2.1-2.6,3.1-3.7,3.1
				c-0.7,0-1.2-0.7-1.3-2.2c-0.1-1.5,0-3.3,0.4-5.5c0.4-2.2,1.1-4.6,2-7.1c0.9-2.6,2.1-4.9,3.5-7.1c1.4-2.1,3.1-3.9,5-5.3
				c1.9-1.4,4-2.1,6.3-1.9C260.1,185.2,258.9,188.2,257.6,191.5z M298.1,195.6c-1.3,2.3-2.8,4.3-4.2,6c-1.5,1.7-2.8,2.6-4,2.6
				c-0.8,0.1-1.3-0.4-1.3-1.5c0-1.1,0.2-2.4,0.6-4c0.5-1.6,1.2-3.3,2.2-5.1c1-1.8,2.1-3.6,3.4-5.3c1.3-1.7,2.8-3.1,4.4-4.2
				c1.6-1.1,3.3-1.7,4.9-1.8c-0.5,1.6-1.2,3.6-2.3,6C300.7,190.9,299.5,193.2,298.1,195.6z M334.7,246.9c-0.7,3.5-1.7,6.6-2.8,9.4
				c-1.2,2.8-2.6,5.1-4.2,6.9c-1.7,1.8-3.7,2.8-6.2,3.1c-1.6,0.2-2.7,0-3.3-0.6c-0.6-0.6-1-1.3-1.1-2.4c-0.3-2.8,0.3-5.6,1.6-8.3
				c1.3-2.8,3.1-5.4,5.2-7.8c2.1-2.5,4.4-4.6,6.7-6.6c2.4-1.9,4.4-3.5,6.2-4.6C336.1,239.7,335.5,243.4,334.7,246.9z"/>
		</g>
		<g>
			<path d="M182.8,270.4c-0.8-0.2-9.5-0.9-12.3-0.8c-0.4,0-1,0.2-1.3,0.3c-0.4,0.3-1,0.7-1.1,1.4c0,0.5,0.7,1,1.3,1.5
				c0.7,0.2,1.2,0.3,2,0.3c0.9,0.1,1.9,0.1,2.7,0.1c0.4,0,0.9,0.2,1.3,0.2c0.3,1.2,0.1,2.5,0,4c-0.4,2.8-3.8,16.6-7.7,20.3
				c-1.3,1.2-3.9,2.3-6.2,1.5c-0.3-0.3-0.9-0.3-1.2-0.5c-2-0.7-3.4-2-4.4-3.8c-0.8-1.4-1.3-2.8-1.9-4.5c-1.7-5.6-2.4-11.3-2.2-17.3
				c0.1-2.4,0.3-4.6,0.3-7c0-3,0.3-6.4,0.9-9.6c0.4-3.4,2.8-17.3,13.8-16.8c0.3,0,0.5-0.1,1-0.1c1.5,0.1,2.6,0.6,3.8,1.6
				c0.8,0.7,1.2,1.7,1,2.8c0,0.2-0.1,0.8,0,1c0.2,2,2.1,3.3,3.8,2.7c0.3-0.3,0.8-0.7,0.9-0.9c0.3-0.8,0.7-1.5,0.7-2
				c0.1-1.8,0.2-3.6,0.4-5.4c0-0.3-0.2-1-0.4-1.4c-0.8-0.8-1.7-1.6-2.7-1.6c-1.2,0-1.5,1.1-2,1.9c0,0.1-0.1,0.1-0.4,0.5l-2.1-1.5
				c-1-0.5-2.1-1-3.4-1.1c-19.8-2.3-23.3,19.5-24.1,24.3c-0.5,3.8-1.1,7.8-1.3,11.7c-0.1,1.7-0.1,3.3-0.1,5
				c0.1,4.3,0.8,8.5,2.2,12.4c1.2,3.3,2.3,6.4,4.5,9.1c2.2,2.6,4.6,4.7,7.3,6.6c5.1,3,13.3-1.1,14.4-3.2c0.5-0.8,0.9-1.4,1.5-2.1
				c1.4-2,2.7-4.3,3.6-6.7c0.4-1.4,2.3-8.1,2.6-10.2c0.2-1,0.5-5.6,0.9-6.9c0.4-1.1,0.3-2.3,0.4-3.3c-0.5-0.3,1.9,0.8,4.3,0
				c0.1-0.2,0.2-0.3,0.2-0.7C184.1,271.3,184,270.8,182.8,270.4z"/>
			<path d="M203.8,237.6c-0.7-0.2-1.1-0.6-1.6-0.5c-1.7-0.2-3.5-0.6-5-0.5c-2.2,0-4.3,0.3-6.2,0.6c-1,0-1.6,0.5-2.4,1.2
				c-0.3,0.3-0.2,1.2,0.2,1.5c0.8,0.2,1.4,0.5,2,0.3h2.8v3.5c-0.2,1.1-0.3,2.3-0.3,3.6c-0.3,4-0.4,8.2-0.5,12.1
				c0,1.6-0.2,2.9-0.2,4.4c-0.1,3.6-0.1,7.3-0.2,10.8c-0.1,4.5,0.2,9,0.2,13.6c0,2.7-0.1,5.5,0,8.1c0,1.5-0.2,2.7-0.7,4.1
				c-0.2,0.7-0.5,1.4-1.2,1.4l-2.1,0.7c-0.1,0.2-0.1,0.7,0,0.9c0.3,0.8,1.3,1.2,2.3,1.2c1.3-0.1,4.5,0.1,5.8,0.1c1-0.2,2,0,2.8-0.3
				c0.4-0.1,1-0.2,1.4-0.5c0.2-0.3,0.4-0.6,0.3-1l-0.8-0.6c-0.7-0.1-1.3,0.2-2.1-0.2c0.2-0.2,0.3-0.7,0.2-0.9
				c0.1-1.4,0.4-2.5,0.5-3.6c0.1-1.1,0-2.4-0.1-3.5l-0.1-9c0.1-1.9,0.1-3.7,0.2-5.5c0.1-2.4,0-5,0-7.3c0.1-3,0.3-6,0.4-9
				c0.1-1.6,0.2-3.3,0.2-5c0-2.3,0-4.6,0.3-7c0.2-0.8,0.1-1.6,0.1-2.1c0.1-0.8,0-1.5,0.1-2.1c0.2-1,0.1-1.9,0.2-2.9
				c-0.1-0.6-0.1-1.4,0-2.1c-0.1-1.5,0.1-1.6,1.9-1.7c0.3,0,0.7,0.1,1,0.1c0.2,0,0.5-0.3,0.8-0.3c0.7-0.2,1-1.4,0.4-1.8
				C204.3,237.9,204,237.6,203.8,237.6z"/>
			<path d="M250,301.3c-0.5,0.1-0.9,0.2-1.1,0.7c-0.8,0.5-1.2,0.7-1.9,0.7c-0.4,0.1-1-0.5-1.4-0.9c-0.5-1.2-0.9-2.3-1.1-3.6
				c-0.4-2.4-0.8-5-0.4-7.5c0.1-0.7,0.2-1.1,0.2-1.8c0-2.5-0.4-8-1-10.2c-0.8-2.5-1.5-4.9-2.3-7.1c-0.8-1.5-1.4-2.6-2.1-3.5
				c-1.4-2-2.8-3.7-4.5-5.3c-0.3-0.5-0.5-0.8-1-1.1c6.5-2.1,8.9-7.5,10.1-9c1.5-2.6,2-5.3,1-8.1l-0.3-1.4c-1.7-4-4.8-6.8-9-7.7
				c-3.4-0.5-6.8-0.7-9.8-0.6c-4.3,0.3-8,1.2-11.4,3.4c-1.1,0.5-2.2,1.2-3.1,1.9c-0.3,0.2-0.4,0.5-0.3,0.9c-0.1,0.3,0.4,0.7,0.7,0.7
				c0.7,0,1.4,0.1,2,0c1.5-0.3,2.9-0.6,4.4-0.8c0.3,0.2,0.2,0.8,0.1,1.4c0,1.9-0.4,4-0.4,6c0,2.6-0.9,12.5-0.9,14.3
				c-0.1,2.3-0.4,4.5-0.4,6.5c-0.2,4.4-2.1,26.1-2.3,29.8v2c-1.1,0.5-1.7,0.7-2.5,0.8c-0.8,0.1-0.9,0.7-0.5,1.2c0.9,1,2,1.9,3.4,1.9
				c2.9-0.1,5.7,0.1,8.5,0.2c0.4-0.1,1.1-0.1,1.4-0.3c0.2-0.1,0.3-0.9,0.4-1c0.2-0.3,0-0.7-0.3-0.7c-0.2-0.2-0.2-0.5-0.4-0.6
				c-1.3-0.3-1.7-1.2-1.6-2.4c0.1-2.1,0.1-4.1-0.1-6.2c-0.3-3.7,1-17.3,0.9-18.7c0.1-0.3,0.1-0.9,0.1-1.1c0.3-2.3,0.3-4.4,0.5-6.3
				c0-1.1,0-2.3,0.3-3.3c2.7-0.7,2.1,0.1,4.9-0.6c0.5,0.1,1.4,0,2.1,0.3c2.2,2.8,3.7,6.4,4.5,9.7c0.2,1.4,0.7,2.9,0.9,4.3
				c0.5,3,0.5,7.5,0.9,10.8c-0.2,5.1,1.5,11.3,3.7,14c0.7,1,4.7,5.5,10.2,3.3c1.1-0.5,1.3-1.8,0.9-3.1
				C251.1,302.8,250.4,301.9,250,301.3z M223.8,259.8c-0.2-1-0.2-1.9-0.1-2.9c0-0.8,0.2-1.7,0.1-2.5c0-1.4,0-2.7,0.2-4.4
				c0-2.4-0.2-9.8-0.8-10.8c0.2-0.6,0.4-0.6,1-0.9c2.9-0.7,6.1-0.3,9.3-0.1c0.4,0,1,0.2,1.4,0.6c1.4,1.5,2.4,2.9,2.5,5.3
				c0.2,1.9,0.2,4-0.2,5.9c-0.7,2.3-2.2,4.5-3.9,6.1C229.4,259.8,227.6,259.8,223.8,259.8z"/>
			<path d="M290,296.7c-0.1-0.6,0-1.1-0.1-1.7c0-1-0.4-1.6-1.1-2.1c-1-0.2-1.7,0-2.1,1c-0.3,0.5-0.7,1-0.8,1.6
				c-0.5,1.5-1.4,2.7-2.3,4.1c-0.5,0.7-1.1,1.2-2,1.5c-1.9,0.6-3.7,1.1-5.7,1c-1.9-0.2-4.8,0.2-7.3,0.3c-0.3-2.5-0.4-4.6-0.3-6.9
				c0-0.7,0.1-1.4,0.1-1.9c-0.2-5.3,0.2-10.3,0.9-15.4l0.3-2.7c0.3-4.5,0.7-8.8,1.1-13.2l0.7-9c0-1.4-0.1-2.8,0-4.2
				c0.1-2.6,0.3-5.2,0.4-8c0-0.2,0.1-0.5,0.2-0.7c1.2-0.5,2.2-0.6,3.4-0.6c0.7,0,1-0.8,1.4-1.2c0.2-0.3,0.1-1-0.2-1.2
				c-0.2-0.3-0.8-0.8-1.2-0.8c-1.9,0.1-3.6-0.6-5.5-0.1c-1.1,0.1-2.3,0-3.6,0h-2.6c-0.8,0.1-1.7,0.3-2.5,0.6
				c-0.1,0.1-0.5,0.6-0.5,0.9c0,0.2,0.3,0.7,0.4,0.8c0.8,0.5,1.4,0.9,2.2,1.2l0.2,1.6c0.3,2.1,0.3,4.4,0.1,6.5
				c-0.1,0.7-0.1,1.4-0.2,2c-0.1,2.5-0.2,5.3-0.5,8c-0.4,5.4-1,10.6-1.4,16.2c-0.5,6.7-1.2,13.7-1.2,20.6c0,2.6-0.1,5.1,0.4,7.6
				c0.2,0.3-0.2,0.9-0.5,1l-1.6,0.9c-0.4,0.1-1.2,0.7-1.5,1c-0.2,0.1-0.3,0.6-0.3,1c0.1,0.2,0.4,0.7,0.7,0.7
				c10.8,0,10.1-0.8,12.8-0.9c1,0,1.9-0.1,2.7-0.2h1.7c3.3,0.1,6.4-0.3,9.5-1.2c1.9-0.3,3.4-1.7,4.8-3.3
				C289.6,300,290.3,298.5,290,296.7z"/>
		</g>
	</g>
	<g>
		<g>
			
				<ellipse transform="matrix(0.4362 -0.8998 0.8998 0.4362 -93.7938 416.3669)" class="st1" cx="285.4" cy="283" rx="4.1" ry="7.6"/>
			<path class="st1" d="M310.9,269.9c-0.3-2.3-7.1-3.3-15.2-2.8c-8.1,0.4-14.8,2.2-14.8,4.4c0,2.3,6.8,4.2,15.3,3.7
				C304.6,274.7,311.2,272.1,310.9,269.9z"/>
			
				<ellipse transform="matrix(0.8718 -0.4899 0.4899 0.8718 -89.4036 174.7728)" class="st1" cx="289.1" cy="258.2" rx="7.4" ry="4.1"/>
		</g>
		<g>
			
				<ellipse transform="matrix(0.2336 -0.9723 0.9723 0.2336 -153.4206 321.3567)" class="st1" cx="127.2" cy="258" rx="4.1" ry="7.6"/>
			<path class="st1" d="M105,276.3c0.8,2.1,7.6,1.7,15.5-0.5c7.9-2.2,14-5.3,13.5-7.5c-0.4-2.2-7.5-2.6-15.7-0.4
				C110.2,270.2,104.3,274.2,105,276.3z"/>
			
				<ellipse transform="matrix(0.7469 -0.665 0.665 0.7469 -155.6596 157.3122)" class="st1" cx="128.8" cy="283.1" rx="7.4" ry="4.1"/>
		</g>
	</g>
</g>
</svg>
