<?xml version="1.0" encoding="utf-8"?>
<!-- Generator: Adobe Illustrator 20.1.0, SVG Export Plug-In . SVG Version: 6.00 Build 0)  -->
<svg version="1.1" id="Calque_1" xmlns="http://www.w3.org/2000/svg" xmlns:xlink="http://www.w3.org/1999/xlink" x="0px" y="0px"
	 viewBox="0 0 432 432" style="enable-background:new 0 0 432 432;" xml:space="preserve">
<style type="text/css">
	.st0{fill:none;}
	.st1{fill:#020203;}
	.st2{fill:#12100B;}
	.st3{fill:#12100E;}
	.st4{fill:#EDCCA3;}
	.st5{fill:#EB5C2C;}
	.st6{fill:#F49523;}
	.st7{fill:#F39208;}
	.st8{fill:#95C11F;}
</style>
<g>
	<g>
		<g>
			<path class="st0" d="M149.9,102.6C150.2,102.7,149.9,102.6,149.9,102.6L149.9,102.6z"/>
			<path class="st0" d="M138,103.9C138.1,103.8,137.9,103.9,138,103.9L138,103.9z"/>
			<path class="st0" d="M142.4,112.9c4.8-2.2,1.9-13-4.4-9C133.4,106.7,137.5,115.1,142.4,112.9z M138.8,105.9
				c2.9-2.9,5.2,2.1,2.8,4.5c0,0,0,0,0,0C139.1,112.9,137,107.8,138.8,105.9z"/>
			<path class="st0" d="M149.1,113.2c5.8,0.2,6.7-9.5,0.8-10.6C144.2,102.2,144.1,113,149.1,113.2z M148.3,105.9
				c2.9-2.9,5.2,2.1,2.8,4.5c0,0,0.1-0.1,0,0c-0.1,0.1,0,0,0,0C148.5,112.9,146.5,107.8,148.3,105.9z"/>
			<polygon class="st0" points="151.1,110.4 151.1,110.4 151.1,110.4 			"/>
			<path class="st1" d="M140.7,95.7c-0.7,0.1-1.4,1-1.7,1.4c-0.5-0.2-0.7-0.7-1.3-0.7c-0.6,0.1-0.8,0.9-1.4,1.2c-1.2-1-2,0-2.5,0.9
				c-0.3-0.1-0.8-0.1-1.3,0c-0.2,0.3,0,0.9-0.2,1.3c-0.6,0-1.7-0.5-2.1,0.2c0.1,0.4,0.3,0.6,0.3,0.9c-0.4,0.2-0.8,0.5-0.9,0.9
				c0.1,0.4,0.1,0.9,0.3,1.2c-0.6,0.1-0.7,0.4-0.9,0.7c0.1,0.4,0.1,0.8,0.3,1.1c-2.9,0.5-5,0-7.6,0.1c-1.2,3.2-2.5,6.7-4.1,9.5
				c-0.2,0.3-0.7,0.9-0.1,1.4c0.8-0.3,1.3-1,1.8-1.6c1.5-1.9,2.6-4,3.6-6.1c1.8,0.1,3.9-0.2,5.5,0.2c-0.9,0.4-1.7,1.1-0.6,1.8
				c-0.3,0.3-0.7,0.5-0.7,0.9c0.1,0.4,0.6,0.3,0.6,0.7c-1.8,0.4-3.6,0.7-5.5,1c-0.9,1.9-1.7,3.6-2.6,6c-0.5,1.5-1,3-1.7,4.6
				c-0.1,0.4-1.1,1.8-0.1,1.8c0.5,0,1.4-1.7,1.7-2.2c1.3-2.2,2.3-4,3.5-6.2c0.2-0.4,0.5-1.1,0.7-1.2c0.3-0.2,1,0,1.5-0.1
				c1-0.1,1.6-0.1,2.5-0.2c0,0.3-0.1,0.4-0.1,0.7c0.2,0.2,0.5,0.3,0.8,0.4c-0.1,0.3-0.4,0.5-0.3,1c0,0.3,0.6,0.2,0.5,0.5
				c-1.8,1.1-3.2,2.4-4.9,3.5c-0.5,2.7-0.8,5.5-1,8.3c-0.1,1.6-0.3,3.1-0.1,4.7c0.9,0.5,1-1.5,1.2-2.1c0.8-3.1,1.7-6.2,2.3-9.1
				c1.1-0.9,2.8-1.3,4.1-2.1c0,0.3,0.1,0.5,0.2,0.6c0.2,0.1,0.5,0.1,0.8,0c0,0.2-0.1,0.4,0,0.6c0.2,0.2,0.6,0.2,0.8,0.3
				c-0.7,1.9-1.6,3.7-2.3,5.6c-0.2,0.6-0.5,1.5-0.2,2.1c0.6,1.3,1.7,2.2,2.5,3.5c0.7,1,1.5,2.1,2.3,3.2c0.2,0.3,0.5,1.1,1,0.8
				c0.3-0.2,0-1.6-0.2-2.1c-0.3-1.2-1.2-3.2-1.8-4.3c-0.3-0.4-0.7-1-0.7-1.3c0-0.4,0.6-0.9,0.8-1.2c0.8-1.3,1.3-2.7,2-4.1
				c0.2,0.7,1.3,0.6,1.6,0c0.2,0.3,0.4,0.7,0.7,0.9c0.8,0,0.8-0.5,1.3-0.7c0.4,0.3,0.5,1.1,1.1,1.1c0.7,0,0.7-0.5,1.1-0.9
				c0.7,0.5,1.8,1,2.3-0.1c0.5,0.5,1.9,1,2.1-0.2c0.7,0.5,2.2,0.5,2.3-0.5c0.4,0.1,0.9,0.1,1.2,0.1c0.4-0.3,0.3-0.8,0.6-1.1
				c0.6,0.4,1.7,0.4,1.8-0.5c0.8,0.3,0.9-0.7,1.5-0.8c0.4-0.1,0.7,0.4,1.1,0.2c0.4-0.2,0.1-0.8,0.5-1.1c0.7,0,0.9-0.4,1.1-0.7
				c1,0.8,2,1.6,2.8,2.6c0.2,0.2,0.5,0.5,0.6,0.8c0.2,0.5,0,1.4,0,2c-0.1,0.7-0.2,1.4-0.2,1.9c0,1.4-0.3,2.8-0.1,4
				c0.1,0.4,0.3,1,0.7,1c0.6-0.1,0.6-1.7,0.8-2.4c0.6-2,0.8-3.2,1.3-5c0.2-0.7,0.8-1.9,0.7-2.5c0-0.5-0.4-1.1-0.7-1.5
				c-0.6-0.9-1.5-2.1-2-2.9c0.2,0,0.6,0,0.7-0.1c0.3-0.3,0-1-0.2-1.4c0.4-0.1,0.7-0.3,0.8-0.6c-0.1-0.7-0.7-1.4-0.3-1.9
				c1.5,0.5,2.7,1.1,4.1,1.8c0.5,0.2,1,0.4,1.3,0.7c0.5,0.5,0.9,1.5,1.2,2.3c0.8,1.8,1.4,2.9,2.5,4.6c0.3,0.5,1.2,2,1.6,1.8
				c0.6-0.2-0.2-1.6-0.3-1.8c-0.9-2.1-1.6-5-2.5-7.5c-0.3-0.8-0.8-1.6-1-2.5c-1.9-0.8-3.9-1.4-6-2c0.9-0.6-0.5-1.1-0.5-1.4
				c0-0.2,0.4-0.5,0.3-1c-0.1-0.4-0.4-0.4-0.6-0.7c1.2-0.8,3.4-0.9,5.1-1.2c1.6,1.2,3.2,2.4,4.7,3.6c0.5,0.4,1.1,0.9,1.8,0.9
				c0.2-0.9-0.8-1.4-1.2-2c-1.8-2.3-4.1-4.4-5.7-6.9c-2,0.2-3.5,1.1-5.5,1.5c-0.1-0.6-0.6-0.6-0.9-0.8c0.4-0.5-0.2-1.2-0.7-1.2
				c0.5-0.6-0.1-1.3-0.7-1.4c1.3-0.9,2.5-1.8,3.8-2.6c2.1,0.6,4,1.6,5.9,2.3c0.7,0.3,1.3,0.7,2,0.7c0.1-1-1.2-1.7-1.9-2.3
				c-1.5-1-2.8-1.7-4.1-2.9c-0.3-0.3-1.5-1.6-1.9-1.6c-0.2,0-0.5,0.2-0.8,0.4c-2,1-3.7,2-5.9,2.8c-0.1-0.9-0.7-1.1-1.4-1.2
				c0.2-0.4,0.3-1,0.1-1.7c-0.6-0.5-1.8,0.2-2.7,0.3c0-0.5-0.3-0.7-0.5-0.9c-0.7,0.1-1.5,0.4-2.2,0.4c-0.1-0.4-0.3-0.7-0.6-0.9
				c-1.3,0.1-1.9,0.8-2.7,1.3c-0.5-0.1-0.6-0.7-1.1-0.7c-0.7,0-1.3,0.6-1.8,1.1c-0.2,0.2-0.4,0.3-0.7,0.3c-0.2-0.1-0.3-0.2-0.4-0.3
				C141,95.7,140.9,95.7,140.7,95.7z M149.9,102.6C149.9,102.6,150.2,102.7,149.9,102.6c5.9,1.1,5,10.8-0.8,10.6
				C144.1,113,144.2,102.2,149.9,102.6z M142.4,112.9c-4.8,2.2-8.9-6.2-4.4-9c0,0,0.2-0.1,0,0C144.3,99.9,147.2,110.7,142.4,112.9z"
				/>
			<path class="st1" d="M151.1,110.4C151.1,110.4,151.1,110.4,151.1,110.4C151,110.5,151,110.5,151.1,110.4z"/>
			<path class="st1" d="M151.1,110.4C151.1,110.4,151.1,110.4,151.1,110.4c2.5-2.4,0.1-7.5-2.8-4.5
				C146.5,107.8,148.5,112.9,151.1,110.4z"/>
			<path class="st1" d="M141.6,110.4C141.6,110.4,141.6,110.4,141.6,110.4c2.5-2.4,0.1-7.5-2.8-4.5
				C137,107.8,139.1,112.9,141.6,110.4z"/>
			<path class="st1" d="M151.1,110.4C151.1,110.4,151.1,110.4,151.1,110.4C151.1,110.4,151.1,110.4,151.1,110.4z"/>
		</g>
		<path class="st2" d="M344.2,304.7c-0.6-0.7-7.6-1.4-9.1-2.3c-0.9-0.5-1.5-0.5-2.7,0.1c-2.9,1.4-17.4,9.4-21.8,12
			c-0.8,0.5-1.7,1-2.5,1.4c-0.4-0.5-0.8-1.1-1.2-1.7c-1.6-2.5-2.5-5.3-2.5-5.4c-0.3-0.3-2.3-1.5-3.8-3.2c-1.4-1.6-2.3-3.6-2.5-4.4
			c-0.7,0-2.2-1.3-3.6-2.8c-1.3-1.4-2.2-2.6-2.3-3.6c-0.3,0.3-1,1.6-0.8,3c0.1,0.5,0.5,1.9,1.4,3.5c1.4,2.5,3.5,5.7,4,6.9
			c0.7,1.6,0.9,3.1,1,3.6l1,1.5c0,0.1,0.1,0.3,0.2,0.5c-0.8-0.1-1.5,0.2-1.8,0.1c-0.9-0.2-2.9-1.4-3.9-1.8c-0.2-0.1-0.5-0.1-0.5-0.1
			c-0.1,0.2,0,0.5,0.1,0.9c0.2,0.6,2.1,2.7,2.7,3.3c0.7,0.8,0.1,1.2-0.4,1.8c-0.2,0.3-0.1,0.9,0.2,1.2c0.9,0.6,2.9,0.6,3.1,0.8
			c0.2,0.2,2.7,4.1,4.9,4.5c2.1,0.4,4-0.3,6-0.6c2.2-0.4,4.3-0.8,6.5-0.9c1.5,0,2.6,0.1,3.9,0.8c0.9,0.6,1.9,1.1,2.6,1.9
			c0,0,1.9-2.6,4.4-4.6c2.4-2,5.3-3.2,6.9-2.6c0.1-2.1,1.3-5.6,4.1-9C339.6,307.3,343.8,304.9,344.2,304.7z"/>
		<path class="st2" d="M319.3,288.8c1.6-1.7,10-5.6,13.4-6.2c4.6-0.9,8.1,0.4,9.4,1.3c0.9-2.5,5.3-4.7,9.3-2.9
			c-0.1-2,2.6-5.8,5.9-6.1c-0.4-0.4-2.2-3.2-5.4-4.4c-2-0.8-4.6-1.8-7.6-2c-2.8-0.2-5.1,0-6.9,0.2c-0.9,0.1-1.7-0.7-1.9-0.6
			c-0.1,0-2.1,1.7-4.5,3.1c-2.7,1.6-5.8,2.9-6.9,3.4c-0.2,0-0.5-0.2-0.9-0.3c-0.4-0.2-0.8-0.3-0.9-0.3c-0.2-0.5,0.3-1.2,0.1-1.3
			c-0.1-0.1-1,0.3-1.5,0.7c-0.2,0.1-1-0.4-1.8-0.5c-0.6-0.1-1.1,0.1-1.3,0.1c-0.3,0-0.4-0.4-0.6-0.6c-0.3-0.3-0.7-0.6-0.8-0.7
			c0,0.4-0.2,1-0.3,1.7c-0.2,0.3-0.4,0.5-0.6,0.5c-0.8-0.2-4.3-1.5-7.3-3c-2.5-1.2-4.5-2.7-4.7-2.8c-0.2,0-0.9,0.8-1.9,0.7
			c-1.8-0.1-4.1-0.2-6.9,0.2c-3,0.4-5.5,1.6-7.4,2.6c-3.1,1.5-4.7,4.4-5,4.8c3.3,0.1,6.3,3.7,6.4,5.7c3.8-2.1,8.4-0.2,9.4,2.2
			c1.3-1,4.6-2.5,9.3-2C310.9,282.7,317.3,287.2,319.3,288.8z"/>
	</g>
	<g>
		<g>
			<path d="M213.2,135.7c0.1-1.1-0.1-2.1-0.2-3.1c-0.2-1.3-0.7-2.6-1-4c-0.1-0.4-0.3-0.8-0.5-1.3c-1.2-2.4-2.9-4-5-4.8
				c-0.8-0.3-1.6-0.5-2.5-0.9c0.2-0.1,0.3-0.4,0.5-0.4c1.1-0.5,2.1-1.2,3.1-2c1-0.6,1.7-1.8,2.2-3c0.2-0.7,0.3-1.3,0.2-1.9
				c-0.1-0.5-0.1-1.1-0.1-1.6c-0.2-1.4-0.5-2.8-1.3-3.7c-1-1.1-2.7-3.7-7.2-3.7c-3-0.1-9.4,0.7-12,1.9c-0.4,0.3-0.7,0.4-1,0.7
				c-0.4,0.3-0.3,1.1,0.1,1.3c0.6,0.3,1,0.1,1.6,0.1c0.6-0.1,1.3-0.1,2.1-0.2c0.1,0.4,0.1,0.7,0.1,0.9c-0.1,1.6-0.1,3.1-0.3,4.7
				c-0.3,4.4-0.4,8.7-0.6,13.1c-0.1,1.9-0.1,3.8-0.1,5.8c-0.1,4-0.2,8-0.2,12c0.1,0.7,0,1.4-0.1,2.2c-0.1,1.1-0.3,1.3-1,1.3
				l-1.9,0.2c-0.6,0.1-0.8,0.5-0.6,1c0.4,1,1.1,1.4,1.9,1.4c1.6-0.1,3.1,0.2,4.5,0.7c0.5,0.1,1,0.3,1.4,0.2c0.4,0,0.7,0,1,0.1
				c2.1,0.3,4,0.1,6-0.4c0.6-0.2,1.3-0.4,1.9-0.7c1-0.5,1.9-1.3,2.9-1.9c0.8-0.4,1.6-1.1,2.1-1.9c0.5-0.7,1.1-1.4,1.7-2.2
				c0.8-1.1,1.7-2.4,1.9-4l0.2-0.7c0.4-1.6,0.5-3.1,0.3-4.7C213.2,136,213.1,135.9,213.2,135.7z M196.3,108.1
				c2.5-0.7,4.6-0.8,6.9,0.2c0.6,0.4,1,0.9,1,1.6c0.1,1,0.1,1.9,0.1,2.9c-0.1,1.8-0.7,3.4-1.6,4.9c-1.1,2-2.7,3.1-3.3,3.4
				c-0.8,0.3-1.6,0.5-2.5,0.8c-0.4,0.1-0.7-0.1-0.7-0.6c0-1.8,0-3.5-0.1-5.2c0.1-1.9,0.2-3.9,0.2-5.8
				C196.5,109.8,196.3,109,196.3,108.1z M206.2,141.9l-0.4,1c-0.6,1.2-1.3,2.5-1.9,3.6c-0.3,0.5-0.7,0.8-1.1,1.3
				c-1,0.6-2.1,1.1-3.2,1.5c-0.7,0.1-1.5,0.2-2.2,0.4c-0.7,0.1-1.3,0.2-2-0.1c0-0.1-0.1-0.4-0.1-0.7c-0.1-0.5-0.1-1-0.1-1.5l0.4-8.5
				c0-1.2,0.1-2.3,0.1-3.5v-1.6c0.1-2.6,0.2-5.2,0.4-7.8c0-0.6,0-1.1,0.1-1.9c1.3,0.5,2.5,0.1,3.7-0.2c0.4-0.1,0.9-0.1,1.2-0.1
				c1.3,0.1,2.4,0.4,3.5,0.9c0.6,0,0.9,0.4,1.2,1c0.7,1.7,1.3,3.4,1.6,5.2C207.7,134.6,207.1,138.3,206.2,141.9z"/>
			<path d="M243.2,105.6c-1.2-0.1-6.6,0.8-7,1c-0.1,0-0.4,0.3-0.4,0.4c-0.1,0.1,0.1,0.4,0.2,0.5c0.4,0.3,0.7,0.4,1.1,0.7
				c0.6,0.3,1,0,1,0.6c-0.1,3.4,0,6.6-0.1,9c0,0.5-0.1,1,0,1.4c0.1,3.9,0,7.8-0.7,11.7c-0.5,3.1-1.8,10-3.7,12.8
				c-2.9,4.3-7.9,6.4-9.4,1.6c-0.7-2.2-1.1-4.6-1.2-7.1c0-1.7-0.1-3.5-0.2-5.2s-0.1-3.5,0-5.2c0.1-2.3,0.1-4.5-0.1-6.8
				c0-2.2-0.1-4.3-0.4-6.4c-0.1-1.6,0.4-2.7,1.1-4l0.4-0.6c0.7-1,0.5-1.7-0.7-2.1c-0.1,0-0.3,0-0.4-0.1c-0.6-0.1-4.6-0.1-5.6,0.1
				c-0.2,0.1-0.4,0.2-0.6,0.3c-0.4,0.1-0.5,0.6-0.3,0.9c0.2,0.6,0.5,1.2,1.3,1.3c1,0.3,1.1,1,1.2,2c-0.1,1.2-0.1,2.4-0.1,3.6
				l-0.2,8.7c-0.1,1.2-0.1,2.3-0.1,3.4c-0.1,2.3-0.1,4.6-0.1,6.7c0.1,3.9,1,7.6,2.8,11c0.8,1.9,1.9,3.5,3.3,4.9
				c7,6.6,14.9-5.5,16-8.6c1-2.6,2.1-5.2,2.5-8c0.2-1,0.5-2.2,0.7-3.3c0.1-0.7,0.1-1.3,0.2-2c0.1-1.8,0.9-17,0.7-18.8
				c-0.1-0.9,0.2-1.6,0.7-1.7c0.4-0.1,0.5-0.6,0.8-1C246.7,105.8,245.1,105.7,243.2,105.6z"/>
			<path d="M275.6,129.1c-0.5-0.1-6.5-0.6-8.4-0.5c-0.3,0-0.7,0.1-0.9,0.2c-0.3,0.2-0.7,0.4-0.7,0.9c0,0.3,0.4,0.7,0.9,1
				c0.4,0.1,0.8,0.2,1.3,0.2c0.6,0.1,1.3,0.1,1.9,0.1c0.3,0,0.6,0.1,0.9,0.1c0.2,0.8,0.1,1.6,0,2.6c-0.3,1.9-2.6,11-5.3,13.4
				c-0.9,0.8-2.7,1.5-4.3,1c-0.2-0.2-0.6-0.2-0.8-0.3c-1.3-0.4-2.3-1.3-3-2.5c-0.5-0.9-0.9-1.9-1.3-3c-1.2-3.7-1.6-7.5-1.5-11.4
				c0.1-1.6,0.2-3.1,0.2-4.6c0-2,0.2-4.3,0.6-6.4c0.3-2.2,1.9-11.4,9.5-11.1c0.2,0,0.4-0.1,0.7-0.1c1,0.1,1.8,0.4,2.6,1
				c0.5,0.4,0.8,1.1,0.7,1.9c0,0.1-0.1,0.5,0,0.7c0.1,1.3,1.4,2.2,2.6,1.8c0.2-0.2,0.5-0.4,0.6-0.6c0.2-0.5,0.4-1,0.4-1.3
				c0.1-1.2,0.1-2.4,0.3-3.6c0-0.2-0.1-0.7-0.3-0.9c-0.5-0.5-1.2-1-1.9-1c-0.8,0-1,0.7-1.3,1.3c0,0.1-0.1,0.1-0.3,0.3l-1.4-1
				c-0.7-0.3-1.4-0.7-2.3-0.7c-13.6-1.5-16,12.9-16.5,16.1c-0.4,2.5-0.7,5.2-0.9,7.8c-0.1,1.1-0.1,2.2-0.1,3.3
				c0.1,2.8,0.5,5.6,1.5,8.2c0.8,2.2,1.6,4.3,3.1,6.1c1.5,1.7,3.1,3.1,5,4.3c3.5,2,9.1-0.7,9.9-2.1c0.4-0.5,0.6-0.9,1-1.4
				c1-1.3,1.9-2.8,2.5-4.4c0.3-0.9,1.6-5.4,1.8-6.7c0.1-0.7,0.4-3.7,0.6-4.6c0.3-0.7,0.2-1.5,0.3-2.2c-0.4-0.2,1.3,0.5,2.9,0
				c0.1-0.1,0.1-0.2,0.1-0.4C276.5,129.6,276.4,129.3,275.6,129.1z"/>
			<path d="M299,133.3c-0.7-2.4-1.9-4.4-4-6.1c-1.2-0.9-2.4-1.8-4-2.3c-0.8-0.2-1.6-0.7-2.5-1.2c-0.5-0.8-1.2-1.6-1.9-2.4
				c-0.1-0.2-0.3-0.4-0.3-0.6c-0.2-0.7-0.7-1.6-0.9-2.3c-0.4-1.5-0.3-3.1,0.4-4.7c0.4-1.4,3.5-4.3,6.7-3.8c0.4,0.1,0.8,0.4,1,0.4
				l1.6,1.6c0.6,0.7,1.2,3.3,1.4,3.4c1.3,0.2,1.7,0.2,2.5-0.7l-0.8-2.5c0,0-0.1-0.1-0.1-0.2c-0.4-0.9-1-1.6-1.4-2.2
				c-4.8-5-9-4.9-13.2-0.8c-0.4,0.4-0.8,0.8-1.1,1.1c-1.1,0.7-1.8,3.8-1.8,4.3c-0.3,2.2-1.6,5.9,4,10.9c0.5,0.4,1.4,0.7,1.9,1.2
				c0.5,0.4,1,0.7,1.4,1c1.3,1,2.5,1.9,3.6,2.9c0.4,0.3,0.7,0.7,1,1.2c0.9,1.3,1.3,2.5,1.8,4.2c0.3,0.9,0.3,1.9,0.3,3.1
				c-0.1,1.8-0.7,3.5-1,5.2c-0.4,1.9-1.3,3.4-2.3,4.9c-0.4,0.7-0.9,1.1-1.4,1.7c-0.4,0.4-0.8,0.5-1.5,0.4c-0.7-0.2-1.5-0.4-2.2-0.9
				c-2.3-1.6-3.7-6.4-3.6-10.2c0-0.3,0.3-0.5,0.4-0.7c0.3-0.7,0.2-1.1-0.7-1.4c-0.2,0-0.5-0.1-0.8-0.1c-1,0.1-2.2,0.2-3.3,0.4
				c-0.1,0-0.7,0.2-0.9,0.4s-0.2,0.8,0,1c0.1,0.1,0.4,0.2,0.7,0.3c0.1,0.1,0.6,0.3,0.9,0.3c0,0.3,0,0.5-0.1,0.6
				c-0.1,0.7-0.1,1.3-0.1,2.1c0.1,0.5,0,1.3,0,2c0,0.2-0.1,0.5,0.1,0.7c0.2,2,1.2,4.3,2.9,5.6c3.4,2.8,8.1,3.1,11.1,1.3
				c2.1-1,3.6-2.6,4.8-4.5c0.6-1,1-2.2,1.4-3.4c0.7-2.2,0.8-4.3,0.8-6.5C299.9,136.4,299.6,134.8,299,133.3z"/>
		</g>
		<g>
			<path d="M156.1,284.1c-0.2-3.9-1.4-6.9-1.8-8.8c-0.4-0.9-1-1.9-1.4-2.7c-0.8-2-3.6-5.5-8.4-6.5c-0.7-0.2-1.5-0.3-2.2-0.5
				c-0.9-0.4-1.9,0-2.6,0.3c-0.5,0.2-0.6,0.5-0.4,0.9c0.5,0.3,0.7,0.8,1.1,1.3c0.6,0.4,0.9,0.9,1.2,1.6c0.9,2.4,1.9,4.9,3,7.4
				c0.9,2.1,1.6,4.2,2,6.5c0.2,1.2,0.5,2.4,0.8,3.6c3.2,13.5,1,23.7-0.9,27.9c-0.2,0.8-0.5,1.7-0.9,2.5c-5.2,8.8-17-2.5-18.9-13.1
				c-0.3-1-0.1-1.9,0-2.8c0.8-1.7,1.3-3.2,1.9-4.9c1.6-4.9,3.3-10.4,0.7-12.9c-1.4-1.3-2.9-1.2-4.2-0.5l-0.8,0.7
				c-0.6,0.6-0.9,1.5-1.6,2.1c-1.7,2.5-2.9,5.3-2.6,8.3c0,0.2,0,0.4,0,0.7c0,2.1,0.2,4.2,0.4,6.3c0.2,1.1,0.3,2.4,0.6,3.6
				c0.1,1,0.1,1.8-0.2,2.8c-0.3,0.7-1,1.3-1.6,2.2c-1.8,2.8-8.3,8.4-10.6,9.9c-1.7,0.7-2,0.7-2.3-1c-0.3-1.5-0.2-3.1-0.2-4.8
				c-0.1-2.2-0.2-2.2,0.1-4.4c0.2-1.6,0.6-3.5,1-5c0-0.5,0.1-1.2,0.2-1.8c0.5-2,1-3.9,1.5-6c0.6-2.2,1.2-4.3,1.7-6.6
				c0.2-0.9,0.6-1.8,0.8-2.9c0.5-1.9,1-3.5,1.5-5.4c0.3-0.8,0.5-1.7,0.8-2.8c0.2-1.7,0.5-3.7,1.2-5.5c0-0.4-0.1-0.7,0-0.9
				c0.2-0.5,0.1-1,0.2-1.4c0.4-3.3-0.9-8.2-3.5-10c-1.3-0.8-2.8-1.1-4.2-1c-0.5,0-1,0.1-1.6,0.1c-1.9,0.1-4,0.6-5.5,1.6
				c-1.5,0.9-2.8,1.9-3.9,3.2c-2.7,2.8-5.2,5.9-6.7,9.6c-0.6,0.5-0.8,1-1,1.6c-0.3,0.8-0.5,1.5-0.6,2.4c-0.1,0.5-0.2,0.8-0.1,1.1
				c0,0.3,0.1,0.6,0.4,0.7c0.2,0.1,0.7,0.2,1.1,0.1c0.7,0,1.3-0.1,1.7-0.1c0.5-0.4,0.9-0.8,1.2-1.4c0.9-2.3,2.8-4.1,4.1-6.3
				c0.1-0.1,0.2-0.2,0.3-0.3c1.6-2,3.2-3.8,5.2-5.6c1.1-1.3,2.7-2.2,4.4-3.3c0.1-0.1,0.4-0.1,0.6-0.2c1-0.3,1.4,0,1.5,0.7
				c0,0.2,0,0.4-0.1,0.6c-0.1,1.2-0.1,2.3-0.4,3.6c-0.5,3.6-1.7,7-2.9,10.3c-0.7,2.1-1.3,4-1.9,6c-0.9,2.7-1.9,5.7-2.6,8.6
				c-1.6,5.2-3.2,19.7-3.3,21c0,1.3,0,2.5,0.1,3.6c0.1,1,0.5,2,0.7,2.9c0.1,0.3,0.4,0.7,0.5,1c1.1,1.2,2.1,2.4,3.3,3.3
				c1.2,1.1,2.6,1.7,4.7,1.1c0.1-0.1,0.5,0,0.9-0.1c1.8-0.4,3.5-1.1,5-2.2c0.8-0.7,1.6-1.7,2.7-2.4c0.8-0.9,1.5-1.8,2.1-2.6
				c0.8-0.7,1.2-1.4,1.8-2c0.7-1.9,3.6-4.8,4.6-6c0.3-0.3,0,0.4,0.2,1c0.1,0.3,0.2,0.4,0.4,0.7c0.7,1.5,1.6,3,2.5,4.4
				c1.2,1.6,2.4,3,3.5,4.3c0.8,1.1,1.7,1.9,3,2.5c2.3,1.4,4.9,2.4,8,2.5c2,0.1,4-0.2,5.9-0.9c0.6-0.3,1.4-0.9,2.1-1.2l1.3-1.1
				c7.2-8.1,8.4-26.7,6.1-37.1C156.2,285.5,156.1,284.8,156.1,284.1z M125.1,298.2c-0.2-1.8-0.5-3.6-0.3-5.2
				c0.3-0.7,0.3-1.4,0.4-2.1c0.2-0.5,0.1-1,0.2-1.6l1-4c0-0.2,0.1-0.5,0.3-0.7c0.1-0.3,0.7-0.3,0.7-0.1c0.3,0.9,0.6,1.7,0.6,2.6
				c-0.1,0.8-0.3,1.5-0.5,2.3c-0.3,1.5-0.7,3-1.1,4.6c-0.3,1.2-0.6,2.5-0.9,3.7C125.4,298,125.3,298,125.1,298.2z"/>
			<path d="M166.6,287.9c0.3,0.1,0.8,0.2,1.1,0.1c0.4-0.2,0.6-0.6,0.5-0.9c-0.3-0.6-0.6-1.1-0.8-1.7c-0.3-0.5-0.5-0.9-1-1
				c-0.6-0.2-1.2-0.1-1.7,0.4c0,0.6,0.3,1.1,0.5,1.7C165.5,287,166.1,287.6,166.6,287.9z"/>
			<path d="M280.2,286.4c-1.7,0.7-3.2,1.5-4.8,2.5c-0.9,0.4-1.8,1-2.8,1.7c-1.6,1.2-3.5,2.4-5.2,3.6c-0.1,0.1-0.4,0.2-0.4,0.3
				c-0.4,0.2-0.7,0.1-1-0.1c-0.7-0.7-0.8-1.5-1.1-2.6c-1-3.7,0.1-7.1,3.1-6.9c0.5,0,0.8-0.1,1.2-0.5c0.2-0.2,0.4-0.6,0.2-0.7
				c-0.4-0.8-1.1-1.4-1.9-1.4c-1.3-0.3-2.4-0.3-3.6,0.1c-0.7,0.2-1.2,0.4-1.8,0.5c-1.2,0.3-2.2,0.7-3,1.6c-0.9,0.6-1.4,1.3-1.9,1.9
				c-1.3,1.6-1.5,3.2-0.9,4.8c-1,1.4-1.9,2.6-2.2,2.9c-0.5,0.7-1.2,1.6-1.6,2.3c-0.6,0.5-0.9,1.2-1.4,1.8c-0.5,0.4-7.4,8.1-8.8,4.9
				l-0.6-0.6c-0.4-0.9-0.7-1.7-0.8-2.6c-0.1-1,0-3.1-0.2-4.1c0.1-1.1,0.5-2,1.4-2.7c1.6-1.2,2.9-2.7,4.1-4.4c0.4-0.5,1-1,1.4-2.1
				c2.3-4.9,0.8-7.1-4-7c-0.5,0-1,0-1.3,0.2c-0.9,0.4-2.2,1-3,1.7c-1.3,1.4-2.6,2.8-3.5,4.6c-0.6,1.1-1.1,2.3-1.5,3.3
				c-0.3,1.4-0.7,3-0.6,4.4c0,1.6,0.1,4.7,0.5,6.1c0.3,0.6,0.5,1,0.6,1.5c0.9,1.7,1.9,3.4,3.2,4.8c-0.3,0.2-0.6,0.5-0.8,1
				c-0.1,0.2-0.2,0.2-0.2,0.5c-0.4,1.3-0.9,2.5-1.7,3.8c-0.5,0.9-1.1,1.8-1.5,2.8c-0.7,1.7-2.3,2.7-3.7,3.7c-0.3,0.4-0.7,0.2-1.2,0
				c-1.4-0.7-2.2-1.9-2.7-3.4c-0.6-1.8-0.7-3.6-0.4-5.6c0.5-3.6,0.1-7.3,0.1-11c0.1-1.9-1-3.2-2.7-3.8c-0.2-0.1-0.5-0.1-0.7-0.3
				c-0.8-0.2-1.7-0.2-2.5,0c-1.4,0.4-2.8,1-4,1.8c-2.1,1.5-4.2,3.3-5.6,5.7c-0.5,0.7-0.9,1.4-1.7,1.8c-0.6-0.4-0.8-0.9-0.9-1.6
				c-0.1-0.4-0.1-0.7-0.1-0.9c0.1-3-0.1-5.9-0.2-8.8c0-0.6,0.1-1.3,0.5-1.8c0.5-0.4,0.9-1,1.4-1.6c1.2-1.2,2.2-2.6,3.4-3.9
				c0.8-1,4-7.6,4.5-9.2c0.8-2.2,1.1-4.4,1.1-6.8c-0.1-2.6-2.1-4.4-4.6-4.6c-0.5,0-0.9,0-1.3,0c-0.8-0.2-1.6,0.1-2.3,0.7
				c-1.3,1.1-2.3,2.6-3,4.2c-1.2,2.6-2.1,5.1-3.1,7.7c-0.5,1.5-1.3,3-1.4,4.5c-0.3,2.4-1.5,4.2-1.9,11.7c-1.4,0.6-2.7,1.3-4,2.2
				c-0.9,0.4-1.8,1-2.8,1.7c-1.6,1.2-3.5,2.4-5.2,3.6c-0.1,0.1-0.4,0.2-0.4,0.3c-0.4,0.2-0.7,0.1-1-0.1c-0.7-0.7-0.8-1.5-1.1-2.6
				c-1-3.7,0.1-7.1,3.1-6.9c0.5,0,0.8-0.1,1.2-0.5c0.2-0.2,0.4-0.6,0.2-0.7c-0.4-0.8-1.1-1.4-1.9-1.4c-1.3-0.3-2.4-0.3-3.6,0.1
				c-0.7,0.2-1.2,0.4-1.8,0.5c-1.2,0.3-2.2,0.7-3,1.6c-0.9,0.6-1.4,1.3-1.9,1.9c-1.6,1.9-1.5,3.9-0.5,5.9c-1.1,1.7-2.1,3.3-2.9,4.1
				c-1.2,1.6-2.7,3.4-5.8,6.1c-0.2,0.2-0.6,0.3-1,0.1c0-0.1-0.2-0.4-0.2-0.7c-0.1-0.5-0.1-3.2-0.1-3.7c0-1.9-0.1-5.4,0.7-7.2
				c0.8-1.8,0.7-4.7-0.9-5c-0.9-0.2-1.6-0.6-2.5-0.7c-0.7,0.1-1.4,0.4-1.6,1.2c-0.2,0.4-0.2,0.8-0.4,1.2c-0.1,0.3-0.2,0.5-0.2,0.8
				c0,0.1,0.1,0.3,0,0.4c-0.8,6.9-1.7,12.6,2.6,17c1.7,1.7,2.9,2.1,5.2,0.9c0.4,0,0.7-0.3,1.1-0.5c3.1-2.1,6.6-7.5,8.2-10.2
				c0.1-0.1,0.2-0.3,0.3-0.5c0.4,0.5,0.9,0.9,1.4,1.4c0.2,0.3,0.6,0.6,0.7,1c0.3,0.4,0.3,0.7,0,1c-0.2,0.3-0.4,0.5-0.5,0.8
				c-0.9,0.5-1.4,1.2-2,1.8c-0.5,0.9-1,1.5-1.4,2.2c-0.5,0.6-0.8,1-1.1,1.5c-0.5,0.9-0.2,1.7,0.5,2.3c0.2,0.2,0.6,0.4,0.9,0.7
				c0.6,0.4,1,0.7,1.4,1c1.4,0.7,2.9,1.3,4.6,1.1c0.6,0,1-0.2,1.6-0.1c1.1,0,2-0.5,2.7-1c1.1-0.8,2-1.6,2.8-2.5
				c0.3-0.4,0.8-1,0.8-1.5c0.3-2.3-0.3-4.5-1.8-6.3l-0.9-1.4c-0.3-0.6-0.1-0.7,0.4-1c1.8-1.3,3.6-2.4,5.4-3.7
				c1.4-0.9,2.6-1.7,3.8-2.5c0.2-0.1,0.6-0.3,1.1-0.6c0,0.7,0,1.4,0.2,2.2c0.2,3.3,0.6,6.5,1.1,9.8c0.1,1.6,0.4,3.5,1.1,5.1
				c0.7,1.9,2.2,3.1,4.4,3.3c0.2,0.1,0.6-0.2,0.8-0.4c0.4-0.3,0.6-0.8,0.6-1.2c-0.1-0.9,0.1-1.7,0.6-2.4c0.2-0.3,0.3-0.6,0.5-0.9
				c0.2-0.8,0.8-1.6,1.2-2.3c0.7-1.3,1.5-2.3,2.4-3.4c0.4-0.7,1.9-3.6,2.5-4.5c0.9-1.3,2.3-2.6,3.3-3.6c0.1-0.2,0.3-0.1,0.5-0.1
				c0.2,0.1,0.2,0.3,0.3,0.4c0,0.7,0,1.3-0.1,2c-0.2,3.8-2.1,9.8-1.5,13.5c0.2,1.7,0.7,3.4,1.8,4.7c0.4,0.4,0.7,0.7,0.8,1.1
				c1,1.8,2.6,2.8,4.4,3.6c0.8,0.4,1.5,0.3,2.3,0.3c2-0.1,3.8-0.7,5.7-1.6c1.1-0.5,2.1-1.2,2.7-2.5c1.1-2,2.2-4.1,2.9-6.5
				c0.2-0.6,0.3-1.2,0.2-2c-0.1-0.7-0.1-1.5,0.3-2.1c0.2-0.2,0.2-0.5,0.2-0.8c0.5,0.2,1,0.4,1.6,0.4c6.4,0.2,8.4-2.3,9.2-2.8
				c0.7-0.7,1.9-1.3,2.4-2.6c1.4-2,2.8-4,4.1-5.8c0.4-0.8,0.8-1.5,1.2-2.2c0.6,0.8,1.3,1.5,2.1,2.2c0.2,0.3,0.6,0.6,0.7,1
				c0.3,0.4,0.3,0.7,0,1c-0.2,0.3-0.4,0.5-0.5,0.8c-0.9,0.5-1.4,1.2-2,1.8c-0.5,0.9-1,1.5-1.4,2.2c-0.5,0.6-0.8,1-1.1,1.5
				c-0.5,0.9-0.2,1.7,0.5,2.3c0.2,0.2,0.6,0.4,0.9,0.7c0.6,0.4,1,0.7,1.4,1c1.4,0.7,2.9,1.3,4.6,1.1c0.6,0,1-0.2,1.6-0.1
				c1.1,0,2-0.5,2.7-1c1.1-0.8,2-1.6,2.8-2.5c0.3-0.4,0.8-1,0.8-1.5c0.3-2.3-0.3-4.5-1.8-6.3l-0.9-1.4c-0.3-0.6-0.1-0.7,0.4-1
				c1.8-1.3,3.6-2.4,5.4-3.7c1.4-0.9,2.6-1.7,3.8-2.5C280.1,289.5,289.5,283.3,280.2,286.4z M241,287.3c0.5-1.3,1.3-2.5,2.2-3.8
				c0.4-0.6,0.8-1.1,1.5-1.6c0.3-0.3,0.8-0.2,0.9,0.3c0.2,0.6,0,1.3-0.1,1.7c-0.4,1.2-0.9,2.4-1.7,3.6c-0.3,0.5-0.7,1-1,1.6
				l-1.5,1.4c-0.2,0.2-0.4,0.1-0.5-0.2C240.5,289.4,240.7,288.3,241,287.3z M209.3,279.6c0-0.4,0.1-0.7,0.1-1c0.2-2.8,1.5-7.1,3-8.7
				c0.3-0.5,0.7-1.2,1.1-1.7c0.1-0.2,0.4-0.1,0.6-0.1c0.1,0,0.2,0.1,0.2,0.2c0.1,0.8,0,1.5,0,2.2c-0.7,2.4-1.5,4.5-2.6,6.6
				c-0.6,0.9-1.2,1.9-1.7,2.7c0,0.1-0.4,0.2-0.5,0C209.4,279.9,209.2,279.6,209.3,279.6z M184.2,312.1c-0.5,0.8-1.1,1.1-1.8,1.4
				c-0.4,0.2-0.7,0.1-1.1,0.1c-0.5,0-0.8-0.3-0.7-0.8c0-0.5,0.1-1,0.3-1.4c1-1.3,1.7-2.7,3-3.8c0.1-0.1,0.4-0.2,0.4-0.2
				c0.1-0.2,0.5,0,0.7,0.2c0,0.2,0.1,0.5,0.1,0.7c0,0.4,0.1,0.8,0.2,1C185.1,310.4,184.7,311.3,184.2,312.1z M262.7,306
				c-0.5,0.8-1.1,1.1-1.8,1.4c-0.4,0.2-0.7,0.1-1.1,0.1c-0.5,0-0.8-0.3-0.7-0.8c0-0.5,0.1-1,0.3-1.4c1-1.3,1.7-2.7,3-3.8
				c0.1-0.1,0.4-0.2,0.4-0.2c0.1-0.2,0.5,0,0.7,0.2c0,0.2,0.1,0.5,0.1,0.7c0,0.4,0.1,0.8,0.2,1C263.6,304.4,263.2,305.3,262.7,306z"
				/>
		</g>
		<g>
			<path d="M140.7,249.4l-0.9,0.1c0.1-0.4,0.1-0.7,0.1-1.1l0.4-3.1c0-0.8,0.1-1.8,0.1-2.7c-0.1-1.1,0.1-2.2-0.1-3.4
				c-0.2-1.3,0.1-2.8-0.1-4.2c0.3-2.2,0-4.4-0.1-6.7l-0.4-8.6c0-3.5-1.2-6.7-2.7-9.7c-0.4-0.9-1-1.6-1.6-2.2c-0.7-1-1.7-1.3-2.8-1.1
				c-1.6,0.1-3.1,0.5-4.4,1.8c-1.9,1.8-3.5,3.7-4.5,6.1c-1.3,3-2.4,6.2-3.1,9.5c-0.3,1.5-0.5,3.2-0.8,4.6c-0.6,3.6-1.1,7.2-1.6,10.8
				c-0.1,1.3-0.3,2.5-0.3,3.7c0,2.2,0,4.1,0.1,6.1c-0.1,0.3-0.1,0.7-0.1,1c-0.3,0.1-0.5,0.1-0.7,0.2c-0.5,0.2-1.1,0.4-1.6,0.8
				c-0.2,0.1-0.3,0.6,0,0.8c0.1,0.2,0.4,0.4,0.6,0.5c0.9,0.4,1.8,0.4,2.7,0.5c0.7,0.1,1.5,0,2.2,0.2c0.7,0.3,2.2-0.2,2.3-1
				c0.1-0.6-0.1-1-0.7-1.1c-1.4-0.4-0.5-1.2-0.3-3.8c0-1,0-2.1,0.1-3.1c0.1-0.9,0.2-1.6,0.2-2.6c0.1-1.6,0.3-3.1,0.4-4.6
				c0.4-1.6,0.6-3,0.9-4.6c0.1-0.9,0.2-1.7,0.7-2.7c0.4-0.1,1-0.2,1.5-0.3c2.1-0.1,4.3-0.1,6.3-0.7h0.4c0.4-0.1,0.8,0.2,0.8,0.6
				c0.1,0.8,0.1,1.7,0.1,2.5c0,1.5,0.1,3.1,0.1,4.6c0.1,2.1,0.1,4.1,0.1,6.1c0.1,2.8-0.2,5.6,0.7,8.4c-0.4,0.1-0.8,0.4-1,0.6
				c-0.4,0.3-0.4,0.9,0,1c0.5,0.3,1.1,0.6,1.7,0.6l4.9-1.6c0.1,0,0.4-0.1,0.6-0.1c0.6-0.1,0.9-0.6,0.9-1.2
				C141.5,249.7,141.2,249.4,140.7,249.4z M133.5,225.9c-1.5,0.4-2.8,0.4-4.1,0.7c-1.3,0.2-2.7,0.4-4,0.7c-0.1-0.1-0.3-0.1-0.3-0.4
				c-0.1-1.8-0.1-3.7,0.4-5.5c0.2-1,0.4-1.9,0.5-2.8c0.2-1,0.2-2.2,0.4-3.1c0.1-1.3,0.8-2.6,1.5-3.6c0.5-0.8,1.3-1.6,1.9-2.3
				c0.4-0.4,1-0.2,1.3,0.3c1,2.5,1.9,5.1,2,7.8c0.1,2.2,0.3,4.5,0.4,6.6C133.6,224.9,133.5,225.4,133.5,225.9z"/>
			<path d="M193.1,246.6c0-0.7-0.3-1-0.7-1.4c-0.7-0.1-1.2,0-1.4,0.7c-0.2,0.3-0.4,0.7-0.5,1c-0.4,1-1,1.8-1.6,2.7
				c-0.4,0.4-0.7,0.8-1.3,1c-1.3,0.4-2.5,0.7-3.9,0.7c-1.3-0.1-3.3,0.1-5,0.2c-0.2-1.6-0.3-3.1-0.2-4.6c0-0.4,0.1-0.9,0.1-1.3
				c-0.1-3.5,0.1-6.8,0.6-10.2l0.2-1.8c0.2-3,0.4-5.8,0.7-8.7l0.4-6c0-0.9-0.1-1.9,0-2.8c0.1-1.7,0.2-3.4,0.3-5.3
				c0-0.1,0.1-0.3,0.1-0.4c0.8-0.3,1.5-0.4,2.3-0.4c0.4,0,0.7-0.5,1-0.8c0.1-0.2,0.1-0.7-0.1-0.8c-0.1-0.2-0.5-0.5-0.8-0.5
				c-1.3,0.1-2.5-0.4-3.7-0.1c-0.7,0.1-1.6,0-2.5,0h-1.8c-0.5,0.1-1.2,0.2-1.7,0.4c-0.1,0.1-0.4,0.4-0.4,0.6c0,0.1,0.2,0.4,0.3,0.5
				c0.5,0.3,1,0.6,1.5,0.8l0.1,1c0.2,1.4,0.2,2.9,0.1,4.3c-0.1,0.4-0.1,0.9-0.1,1.3c-0.1,1.6-0.1,3.5-0.4,5.3c-0.3,3.6-0.7,7-1,10.7
				c-0.4,4.4-0.8,9-0.8,13.6c0,1.7-0.1,3.4,0.3,5c0.1,0.2-0.1,0.6-0.4,0.7l-1.1,0.6c-0.3,0.1-0.8,0.4-1,0.7
				c-0.1,0.1-0.2,0.4-0.2,0.7c0.1,0.1,0.3,0.4,0.4,0.4c7.4,0,6.9-0.5,8.7-0.6c0.7,0,1.3-0.1,1.9-0.1h1.2c2.2,0.1,4.4-0.2,6.5-0.8
				c1.3-0.2,2.3-1.1,3.3-2.2c0.5-0.9,1-1.9,0.7-3.1C193.1,247.4,193.2,247,193.1,246.6z"/>
			<path d="M219.5,219c-0.3-1.5-0.8-3-1.4-4.3c-0.9-2-2.1-3.6-3.4-5c-3.9-4.5-11-2.2-14,1.4c-0.8,1-1.5,2.2-2.1,3.2
				c-1.2,1.7-2.1,3.5-2.7,5.7c-0.4,1.1-0.7,2.4-1,3.5l-0.2,1.3c-0.6,4-0.9,8.1-0.6,12c0.1,2.1,0.6,4.2,1.5,6.1
				c0.5,0.9,0.9,1.7,1.3,2.4c1.6,2.4,3.1,4.6,5.3,6.2c1.1,0.8,2.3,1.5,3.5,1.9c0.3,0.1,0.7,0.1,1,0.1c0.8-0.1,1.6-0.2,2.2-0.6
				c3.7-2,6.4-6.4,6.6-7.2c1.6-5,1.9-5.9,2.2-6.9c0.4-2.3,0.7-4.8,1.2-7c0.4-2.8,0.4-5.8,0.5-8.4c0.1-1,0-2.1,0-3.2
				C219.6,219.9,219.6,219.3,219.5,219z M214.7,226.4v1c0,2.6-0.1,5.4-0.6,7.8c-0.2,1.3-0.6,2.5-0.8,3.6c-0.4,1.7-0.9,3.4-1.4,5.2
				c-0.4,1.1-1,2.3-1.4,3.5c-0.4,1-1.1,1.9-1.9,2.4c-0.7,0.7-1.7,1-2.7,1c-0.6,0-1-0.4-1.3-1c-0.7-1.3-1.6-2.5-2-4
				c-0.3-1-0.4-1.9-0.6-2.8c-0.4-1.6-0.5-3.4-0.7-5.1c-0.1-0.4-0.1-1,0-1.4c0.1-1.6,0.2-3.1,0.1-4.6c-0.1-0.8,0-1.7,0.1-2.5
				c0-0.5,0.1-1.1,0.1-1.6c0-2.4,0.4-4.6,0.9-6.9c0.3-1.1,0.5-2.5,0.7-3.7c0.2-1.3,0.6-2.5,0.9-3.8c0.2-1,1-1.5,1.4-2.3l0.3-0.2
				c3.4-3.6,7.2,0.5,8.4,7.6c0.3,1.6,0.3,3.3,0.5,4.9C214.8,224.4,214.7,225.4,214.7,226.4z"/>
			<path d="M259.7,207.1c-0.8-0.2-1.6-0.2-2.2-0.3c-1.5-0.1-5.5,0-4.3,1.3c0.3,0.4,0.7,0.7,1,0.7c0.3,0.1,0.6,0.4,1,0.4
				c-0.4,1-0.6,2.2-1,3.1c-0.1,0.7-0.4,1.2-0.5,1.9c-0.4,2.9-1.1,5.5-1.8,8.2c-0.5,2.4-1,4.6-1.6,6.6c-0.7,2.4-1.1,4.8-1.6,7.1
				c-0.2,0.7-0.3,1.5-0.7,2.2c-0.4-0.6-0.4-1.2-0.4-1.8l-3.1-15.8l-0.3-1.6c-1-2.5-1.8-1.9-4.3-1.9c-0.8,0-1,2.2-1.2,3.3
				c-0.1,0.4-0.4,1.1-0.6,1.5l-2.8,9.8c-1,2.5-1.9,5.1-2.8,7.7c-0.1,0.2-0.2,0.4-0.4,0.7c-0.2-0.8-0.4-1.6-0.4-2.2
				c0-2.5-0.3-4.6-0.4-7.1c-0.2-1.9-0.3-3.7-0.4-5.7c-0.2-2.3-0.4-4.8-0.7-7.2c-0.1-1.3-0.3-2.6-0.6-3.9c-0.1-1.5-0.3-2.8-0.5-4.5
				c0.1-0.1,0.4-0.6,0.4-1c0.3-0.4,0.1-1-0.4-1c-0.4-0.1-0.7-0.1-1-0.3l-4.8-0.2l-0.9-0.2c-0.4,0-0.7,0.1-0.8,0.6s0.1,0.8,0.4,1
				c0.3,0.3,0.7,0.3,1.1,0.5c0.7,0.2,0.9,0.4,0.9,1c0,1.8,1,11,1.2,13.8c0.2,3.9,0.4,8,0.7,11.9c0.1,2.2,0.4,4.3,0.7,6.4
				c0.3,2.5,0.8,5.2,1.4,7.8c0.2,1.9,1.3,2.8,2.7,3.3c0.3,0.2,0.7,0,0.9-0.4c0.1-0.3,0.2-0.5,0.3-0.8c0.3-1.6,0.9-3.1,1.5-4.7
				c0.8-1.7,1.4-3.5,1.9-5.6c0.4-1.4,0.8-2.9,1.4-4.3c0.7-1.9,1.5-3.8,1.9-6c0.1-0.8,0.4-1.8,0.6-2.5l0.7-3.9c0-0.1,0.1-0.2,0.2-0.3
				c0.1,0.1,0.2,0.1,0.2,0.2c1.8,7.1,2.5,10.8,2.9,13.3c0.6,3.4,1.3,7.5,2.5,10.8c0.4,1.6,1.4,2.7,1.9,3.2c0.4,0.6,1.1,0.2,1.3-0.5
				c0.3-0.8,0.4-1.4,0.6-2c0.8-2.4,1.6-5.6,1.9-8.2c0.1-0.3,0.1-0.7,0.2-1c0.5-1.9,1-3.6,1.3-5.3c0.1-1.1,0.4-2.4,0.8-3.4
				c0.4-1.5,0.9-3.1,1.3-4.6c0.1-0.7,0.1-1.1,0.2-1.5c0.3-1.7,0.6-3.3,0.9-4.6c0.4-1.7,1.5-8.8,2.3-11.7c0-0.1,1.1-0.1,1.9-0.6
				C260.8,208.5,261.2,207.5,259.7,207.1z"/>
			<path d="M284.5,208.7c-0.7-0.1-1.3-0.2-1.9-0.4c-0.5-0.1-0.9-0.1-1.4-0.1l-9-0.1c-1.1-0.1-2.2-0.1-3.3,0.1
				c-0.6,0.1-1.1,0.1-1.7,0.2c-1,0.1-1.9,0.4-2.8,0.5c-0.4,0.2-0.7,0.5-0.7,0.9c-0.1,0.7,0,1.5,0.3,2.2c0.1,0.4,0.4,0.5,0.8,0.5
				s0.7-0.1,0.8-0.6c0.1-0.2,0.1-0.5,0.3-0.8c0.1-0.2,0.4-0.4,0.7-0.2c0.1,0.1,0.4,0.3,0.4,0.4c0,0.6-0.1,1.3-0.1,2
				c0.1,1.4-0.1,2.8-0.2,4.3c-0.2,3.3-0.4,6.6-0.5,10c-0.1,1.9-0.1,3.8-0.2,5.8c-0.4,5.1-0.6,10.1-0.3,15v1.3c0,0.4,0.4,0.7,0.1,1.3
				c-0.4,0.2-0.9,0.1-1.4,0.1h-1.6c-0.1,0-0.4,0.1-0.4,0.3c-0.1,0.3,0,0.7,0.1,0.9c0.3,0.1,0.5,0.3,0.8,0.4c1.6,0.6,3.3,0.9,4.9,0.9
				c1.7,0.1,3.5-0.1,5.3-0.2c1-0.1,1.9-0.1,3-0.2c0.5,0,1,0,1.6,0.1c1.6,0.2,3.4,0.1,5,0c0.4-0.1,0.7-0.1,0.9-0.4
				c0.4-0.4,0.7-1.2,0.9-1.9l0.2-2.4c0.1-0.7-0.1-1-0.7-1.4c-0.2-0.1-0.4-0.2-0.7-0.3c-0.4-0.2-0.8-0.1-1,0.4l-0.4,1.6
				c-0.1,0.5-0.4,0.8-0.9,0.9s-0.9,0.2-1.3,0.2l-2.5,0.2c-1.3,0-2.7,0.1-4,0.1c-0.7,0-1.3-0.1-1.9-0.2c-0.4-1.6-0.6-3-0.5-4.6
				c0-0.9,0.1-1.9,0.1-2.9c-0.1-3.4,0.3-6.7,0.6-10c0.1-0.4,0.1-0.8,0.5-1c0.7,0,1.4,0.2,2.2,0.3c0.8,0.1,1.6,0.1,2.2,0.1
				c0.1,0.3,0.2,0.3,0.2,0.4c0.2,1.4,1,2,2,2.6c0.6,0.5,1.2,0,1.2-0.8c0-0.3,0-0.7-0.1-1c0-1-0.1-2-0.2-3c-0.1-0.4-0.3-1-0.4-1.5
				c-0.2-0.6-0.6-0.8-1.2-1c-0.7-0.3-1.2,0.1-1.4,1v0.3c-0.1,0.3-0.3,0.6-0.4,0.7c-1.2,0.2-2.3,0.4-3.5,0.2c-0.4-0.1-0.7-0.3-0.7-1
				v-0.6c0.1-2.8,0.3-5.5,0.4-8c0.1-3.2,0.1-6.4-0.4-9.7c0,0,0-0.1,0.1-0.1c0.3-0.4,0.8-0.1,1.3-0.1l7.8,0.1c0.1,0,0.1,0.1,0.1,0.1
				c0.2,0.4,0.1,1,0,1.4c-0.4,1.2-0.1,2.2,0.7,3c0.2,0.1,0.4,0.5,0.5,0.7c0.9,1,1.7,1,2.1,0.1c0.1-0.1,0.1-0.3,0.1-0.5
				c0.1-1.3,0.3-2.6,0.5-4c0-0.2,0.1-0.4,0.1-0.8C285.6,209.4,285.2,208.9,284.5,208.7z"/>
			<path d="M310.9,208.7c-0.7-0.1-1.3-0.2-1.9-0.4c-0.5-0.1-0.9-0.1-1.4-0.1l-9-0.1c-1.1-0.1-2.2-0.1-3.3,0.1
				c-0.6,0.1-1.1,0.1-1.7,0.2c-1,0.1-1.9,0.4-2.8,0.5c-0.4,0.2-0.7,0.5-0.7,0.9c-0.1,0.7,0,1.5,0.3,2.2c0.1,0.4,0.4,0.5,0.8,0.5
				s0.7-0.1,0.8-0.6c0.1-0.2,0.1-0.5,0.3-0.8c0.1-0.2,0.4-0.4,0.7-0.2c0.1,0.1,0.4,0.3,0.4,0.4c0,0.6-0.1,1.3-0.1,2
				c0.1,1.4-0.1,2.8-0.2,4.3c-0.2,3.3-0.4,6.6-0.5,10c-0.1,1.9-0.1,3.8-0.2,5.8c-0.4,5.1-0.6,10.1-0.3,15v1.3c0,0.4,0.4,0.7,0.1,1.3
				c-0.4,0.2-0.9,0.1-1.4,0.1h-1.6c-0.1,0-0.4,0.1-0.4,0.3c-0.1,0.3,0,0.7,0.1,0.9c0.3,0.1,0.5,0.3,0.8,0.4c1.6,0.6,3.3,0.9,4.9,0.9
				c1.7,0.1,3.5-0.1,5.3-0.2c1-0.1,1.9-0.1,3-0.2c0.5,0,1,0,1.6,0.1c1.6,0.2,3.4,0.1,5,0c0.4-0.1,0.7-0.1,0.9-0.4
				c0.4-0.4,0.7-1.2,0.9-1.9l0.2-2.4c0.1-0.7-0.1-1-0.7-1.4c-0.2-0.1-0.4-0.2-0.7-0.3c-0.4-0.2-0.8-0.1-1,0.4l-0.4,1.6
				c-0.1,0.5-0.4,0.8-0.9,0.9s-0.9,0.2-1.3,0.2l-2.5,0.2c-1.3,0-2.7,0.1-4,0.1c-0.7,0-1.3-0.1-1.9-0.2c-0.4-1.6-0.6-3-0.5-4.6
				c0-0.9,0.1-1.9,0.1-2.9c-0.1-3.4,0.3-6.7,0.6-10c0.1-0.4,0.1-0.8,0.5-1c0.7,0,1.4,0.2,2.2,0.3c0.8,0.1,1.6,0.1,2.2,0.1
				c0.1,0.3,0.2,0.3,0.2,0.4c0.2,1.4,1,2,2,2.6c0.6,0.5,1.2,0,1.2-0.8c0-0.3,0-0.7-0.1-1c0-1-0.1-2-0.2-3c-0.1-0.4-0.3-1-0.4-1.5
				c-0.2-0.6-0.6-0.8-1.2-1c-0.7-0.3-1.2,0.1-1.4,1v0.3c-0.1,0.3-0.3,0.6-0.4,0.7c-1.2,0.2-2.3,0.4-3.5,0.2c-0.4-0.1-0.7-0.3-0.7-1
				v-0.6c0.1-2.8,0.3-5.5,0.4-8c0.1-3.2,0.1-6.4-0.4-9.7c0,0,0-0.1,0.1-0.1c0.3-0.4,0.8-0.1,1.3-0.1l7.8,0.1c0.1,0,0.1,0.1,0.1,0.1
				c0.2,0.4,0.1,1,0,1.4c-0.4,1.2-0.1,2.2,0.7,3c0.2,0.1,0.4,0.5,0.5,0.7c0.9,1,1.7,1,2.1,0.1c0.1-0.1,0.1-0.3,0.1-0.5
				c0.1-1.3,0.3-2.6,0.5-4c0-0.2,0.1-0.4,0.1-0.8C311.9,209.4,311.6,208.9,310.9,208.7z"/>
			<path d="M347.1,208.1c-1-0.3-2.2-0.2-3.4-0.1c-0.3,0.1-0.6,0.1-1,0.1c-1.3,0-2.5,0.4-3.7,0.7c-0.4,0.1-0.7,0.3-1,0.6
				c-0.3,0.4-0.2,0.9,0.2,1c0.2,0.1,0.4,0.1,0.7,0.1c0.4,0.1,0.6,0.4,0.7,0.9c-0.1,0.1-0.1,0.1-0.1,0.3c-0.5,12.9-0.5,14.4-0.4,15.8
				c-0.1,0.7,0,1.4,0,2c0,0.7-0.1,1.3,0,1.9c0.1,3-0.1,5.9-0.1,8.8c0,0.2-0.1,0.4-0.1,1l-0.6-0.9c-0.5-1.1-1.1-2.4-1.6-3.4
				c-0.4-0.8-0.6-1.7-1-2.5c-0.4-0.7-0.7-1.7-1.1-2.6c-0.5-1.1-3.1-7.4-4-8.8c-1.5-2.3-2.6-4.8-3.6-7.3c-0.7-1.9-1.6-3.7-2.6-5.5
				c-1-2.2-2.1-0.9-3.5-1.2l-3,0.2c-1.1,0-1.3,1-1.6,1.2c-0.5,0.7-0.1,1.9,1.2,1.8c0.3,0,0.6-0.1,0.8-0.1c0.5,0.1,0.7,0.4,0.7,0.8
				c0,1.2,0.1,2.4,0.1,3.5c0,3.5-0.1,7.1-0.4,10.6c-0.2,2.6-0.5,5.3-0.2,7.8l-0.1,0.4c-0.1,2.2-0.2,4.3-0.2,6.5c0,2-0.1,4-0.2,6.1
				c0,1,0,1.9-0.1,2.7c-0.5,0.4-1.1,0.7-1.4,1c-0.4,0.4-1.6,0.7-1.8,0.9s0,0.7,0.2,0.8c0.2,0.2,0.5,0.2,0.8,0.2
				c0.4-0.1,0.8-0.2,1.3-0.3c0.9-0.2,1.8-0.2,2.8,0c1.3,0.4,2.4-0.4,2.5-1.8c0.1-1.3,0.3-2.3,0.1-3.6v-0.7c0.1-1.4,0.3-2.7,0.4-4.1
				c0.1-2.8,0.3-5.5,0.4-8.4c0.1-2.8,0.2-5.6,0.2-8.5c0.1-2.4,0.2-4.8,0.4-7.1c0-0.1,0.1-0.2,0.3-0.4c0.4,0.7,0.8,1.3,1,2.1
				c0.9,1.8,1.7,3.7,2.6,5.5c0.6,1.2,1.1,2.4,1.7,3.6c1,2.2,2.1,4.4,2.9,6.7l4.3,11.7c0.7,1,1.6,2.1,2.3,3.2c0.4,0.6,0.9,1,1.7,1
				c0.7,0.1,1.2-0.1,1.4-0.8c0.2-0.4,0.8-6.4,0.9-9.3c0-1.4-0.4-3,0.8-15.7l0.2-4.9c0-1.3-0.1-2.5-0.1-3.7c-0.1-0.5,0-1,0-1.6
				c-0.4-2,0.2-4.1-0.3-6.1c0.2-0.1,0.4-0.1,1.6-0.1c1-0.1,1.6-0.4,2.2-0.8c0.3-0.1,0.5-0.5,0.4-0.9
				C347.6,208.4,347.4,208.2,347.1,208.1z"/>
			<path d="M167.8,192.7c0.9,1.3,1,2.8,3.8,2.8c1.2,0,2.3-0.7,2.8-1.5c0.3-0.7,0.2-1.3,0.3-1.9c0.3-2.3,0.5-4.6,1-9.9
				c0-0.2,0-0.4,0.1-0.5c0.6-1.3,0.7-7.2,1-8.5c0.4-1.9-0.1,1.5,0.2-0.3c0.1-0.7,0.4-1,1.3-1.2c1.3-0.1,2.6-0.4,3.9-0.6l3.1-1
				c1.9-1,3.4-2.2,4.6-3.9c0.7-0.7,0.4-1.6,0.2-2.4c-0.4-0.5-0.8-1.1-1.3-1.7c-0.1-0.3-0.2-0.7-0.4-1s-0.7-0.2-0.9-0.1
				c-0.2,0.4-0.7,0.8-0.7,1.3c-0.3,0.5-0.5,1.1-1.2,1.6l-1.2,1.2c-1.6,0.9-4,2.1-5.5,2.5c-0.6,0.1-1-0.1-0.8-0.7
				c0.1-1.2,0.1-2.3,0.4-3.6c0.4-2.1,1.9-9.6,2.2-11.8c0.2-1.2,0.4-2.5,0.7-3.9c0.1-2.5,0.6-5,1.1-7.5c0.4-3.1,0.7-6,0.5-9
				c-0.1-0.6-0.4-1-0.9-1.3c0,0-4.3,0.4-4.7,3.1c-0.1,0.5-0.1,1-0.5,1.3c-0.7,3.5-1.6,7.1-2.2,10.7c-1,3.4-1.6,6.9-2.3,10.2
				c-0.6,2.3-1.9,9.8-2.3,12.1c0,0.2-0.1,0.4-0.1,0.7c-0.1,0.4-0.4,0.6-0.8,0.6c-0.1,0.1-0.4,0.1-0.5,0.1c-7.6,0.3-7.7-0.1-15.1,1.2
				c-1.7,0.4-3.4,0.7-5.1,1c-0.4,0.2-0.9,0.2-1.3,0.2c-0.2,0-0.4-0.3-0.5-0.4l0.1-0.4c0.1-2.1,1.3-9.1,1.6-11c0.2-1.9,0.5-3.9,1-5.8
				c0.2-1.9,0.6-3.9,1-5.8c0.4-1.5,0.6-2.9,0.7-4.4c0.3-1.4,0.1-0.4,0.3-1.9s0.2-2.8,0.5-4.3l-0.2-1c-0.1-1.3-0.5-2.5-2.2-3.1
				l-0.5-0.2c-1-0.7-2-0.5-3.2-0.6c-0.4,1.3-0.9,2.6-1.4,3.9c-0.3,1.6-0.7,3.4-1.1,5.1c-0.2,1.3-0.2,0.2-0.5,1.6
				c-0.2,0.4-0.4,1.1-0.5,1.6c-0.3,2-0.9,4.1-1.3,6.3c-0.4,2-0.8,4-1.1,5.9c-0.9,0.6-1.8,1.1-2.6,1.8c-1.4,1.1-2.9,1.3-4.7,1.1
				l-0.5-0.2c-1.8-0.2-3.6-0.4-5.4-0.8c-0.6,0-1.1-0.2-1.6-0.4l-3.3-1c-1.3-0.5-2.7-0.9-3.9-1.4c-0.2-0.1-0.3-0.2-0.5-0.3
				c-2.6-1.5-4.9-3.4-6.9-5.5l-0.5-0.8c-0.6-1-1.4-2.2-1.9-3.1c-0.5-0.8-0.8-1.6-0.9-2.5c-0.2-1.6-0.6-3.2-0.5-4.8l-0.1-0.4
				c0-0.1-0.4-0.3-0.5-0.4c-0.3-0.1-0.7,0.1-0.8,0.4c-0.1,0.2-0.2,0.5-0.1,0.8c0,0.8,0.1,1.4,0.2,2.2l0.5,4.4c0.1,0.4,0.1,1-0.1,1.5
				c-0.5,2.1-1.4,4-2.7,5.9c-2,2.8-4.5,5.3-7.1,7.4c-1.5,1.2-3.1,2.3-4.6,3.4c-2.2,1.7-4.6,3.1-7.4,4.1c-0.5,0.2-0.9,0.4-1.6,0.7
				c-0.5,0.2-1.2,0.5-1.8,0.5c-0.6,0.2-1.2,0.1-1.9-0.1l-1.8-0.5c-0.6-0.2-1.3-0.4-1.8-0.6l-0.8-0.1c-0.2-0.1-0.6,0.2-0.6,0.5
				c-0.1,0.2,0.1,0.5,0.3,0.7c0.5,0.2,1,0.4,1.6,0.6l2.2,0.6c0.6,0.3,1.1,0.9,1.7,1.3c1.5,0.8,2.7,1.9,3.8,3c1.6,1.5,2.8,3.2,3.7,5
				c0.5,1.3,1.1,2.7,1.6,3.9c0.4,1.3,0.8,2.6,1,3.8c0.5,3.9,0.9,7.9,0.6,11.7c-0.1,1.5-0.3,3-0.8,4.4c-0.4,1-0.2,3.1-1.3,3.9
				c-0.3,0.2-0.6,0.4-0.8,0.7c-0.1,0-0.2,0-0.4,0.1c-0.6,0.1-1.2,0.5-1.2,0.7c0.1,0.4,0.4,0.6,0.8,0.8c0.7,0.4,1,0.9,1,1.6
				c0,0.3,0.1,0.5,0,0.8c-0.1,2.4-0.2,4.8-0.4,7.2c-0.5,6.1-0.8,9.9-0.7,11.6c0.1,3.5-0.4,6.9-0.2,10.5c0.1,1.8,0.1,3.7,0.1,5.7
				c0,1.3,0.1,2.8,0.7,4c0.1,0.2,0,0.4,0,0.7c-0.5,0.2-1.1,0.3-1.6,0.4s-0.8,0.4-0.7,0.7c0.2,0.4,0.7,0.4,1,0.4
				c1.9,0.1,3.8,0.3,5.8,0.4c0.9,0,1.4-0.6,1.9-1.3c-0.6-0.8-1.7-0.5-2.6-1.3c0.1-0.4,0.1-0.7,0.3-1.2c0.3-1.1,0.4-2.5,0.3-3.7
				l0.1-5.5c0.1-1.4,0.1-2.8,0.1-4.3l0.2-4.3c0-1.3,0.2-2.6,0.3-3.9c0.1-1-0.1,0.1,0-0.8c0-0.1,0.1-0.2,0.1-0.3
				c0-0.1,0.1-0.1,0.2-0.1c2-0.2,4-0.3,6.1-0.4h5.1c0.4,0,0.8,0.1,1.3,0.1c0.3,0.1,0.4,0.3,0.5,0.6c0,0.1,0,0.4,0.1,0.7
				c-0.2,1.9-0.1,1.4-0.1,3.2c-0.1,0.9-0.1,1.6-0.1,2.5l-0.2,7.6c0.1,3.3-0.3,6.3,0.4,9.5c0,0.1-0.1,0.2-0.1,0.4
				c-0.1,0.1-0.3,0.1-0.4,0.1c-0.3,0.1-0.7,0.3-0.6,0.7c0.1,0.3,0.4,0.4,0.6,0.5c0.1,0.1,0.2,0.1,0.3,0.1c1.6,0.4,3.3,0.2,4.9,0.1
				c0.6-0.1,1.2-0.3,1.9-0.4c0.2-0.1,0.3-0.3,0.4-0.4c0.1-0.2,0.1-0.7-0.1-0.7c-0.4,0-0.6-0.1-0.9-0.2c-0.7-0.1-1.4-0.1-2.2-0.1
				c0-0.6,0.1-1,0.1-1.6c0-3.7,0.4-7.2,0.3-11c0-0.6,0.1-1.3,0.1-2.1c0.1-2.2,0.4-4.5,0.6-6.8c0.1-1-0.2,0.4-0.1-0.6
				c0.3-2.1,0.7-4.1,0.7-6.1c0-0.7,0.3-3.7,0.4-4.3c0.1-2.3,0.4-4.8,0.3-7.2c0-0.5-0.1-1.2,0.3-1.6l1.6-0.6c0.2-0.1,0.3-0.4,0.6-0.6
				c-0.4-0.3-0.6-0.6-0.9-0.7c-1-0.1-2.1-0.4-3.1-0.4c-1-0.2-1.9-0.2-2.8-0.2s-1.6,0.2-2.2,0.3c-0.2,0.1-0.3,0.5-0.1,0.6
				c0.6,0.6,1.2,1,1.9,1.5v1.8c-0.1,1.6-0.1,3.3-0.2,4.9c-0.1,1.6-0.5,5.4-0.7,7c-0.1,0.9-0.4,1.2-1.6,1.3h-0.4
				c-3.4,0.1-3.8,0.1-7.1,0.4h-0.6c-1,0-2.2,0.1-3.1,0.1c-0.4,0-0.7-0.1-0.8-0.1c-0.1-0.2-0.1-0.3-0.1-0.4c0.1-1.8,0.4-5.8,0.3-7.4
				c-0.1-0.8,0-1.4,0-2.2c0-1.5,0.4-3.2,0.3-4.9c0.4,0,1.3-0.2,1.7-0.3c0.4-0.1,1.6-0.7,1.7-1.2c0.1-0.2-0.1-0.5-0.8-0.7
				c-0.7-0.2-1.6-0.5-2.4-0.3c-1,0.4-2,0.4-3.1,0.3c0.4-0.7,0.5-2,1.2-2.4c3.4-1.5,6.8-2.6,10.4-3.1c1.8-0.2,3.5-0.4,5.3-0.5
				c4.2-0.2,8.2-0.4,12.3-0.5c2.9-0.2,5.8-0.1,8.6,0.3c3,0.3,5.7,1.1,8.5,1.8c0.4,0.1,0.8,0.4,1.2,0.3c0.8,0.1,1.3,0.5,1.8,0.7
				c0.5,0.4,10.6,10.1,10.9,10.5c0,0,0.1,0,0.1,0.1c-0.1,0.4-0.1,0.9-0.1,1.3c-0.1,1.6-0.1,3.5-0.4,5.3c-0.3,3.6-0.7,7-1,10.7
				c-0.4,4.4-0.8,9-0.8,13.6c0,1.7-0.1,3.4,0.3,5c0.1,0.2-0.1,0.6-0.4,0.7l-1.1,0.6c-0.3,0.1-0.8,0.4-1,0.7
				c-0.1,0.1-0.2,0.4-0.2,0.7c0.1,0.1,0.3,0.4,0.4,0.4c7.4,0,6.9-0.5,8.7-0.6c0.7,0,1.3-0.1,1.9-0.1h1.2c2.2,0.1,4.4-0.2,6.5-0.8
				c1.3-0.2,2.3-1.1,3.3-2.2c0.5-0.9,1-1.9,0.7-3.1c-0.1-0.4,0-0.7-0.1-1.1c0-0.7-0.3-1-0.7-1.4c-0.7-0.1-1.2,0-1.4,0.7
				c-0.2,0.3-0.4,0.7-0.5,1c-0.4,1-1,1.8-1.6,2.7c-0.4,0.4-0.7,0.8-1.3,1c-1.3,0.4-2.5,0.7-3.9,0.7c-1.3-0.1-3.3,0.1-5,0.2
				c-0.2-1.6-0.3-3.1-0.2-4.6c0-0.4,0.1-0.9,0.1-1.3c-0.1-3.5,0.1-6.8,0.6-10.2l0.2-1.8c0.2-3,0.4-5.8,0.7-8.7l0.4-6
				c0-0.9-0.1-1.9,0-2.8c0.1-1.7,0.2-3.4,0.3-5.3c0-0.1,0.1-0.3,0.1-0.4c0.8-0.3,1.5-0.4,2.3-0.4c0.4,0,0.7-0.5,1-0.8
				c0.1-0.2,0.1-0.7-0.1-0.8c-0.1-0.2-0.5-0.5-0.8-0.5c-1.3,0.1-2.5-0.4-3.7-0.1c-0.7,0.1-1.6,0-2.5,0h-1.8
				c-0.5,0.1-1.2,0.2-1.7,0.4c-0.1,0.1-0.4,0.4-0.4,0.6c0,0.1,0.2,0.4,0.3,0.5c0.5,0.3,1,0.6,1.5,0.8l0.1,1c0.1,0.8,0.2,1.6,0.2,2.4
				c-1.3-1.1-11-10.5-11.4-11.3l-0.8-1.5c-0.3-0.3-0.5-0.7-0.6-1.1l-1.7-3.9c-0.3-0.6-0.4-1.2-0.6-1.8c0,0.1,0.1,0.1,0.1,0.2
				c0.7,0.5,1.3,1.3,1.9,1.8c1.2,1,2.3,1.6,3.8,1.8c1.9,0,2.6-0.4,2.8-2c0.4-1.8,0.4-3.5,0.5-5.2c0.5-3.7,0.9-9.4,1.6-13.1
				c0.3-1.8-0.3,1.6-0.1-0.1c0-0.5,0.3-1,0.4-1.5s0.4-0.7,0.9-0.9c0.2,0,0.4-0.1,0.5-0.1c2.2-0.2,4-0.8,5.9-1.3
				c2.7-0.4,14.9-1.4,15.6-1.3c0.2,0,0.4,0.1,0.7,0.1c0.3,0.4-1.7,15.8-2.2,18.7C167.2,191.7,167.5,192.3,167.8,192.7z M107.8,149.8
				c0-0.1,0.1-0.2,0.2-0.2l0.1,0c0.8,1.2,1.8,2.2,2.9,3.2c2.6,2.4,5.5,4.4,8.9,5.5l5.3,1.5c1.3,0.4,2.7,0.4,4,0.6
				c1.1,0.1,2.2,0.4,3.4,0.5c0.2,0.1,0.2,0.3,0.1,0.4c-0.1,0.1-0.2,0.3-0.3,0.4l-5.2,3.4c-0.3,0.2-0.6,0.3-0.8,0.4
				c-0.6,0.3-1.2,0.5-1.9,0.4c-1.3,0-2.5-0.4-3.9-0.8c-1.5-0.4-3-1.2-4.7-1.8c-0.2-0.1-0.4-0.2-0.6-0.4c-1.8-1-3.6-2.2-5-3.6
				c-0.4-0.3-0.7-0.7-1-1c-0.7-0.8-1.1-1.6-1.1-2.6c-0.1-1.9-0.3-3.7-0.4-5.6C107.7,150,107.8,149.8,107.8,149.8z M131,168.7
				c-0.5,1.8-0.6,3.7-0.7,5.5c0,0.8,0,1.6,0,2.4l-4.7,3.7c-0.5,0.3-0.9,0.8-1.3,1.3c0,0,0,0,0,0c-0.1-1.8,0-3.5,0.1-5.2
				c0.1-0.3,0-0.6,0.1-0.9c0-2.1,0.5-4.3,1.5-6.4c0.2-0.4,0.4-0.9,0.7-1.6c0.1-0.3,0.3-0.7,0.6-1l4.6-3l0.1,0l0.2,0.1l0.1,0
				l-0.3,0.9l-0.7,2.4L131,168.7z M96.3,183.2c-0.1-0.7-0.4-1.5-0.8-2.2c-0.9-1.9-1.7-3.7-3-5.3l-0.5-1l0.1-0.3l0.1-0.1l0.2,0.1
				l5.2,1.3c1,0.2,1.6,0.6,2.2,0.9c1.6,1,2.5,2.5,3.6,3.8c0.3,0.6,0.5,1,0.7,1.6c0.4,1.1,0.3,1.9-0.3,2.7l-1.9,2.7
				c-1.1,1.7-2.3,3.3-3.3,4.9l-1.1,1.3c0,0.1-0.3,0.2-0.4,0.1c0,0,0-0.2-0.2-0.3c0.1-1,0-2.1,0.1-3.1
				C97.2,187.9,96.9,185.6,96.3,183.2z M115.2,180.2c0,0.2,0,0.4,0,0.6c-0.1,0-0.1,0.1-0.1,0.1l-0.4-0.1c-0.9-1-1.9-1.8-3-2.6
				c-0.2-0.2-0.2-0.5,0-0.7c1.1-0.9,2.2-1.7,3.5-2.4l0.1,0c0.1,0.1,0.2,0.2,0.3,0.3c0,0.5-0.1,0.8-0.2,1.4
				C115,177.9,115,179.1,115.2,180.2z M110.9,176.1l-0.4,0.1l-0.2-0.1c-0.1-0.1-0.2-0.3-0.1-0.4c-0.2-1.2-0.4-2.3-0.6-3.6
				c0-0.2,0-0.5,0-0.7c0-0.1,0.3-0.4,0.4-0.2l0.3,0.1c0.9,0.9,2.1,1.3,3.2,1.9c0.8,0.4,0.9,0.5,0.2,0.9
				C112.8,174.7,111.9,175.4,110.9,176.1z M114,171.6c-0.7-0.3-1.5-0.5-2.2-1c-0.5-0.3-1-0.6-1.3-1.2c-0.1,0-0.2-0.1-0.3-0.2
				c-0.3-0.4-0.8-0.9-0.9-1.6c-0.2-0.4-0.1-1.1-0.2-1.7c-0.2-1.3-0.2-2.8-0.4-4.2c0-0.5-0.1-1-0.1-1.4c0,0,0.2,0,0.4,0l0.4,0.2
				c1,0.6,1.9,1.4,2.9,2.1c1.6,1.2,3.5,2.1,5.4,2.9c1.8,0.6,3.6,1.2,5.4,1.7c0.2,0.1,0.3,0.3,0.1,0.4c-0.1,0.2-0.2,0.3-0.3,0.3
				l-1,0.8c-1.2,0.8-2.4,1.7-3.5,2.4c-0.4,0.3-0.8,0.5-1.2,0.8c-0.3,0.2-0.6,0.2-0.8,0.1L114,171.6z M108.7,180.3
				c1.5-1.9,1.1-1.9,3.1-0.3c0.6,0.5,1.1,0.9,1.5,1.6l-0.4,0.3l-0.6-0.2c-1.2-0.2-2.4-0.2-3.5,0c-0.2,0-0.5,0-0.7-0.1
				c0,0-0.1,0-0.1-0.1c0-0.1,0-0.2,0.1-0.3L108.7,180.3z M106.2,181.3c-0.3,0.3-0.6,0.2-0.8-0.2c-0.4-1.2-1.1-2.1-1.9-3.1
				c-0.2-0.2-0.4-0.3-0.4-0.5l0-0.1c0-0.1,0-0.1,0.1-0.1c1.2,0.1,2.6,0.4,4,0.6c0.1,0,0.4,0.2,0.7,0.3l0,0.2c0.1,0.1,0,0.2,0,0.2
				C107.4,179.5,106.8,180.3,106.2,181.3z M108.2,176.6c-1.3-0.3-2.7-0.4-4.1-0.7l-1.2-0.3c-0.1,0-0.3-0.2-0.3-0.3l0.1-0.3
				c0.1-0.1,0.3-0.3,0.6-0.4c1.5-0.8,3-1.9,4.2-3.3l0.1-0.1c0.1,0.1,0.2,0.2,0.3,0.3l0.1,0.1c0.2,1.3,0.4,2.7,0.5,4.1
				c0.1,0.1,0,0.4,0.1,0.6C108.6,176.3,108.4,176.6,108.2,176.6z M100.5,192.2l4.3-6.5c0.1-0.2,0.3-0.5,0.4-0.7
				c0.6-1,1.5-1.4,2.6-1.6c1.4-0.4,2.8-0.5,4.2-0.2c1,0.2,1.9,0.2,2.8,0.7l1.1,0.3c0.3,0.1,0.5,0.3,0.8,0.5c2.2,2,4.7,3.9,6.7,6.2
				c0.2,0.2,0.4,0.3,0.3,0.7c-0.7,0-1.4-0.1-2.1-0.3c-2.7-0.5-5.3-0.6-8-0.7c-1.5-0.2-2.9,0-4.4,0.2c-1.3,0.1-2.7,0.4-4.1,0.7
				c-1.2,0.2-2.5,0.8-3.7,1.1c-0.3,0.2-0.5,0.2-0.9,0.3l-0.1,0l-0.2-0.3C100.3,192.5,100.4,192.3,100.5,192.2z M123.7,189l-0.6-0.5
				c-1-1-2.2-2-3.3-3l-1.6-1.5c-0.5-0.4-0.8-0.8-1-1.5c-0.3-1-0.6-2-0.6-3c-0.2-2.2,0.2-4.2,1.1-6.1c0.1-0.3,0.2-0.4,0.5-0.6
				c1.8-1.3,3.7-2.6,5.5-3.8c0-0.1,0.2-0.2,0.3-0.2c0.1,0,0.3,0.1,0.3,0.2c0.1,0.1,0,0.4,0,0.5l-0.4,1.5c-0.5,1.4-0.7,2.7-0.8,4
				c-0.1,2.1-0.4,4.2-0.2,6.3c0,1.6,0.1,3.2,0.6,4.7l0.6,2.8l0,0.1C123.9,189.1,123.8,189.1,123.7,189z M107,160.2
				c0.1,0.1,0.2,0.3,0.2,0.5c0.1,2,0.3,4.1,0.6,6.1c0,0.2,0,0.6-0.1,0.9c-0.6,1.3-1.4,2.8-2.6,3.7c-1.4,1.2-3,2.2-4.6,3
				c-0.4,0.2-0.8,0.4-1.2,0.2c-1.7-0.6-3.3-1-5-1.3c-0.8-0.1-1.5-0.4-2.3-0.7c-0.2-0.1-0.2-0.2-0.2-0.2c0-0.1,0-0.1,0.2-0.2
				c0.4-0.1,0.8-0.4,1.3-0.4c0.9-0.2,1.7-0.6,2.5-1c2.3-1.2,4.3-2.7,6.2-4.4c1.6-1.6,3.2-3.4,4.2-5.2
				C106.3,160.8,106.5,160.4,107,160.2z M83,170.1c0.3-0.2,0.7-0.3,0.9-0.4c3.6-1.4,6.7-3.3,9.7-5.5c2.1-1.7,4.4-3.4,6.2-5.2
				c1.8-1.8,3.5-3.7,4.9-5.9c0.4-0.6,0.8-1.2,1.1-1.9c0-0.1,0.1-0.1,0.1-0.1c0.1,0,0.2,0.2,0.3,0.2l-0.1,0.2c0.2,1.5,0.3,3,0.4,4.6
				c0,0.2,0,0.5-0.1,0.8c-0.8,2-1.7,3.9-3,5.6c-0.8,1.2-1.8,2.2-2.8,3.1c-1.8,1.7-3.7,3.1-5.9,4.2c-0.6,0.3-1.2,0.6-2,0.8
				c-1,0.2-1.9,0.4-2.7,0.9l-0.8,0.5c-0.6,0.3-1.2,0.2-1.9,0l-1.9-0.6c-0.9-0.3-1.6-0.5-2.4-0.8l-0.1,0L83,170.1z M91.4,201.4
				c-0.1,0-0.1,0-0.1-0.1l0-1.1c0.3-2.1,0.3-4.2,0.1-6.4c-0.1-2.1-0.4-4.2-0.6-6.3c-0.1-1.3-0.5-2.5-0.8-3.6c-0.6-1.7-1.2-3.3-2-4.9
				c-0.9-1.9-2.1-3.7-3.6-5.3c-0.4-0.1-0.7-0.4-1.1-0.8c-0.2-0.2-0.6-0.4-0.4-0.7c0.2-0.4,0.6-0.2,1-0.1l2.2,0.6l0-0.1
				c0.8,0.2,1.5,0.5,2.3,0.7c0.6,0.2,1,0.5,1.5,1c1.8,2.2,3.2,4.6,4.4,7.1c0.4,0.7,0.6,1.6,0.7,2.3c0.5,2.1,0.8,4.4,0.7,6.8
				c-0.1,1.5-0.1,2.9-0.1,4.4c-0.1,0.2,0,0.5,0,0.7c0.1,0.1,0,0.5-0.2,0.6c-0.3,0.5-0.6,0.9-1,1.4c-0.7,1.1-1.4,2.2-2.2,3.1
				l-0.5,0.6C91.7,201.5,91.5,201.4,91.4,201.4z M135.1,202.1l-0.1,0.1c-1.2-0.2-2.3-0.4-3.4-0.8c-3.2-0.8-6.4-0.9-9.5-1
				c-1.6,0-3.4,0.1-5,0.1l-10.9,0.5c-2.4,0.1-4.7,0.4-6.9,0.9c-1.8,0.3-3.6,0.8-5.3,1.4l-1.4,0.4l-0.2-0.1c0-0.1-0.1-0.1,0-0.2
				l0-0.1c1.5-1.8,2.7-3.7,4.1-5.5c0.1-0.1,0.3-0.3,0.4-0.5c0.6-1,1.7-1.7,2.8-2.1l3-1.1c3.2-1.2,6.5-1.7,9.9-1.9
				c1.6-0.1,3.2,0,4.8,0.1c1,0.1,2.1,0.3,3.3,0.5c1.6,0.2,3.2,0.6,4.8,0.9l0.2,0.1c1,0.2,1.7,0.7,2.3,1.3c1.5,1.6,3.1,2.9,4.5,4.5
				c0.6,0.7,1.4,1.1,2.1,1.8c0.3,0.2,0.6,0.5,0.8,0.7C135.2,201.9,135.3,202,135.1,202.1z M134.9,199.5l-0.3-0.1
				c-0.3-0.2-0.7-0.5-0.9-0.9l-5.7-5.3c-0.7-0.7-1.2-1.6-1.6-2.5c-0.1-0.1-0.2-0.3-0.2-0.5c-0.6-1.9-1.2-3.8-1.5-5.7
				c0.2,0,0.5,0,0.8,0c0.9-0.1,1.6-0.4,2.5-1c0.8-0.6,1.7-1.1,2.6-1.8c0.1,0.3,0.1,0.6,0.1,1c0.3,2.9,1,5.8,1.7,8.7
				c0.1,0.4,0.2,0.8,0.3,1.3c0.1,1.6,0.8,2.9,1.4,4.4l0.8,2C135.1,199.2,135.1,199.5,134.9,199.5z M135.2,180.9c0,1.7-0.2,3.3-0.5,5
				c-0.4,3.2,0,3.7-0.3,6.8c0,0.1,0,0.1,0,0.2c-0.5-2-1-4.1-1.3-6.1c-0.4-2-0.8-4-1-5.9c0.6-0.4,1.2-0.8,1.9-1.2
				c0.3-0.3,0.7-0.7,1.3-0.8c0.1,0.1,0.2,0.2,0.2,0.3C135.4,179.7,135.3,180.4,135.2,180.9z M136.8,172.3c-0.3,1.4-0.4,1.6-1.6,1.9
				c-1,0.7-2.2,1.1-3.3,1.6l0-1.1c0.1-2.7,0.3-5.3,1.2-7.8l0.2-0.6c0.5-1.7,1.4-3.2,2.3-4.7c0.2-0.2,0.4-0.5,0.7-0.6
				c1-0.7,2.1-1.4,3.2-2.1c0,0.2-0.1,0.5-0.1,0.7C138.7,162.1,137.3,169.8,136.8,172.3z"/>
			<path d="M197.1,162.6c0.3,0.1,0.7,0.2,1.1,0.2c0.4-0.1,0.7-0.5,0.5-0.9c-0.2-0.6-0.5-1.1-0.7-1.7c-0.2-0.5-0.4-1-0.9-1.1
				c-0.6-0.2-1.2-0.1-1.7,0.2c0,0.6,0.2,1.1,0.4,1.7C196.1,161.7,196.6,162.3,197.1,162.6z"/>
			<path d="M290.6,188c0.4-2.3,0-4.5-1.3-6.4l-0.7-1.4c-0.2-0.6-0.1-0.7,0.4-1c1.9-1.1,3.8-2.1,5.7-3.3c1.4-0.8,2.7-1.5,4-2.2
				c1.9-0.7,11.7-6.2,2.2-3.8c-1.7,0.6-3.3,1.3-4.9,2.2c-0.9,0.4-1.9,0.9-2.9,1.5c-1.7,1-3.7,2.1-5.5,3.2c-0.1,0.1-0.4,0.1-0.4,0.2
				c-0.4,0.1-0.7,0.1-1-0.2c-0.7-0.7-0.7-1.6-0.9-2.7c-0.7-3.7,0.7-7,3.6-6.6c0.5,0.1,0.8-0.1,1.2-0.4c0.2-0.1,0.4-0.5,0.2-0.7
				c-0.4-0.8-1-1.5-1.8-1.6c-1.3-0.4-2.4-0.4-3.6-0.1c-0.7,0.1-1.2,0.3-1.8,0.4c-1.2,0.2-2.2,0.5-3.1,1.3c-0.9,0.5-1.5,1.2-2.1,1.8
				c-1.4,1.5-1.7,3.1-1.3,4.7c-1.1,1.3-2.1,2.4-2.4,2.7c-0.6,0.7-1.3,1.5-1.8,2.2c-0.7,0.4-1,1.1-1.5,1.7c-0.5,0.4-8,7.5-9.1,4.3
				l-0.6-0.7c-0.3-0.9-0.6-1.7-0.6-2.7c-0.1-1,0.2-3.1,0.1-4.1c0.1-1.1,0.7-1.9,1.6-2.6c1.7-1.1,3.1-2.5,4.4-4.1
				c0.4-0.4,1-1,1.6-1.9c2.7-4.7,1.3-7-3.4-7.3c-0.5,0-1-0.1-1.3,0.1c-1,0.4-2.2,0.8-3.1,1.4c-1.4,1.3-2.8,2.6-3.8,4.3
				c-0.7,1-1.3,2.2-1.8,3.2c0,0.1,0,0.1-0.1,0.2c-0.4,0.1-0.9,0.2-1.4,0.3c-1.7,0.6-3.3,1.3-4.9,2.2c-0.9,0.4-1.9,0.9-2.9,1.5
				c-1.7,1-3.7,2.1-5.5,3.2c-0.1,0.1-0.4,0.1-0.4,0.2c-0.4,0.1-0.7,0.1-1-0.2c-0.7-0.7-0.7-1.6-0.9-2.7c-0.7-3.7,0.7-7,3.6-6.6
				c0.5,0.1,0.8-0.1,1.2-0.4c0.2-0.1,0.4-0.5,0.2-0.7c-0.4-0.8-1-1.5-1.8-1.6c-1.3-0.4-2.4-0.4-3.6-0.1c-0.7,0.1-1.2,0.3-1.8,0.4
				c-1.2,0.2-2.2,0.5-3.1,1.3c-0.9,0.5-1.5,1.2-2.1,1.8c-0.8,0.9-1.3,1.8-1.4,2.8c-0.8,0.3-1.5,0.7-2.3,1.1
				c-0.9,0.4-1.9,0.9-2.9,1.5c-1.7,1-3.7,2.1-5.5,3.2c-0.1,0.1-0.4,0.1-0.4,0.2c-0.4,0.1-0.7,0.1-1-0.2c-0.7-0.7-0.7-1.6-0.9-2.7
				c-0.7-3.7,0.7-7,3.6-6.6c0.5,0.1,0.8-0.1,1.2-0.4c0.2-0.1,0.4-0.5,0.2-0.7c-0.4-0.8-1-1.5-1.8-1.6c-1.3-0.4-2.4-0.4-3.6-0.1
				c-0.7,0.1-1.2,0.3-1.8,0.4c-1.2,0.2-2.2,0.5-3.1,1.3c-0.9,0.5-1.5,1.2-2.1,1.8c-1.7,1.8-1.8,3.8-0.9,5.8
				c-1.2,1.6-2.4,3.1-3.2,3.9c-1.3,1.5-3,3.1-6.3,5.6c-0.2,0.1-0.6,0.3-1,0c0-0.1-0.1-0.4-0.1-0.7c-0.1-0.5,0.1-3.2,0.1-3.7
				c0.1-1.9,0.3-5.4,1.2-7.1s1-4.6-0.5-5c-0.9-0.2-1.6-0.7-2.5-0.9c-0.7,0.1-1.4,0.3-1.7,1.1c-0.2,0.4-0.3,0.7-0.4,1.2
				c-0.1,0.3-0.2,0.5-0.3,0.7c0,0.1,0.1,0.3-0.1,0.4c-1.3,6.8-2.6,12.5,1.3,17.1c1.6,1.8,2.7,2.3,5.1,1.3c0.4,0,0.7-0.2,1.1-0.4
				c3.2-1.9,7.2-7,9-9.6c0.1-0.1,0.2-0.3,0.3-0.5c0.4,0.5,0.8,1,1.3,1.5c0.2,0.3,0.5,0.7,0.6,1c0.3,0.4,0.2,0.7-0.1,1
				c-0.2,0.3-0.4,0.4-0.6,0.7c-0.9,0.4-1.5,1-2.2,1.6c-0.6,0.8-1.1,1.4-1.6,2.1c-0.5,0.5-0.9,1-1.2,1.4c-0.5,0.9-0.4,1.6,0.4,2.3
				c0.2,0.2,0.6,0.4,0.8,0.7c0.5,0.4,1,0.7,1.3,1.1c1.3,0.8,2.8,1.5,4.5,1.4c0.6,0,1-0.1,1.6,0c1.1,0.1,2-0.3,2.8-0.8
				c1.1-0.7,2.1-1.5,3-2.3c0.4-0.4,0.8-0.9,0.9-1.4c0.4-2.3,0-4.5-1.3-6.4l-0.7-1.4c-0.2-0.6-0.1-0.7,0.4-1c1.9-1.1,3.8-2.1,5.7-3.3
				c1.4-0.8,2.6-1.5,3.8-2.2c0.1,0.3,0.2,0.5,0.3,0.8c0.7,1.6,1.8,3.1,3.1,4.5c0.2,0.3,0.5,0.7,0.6,1c0.3,0.4,0.2,0.7-0.1,1
				c-0.2,0.3-0.4,0.4-0.6,0.7c-0.9,0.4-1.5,1-2.2,1.6c-0.6,0.8-1.1,1.4-1.6,2.1c-0.5,0.5-0.9,1-1.2,1.4c-0.5,0.9-0.4,1.6,0.4,2.3
				c0.2,0.2,0.6,0.4,0.8,0.7c0.5,0.4,1,0.7,1.3,1.1c1.3,0.8,2.8,1.5,4.5,1.4c0.6,0,1-0.1,1.6,0c1.1,0.1,2-0.3,2.8-0.8
				c1.1-0.7,2.1-1.5,3-2.3c0.4-0.4,0.8-0.9,0.9-1.4c0.4-2.3,0-4.5-1.3-6.4l-0.7-1.4c-0.2-0.6-0.1-0.7,0.4-1c1.9-1.1,3.8-2.1,5.7-3.3
				c1.4-0.8,2.7-1.5,4-2.2c0.5-0.2,1.7-0.8,2.9-1.5c-0.1,0.5-0.2,1-0.2,1.5c-0.1,1.6-0.3,4.7,0.1,6.1c0.2,0.6,0.4,1,0.4,1.5
				c0.8,2,1.8,4,3.3,5.7c0.7,0.9,1.6,1.4,2.8,1.6c6.4,0.7,8.6-1.6,9.3-2.1c0.7-0.7,2-1.2,2.5-2.4c1.6-1.9,3.1-3.8,4.6-5.5
				c0.5-0.8,0.9-1.5,1.4-2.1c0.6,0.8,1.2,1.6,2,2.4c0.2,0.3,0.5,0.7,0.6,1c0.3,0.4,0.2,0.7-0.1,1c-0.2,0.3-0.4,0.4-0.6,0.7
				c-0.9,0.4-1.5,1-2.2,1.6c-0.6,0.8-1.1,1.4-1.6,2.1c-0.5,0.5-0.9,1-1.2,1.4c-0.5,0.9-0.4,1.6,0.4,2.3c0.2,0.2,0.6,0.4,0.8,0.7
				c0.5,0.4,1,0.7,1.3,1.1c1.3,0.8,2.8,1.5,4.5,1.4c0.6,0,1-0.1,1.6,0c1.1,0.1,2-0.3,2.8-0.8c1.1-0.7,2.1-1.5,3-2.3
				C290.1,189,290.5,188.5,290.6,188z M261.8,167.7c0.6-1.3,1.5-2.4,2.5-3.6c0.4-0.6,0.9-1,1.6-1.5c0.4-0.3,0.8-0.1,0.9,0.4
				c0.1,0.6-0.1,1.3-0.2,1.6c-0.4,1.2-1.1,2.3-2,3.4c-0.4,0.5-0.7,0.9-1.1,1.6l-1.6,1.3c-0.2,0.2-0.4,0.1-0.5-0.2
				C261,169.8,261.3,168.7,261.8,167.7z M212.8,188.1c-0.6,0.7-1.2,1-1.9,1.3c-0.4,0.1-0.7,0-1.1,0c-0.4-0.1-0.8-0.4-0.7-0.8
				c0.1-0.4,0.1-1,0.4-1.4c1-1.2,1.9-2.5,3.3-3.6c0.1-0.1,0.4-0.1,0.4-0.1c0.1-0.1,0.5,0,0.7,0.2c0,0.2,0.1,0.5,0,0.7
				c0,0.4,0,0.8,0.1,1C213.9,186.5,213.4,187.3,212.8,188.1z M234.5,188.1c-0.6,0.7-1.2,1-1.9,1.3c-0.4,0.1-0.7,0-1.1,0
				c-0.4-0.1-0.8-0.4-0.7-0.8c0.1-0.4,0.1-1,0.4-1.4c1-1.2,1.9-2.5,3.3-3.6c0.1-0.1,0.4-0.1,0.4-0.1c0.1-0.1,0.5,0,0.7,0.2
				c0,0.2,0.1,0.5,0,0.7c0,0.4,0,0.8,0.1,1C235.5,186.5,235.1,187.3,234.5,188.1z M281.9,188.1c-0.6,0.7-1.2,1-1.9,1.3
				c-0.4,0.1-0.7,0-1.1,0c-0.4-0.1-0.8-0.4-0.7-0.8c0.1-0.4,0.1-1,0.4-1.4c1-1.2,1.9-2.5,3.3-3.6c0.1-0.1,0.4-0.1,0.4-0.1
				c0.1-0.1,0.5,0,0.7,0.2c0,0.2,0.1,0.5,0,0.7c0,0.4,0,0.8,0.1,1C283,186.5,282.5,187.3,281.9,188.1z"/>
			<path d="M348.6,190.5c-0.7,0-1.2,0-1.9,0.1c-0.6,0.1-1.1,0.2-1.8,0.2c-0.5,0-1-0.1-1.4,0c-0.9,0.2-1.8,0.2-2.8,0.2
				c-0.5,0.1-1.1,0-1.5,0.1c-1.1,0.2-2.1,0.1-3.2,0.2c-0.5,0-1,0-1.3,0.1c-0.9,0.2-1.7,0-2.5,0.1c-0.7,0-1.2,0-1.9,0.1
				c-0.9,0.2-1.7,0.2-2.6,0.1c-0.6,0.1-1.2,0-1.7,0.1c-1,0.2-1.9,0.2-2.9,0.3c-0.6,0-1.2-0.2-1.9,0c-0.9,0.1-1.8,0.1-2.7,0.2
				c-1.1,0-2.4-0.1-3.5,0.1c-0.3,0.1-0.6,0.1-0.8,0.1h-2c-0.2,0-0.4,0.1-0.5,0.1c-0.4,0.1-0.7,0.3-0.8,0.7c-0.3,0.7,0.2,1.5,1,1.6
				c0.4,0,0.8,0.1,1.1,0c0.7-0.2,1.4-0.2,2.1-0.2c1.2-0.1,2.6,0.1,3.7-0.2c0.3-0.1,0.6,0,0.9,0c0.8-0.1,1.5-0.1,2.3-0.1
				c0.4,0.1,0.8,0.1,1.1,0c0.7-0.2,1.4-0.2,2.1-0.2s1.4,0,2.1-0.1c1.1-0.1,2-0.1,3-0.2c0.6,0,1.1,0.1,1.6,0c0.8-0.2,1.6-0.1,2.5-0.2
				c0.6,0,1.2,0.1,1.8-0.1c0.9-0.2,1.7-0.1,2.7-0.1c0.6,0,1.2,0,1.8-0.1c0.7-0.1,1.2-0.2,1.9-0.2h1.7c0.3,0,0.7-0.1,1.1-0.2
				c0.4,0,0.7,0.3,1.1,0.3h0.3c0,0,0.2,0,0.3-0.1l1.8-0.6c0.1,0,0.2-0.1,0.3-0.2c0.4-0.2,0.6-0.4,0.6-0.8
				C349.5,191.1,349,190.5,348.6,190.5z"/>
			<path d="M341.1,166.5c-0.3-0.1-0.5-0.2-0.8-0.2c-0.9-0.1-1.6-0.2-2.5-0.1c-0.6,0.1-1.1,0.8-1,1.4c0,0.3,0.2,0.6,0.5,0.8
				c0.1,0,0.3,0.1,0.4,0.2h0.3c0.3,0.1,0.4,0.3,0.4,0.5c0.1,0.8,0,1.4,0.1,2.2c0.1,0.7,0.1,1.4,0.2,2.1c0,0.6,0,1.1,0.1,1.7
				c0.1,0.7,0.1,1.3,0.1,2c0,0.8,0.2,1.4,0.3,2.1c0.1,1.1,0.1,2,0.2,3c0.1,0.6,0.1,1.1,0.1,1.6c0.1,0.5,0.2,1.1,0.2,1.6
				c0.1,0.3-0.2,0.6-0.5,0.5c-0.3,0-0.5-0.1-0.8-0.2c-0.4,0-0.9,0.2-1.1,0.6c-0.3,0.4-0.4,1-0.1,1.3c0.4,0.6,0.9,0.9,1.6,0.9
				c0.3,0,0.6-0.2,0.9-0.2c0.4,0,0.7,0.1,1,0.1l2.5-0.3c0.1,0,0.2-0.1,0.3-0.1c1.1-0.4,2-1,2.8-1.9c0.7-0.9,1.1-1.8,1.6-2.8
				c0.6-1.3,0.9-2.8,1-3.9c0-0.9-0.3-2.8-0.5-3.5c-0.5-2-1.3-3.9-2.4-5.6C344.8,168.4,343.2,167.1,341.1,166.5z M345.1,183.6
				c-0.3,0.5-0.6,0.9-0.9,1.2c-0.5,0.6-1.1,0.9-1.8,1.1c-0.2,0-0.5-0.2-0.5-0.4V185c-0.1-0.9-0.1-1.7-0.3-2.5
				c-0.1-0.3-0.1-0.6-0.1-0.8c0.1-0.8,0.1-1.6-0.1-2.4c-0.1-0.3-0.1-0.7-0.1-1.1c-0.1-0.5-0.1-1.1-0.2-1.5c-0.1-0.5,0-1,0-1.4
				c-0.1-0.7-0.1-1.4-0.3-2.2c-0.1-0.6,0-1.2-0.1-1.8h0.1c-0.1-0.7-0.1-1.3-0.1-2c0-0.2,0.2-0.4,0.4-0.3c1.1,0.5,2,1.1,2.6,2.1
				c1.2,2,2.2,4,2.6,6.2C346.7,179.5,346.4,181.7,345.1,183.6z"/>
			<path d="M312.6,164.9c0.3,0.2,0.6,0.2,0.9,0.2c1.4,0,2.9,0,4.2,0.1h0.5c0.8-0.2,1.5-0.2,2.4-0.2h4.8c0.4,0,0.8,0,1.1-0.1
				c0.5-0.1,1-0.1,1.5,0c2.5-0.1,5-0.1,7.5,0c0.5,0,0.9,0,1.2-0.1c0.8-0.1,1.3-0.1,2-0.1h3.4c0.6-0.1,1.1,0,1.7-0.2
				c0.3-0.1,0.7,0,1.1,0.2c0.4,0.1,0.8,0.1,1.1-0.1s0.9-0.3,1.2-0.4c0.7-0.3,0.8-1.1,0.3-1.7c-0.2-0.3-0.5-0.5-1-0.5
				c-0.3,0-0.7,0-1.1,0.1c-0.6,0.2-1.1,0.2-1.7,0.1c-0.8,0-1.5,0.1-2.3,0.1c-0.4,0-0.7,0-1,0.1c-0.6,0.1-1.2,0.1-1.9,0
				c-2.1,0.1-4.2,0.1-6.4,0c-0.4,0-0.8,0-1.2,0.1c-0.5,0.1-1.1,0.1-1.6,0.1h-5.8c-0.4,0.1-0.9,0-1.2,0c-0.5,0.1-1.1,0.2-1.5,0.2
				h-3.4c-0.6-0.1-1.1-0.1-1.7-0.1h-2.2c-0.2,0-0.4,0-0.6,0.1c-0.4,0.1-0.8,0.2-0.9,0.6C311.7,164.2,311.9,164.7,312.6,164.9z"/>
			<path d="M327.2,174.9c0.1,0.1,0.2,0.2,0.2,0.3c0.1,0.1,0.2,0.2,0.2,0.4c1.1,3.1,2.2,6.1,3.3,9.1c0.3,0.9,0.6,1.7,0.9,2.5l0.3,0.7
				c0.2,0.3,0.5,0.5,0.9,0.5l0.6,0.1c0.4-0.1,0.6-0.3,0.7-0.6c0.2-0.7,0.5-1.3,0.5-2c0-1.1,0.1-2.2,0.1-3.3v-0.9
				c0.3-0.9,0.3-1.7,0.3-2.5l0.1-4.7h0.1l0.1-6c0-0.2-0.1-0.5-0.1-0.8c-0.1-0.4-0.6-0.8-1-0.9c-0.6,0-1,0.2-1.1,0.6
				c-0.1,0.3-0.1,0.5-0.2,0.7c-0.1,0.2-0.1,0.5,0,0.8c0.1,0.4,0.1,0.8,0.1,1.2c-0.1,1.1-0.1,2-0.1,3.1v0.9c-0.2,0.7-0.1,1.3-0.3,2
				v4.5l-0.2,1c0,0,0,0.1-0.1,0.1c0,0-0.1-0.1-0.2-0.1l-0.1-0.5c-0.7-1.6-1.3-3.3-2-5.1l-2.4-6.1c-0.3-0.6-0.6-1.1-1-1.7
				c-0.1-0.2-0.3-0.3-0.5-0.4c-0.3-0.1-0.7-0.1-1,0c-0.3,0.1-0.6,0.3-0.6,0.7c-0.1,0.4-0.1,0.8-0.1,1.2c-0.1,1.8,0,3.6,0,5.5
				c0,0.3-0.1,0.7,0,1c0.2,0.9,0.1,1.7,0.1,2.6v7.6l-0.1,1.2c0,0.4,0.2,0.7,0.4,1.1c0.1,0.2,0.4,0.4,0.6,0.4c1,0.2,1.4-0.6,1.4-1.1
				c0.1-1.5,0.2-3.2-0.1-4.8v-0.7c0.1-1.9,0.1-3.9,0-5.9l0.1-1C327,175.2,327.2,174.9,327.2,174.9z"/>
			<path d="M319.9,175.4c-0.4-1.4-0.7-2.9-1.1-4.2c-0.2-1.1-0.3-2.1-0.6-3.1c0-0.1,0-0.2-0.1-0.3c-0.2-0.5-0.6-0.8-1.1-0.8h-0.3
				c-0.4,0-0.7,0.2-0.8,0.6c-0.2,0.8-0.4,1.4-0.4,2.2c-0.1,0.5-0.2,1-0.3,1.3c-0.1,0.5-0.1,1-0.2,1.4v1c-0.2,0.7-0.2,1.4-0.4,2.1
				c0,0.3,0,0.6-0.1,0.8c-0.2,0.7-0.2,1.2-0.2,1.9c-0.1,0.4-0.1,0.8-0.2,1.2c-0.1,0.3-0.1,0.7-0.1,1.1c-0.1,0.3-0.2,0.6-0.3,1
				c-0.1,0.4-0.1,0.8-0.2,1.1c0,0.4,0,0.7-0.1,1c-0.1,0.5-0.2,1.1-0.2,1.5c0,0.7-0.1,1.3-0.3,2c-0.1,0.3-0.1,0.6-0.1,0.5v0.8
				c0.1,0.8,0.9,1.3,1.6,1c0.2,0,0.3-0.1,0.4-0.2c0.2-0.4,0.4-0.7,0.4-1.1c0-0.8,0.1-1.4,0.2-2.2c0-0.2,0.1-0.5,0.2-0.8
				c0-0.1,0.3-0.4,0.4-0.4c1.1,0,2.3,0.3,3.4,0.5c0.2,0,0.3,0.1,0.3,0.3c0.3,0.8,0.5,1.5,0.6,2.4l0.3,0.7c0.2,0.4,0.8,0.7,1.1,0.6
				c0.7-0.1,1.2-0.9,1.1-1.4l-0.5-1.9C321.6,182.3,320.7,178.8,319.9,175.4z M318.9,182.8h-1.2c-0.3,0-0.7,0-1.1-0.2
				c-0.2,0-0.4-0.3-0.4-0.4c0-0.5,0-1,0.2-1.4s0.2-1,0.2-1.5c0.1-0.4,0.1-0.8,0.2-1.1c0.1-0.6,0.1-1.1,0.2-1.7l0.1-0.7
				c0.2-0.1,0.3-0.2,0.4-0.2c0.1-0.1,0.2,0,0.2,0.1c0.4,1.9,0.9,3.8,1.2,5.7l0.3,1.1C319.3,182.7,319.1,182.8,318.9,182.8z"/>
		</g>
	</g>
</g>
</svg>
