<?xml version="1.0" encoding="utf-8"?>
<!-- Generator: Adobe Illustrator 22.0.0, SVG Export Plug-In . SVG Version: 6.00 Build 0)  -->
<svg version="1.1" id="Calque_1" xmlns="http://www.w3.org/2000/svg" xmlns:xlink="http://www.w3.org/1999/xlink" x="0px" y="0px"
	 viewBox="0 0 432 432" style="enable-background:new 0 0 432 432;" xml:space="preserve">
<style type="text/css">
	.st0{fill:#EFCB92;}
	.st1{fill:#C6E5E5;}
	.st2{fill:#1D1D1C;}
	.st3{fill:#221C1E;}
	.st4{fill:#BE1622;}
	.st5{fill:#BA874D;}
	.st6{fill:#A01A18;}
	.st7{fill:#F3EEEC;}
	.st8{fill:#8F1915;}
	.st9{fill:#7A170F;}
	.st10{fill:#F4DF87;}
	.st11{fill:#456829;}
	.st12{fill:#38491D;}
	.st13{fill:#E1C85C;}
	.st14{fill:#AB3117;}
	.st15{fill:#77160F;}
	.st16{fill:#734525;}
	.st17{fill:#F7F4E6;}
	.st18{fill:#472713;}
	.st19{fill:#FFFFFF;}
	.st20{fill:#371F11;}
	.st21{fill:#B0AEAE;}
	.st22{fill:#B3B2B2;}
	.st23{fill:#DCD9D8;}
	.st24{fill:#946859;}
	.st25{fill:#801E1E;}
	.st26{fill:#603A13;}
	.st27{fill:#CD904F;}
	.st28{fill:#663D11;}
	.st29{fill:#3B211E;}
	.st30{fill:#86563E;}
	.st31{fill:#66413A;}
	.st32{fill:none;}
	.st33{fill:#D1AF97;}
	.st34{fill:#A91917;}
	.st35{fill:#362E2E;}
	.st36{fill:#614444;}
	.st37{fill:#FEF8F8;}
	.st38{fill:#9E9994;}
	.st39{fill:#807D7A;}
	.st40{fill:#C57917;}
	.st41{fill:#985119;}
	.st42{fill:#6E3E13;}
	.st43{fill:#EC670B;}
	.st44{fill:#FAB40E;}
	.st45{fill:#FFD802;}
	.st46{fill:#595959;}
	.st47{fill:#1D1F1F;}
	.st48{fill:#9FC1BD;}
	.st49{fill:#558E8B;}
	.st50{fill:#AA794B;}
	.st51{fill:#CCCECE;}
	.st52{fill:#70A09D;}
	.st53{fill:#DDC915;}
	.st54{fill:#FBEA2E;}
	.st55{fill:#020203;}
	.st56{fill:#1A1A19;}
	.st57{fill:#E2B774;}
	.st58{fill:#CE9E5F;}
	.st59{fill:#E3DBD0;}
	.st60{fill:#F7F2EB;}
	.st61{fill:#FFFFFE;}
	.st62{fill:#F3BED1;}
	.st63{fill:#E2C39D;}
	.st64{fill:#946342;}
	.st65{fill:#D11320;}
	.st66{fill:#EDBFC8;}
	.st67{fill:#DEA9B6;}
	.st68{fill:#E6D7CA;}
	.st69{fill:#67462F;}
	.st70{fill:#E2BDA4;}
	.st71{fill:#040506;}
	.st72{fill:#735C4E;}
	.st73{fill:#F0DFD0;}
	.st74{fill:#20391D;}
	.st75{fill:#1F1E1C;}
	.st76{fill:#F09FB5;}
	.st77{fill:#18642D;}
	.st78{fill:#172318;}
	.st79{fill:#C01818;}
	.st80{fill:#171414;}
	.st81{fill:#D36A1A;}
	.st82{fill:#DFE5E4;}
	.st83{fill:#C51618;}
	.st84{fill:#95C11F;}
	.st85{fill:#BA1818;}
	.st86{fill:#FBF18E;}
	.st87{fill:#951B81;}
	.st88{fill:#E71D73;}
	.st89{fill:#6C1F60;}
	.st90{fill:#008D36;}
	.st91{fill:#006633;}
	.st92{fill:#432918;}
	.st93{fill:#F2F2F2;}
	.st94{fill:#1F1717;}
	.st95{fill:#FAD2D3;}
	.st96{fill:#161313;}
	.st97{fill:#FEF6F3;}
	.st98{fill:#E94E1B;}
	.st99{fill:#292928;}
	.st100{fill:#B8C997;}
	.st101{fill:#2BAB92;}
	.st102{fill:#9EB26D;}
	.st103{fill:#13836E;}
	.st104{fill:#31672C;}
	.st105{fill:#407D31;}
	.st106{fill:#FEF1E5;}
	.st107{fill:#523115;}
	.st108{fill:#D1B294;}
	.st109{fill:#734620;}
	.st110{fill:#5B3719;}
	.st111{fill:#94BFDA;}
	.st112{fill:#A7BCD3;}
	.st113{fill:#DADADA;}
	.st114{fill:#8C633A;}
	.st115{fill:#D6A14D;}
	.st116{fill:#E6CEBB;}
	.st117{fill:#A3282E;}
	.st118{fill:#754D24;}
	.st119{fill:#E7E6E6;}
	.st120{fill:#F39323;}
	.st121{fill:#544842;}
	.st122{fill:#D4175B;}
	.st123{fill:#8E3089;}
	.st124{fill:#066938;}
	.st125{fill:#28285B;}
	.st126{fill:#EFDFE8;}
	.st127{fill:#841A25;}
	.st128{fill:#634E42;}
	.st129{fill:#E30613;}
	.st130{fill:#CE953E;}
</style>
<g>
	<path class="st100" d="M253.4,133.3c-3.8,2.2-8.1,3.8-12.1,3.4c-2.3,4.3-4.6,8.7-6.9,13c-1.7,3.2-3.3,7.4-5.8,10.1
		c-1.7,1.8-4.6,2.7-6.9,3.3c-3.6,1-7.3,1.5-11,1.7c-6.8,0.5-13.9,0.2-20.5-1.8c-2.6-0.8-5.3-1.9-7.2-3.8c-2.7-2.7-4.3-7.1-6.1-10.4
		c-3.4-6.1-6.8-12.3-10-18.6c-19.3,5.5-32,15-32,25.9c0,17.1,31.7,30.9,70.8,30.9c39.1,0,70.8-13.8,70.8-30.9
		C276.5,147.1,267.6,138.9,253.4,133.3z"/>
	<g>
		<g>
			<path class="st101" d="M251.8,104.4c8.3-31.7-16.9-35.2-50.5-35l0,0c-61.2,0-45.9,35.2-16.3,87.4c5.4,9.6,37.7,7.5,40.8,2.4
				c2.3-3.7,8.8-15.9,13.7-25.3c2.6,2,7,1.2,11.3-1.3C274,119.4,260.9,96.3,251.8,104.4z M208.9,152.9c0,0.1-0.1,0.2-0.2,0.3
				c-3.5,2.3-6.1-5.9-4.3-5.8C208.1,147.5,209.2,151.8,208.9,152.9z M233.9,110c-6.5-1.4-10.8-1.5-13.9,4.6c4.1-3.5,12.2-0.2,3,3.7
				c-6.2,2.7-3.2-2.8-8.3,9.5c5.2-6.4,10.5-2.1,7.6-0.4c-0.9,0.5-7.4,1.7-7.8,0.9c-3.1,7.6-2.8,5.5-3.2,7.8c6.3-4.8,8.5-1.1,6.6,0.6
				c-1.6,1.5-8,0.7-6.9-0.3c-0.1,0-1.5,2.9-1.6,3c-12.3,21.8-27.2,11.1-18.9,12.8c1.8,0.4,3.7,0.1,5.4-0.6c-2.9-4.2,1.4-6.3,2.6-1.4
				c3-2,5.6-4.7,7.6-7.8c-10.6-3.4-2.6-11.1,1.3-2.1c0.8-1.4,1.6-2.8,2.3-4.3c-9.2-3.3-0.8-9.7,1.1-2.3c1.8-4.1,3.5-8.3,5.1-12.5
				c-1.6-0.2-3.1-0.3-4.2-1.6c-0.8-0.9-1.5-2.5-0.6-3.6c0.9-1.1,3.2-1.5,5.3,3.8C224,99.4,238.8,111.1,233.9,110z M243.3,126.6
				c2.2-4.6,4.2-9.3,5.9-14C259.3,108.1,257.7,130.1,243.3,126.6z"/>
		</g>
		<ellipse class="st102" cx="206" cy="84.6" rx="36.3" ry="10.5"/>
		<g>
			<path class="st103" d="M245.9,84c1.5-0.4,3.1,0.7,3.7,2.2c0.6,1.5,0.3,3.1-0.3,4.6c-0.7,1.8-1.8,3.5-3.6,4.2
				c-0.7,0.3-1.5,0.4-2-0.1c-0.2-0.2-0.4-0.6-0.4-0.9c-0.2-1.2,0.4-2.4,1.1-3.4c0.7-1,1.6-1.9,2.1-3c0.5-1.1,0.5-2.6-0.4-3.4"/>
		</g>
		<g>
			<path class="st103" d="M256.6,106.1c-0.1-0.8,0.6-1.5,1.4-1.2c2.7,1.2,3.9,7.2,3.9,7.2C259.6,109.4,256.7,107.7,256.6,106.1z"/>
		</g>
	</g>
	<g>
		<g>
			<path class="st104" d="M272.6,172.7c-2.2-5.1-6-9.6-11.3-12.6c-8-1.4-17.6-3.6-29.1-0.3l1,0.3c-0.8,25.3,11.6,20.3,20.1,22.5
				c3.7,0.9,6.7,3.1,7.6,9.6c0.7,4.9-1.8,10.1-6.2,12.5C273.2,200.5,277.8,185,272.6,172.7z"/>
		</g>
		<g>
			<path class="st105" d="M269.9,142c-0.6-0.1-1.1-0.1-1.6-0.2c-16.6-1.9-33.3,11.9-36.2,17.9c11.5-3.2,21.1-1.1,29.1,0.3
				c7.8,1.4,14.1,2,19.1-3.7c0.1-0.1,0.2-0.2,0.2-0.2c3-3.2,12.5-8.9,16.5-9.7C291.1,143.8,277.4,142.8,269.9,142z"/>
		</g>
	</g>
</g>
<g>
	<g>
		<g>
			<path class="st79" d="M373.9,257.7c-4.6-4-11-5.4-16-8.9c1.3,0.7,3.2,0.3,4-1c-10.5-10.2-24.9-16.4-39.5-17.1
				c0.7-0.3,1.2-1.2,1-2c-1-3.5-20.6-10.2-37.8-1.1c0.3,0.4,0.6,0.7,0.9,1.1c-22.6-4.2-48.6-6-76.1-4.8
				c-34.8,1.4-66.7,7.4-92.3,16.3c5.3-2.6,10.9-4.8,16.5-6.6l-0.8-0.5c-14.9-6.8-30.3,3.1-41.7,10.8c0.7-1.4,1.4-2.8,2.1-4.2
				c-9.2-7.4-20,12.5-24.3,26.1c-1.4,1.9-2.7,3.7-3.9,5.5c-3.5,5.2-6.2,10.1-8.1,14.8C46.2,314.3,62,333,91,340
				c-20.5,16.2,61.4,16.8,89.1,13.1c-1.3,1.8-2.6,3.6-3.9,5.4c47.8,12.9,64.7-8.4,90.5-7.3c6.6,0.3,8.2-0.9,55.9-18.5
				c10.2,4.8,31.9-11.6,41.3-34c1.2-2.7,2.1-5.6,2.9-8.5c0.2,0.5,0.4,0.9,0.7,1.1c2.9,2.8,9.9-5,6.5-17.7
				C380,271.3,378.7,261.9,373.9,257.7z"/>
		</g>
		<g>
			<path class="st106" d="M79.3,276.7c-9.7,6.3-12.9,20.8-6.8,30.6c4.4,7,8.9,6.1,13.1,7.3c23.5,6.8-17.4,12.1,87.5,27.2
				c76.7,11,78-10.1,111.2-12.7c8-0.6,30.5,2.3,34.8-12.6c1.4-4.8,2.6-4.7,8.3-4.6c23.3,0.4,46.6-47.8,4.3-63.3
				c-32.4-11.9-40-13.9-45.4-19.9c-22.6-4.2-48.6-6-76.1-4.8c-34.8,1.4-66.7,7.4-92.3,16.3c-12.5,5.9-24,13.8-34.2,23.2
				C77.9,269.1,89.7,269.9,79.3,276.7z"/>
		</g>
	</g>
	<g>
		<path class="st107" d="M133.7,257.8c0,0,103.6-32,142.1-35c14.3-1.1,44.3,40.2,24.1,54c-35.8,24.3-150.4,48.7-150.4,48.7
			L133.7,257.8z"/>
		<ellipse class="st108" cx="148.7" cy="289.4" rx="30.7" ry="36.3"/>
		<g>
			<path class="st109" d="M293.6,232.1c-2.6-16.4-32.7-17.1-48.3-11.7c-36,12.6-4.4-6.4-105.8,33.3l-0.2,0.7
				c2.9,0.4,6.1,2.9,5.7,5.8c29.7-3.9,26.1,15.3,27.2,17.7c0.6,1.4,6.9,6.7,4.3,13.9c1.1-0.5,2.8,0.1,2.7,1.9
				c-0.2,2.9,1.2,5.9,3.7,7.4c14.7-17.5,34.1-4.4,46.4-14.3c6.2-5,9.3-17.4,18.7-17.4c6.7,0,9.8,6.9,29.4-6.6
				c6.8-4.7,14.6-9.5,22.6-7.6c0.1-5.5,5.1-5.7,5.4-7.9C305.6,243.5,294.6,238.4,293.6,232.1z"/>
		</g>
		<g>
			<path class="st110" d="M141.4,292.2c3.3,2.7,8.8,2.9,12.8,1.9c1.7-0.4,3.5-1.3,4.4-2.9c1.1-2.1,0.5-4.7-0.3-6.8
				c-3.5-9.3-16.1-13-24.6-8.1c-5.1,3-4.2,9.1-3.2,14.1c1,5,3.3,9.9,7.5,13c3.7,2.7,8.5,3.9,12.9,2.6c4.5-1.3,9.9-4.8,12-9.1
				c2.2-4.7,1-11.3-0.8-16c-1.9-5-7-9.1-11.5-11.7c-4.9-2.8-10.6-2.5-16-1.9c-5.3,0.6-9.5,2.6-12,7.5c-2.6,5.3-2.9,12-2.2,17.7
				c0.6,5.5,2.5,11,5.8,15.5c3.2,4.2,7.4,7.2,12.4,8.9c5.1,1.7,11,3.1,16.4,2.3c5.5-0.8,9.4-4.6,12.8-8.7c1.7-2.1,3.2-4.4,4.1-6.9
				c1-2.9,1.1-6.1,1.1-9.2c0-3.1,0-6.2-1-9.2c-0.9-2.8-2.6-5.3-4.4-7.7c-3.2-4.3-6.9-8.3-11.3-11.3c-2.2-1.5-4.6-2.7-7.1-3.5
				c-0.6-0.2-2.9,0.2-1.7,0.6c8.5,2.9,15.3,10.1,20,17.5c2.9,4.5,3.1,9.4,3.1,14.6c0,5-1.1,9.3-4.1,13.4c-2.6,3.5-5.9,7.5-10.2,8.9
				c-5.2,1.8-11.8,0-16.7-1.7c-8.8-3.1-14.4-11.2-16.2-20.1c-0.9-4.6-1-9.5-0.3-14.2c0.7-4.5,2.4-9.3,6.5-11.8
				c2.4-1.5,5.4-1.6,8.2-1.8c2.9-0.3,6-0.4,8.7,0.6c2.3,0.8,4.2,2.3,6.1,3.8c1.9,1.5,3.9,3.1,5.4,5.1c2.6,3.5,3.5,8.5,3.7,12.8
				c0.2,5-1.9,8.7-6,11.5c-2,1.4-4.3,2.8-6.7,3.4c-2.6,0.6-5.3-0.2-7.6-1.5c-3.8-2.3-6.3-6.2-7.6-10.3c-0.8-2.5-1.2-5.1-1.5-7.6
				c-0.2-2.5-0.4-5.3,1.4-7.3c3.8-4.4,11.5-4,16.1-1.3c3.8,2.3,7.3,7.1,7,11.8c-0.4,5.9-9.8,5.6-13.2,2.8
				C143,291.4,140.7,291.6,141.4,292.2L141.4,292.2z"/>
		</g>
		<g>
			<path class="st110" d="M297.1,262.4c-0.7-0.2-1.4-0.2-2,0c0.1-0.2,0.2-0.4,0.3-0.5c0.1-0.1,0-0.2-0.1-0.2c-0.4-0.3-0.9-0.3-1.4,0
				c-0.1,0-0.2,0-0.2,0.1c-0.6,0.4-1,1.4-1.7,1.8c-0.7,0.5-1.5,0.8-2.3,1.1c-1.5,0.5-3,0.9-4.5,1.3c-3.2,1-6.4,1.9-9.5,3
				c-2.3,0.8-4.3,2-5.5,4.2c0,0,0,0.1,0,0.1c0.2,0.3,0.7,0.4,1.4,0.4c-0.4,0.3-0.9,0.6-1.2,0.8c-3.5,2.2-6.7,4.9-10.2,7
				c-6.7,4.1-14.7,4.4-21.9,7.1c0.4-0.6,0.7-1.2,1.1-1.7c0,0,0-0.1,0-0.1c-0.9-1.3-4.1,1-4.8,1.3c-4.5,2.1-9.1,4.1-13.8,5.9
				c-8.7,3.2-17.8,5-26.9,6.9c0.6-0.5,1.2-1.1,1.3-1.4c0-0.1-0.2-0.2-0.2-0.2c-1.6-0.4-3.5,0.4-5,0.8c-1.6,0.4-3.3,0.8-4.9,1.3
				c-0.9,0.3-2.2,0.4-2.9,1.1c-0.1,0.1,0.1,0.2,0.2,0.2c0.4,0.1,0.6,0.1,1,0.1c0.1,0,0.2,0,0.2,0c0,0,0,0,0,0c2.9-1,5.8-1.9,8.8-2.5
				c-0.6,0.5-1.2,1.1-1.2,1.5c0,0.2,0.3,0.2,0.5,0.2c1.4,0.2,3-0.5,4.3-0.8c2.1-0.4,4.2-0.9,6.3-1.3c4.1-0.9,8.2-1.8,12.2-3
				c7.5-2.2,14.7-5.3,21.8-8.6c-0.5,0.6-0.9,1.2-1.4,1.8c0,0,0,0.1,0,0.1c0.3,0.3,0.7,0.3,1.1,0.3c1.6-0.1,3.2-1.4,4.7-1.9
				c4.6-1.5,9.4-2,14-3.5c4-1.3,7.5-3.6,11-6.1c1.8-1.3,3.6-2.6,5.4-3.8c1.2-0.8,2.5-1.5,3.8-2c0.4-0.1,0.7-0.2,1-0.4
				c0.7-0.3,1.3-0.6,1.5-0.8c0.1-0.1-0.1-0.2-0.2-0.2c-0.8-0.2-1.6-0.1-2.5,0.2c-1.2,0.2-2.8,1-1.9-0.3c1.7-2.4,6.8-3.1,9.5-3.9
				c2.7-0.8,5.5-1.6,8.2-2.6c0.8-0.3,1.6-0.6,2.3-1c1.2,0.5,3.8-1.2,4.3-1.5C297.5,262.6,297.2,262.5,297.1,262.4z"/>
			<path class="st110" d="M275.5,282.3c-3.3,1.3-6.5,2.8-9.6,4.5c0,0-0.1,0.1-0.1,0.1c0,0.1,0,0.1,0.1,0.2c-0.5,0.2-1,0.4-1.4,0.5
				c-3.4,1-6.7,2.3-9.9,3.7c-6,2.6-12,5.4-18.3,7c0,0,0,0,0.1-0.1c0,0,0,0,0,0c0,0,0,0,0,0c0,0,0,0,0,0c-0.2-0.5-0.6-0.6-1.2-0.5
				c-0.1,0-0.2,0-0.3,0.1c-1,0.3-2.1,0.9-2.4,1c-3.8,1.4-7.9,1.6-11.9,2.3c-3.3,0.5-6.3,1.5-9.3,3c-3.3,1.6-6.5,3.4-10.2,3.5
				c0.3-0.4,0.5-0.8,0.4-1.1c0,0,0,0,0,0c-0.1-0.2-0.2-0.3-0.5-0.5c-0.8-0.4-2.1,0.4-2.7,0.6c-5.1,1.8-10,3.7-15,5.8
				c-0.1,0-0.1,0.1-0.1,0.1c0,0.1,0,0.1,0,0.2c0,0,0,0.1,0.1,0.1c0.4,0.2,0.5,0.3,0.9,0.3c0.1,0,0.2,0,0.3,0c0.1,0,0.2,0,0.2,0
				c4.8-2,9.7-3.9,14.6-5.7c-0.1,0.1-0.1,0.3-0.2,0.4c0,0,0,0.1,0,0.1c1,1.2,3.7,0.5,5,0.2c3.4-0.7,6.4-2.5,9.5-3.9
				c6.3-2.9,13.5-2.5,20-4.7c1.7,1.4,12.5-3.2,13.8-3.8c7.4-3.1,14.6-6.7,22.5-8.4c0.1,0,0.2-0.1,0.2-0.2c0,0,0-0.1,0-0.1
				c0,0,0-0.1-0.1-0.1c-0.3-0.2-0.6-0.3-0.9-0.3c0.2-0.2,0.5-0.3,0.8-0.5c3.3-1.7,6.7-3.1,10.2-4.3c0.1,0,0.1-0.1,0.1-0.1
				c0-0.1,0-0.1,0-0.2c0,0,0-0.1-0.1-0.1C278.8,280.5,276.9,281.7,275.5,282.3z"/>
			<path class="st110" d="M238.5,279.3c0.4,0.2,0.7,0.3,1.1,0.3c0.2,0,0.2,0,0.2,0c2.2-1,4.4-1.9,6.7-2.6c-0.1,0.1-0.1,0.1-0.2,0.2
				c0,0,0,0.1,0,0.1c0.2,0.6,1,0.6,1.5,0.6c1.2-0.1,2.6-0.6,3.8-0.9c1.9-0.5,3.7-0.9,5.6-1.4c0,0,0.1,0,0.1-0.1c0,0,0-0.1,0-0.1
				c0-0.1-0.1-0.2-0.2-0.2c-0.9-0.4-1.3-0.3-2.2-0.1c-1.6,0.4-3.2,0.8-4.9,1.2c0.3-0.2,0.5-0.4,0.5-0.6c0-0.1-0.1-0.2-0.2-0.2
				c-0.3-0.1-0.5-0.2-0.8-0.2c-0.2-0.1-0.5-0.1-0.6,0c0,0,0,0,0,0c-0.5,0-1.1,0.2-1.7,0.4c-3,0.8-5.9,2-8.7,3.3c0,0-0.1,0-0.1,0.1
				c0,0.1,0,0.1,0,0.2C238.3,279.2,238.4,279.3,238.5,279.3z"/>
		</g>
		<g>
			<path class="st77" d="M186.7,247.8c-2.4,1.3-4.6,3-6.6,4.9c0.6-2.5,1.5-5.1,0.9-7.6c-2-8.6-13.5-14.1-17.5-15.8
				c-0.2-0.1-0.5-0.2-0.7-0.3c-0.4-0.2-0.6-0.2-0.6-0.2c4,0.1,8,0.7,12,0.6c4-0.2,8.2-1.2,11.1-3.9c0,0,3.9-4.1,4.4-6.3
				c-0.3,1.4,0.6,7.1,1.9,7.7c1.4,0.6,3,0.2,4.4-0.6c1.7-1,3.1-2.7,3.8-4.6c-0.3,1.9,0,3.8-0.1,5.7c-0.4,8.1,7.6-0.5,9-2.1
				c0.6-0.7,0,10.9,1.5,13.5c0.4,0.8,0.9,1.5,1.4,2.1c3-3.9,4.5-9.8,5.2-14.5c0.3-1.7,0.6-3.4,1.5-4.8c0.5,2.2,4.8,7.6,5.9,7.6
				c1.8,0,3-1.9,3.7-3.6c1-2.6,1.5-5.3,1.7-8c1.2,2.2,2.2,4.8,4.3,6.3c7.2,5.2,19.5,1.8,23.5,0.4c0.2-0.1,0.5-0.2,0.7-0.2
				c0.4-0.1,0.6-0.2,0.6-0.2c-3.1,2.5-6.5,4.7-9.4,7.5c-2.9,2.8-5.3,6.3-5.8,10.3c0,0-0.3,5.6,0.8,7.6c-0.7-1.2-5.1-5-6.5-4.6
				c-1.5,0.4-2.4,1.8-2.9,3.3c-0.6,1.9-0.6,4.1,0.1,6c-1-1.6-2.4-2.9-3.6-4.4c-5-6.4-5.4,5.3-5.4,7.5c0,0.2-0.9-0.7-1-0.7
				c-0.8-0.9-1.6-1.8-2.5-2.6c-14.9-16-24.8,1.7-31.3,3.5c1.1-2,1.3-8.9,0.5-9.6C190.5,246.2,188.3,246.9,186.7,247.8z"/>
			<path class="st78" d="M243.1,231c-4.1,1.8-8.3,3.3-12.4,4.9c1.4-0.2,2.7-0.3,4.1,0.1c2.5,0.6,4.5,2.1,6.3,3.8
				c0.2,0.2-0.6,0.6-0.8,0.6c-4.2-0.9-8.5-1.8-12.7-2.8c-1.5-0.1-0.5-0.2-3.8,1.2c-1.3,0.6-2.7,1.2-4,1.7c3.7-0.4,6.8,0.7,9.3,3.9
				c0.1,0.1-0.2,0.4-0.3,0.4c-1.4,1-4.6-0.5-6.1-0.9c-1.7-0.4-3.4-0.8-5.1-1.2c-1.1-0.3-1.7-0.6-2.7-0.1c-0.1,0-0.2,0.1-0.3,0
				c-0.1-0.1-0.3-0.2-0.4-0.4c-0.2-0.1,0.4-0.5,0.4-0.5c0.2-0.1,0.3-0.2,0.5-0.2c1.5-3.7,3-7.5,4.6-11.2c0-0.1,0.6-0.8,0.7-0.5
				c0.6,2.3,1,4.6,0,6.9c0,0,0,0.1-0.1,0.2c-1,1.6-2.3,2.9-3.7,4c3-1.3,6-2.6,9-3.9c1.8-3.5,3.5-6.9,5.3-10.4
				c0.1-0.1,0.8-0.7,0.8-0.4c0.4,2.2-0.1,4.3-1.2,6.2c-0.4,0.7-2.4,3.6-3.4,4c1.1-0.3,4.1-1.9,4.6-2.2c2-0.9,3.9-1.7,5.9-2.5
				c1.6-0.7,3.2-1.4,4.8-2c0.8-0.3,1.6-0.7,2.4-1c0.5-0.2,1.6-0.9,2.2-0.8c0.2,0.1,0.4,0.2,0.4,0.4
				C247.4,229.7,243.9,230.7,243.1,231z"/>
			<path class="st78" d="M174.6,232.9c0-0.1,0-0.1,0.1-0.1c0.1,0,0.1-0.1,0.2-0.1c1.2-0.2,2.3,0.2,3.4,0.5c1.2,0.4,2.5,0.7,3.7,1.1
				c2.9,1.1,5.8,2.2,8.8,3.3c-2.6-2.3-3.9-5-4.3-8.9c0-0.2,0.6-0.8,0.8-0.6c2.5,3.4,4.9,7.2,7.7,10.4c0.9,1.1,2.4,1.2,3.8,1.7
				c1,0.3,2.1,0.7,3.1,1c-2.4-2-3.5-4.7-3.4-8.2c0-0.3,0.3-0.5,0.6-0.6c0.7-0.2,1,0.7,1.4,1.2c1.1,1.5,2.1,3,3.2,4.5
				c1,1.4,1.8,2.9,2.9,4.1c0.7,0.8,1.3,0.9,2.4,1.2c0.1,0,0.1,0.1,0.1,0.1c0,0.1-0.1,0.3-0.1,0.4c-0.1,0.2-0.4,0.6-0.7,0.6
				c0,0,0,0,0,0c-0.9-0.2-1.9-0.2-2.7,0.3c-2.9,1.5-9.7,4.9-9.8,4.9c-0.3,0.1-0.2-0.1-0.2-0.3c1.2-2.3,2.5-4.4,4.9-5.5
				c0,0,0,0,0.1,0c1.2-0.4,2.4-0.5,3.6-0.5c-2.3-0.7-4.5-1.4-6.8-2.2c-2.9-1-2.3,0.3-8.5,1.8c-1.4,0.7-2.7,1.3-4.1,2
				c-0.2,0.1-0.4,0-0.2-0.2c2-3.3,5.4-4.6,9-5c-5.1-1.9-10.5-3.3-15.7-5c-1-0.3-2.2-0.5-3-1.4C174.6,233.2,174.5,233,174.6,232.9z"
				/>
			<g>
				<path class="st79" d="M209.8,255.1c2.1,0.4,4.2-1,4.6-3.2c0.2-1.1-0.1-2.2-0.7-3.1c2.6-1,3.4-4.3,1.4-6.4
					c-0.1-0.1-0.3-0.2-0.4-0.4c-0.5-0.4-1-0.7-1.6-0.8c-3.6-0.7-6.1,3.3-4,6.2c-1.2,0.5-2.2,1.6-2.5,3
					C206.2,252.7,207.7,254.7,209.8,255.1z"/>
				<path class="st19" d="M210.3,245.3c-0.3-0.1-0.5-0.2-0.6-0.4c-0.1-0.1-0.1-0.2-0.1-0.3c0-0.1,0-0.3,0-0.5
					c0.1-0.5,0.6-0.9,1.2-0.8c0.4,0.1,0.7,0.4,0.8,0.8c0.1,0.3,0,0.4,0,0.6C211.3,245.1,210.8,245.4,210.3,245.3z"/>
				<path class="st19" d="M207.9,249.7c0.1-0.6,0.6-0.9,1.2-0.8c0.6,0.1,0.9,0.6,0.8,1.2c-0.1,0.6-0.6,0.9-1.2,0.8
					C208.2,250.8,207.8,250.3,207.9,249.7z"/>
			</g>
		</g>
	</g>
</g>
</svg>
