<?xml version="1.0" encoding="utf-8"?>
<!-- Generator: Adobe Illustrator 22.0.0, SVG Export Plug-In . SVG Version: 6.00 Build 0)  -->
<svg version="1.1" id="Calque_1" xmlns="http://www.w3.org/2000/svg" xmlns:xlink="http://www.w3.org/1999/xlink" x="0px" y="0px"
	 viewBox="0 0 432 432" style="enable-background:new 0 0 432 432;" xml:space="preserve">
<style type="text/css">
	.st0{fill:#C51618;}
	.st1{fill:#BE1622;}
	.st2{fill:#97191D;}
	.st3{fill:#BA1818;}
	.st4{fill:#DADADA;}
	.st5{fill:#F39200;}
	.st6{fill:#EDEDED;}
	.st7{fill:#C6C6C6;}
	.st8{fill:#B51922;}
	.st9{fill:#FFFFFF;}
	.st10{fill:#95C11F;}
	.st11{fill:#FBF18E;}
	.st12{fill:#A3195B;}
	.st13{fill:#CE9445;}
	.st14{fill:#C07912;}
	.st15{fill:#006633;}
	.st16{fill:#A91917;}
	.st17{fill:#A31A17;}
	.st18{fill:#CCCCCC;}
	.st19{fill:#AB1918;}
	.st20{fill:#BA7321;}
	.st21{fill:#4D3134;}
	.st22{fill:#BD1824;}
	.st23{fill:#71484C;}
	.st24{fill:#020203;}
	.st25{fill:#008D36;}
	.st26{fill:#027835;}
	.st27{fill:#005229;}
	.st28{fill:#A91921;}
	.st29{fill:#9E1920;}
	.st30{fill:#DB9646;}
	.st31{fill:#F8EAD9;}
	.st32{fill:#FFF1E0;}
	.st33{fill:#DED2C2;}
	.st34{fill:#3C3C3B;}
	.st35{fill:#A61E19;}
	.st36{fill:#3AAA35;}
	.st37{fill:#1A1A1A;}
	.st38{fill:#B01E19;}
	.st39{fill:#F9C733;}
	.st40{fill:#E0BC97;}
	.st41{fill:#CC9F71;}
	.st42{fill:#1D71B8;}
	.st43{fill:#DA907B;}
	.st44{fill:#BA874D;}
	.st45{fill:#A01E2A;}
	.st46{fill:#F2F2F2;}
	.st47{fill:#F4D5AB;}
	.st48{fill:#87181A;}
	.st49{fill:#FAB62E;}
	.st50{fill:#F7A509;}
	.st51{fill:#E94E1B;}
	.st52{fill:#634E42;}
	.st53{fill:#1C1D3B;}
	.st54{fill:#936037;}
	.st55{fill:#7D4E24;}
	.st56{fill:#EDF6F7;}
	.st57{fill:#432918;}
	.st58{fill:#683C11;}
	.st59{fill:#FDD110;}
	.st60{fill:#E30613;}
	.st61{fill:#2D2E83;}
	.st62{fill:#F8AC14;}
	.st63{fill:#C5E5EE;}
	.st64{fill:#EE7476;}
	.st65{fill:#706F6F;}
</style>
<g>
	<g>
		<g>
			<path class="st31" d="M350.4,365.1c-18.9,0-155.9,0-173.9,0c3-3.9,3.8-9.2,4.1-13.9c0.5-7.4-2.8-12.3-8.2-16.8
				c184.5,0.3,168.9,0.1,172.1,0.5C362.3,336.7,358,362.7,350.4,365.1z"/>
			<path class="st32" d="M72.2,111.1C67.5,105.3,35.8,79,68.9,67c3.6,2.6,6.7,6.2,7.7,10.5c5.6,24.5-63,19.2,140,19.2
				c6.5,0,12.9,0,19.4,0c3.9,5.2,8.8,9.6,13,14.7c50,61.2,15.8,161.2,36.1,217.3c1.3,3.5,13.3,2.4-118.8,2.2
				c-8.1,0-13.8,5.6-12.8,13.8c0.1,0.9,1.9,1.2,2.6,1.2c6.6,0,13.1,0,19.7,0c0.6,5.6-0.5,17.5-6.6,19.1c-3.3,0.9-17.3-1.2-21.4-2.1
				C58.9,344,138.6,193.2,72.2,111.1z"/>
			<path class="st33" d="M167.2,334.7c0.9,0.6,1.7,1.3,2.5,2c2,1.7,3.7,3.7,5,6c-5.5,0-10.9,0-16.4,0c0.6-4.3,3.4-8.3,8.3-8.2
				C166.2,334.5,166.2,334.1,167.2,334.7z"/>
			<path class="st31" d="M215.1,93.4c-16.6,0-121.7,0-138.2,0c7.8-10,6-19.2-3-26.7c19.1,0,38.3,0,57.4,0c31.1,0,62.3,0,93.4,0
				c28.4,0,25.7,0.2,25.7,0.2c1.6,0.8,3.1,1.8,4.3,3.1c5.3,5.4,4.5,14.1,2.5,20.9c-0.3,1.1-0.9,2.6-0.8,2.6c-1.2,0.5-3.9,0-5.2,0
				c-4.4,0-8.9,0-13.3,0C230.2,93.4,222.7,93.4,215.1,93.4z"/>
		</g>
		<g>
			<g>
				<path class="st34" d="M109.4,113c-0.7-0.2-1.4-0.3-2.1-0.2c-0.6,0.1-1,0.5-1.3,1.3c-0.2,0.5-0.2,1-0.2,1.5
					c0.3,3.7,0.5,7.5,0.9,11.2c0.6,6.7,1.4,13.3,2.1,19.8c0.1,1.1,0.8,1.8,1.7,1.7c0.6-0.1,1.2-0.3,1.7-0.9c0.3-0.4,0.7-0.7,1.1-1.1
					c4.3-4.6,6.4-10.1,6.2-16.7c0-1.7-0.2-3.3-0.6-4.9C117.6,118.7,114.5,114.7,109.4,113z M112.1,143c-0.1,0.2-0.3,0.4-0.7,0.5
					c-0.2-2-0.4-4-0.6-5.9c-0.3-3.1-0.7-6.3-1-9.5c-0.3-3-0.5-6.1-0.8-9.2c-0.1-0.6-0.1-1.3-0.2-1.9c0-0.7,0-0.8,0.6-0.5
					c2.6,1,4.6,2.9,5.9,5.9c1,2.5,1.5,5.1,1.5,7.8C116.7,135.2,115.2,139.4,112.1,143z"/>
				<path class="st34" d="M127.7,143.3c-0.8,0.4-1.6,0.4-2.4,0.6c-0.3,0.1-0.7,0-0.8-0.5c-0.2-1.2-0.5-2.5-0.6-3.9
					c0.8-0.1,1.5-0.1,2.3-0.2c0.9-0.1,1.5-0.8,1.5-1.7c0-0.9-0.7-1.6-1.6-1.6c-0.5,0-1,0.1-1.5,0.1c-1.3,0.1-1.2,0.1-1.2-1.3
					c-0.3-5.1-0.5-10.3-0.5-15.5c0-1.6,0-3.1,0-4.7c0-1,0-1,0.9-0.9c1.3,0,2.7,0.3,4,0.5c0.9,0.2,1.6-0.4,1.7-1.3
					c0.1-0.9-0.4-1.7-1.3-1.9c-1.8-0.4-3.6-0.6-5.5-0.7c-0.5,0-0.9,0-1.3,0.2c-0.6,0.2-1.1,0.7-1.2,1.5c-0.1,0.4-0.1,0.9-0.1,1.4
					c0,2.1-0.1,4.2,0,6.3c0.1,6.9,0.2,13.7,1,20.5c0.2,1.7,0.5,3.4,0.9,5c0.3,1.2,1,1.9,2.1,2c1.6,0.1,3.1-0.2,4.6-0.8
					c0.9-0.4,1.3-1.4,1-2.3C129.5,143.2,128.6,142.8,127.7,143.3z"/>
				<path class="st34" d="M143.9,142.5c-1.2-6.9-2.5-13.8-3.7-20.8c-0.5-2.5-1-5-1.8-7.5c-0.2-0.6-0.4-1.2-0.8-1.7
					c-0.8-1-2-1-2.7,0.1c-0.3,0.5-0.5,1-0.6,1.6c-1.1,5.9-1.8,12-2.1,18.1c-0.2,3-0.2,5.9-0.4,8.9c-0.1,1.5-0.2,3-0.2,4.4
					c0,1,0.5,1.7,1.3,1.8c0.8,0.1,1.5-0.6,1.6-1.6c0-0.1,0-0.2,0-0.3c0-1,0.1-1.9,0.1-2.9c0-0.8,0.1-1.7,0.1-2.5
					c0-0.4,0.1-0.7,0.5-0.8c1.5-0.3,3-0.5,4.4-0.8c0.5-0.1,0.6,0.1,0.7,0.6c0.4,2.4,1,4.8,1.3,7.3c0.1,0.5,0.3,0.9,0.6,1.3
					c0.5,0.5,1,0.6,1.6,0.3c0.6-0.3,0.8-0.9,0.8-1.8c0-0.1-0.1-0.4-0.1-0.7C144.3,144.4,144,143.4,143.9,142.5z M138.5,135.3
					c-1,0.2-2,0.3-3,0.5c-0.6,0.1-0.7,0-0.7-0.7c0.3-5.5,0.7-11,1.6-16.5c0.3,0.2,0.3,0.5,0.4,0.7c1,4.5,1.6,9,2.5,13.5
					c0.1,0.4,0.1,0.7,0.2,1.1C139.6,135.1,139.6,135.2,138.5,135.3z"/>
				<path class="st34" d="M154.7,115.5c-1.6-0.8-3.4-1.2-5.1-1.4c-1.4-0.1-2.8,0-4.1,0.4c-1,0.3-1.4,1.1-1.1,2.2
					c0.1,0.4,0.1,0.7,0.1,1.1c0.1,1.7,0.1,3.4,0.2,5c0.5,5.8,1,11.6,1.8,17.3c0.1,0.9,0.3,1.9,0.5,2.8c0.2,0.7,0.8,1.1,1.4,1.1
					c0.6,0,1.1-0.5,1.4-1.2c0.2-0.6,0.2-1.1-0.1-1.7c-0.4-1.1-0.5-2.2-0.5-3.5c0.4,0.3,0.6,0.4,0.9,0.6c1.5,1.1,3,2.2,4.5,3.2
					c0.3,0.2,0.6,0.4,0.9,0.5c0.9,0.2,1.8-0.6,1.8-1.6c0-0.6-0.4-1-0.8-1.3c-0.7-0.5-1.3-0.9-2-1.4c-1.1-0.8-2.2-1.6-3.4-2.5
					c0.5-0.4,1.1-0.6,1.6-0.8c2.1-1,4-2.3,5.5-4.3c2-2.7,2.8-5.5,1.7-8.8C158.9,118.5,157.1,116.7,154.7,115.5z M156.4,127.3
					c-0.8,1.4-2,2.5-3.4,3.4c-1.2,0.8-2.6,1.3-3.9,1.9c-0.6,0.2-0.7,0.2-0.8-0.5c-0.1-1.5-0.3-3.1-0.4-4.6c-0.2-1.9-0.4-3.8-0.5-5.7
					c0-1.2-0.1-2.3-0.1-3.5c0-0.8,0-0.8,0.6-0.8c2.2-0.2,4.3,0.2,6.3,1.3C157.4,120.5,158.3,124,156.4,127.3z"/>
				<path class="st34" d="M180.1,127.4c-1.3-1.4-2.7-2.7-4-4.2c-0.9-1-1.7-2.1-2.2-3.4c-0.3-0.9-0.5-1.8-0.2-2.7
					c0.5-1.4,2.1-2.3,3.7-0.8c0.4,0.3,0.7,0.7,0.9,1.2c0.2,0.3,0.3,0.7,0.5,1.1c0.1,0.2,0.2,0.4,0.2,0.6c0.4,0.8,1,1.1,1.7,1
					c0.8-0.2,1.2-0.8,1-1.7c-0.6-2-1.6-3.8-3.6-5c-0.8-0.5-1.6-0.7-2.5-0.7c-0.4,0-0.9,0-1.3,0.1c-2,0.6-3.4,2.4-3.6,4.6
					c-0.2,2.1,0.6,4,1.7,5.7c1,1.5,2.2,2.8,3.4,4c1.1,1.1,2.2,2.2,3.2,3.4c1,1.2,1.8,2.4,2.2,3.9c0.4,1.4-0.1,2.6-1.3,3.4
					c-1.7,1.2-3.2,0.6-3.5-1.4c-0.1-0.6-0.1-1.2-0.2-1.8c-0.1-0.8-0.7-1.3-1.4-1.3c-0.7,0-1.3,0.7-1.4,1.5c0,0.1,0,0.3,0,0.4
					c0.1,0.8,0.1,1.6,0.3,2.3c0.6,2.4,2.2,4,4.8,3.7c2.7-0.3,5.1-2.4,5.6-5.1c0.2-1.3,0-2.5-0.6-3.7
					C182.9,130.6,181.6,128.9,180.1,127.4z"/>
				<path class="st34" d="M197.7,138.2c-1.2-5.8-2.5-11.6-3.7-17.6c-0.5-2.1-1-4.3-1.8-6.3c-0.2-0.5-0.4-1.1-0.8-1.5
					c-0.8-0.9-2-0.8-2.7,0c-0.3,0.4-0.5,0.9-0.6,1.4c-1.1,5-1.7,10.1-2.1,15.3c-0.2,2.5-0.2,5-0.4,7.5c-0.1,1.3-0.2,2.5-0.2,3.8
					c0,0.8,0.5,1.4,1.3,1.5c0.8,0,1.5-0.5,1.6-1.4c0-0.1,0-0.2,0-0.3c0-0.8,0.1-1.6,0.1-2.4c0-0.7,0.1-1.4,0.1-2.1
					c0-0.3,0.1-0.6,0.5-0.7c1.5-0.2,3-0.4,4.5-0.7c0.5-0.1,0.6,0.1,0.7,0.5c0.4,2.1,1,4.1,1.3,6.1c0.1,0.4,0.3,0.8,0.6,1.1
					c0.5,0.4,1,0.5,1.6,0.2c0.6-0.3,0.9-0.7,0.8-1.5c0-0.1-0.1-0.3-0.1-0.6C198.1,139.7,197.9,138.9,197.7,138.2z M192.4,132.1
					c-1,0.1-2,0.3-3,0.4c-0.6,0.1-0.7,0-0.7-0.6c0.3-4.7,0.7-9.3,1.6-14c0.3,0.2,0.3,0.4,0.4,0.6c1,3.8,1.6,7.6,2.5,11.4
					c0.1,0.3,0.1,0.6,0.2,0.9C193.5,131.9,193.4,131.9,192.4,132.1z"/>
				<path class="st34" d="M212,117c-0.8-0.1-1.3,0.3-1.5,1c-0.1,0.2-0.1,0.5-0.1,0.7c0,1.1-0.1,2.2-0.1,3.4c0,3.3,0,6.5,0,9.8
					c0,0.2,0.1,0.4-0.2,0.6c-0.7-1.4-1.4-2.7-2-4.1c-1.8-3.9-3.8-7.7-6.2-11.5c-0.3-0.5-0.6-1-1-1.3c-0.5-0.4-1-0.6-1.7-0.4
					c-0.6,0.2-0.9,0.7-1,1.3c-0.1,0.6,0,1.2,0.1,1.8c0.2,1.7,0.4,3.3,0.7,4.9c0.4,2.4,0.7,4.9,1.2,7.3c0.5,2.3,0.9,4.6,1.4,6.8
					c0.1,0.6,0.2,1.3,0.4,1.9c0.3,0.6,0.9,0.9,1.5,0.8c0.7-0.1,1.2-0.7,1.2-1.4c0-0.2,0-0.5-0.1-0.7c-0.7-3.9-1.7-7.7-2.3-11.7
					c-0.2-1.4-0.4-2.8-0.6-4.2c0.4,0.2,0.5,0.5,0.6,0.7c2.2,4.1,4.1,8.2,6,12.2c0.5,0.9,0.8,1.9,1.4,2.7c0.4,0.6,0.9,0.9,1.8,0.8
					c0.8-0.1,1.2-0.6,1.4-1.2c0.2-0.6,0.3-1.2,0.3-1.9c0.1-2.5,0.1-5.1,0.1-7.6c0-2.9,0.1-5.8,0.1-8.6c0-0.3,0-0.6,0-0.9
					C213.2,117.5,212.7,117,212,117z"/>
				<path class="st34" d="M226.5,114.8c-0.3-0.1-0.6-0.1-1-0.1c-1.5,0-3,0-4.5-0.1c0,0,0,0,0,0c-1.3,0-2.7,0-4-0.1
					c-0.7,0-1.4,0-2,0.2c-1.1,0.3-1.4,1.3-0.6,2c0.4,0.3,0.8,0.4,1.4,0.4c0.9-0.1,1.9-0.1,2.8-0.2c0.9,0,0.9,0,1,0.8
					c0.2,2.4,0.3,4.8,0.5,7.2c0.2,2.2,0.5,4.4,0.9,6.6c0.4,2,0.8,4,1.1,6c0.1,0.7,1,1.3,1.7,1.1c0.8-0.1,1.4-0.8,1.2-1.6
					c-0.1-0.5-0.2-0.9-0.3-1.4c-0.8-3.4-1.3-6.8-1.7-10.3c-0.3-2.3-0.4-4.7-0.5-7c-0.1-1.4-0.1-1.4,1.6-1.4c0.8,0,1.6,0.1,2.3,0
					c0.8,0,1.3-0.5,1.3-1C227.7,115.5,227.2,115,226.5,114.8z"/>
				<path class="st34" d="M242.4,137.2c-0.2-0.7-0.4-1.3-0.6-2c-1.2-4.9-2.5-9.9-3.7-14.9c-0.5-1.8-1-3.6-1.8-5.4
					c-0.2-0.4-0.4-0.9-0.8-1.3c-0.8-0.7-2-0.7-2.7,0c-0.3,0.3-0.5,0.7-0.6,1.1c-1.1,4.2-1.8,8.6-2.1,13c-0.2,2.1-0.2,4.3-0.4,6.4
					c-0.1,1.1-0.2,2.1-0.2,3.2c0,0.7,0.5,1.2,1.3,1.3c0.8,0,1.5-0.4,1.6-1.2c0-0.1,0-0.2,0-0.2c0-0.7,0.1-1.4,0.1-2.1
					c0-0.6,0.1-1.2,0.1-1.8c0-0.3,0.1-0.5,0.5-0.6c1.5-0.2,3-0.4,4.4-0.6c0.5-0.1,0.6,0.1,0.7,0.4c0.4,1.7,1,3.5,1.3,5.2
					c0.1,0.4,0.3,0.7,0.6,0.9c0.5,0.4,1,0.4,1.6,0.2c0.6-0.2,0.9-0.6,0.8-1.3C242.5,137.5,242.5,137.3,242.4,137.2z M236.5,130
					c-1,0.1-2,0.2-3,0.3c-0.6,0.1-0.7,0-0.7-0.5c0.3-4,0.7-7.9,1.6-11.9c0.3,0.2,0.3,0.4,0.4,0.5c1,3.2,1.6,6.5,2.5,9.7
					c0.1,0.3,0.1,0.5,0.2,0.8C237.5,129.9,237.5,129.9,236.5,130z"/>
			</g>
			<g>
				<path class="st34" d="M128.9,162.5c3.8,1,7.4,3.1,11,4.5c4.9,1.9,9.9,2.9,15.1,3.2c3.9,0,7.7-0.5,11.3-1.8
					c5.9-2.2,11.2-8.1,17.9-5.7c4.1,1.5,7.3,4.4,11.7,5.4c3.5,0.8,7.1,0.8,10.6,0.2c4.5-0.7,8.7-2.3,13-3.7
					c4.6-1.5,8.1-1.8,12.7,0.2c1.5,0.7,3,1.3,4.7,1.7c4.1,0.9,8.3,0.7,12.4,0.1c3-0.5,8.6-1,10.9-3.1c0.2-0.2,0.3-0.5-0.1-0.7
					c-1.1-0.5-2-0.6-3.2-0.4c-5.2,0.8-9.9,3.3-15.3,2.4c-6.1-1-10.6-4.7-17-3.8c-7.3,1-13.9,5.4-21.4,5.6
					c-7.6,0.3-12.4-5.9-19.6-6.9c-5.3-0.7-10,1.6-14.5,4.2c-5.3,3-10.5,5.3-16.7,4.2c-7.4-1.3-13.6-6.3-21-7.7
					c-3.7-0.7-7.4-0.3-10.8,1.1c-2.6,1-8.9,4.2-9.5,7.1c-0.1,0.6,1.6,0.6,1.8,0.5c2.2-0.2,4.2-2.1,5.9-3.3
					C122,163.6,124.6,161.4,128.9,162.5z"/>
				<path class="st34" d="M118.9,187.3c0.2,0,0.4,0,0.5-0.1c8.2-2.6,16.2-3.7,24.3-0.1c4.2,1.9,8.3,4.1,12.9,4.4
					c6,0.4,11.4-2.4,16.8-4.5c7.2-2.9,13.3-1.2,20.7-0.2c5.4,0.7,11,0.9,16.3,0c3.1-0.5,6.2-1.4,9.4-1.9c4-0.6,7.5-0.1,11.4,0.8
					c5.1,1.2,9.5,1.3,14.5-0.4c2.6-0.9,5.1-2,7.7-2.7c1.5-0.4,5.4,0.1,6.6-1.2c0.5-0.6-0.9-1.2-1.3-1.4c-4.3-1.6-9.8,0.7-13.8,2.2
					c-4.6,1.6-7.9,2.8-12.8,1.6c-2.6-0.6-5.1-1.4-7.8-1.6c-6.2-0.5-12.1,2-18.2,2.6c-7.1,0.8-14.1-1.1-21.1-1.9
					c-5.8-0.7-10.7,0.2-16.1,2.5c-2.7,1.1-5.4,2.5-8.3,3.2c-5.3,1.3-9.8-0.8-14.5-2.9c-4.6-2-9.3-3.5-14.3-3.5c-2.9,0-5.8,0.4-8.7,1
					c-2.1,0.4-6.3,0.9-7.9,2.5c-0.6,0.6,1,1.2,1.3,1.4C117.4,187.2,118,187.3,118.9,187.3z"/>
				<path class="st34" d="M260,206.7c-0.7-0.4-0.8-0.4-1.6-0.5c-0.1,0-0.1,0-0.2,0c-0.3-0.1-0.6-0.1-1,0c-6.1,0.9-11.3-4.1-17.3-4.4
					c-4.8-0.3-9.3,1.3-13.8,2.6c-13.2,3.5-26.6-1.6-39.9,0.1c-2.7,0.3-5.4,0.9-8,1.7c-3.5,1-7.9,3.3-11.4,1.6
					c-3.9-1.8-6.4-3.8-11-3.8c-5.3,0.1-10.2,2.1-15.3,3.2c-3.6,0.8-7.3,1.3-11,1.3c-2.6,0-5.1-0.5-7.6,0c-0.4,0.1-1.4,0.5-1.1,1
					c0.9,1.3,3.5,1.1,4.8,1.1c3.2,0.2,6.4,0.1,9.6-0.2c6.3-0.7,12.4-3.6,18.7-3.9c4.3-0.2,7,2.1,10.9,3.2c2.1,0.6,4.3,0.7,6.5,0.5
					c5.9-0.4,11.4-3.2,17.3-3.7c7.6-0.7,15.3,1.1,22.8,1.5c5.8,0.3,11.3-0.1,16.9-1.7c4.8-1.4,9-2.6,14-1.2c2.7,0.8,5.3,2.2,8,2.9
					c2.4,0.6,8.1,1.8,9.8-0.7C260.4,206.9,260.1,206.7,260,206.7z"/>
				<path class="st34" d="M124.3,226.6c2.4-1.9,6.3-2.7,9.3-2.2c2.4,0.4,5,2.1,7.2,3.1c0,0,0.1,0,0.1,0c0.1,0,0.1,0.1,0.2,0.1
					c9.2,3.7,19.6,6.2,29.2,2.6c6.7-2.5,12.2-8.9,19.8-5c4.3,2.2,7.9,4.6,12.7,5.1c4.6,0.5,9.2-0.3,13.6-1.6
					c2.9-0.8,5.6-1.9,8.5-2.8c4.6-1.4,8.5-0.5,12.7,1.3c4,1.6,8.4,1.9,12.7,1.5c2.6-0.2,5.2-0.8,7.8-1.4c1.8-0.5,4.4-0.7,5.9-2
					c0.3-0.3-0.2-0.6-0.4-0.7c-1.2-0.5-2.3-0.6-3.6-0.4c-4.8,0.7-9,3-14.1,2.5c-6.5-0.6-11.3-4.9-18.1-4c-7.3,1-13.9,5.4-21.4,5.7
					c-7.5,0.3-12.4-6-19.6-6.9c-5.2-0.7-9.7,1.6-14.2,4.1c-4.8,2.7-9.4,4.5-15,4.1c-4.5-0.4-8.9-1.8-13.1-3.5
					c-5.1-2.1-10-5.1-15.7-4.6c-5.5,0.5-9.8,4-13.6,7.8c-0.1,0.1-0.1,0.2,0,0.4c0,0.1,0.1,0.2,0.1,0.4c0.1,0.3,0.9,0.5,1.1,0.6
					c2.5,0.4,3.2-0.1,5-1.8C122.5,228,123.3,227.3,124.3,226.6z"/>
				<path class="st34" d="M146.4,248.4c4.2,1.9,8.3,4.2,12.9,4.8c4.6,0.6,9-0.6,13.2-2.4c2.5-1,5-2.3,7.6-3.1
					c3.9-1.2,7.6-0.9,11.6-0.2c5.2,0.9,10.2,1.7,15.4,1.6c4.7,0,9.1-1,13.7-2c3.9-0.8,7.5-1.2,11.5-0.4c2.3,0.5,4.5,1.2,6.9,1.5
					c4.2,0.6,7.9-0.4,11.8-1.8c2.9-1,5.7-2.3,8.8-2.7c1.3-0.2,3.3,0.3,4.2-0.8c0.4-0.5-0.6-1-0.9-1.1c-4.3-1.5-9.5,0.4-13.6,1.9
					c-4.5,1.6-8.1,3.1-13.1,1.9c-2.7-0.6-5.4-1.5-8.3-1.7c-6.2-0.4-12.1,2-18.2,2.7c-7.2,0.8-14.3-1.2-21.4-2
					c-5.4-0.6-10.1,0.3-15.1,2.3c-3,1.2-5.8,2.7-8.9,3.5c-5,1.2-9.4-0.7-13.8-2.7c-4.9-2.2-10-3.8-15.4-3.7c-2.8,0-5.5,0.4-8.2,1
					c-2.3,0.5-6.2,0.9-7.9,2.5c-0.5,0.5,0.6,1,0.9,1.1c2.5,1,4.3,0,6.9-0.7C133.4,246.1,139.9,245.8,146.4,248.4z"/>
				<path class="st34" d="M263.9,268.5c-0.6-0.3-1-0.4-1.6-0.6c-0.3-0.1-0.7-0.1-1.2-0.1c-6.1,0.9-11.3-4-17.3-4.4
					c-4.4-0.3-8.6,1-12.8,2.2c-13.6,3.8-27.1-1.2-40.9,0.4c-2.3,0.3-4.6,0.8-6.9,1.4c-3.9,1-8.5,3.4-12.5,2
					c-1.7-0.6-3.2-2.1-4.9-2.8c-2-0.8-4-1.1-6.1-1.1c-5.3,0-10.2,2-15.3,3.1c-3.6,0.8-7.3,1.3-11,1.4c-2.5,0-5.1-0.6-7.6,0
					c-0.3,0.1-1.5,0.4-1.1,1c0.8,1.1,2.5,1,3.7,1.1c3.2,0.2,6.5,0.2,9.7,0c6.2-0.5,11.8-2.8,17.9-3.8c6.7-1.1,11.8,3.8,18.5,3.5
					c5.9-0.2,11.4-2.9,17.2-3.7c13.2-1.8,26.3,3.5,39.5,0c5.2-1.4,9.6-3.1,15.1-1.6c2.8,0.8,5.3,2.2,8,2.9c2.3,0.7,8.1,1.9,9.8-0.5
					C264.2,268.8,264,268.6,263.9,268.5z"/>
				<path class="st34" d="M139.8,286.3c2.5,0.6,5,2.1,7.4,3.1c8.9,3.5,18.7,6,28.1,3c6.7-2.1,12.7-9.1,20.2-5.7
					c4.8,2.2,8.5,5.1,13.9,5.5c4.7,0.4,9.3-0.6,13.7-1.9c2.7-0.8,5.3-1.8,8-2.6c3-0.9,5.9-1.3,9-0.3c1.5,0.5,2.9,1.3,4.4,1.9
					c4.2,1.6,8.8,1.7,13.3,1.1c2.7-0.3,5.3-1,7.8-1.7c1.6-0.4,3.6-0.6,4.9-1.8c0.3-0.2,0.2-0.5-0.1-0.7c-1.7-0.7-3-0.3-4.7,0.2
					c-4.8,1.3-9.7,2.8-14.7,1.7c-6.4-1.4-10.5-4.6-17.3-3.3c-7.4,1.4-14.4,6.1-22.2,5.4c-6.8-0.6-11.4-6.4-18.2-6.9
					c-5.1-0.4-9.5,1.9-13.8,4.4c-5.1,2.9-9.9,4.5-16,3.8c-4.2-0.5-8.3-1.9-12.2-3.5c-5.1-2.1-9.9-5.1-15.6-4.4
					c-5.6,0.6-9.9,4.2-13.7,7.9c-0.1,0.1-0.2,0.2-0.2,0.4c0,0.1,0.1,0.2,0.1,0.4c0.1,0.4,0.6,0.4,0.9,0.5c2.7,0.4,3.8-0.9,5.7-2.6
					C131.8,287,135.4,285.3,139.8,286.3z"/>
				<path class="st34" d="M270.2,303.5c-0.1,0-0.2-0.1-0.3-0.1c-0.2-0.1-0.5-0.2-1-0.2c-5.7,0-10.5,2-15.8,3.8
					c-7.2,2.3-13.5-1.7-20.8-1.2c-6.9,0.5-13.4,3.1-20.4,2.8c-6.4-0.3-12.7-2.3-19.1-2.4c-4.9-0.1-9.5,1.5-14,3.4
					c-4.6,2-8.9,3.8-14.1,2.6c-3.4-0.8-6.4-2.7-9.6-4c-5.1-2-10.3-2.7-15.7-2.2c-2.7,0.3-5.3,0.8-8,1.5c-1.7,0.5-4.4,0.8-5.7,2
					c-0.4,0.4,0,0.6,0.3,0.8c1.1,0.4,2.2,0.3,3.3,0.1c4.6-0.8,8.7-2.6,13.5-2.4c7.4,0.2,13,4.8,19.9,6.4c5.2,1.2,10.3,0,15.2-1.9
					c3.8-1.5,7.6-3.7,11.7-4.1c4-0.4,8,0.8,11.9,1.5c5.8,0.9,11.8,1.2,17.5,0.3c3-0.5,5.9-1.3,8.9-1.8c4.8-0.9,8.9-0.2,13.6,0.9
					c4.9,1.2,9.4,0.8,14.2-0.9c4-1.4,7.5-2.6,11.8-3.2c1.1-0.2,2.1-0.1,2.9-1C270.9,303.9,270.6,303.7,270.2,303.5z"/>
			</g>
		</g>
	</g>
	<g>
		<path class="st34" d="M378,139c-0.3-14.3-3.2-28.4-6.2-42.4c-1.5-7.2-3.1-14.6-7.6-20.4c0.3,19.1-8.3,37.1-14,55.4
			c-0.7,2.4-1.5,4.8-1.4,7.3c0,3.5,0.9,8.1-2.3,9.5c-0.8-0.9-2.4-0.7-3.4,0.1c-0.9,0.8-1.3,2.1-1.7,3.3c-2,6.3-3.9,12.7-5.7,19.1
			c-1.9,7-3.7,14.5-1.7,21.5c0.5,1.7,1,3.9-0.4,5c-0.9-1.4-1.8-2.9-2.6-4.3c-5.6,10.4-5.5,23.7,0.3,34.1c0.8,1.4,1.6,2.7,1.8,4.3
			c0.1,1.4-0.3,2.7-0.7,4.1c-3.7,12-6.8,25.5-9.6,38.3c-0.2-0.2-0.5-0.3-0.7-0.3c-2.5-0.2-5,0-7.5,0.2c-2,0.2-4.6,0.2-6.5,1.1
			c-1.7,0.9-2.4,3-2.4,4.9c0,0.9,0.2,1.9,0.6,2.8c0.2,0.4,0.4,0.7,0.7,1.1c0.8,1,1.5,0.7,0.9,2.1c-0.6,1.4-1.4,1.1-2.7,1.3
			c-0.8,0.1-1.6,0.3-2.3,0.7c-1.3,0.5-2.5,1.3-3.5,2.2c-2.3,1.9-3.9,4.5-4.9,7.3c-1.2,3.5-1.5,7.3-1.5,11c0,3.3-0.3,7.1,1,10.3
			c2.1,5.3,8.2,7.3,13.4,8.2c6.4,1,13.2,1.3,19.6-0.1c3-0.7,6-1.8,8.6-3.4c2.3-1.4,5-3.2,5.8-5.9c0.5-1.6,0.4-3.4,0.5-5.1
			c0.1-2.3,0.2-4.6,0.2-6.9c0-3.7,0.2-7.7-0.7-11.3c-0.7-3.1-2.6-6.2-5.6-7.6c-1.5-0.7-2.8-0.4-4.3-0.6c-0.8-0.1-2.5-0.6-1.8-1.3
			c0.2-0.2,0.9-0.3,1.2-0.4c0.7-0.3,1.4-0.6,2-1c6.3-4.3-2.2-8.6-6.3-9.1c-0.1,0-0.1,0-0.2,0c0,0-0.1,0-0.1,0c-0.1,0-0.1,0-0.2,0
			c-0.4,0.1-0.7,0.4-0.7,0.9c0,0.2,0,0.4,0,0.7c0,0.3,0.2,0.7,0.5,0.8c0.9,0.4,1.9,0.8,2.8,1.3c0.8,0.5,0.8,0,0.4,0.4
			c-0.3,0.3-0.9,0.4-1.3,0.5c-1.2,0.4-2.5,0.6-3.8,0.7c2.6-12.5,6.2-26.4,10.2-38.2c0.5-1.4,1-2.8,2.3-3.6c1.5-0.9,3.3-0.4,5-0.1
			c5.7,1.1,12.3,0.2,16.4-3.9c2.8-2.9,4.1-6.8,5.3-10.7c1.1-3.4,2.1-6.8,3.2-10.2c0.8-2.4,1.5-5,1-7.5c-0.6-2.5-3.1-4.7-5.5-4.1
			c-1-1.9,0.6-4.3,2.4-5.5c1.8-1.2,4-1.9,5.4-3.6c0.8-1,1.2-2.3,1.6-3.5c3.6-11.7,5.2-24,4.7-36.2c-1.4-0.1-2.8-0.3-4.2-0.4
			c-0.9-1.6,0.2-3.6,1.6-4.8c1.4-1.2,3.2-2.1,4-3.7C378,141.9,378,140.4,378,139z M312.1,277c1.1-0.9,3.7-0.9,5-1.1
			c1.6-0.2,3.3-0.2,4.9-0.1c0.2,0,0.4-0.1,0.5-0.2c-0.3,1.2-0.5,2.4-0.8,3.6c-0.7,0-1.4,0-2.1-0.1c-1.6-0.1-3.1-0.2-4.7-0.3
			C314,278.7,310.2,278.5,312.1,277z M330.8,279.2c0.8-0.7,0.9-1.5,0.3-2.3c1.1,0.5,1.9,1.2,2.1,2.2c0.6,3-4.7,2.6-5.8,4.3
			c-0.8,1.3-0.1,2.9,1.1,3.6c1.1,0.7,2.3,0.4,3.5,0.4c2,0,3.5,0.5,5,1.8c2.5,2.4,3,6,3.1,9.2c0.2,3.6,0.1,7.2,0,10.8
			c0,1.8-0.1,3.7-0.2,5.5c-0.2,2.1-1,3.4-2.6,4.7c-2.4,1.9-5.1,3.3-8,4.3c-5.7,1.8-12,1.9-17.9,1.3c-5-0.5-11.6-1.4-14.7-5.9
			c-1.8-2.6-1.6-6-1.7-9.1c-0.1-3.6,0-7.3,0.9-10.9c0.8-2.9,2.2-5.6,4.4-7.7c1.2-1.1,2.7-2.1,4.3-2.5c1.4-0.4,3-0.3,4.3-0.9
			c1.7-0.8,2.7-2.7,1.5-4.4c-0.7-1-1.8-1.3-2.3-2.5c-0.5-1.2-0.5-3,0.3-4c0.3-0.4,0.8-0.7,1.3-1c-0.2,0.3-0.4,0.5-0.5,0.9
			c-1.4,4.2,7.8,3.9,9.9,4C322.4,281.2,328,281.7,330.8,279.2z M347.2,154.7c1.6,3.2,3.8,6.1,6.5,8.4c-0.3,3.4-1.6,8-2.8,11.2
			C350.9,167.6,346.1,161.3,347.2,154.7z M342.8,168.1c1.3,3.2,2.6,6.4,4,9.6c-0.2,3.1-1.2,5.7-2.4,8.5c-0.6-2.2-1.2-4.5-1.8-6.7
			C341.6,175.7,340.7,171.4,342.8,168.1z M352.4,216.4c-2,5.5-6.9,9.5-11.5,13.1l0-0.2c0.6-2.5,1.6-4.5,2.2-7
			c0.2-0.6,0.3-1.2,0.7-1.7c0.3-0.5,0.8-0.8,1.3-1.2c3.3-2.3,6.3-5.1,8.9-8.2C353.4,212.9,353,214.7,352.4,216.4z M370.5,131.1
			c-0.7,3.8-1.8,6.3-4.5,9.1c1.6-7.5,2.9-15,3.8-22.6C370.5,122.1,371.3,126.7,370.5,131.1z"/>
		<path class="st34" d="M321,282.3c-0.1,0.1-0.1,0.2-0.1,0.3c-0.8,4.2-1.5,8.3-2.3,12.5c-0.1,0.4-0.1,0.8,0,1.1
			c0.1,0.4,0.4,0.7,0.8,0.7c0.7,0,1-0.8,1.1-1.5c0.6-4.3,2-8.6,3-12.8l0.1-0.5c-0.9,0-1.2,0-2.1,0
			C321.3,282.3,321.1,282.3,321,282.3z"/>
		<path class="st34" d="M317.3,297.8c-2-0.7-3.6-2.1-5.2-3.5c-1.6-1.4-3.3-2.7-5.3-3.3c-2-0.6-3.8-1.3-5,0.4
			c-2.7,2.7-4.2,6.3-4.9,10c-0.7,3.7-0.6,7.5-0.4,11.3c0.1,1.9,0.2,3.9,1.1,5.5c1.7,3.1,5.4,4.3,8.9,5c8.3,1.7,17.1,2,24.9-1.1
			c1.2-0.5,2.4-1.1,3.4-2c2.3-2,2.9-5.3,3.2-8.3c0.5-4.4,0.6-8.7,0.3-13.1c-0.1-1.7-0.4-3.6-1.7-4.7c-1.1-0.9-2.7-1-4.1-0.6
			c-1.4,0.4-2.6,1.2-3.8,2C325.2,297.4,321.1,299,317.3,297.8z M318.4,308c-0.6,3.7-1.1,7.4-2.9,10.7c-0.2,0.4-0.5,0.8-1,1
			c1.1-6.2,2.2-12.4,3.3-18.7c0.1-0.4,0.2-0.9,0.5-1.2c0.3-0.3,1.3-0.3,1.3,0.1l0,0.2L318.4,308z"/>
	</g>
</g>
</svg>
