<?xml version="1.0" encoding="utf-8"?>
<!-- Generator: Adobe Illustrator 21.1.0, SVG Export Plug-In . SVG Version: 6.00 Build 0)  -->
<svg version="1.1" id="Calque_1" xmlns="http://www.w3.org/2000/svg" xmlns:xlink="http://www.w3.org/1999/xlink" x="0px" y="0px"
	 viewBox="0 0 432 432" style="enable-background:new 0 0 432 432;" xml:space="preserve">
<style type="text/css">
	.st0{fill:#AE3034;}
	.st1{fill:#3E904D;}
	.st2{fill:#F7EB5B;}
	.st3{fill:#221F20;}
	.st4{fill:#BC9A72;}
	.st5{fill:#FFFFFF;}
	.st6{fill:#E9963E;}
	.st7{fill:#EFB156;}
	.st8{fill:#5EB057;}
	.st9{fill:#A27D56;}
	.st10{fill:#BD8346;}
	.st11{fill:#DD658D;}
	.st12{fill:#404041;}
	.st13{fill:#81BF8E;}
	.st14{fill:#ED7E87;}
	.st15{fill:#B0202B;}
	.st16{fill:#BA9453;}
	.st17{fill:#B99352;}
	.st18{fill:#45A49C;}
	.st19{fill:#59B178;}
	.st20{fill:#C9A25F;}
	.st21{fill:#BCBDBF;}
	.st22{fill:#C7345D;}
	.st23{fill:#2E3192;}
	.st24{fill:#8CC63F;}
	.st25{fill:#22B573;}
	.st26{fill:#333333;}
	.st27{fill:#B1A097;}
	.st28{fill:#574B43;}
	.st29{fill:#85328A;}
	.st30{fill:#53A7DB;}
	.st31{fill:#912D61;}
	.st32{fill:#835F41;}
	.st33{fill:#929496;}
	.st34{fill:#808080;}
	.st35{fill:#6F4E2F;}
	.st36{fill:#A6A8AA;}
	.st37{fill:#DF643A;}
	.st38{fill:#98C355;}
	.st39{fill:#D35998;}
	.st40{fill:#6F665A;}
	.st41{fill:#BFB49D;}
	.st42{fill:#AE82B3;}
	.st43{fill:#B3B3B3;}
	.st44{fill:#5E328B;}
	.st45{fill:#DA404D;}
	.st46{fill:#A994C1;}
	.st47{fill:#8B575B;}
	.st48{fill:#C9C0AF;}
	.st49{fill:#A67C52;}
	.st50{fill:#86A391;}
	.st51{fill:#6595A9;}
	.st52{fill:#483E49;}
	.st53{fill:#F6BA00;}
	.st54{fill:#FC8080;}
	.st55{fill:#1A1A1A;}
	.st56{fill:#749FA8;}
	.st57{fill:#ABC337;}
	.st58{fill:#F67E20;}
	.st59{fill:#52A9B2;}
	.st60{fill:#925A8B;}
	.st61{fill:#DD8383;}
	.st62{fill:#929C3B;}
	.st63{fill:#4D4D4D;}
	.st64{fill:#C69C6D;}
	.st65{fill:#DBB753;}
	.st66{fill:#9EB9B4;}
	.st67{fill:#F2F2F2;}
	.st68{fill:#E2C87F;}
	.st69{fill:#E8BDC4;}
	.st70{fill:#D86D29;}
	.st71{fill:#E0CDAD;}
	.st72{fill:#E6E6E6;}
	.st73{fill:#CCD6CE;}
	.st74{fill:#9FD3C7;}
	.st75{fill-rule:evenodd;clip-rule:evenodd;}
	.st76{fill:#E5BE51;}
	.st77{fill:#B3A693;}
	.st78{fill:#717370;}
	.st79{fill:#9FB14D;}
	.st80{fill:#736357;}
	.st81{fill:#51642D;}
	.st82{fill:#743315;}
	.st83{fill:#0071BC;}
	.st84{fill:#9C1B20;}
	.st85{fill:#009245;}
	.st86{fill:#F6E6CC;}
	.st87{fill:#84CBCB;}
	.st88{fill:#7D9B39;}
	.st89{fill:#3C4E5C;}
	.st90{fill:#998675;}
	.st91{fill:#C7B299;}
	.st92{fill:#9B2F10;}
	.st93{fill:#E7A136;}
	.st94{fill:#978E43;}
	.st95{fill:#7D5E18;}
	.st96{fill:#F2C545;}
	.st97{fill:#E07D28;}
	.st98{fill:#E0D2BE;}
	.st99{fill:#C4A18D;}
	.st100{fill:#BCBD84;}
	.st101{fill:#5F645E;}
	.st102{fill:#CAC2C2;}
	.st103{fill:#959736;}
	.st104{fill:#B0D24A;}
	.st105{fill:#754C24;}
	.st106{fill:#603813;}
	.st107{fill:#8C4A33;}
	.st108{fill:#0B493A;}
	.st109{fill:#C17953;}
	.st110{fill:#F7C64D;}
	.st111{fill:#005371;}
	.st112{fill:#D3E2DC;}
	.st113{fill:#3E8A64;}
	.st114{fill:#299798;}
	.st115{fill:#731115;}
	.st116{fill:#4F4544;}
	.st117{fill:#4C6047;}
	.st118{fill:#4C301C;}
	.st119{fill:#867274;}
	.st120{fill:#C13F47;}
	.st121{fill:#BC8AA8;}
	.st122{fill:#634E42;}
	.st123{fill:#E1B8D7;}
	.st124{fill:#6D866B;}
	.st125{fill:#422918;}
	.st126{fill:#925F36;}
	.st127{fill:#1D1D1B;}
	.st128{fill:#00A099;}
	.st129{fill:#F8B133;}
	.st130{fill:#006633;}
	.st131{fill:#683B11;}
	.st132{fill:#B17F49;}
	.st133{fill:#A3897A;}
	.st134{fill:#E488B5;}
	.st135{fill:#93C01F;}
	.st136{fill:#EDE287;}
	.st137{fill:#E9CB9A;}
	.st138{fill:#EAB8CC;}
	.st139{fill:#7E4E24;}
	.st140{fill:#E5332A;}
	.st141{fill:#F29100;}
</style>
<g>
	<g>
		<g>
			<path class="st20" d="M171.8,281c-1.6,0.5-3.1,0.8-4.6,0.9c-2.5,0.1-5-0.2-7.4-1.1c-0.7-0.2-1.3-0.5-1.9-0.9
				c-3.5-2.1-5.1-5.2-4.5-9.2c0.6-4.3,2.9-7.5,6.9-9.4c2.9-1.4,5.7-1.1,8.3,0.9c2.4,1.9,3.1,5.4,1.8,8.2c-1.1,2.4-3.9,3.7-6.4,3
				c-0.7-0.2-1.4-0.6-1.8-1.3c-0.4-0.8-0.3-1.4,0.5-1.8c0.2-0.1,0.4-0.2,0.6-0.3c1.5-0.5,2.7-2.7,2.1-4.9c-0.1-0.4-0.3-0.6-0.7-0.6
				c-0.7-0.1-1.4-0.1-2,0.1c-1,0.3-1.8,0.7-2.6,1.4c-2.3,2.1-3.3,4.8-2.9,7.9c0.2,1.7,1.2,2.9,2.8,3.4c2.8,1,5.6,1.1,8.4,0.1
				c1.7-0.6,3.3-1.5,4.7-2.7c0.3-0.3,0.6-0.5,0.8-0.9c3.3-6.7,8.7-11.1,15.3-14.2c2.2-1,4.5-1.9,6.9-2.2c1.4-0.2,2.7-0.3,4.1,0.1
				c0.7,0.2,1.3,0.5,1.9,1c0.4,0.4,0.6,0.8,0.7,1.3c0.1,0.8-0.3,1.2-1.1,1.1c-2.9-0.2-5.5,0.6-8.1,1.6c-4.8,2-8.8,4.9-11.6,9.4
				c-2,3.2-3.1,6.6-3,10.4c0,1.6,0.4,3.1,1.1,4.5c0.7,1.4,1.7,2,3.2,2.1c3.8,0.2,7.1-3.7,6.4-7.4c0,0,0-0.1,0-0.1
				c-0.6-2.2-1.2-2.3-2.9-1.2c-0.3,0.2-0.6,0.4-0.9,0.5c-0.9,0.4-1.8,0.1-2.4-0.6c-0.6-0.7-0.6-1.4,0-2.1c1.2-1.4,3.6-2,5.4-1.3
				c1.6,0.6,2.7,1.8,3.4,3.4c1.2,2.9,0.9,5.7-0.4,8.4c-2.4,4.6-7.3,6.5-12.1,4.7c-4.4-1.6-7.5-5.8-7.7-10.5
				C171.8,282.1,171.8,281.6,171.8,281z"/>
			<path class="st20" d="M370.3,290.9c-0.1,3.9-1.2,7.7-3.9,11c-4.3,5.3-11.5,6.3-16.7,3.6c-3.2-1.6-5.3-4.2-5.7-7.7
				c-0.4-3.8,0.6-7.2,3.7-9.7c1.5-1.2,3.1-2,5-2.5c1.8-0.4,3.4-0.1,4.8,1.2c0.7,0.6,0.9,1.3,0.7,1.9c-0.3,0.5-1,0.8-1.9,0.5
				c-0.4-0.1-0.7-0.2-1.1-0.4c-0.8-0.4-1.6-0.4-2.4-0.1c-1.5,0.5-2.8,1.3-3.7,2.6c-1.9,2.4-1.4,5.8,1,7.7c0.6,0.5,1.2,0.5,1.9,0.3
				c2.2-0.8,4-2.2,5.2-4.2c1.2-1.8,2-3.9,2.6-6c0.4-1.4,0.6-2.8,0.8-4.2c0.2-1.4,0-2.8-0.5-4.1c-0.7-2.1-2.3-3.1-4.4-3.3
				c-1.7-0.2-3.4,0.2-5,0.9c-0.5,0.2-1,0.5-1.5,0.7c-0.7,0.4-1.3,0.2-1.9-0.3c-0.7-0.5-0.8-1.2-0.3-2c0.6-0.9,1.5-1.5,2.4-2
				c4.4-2.4,8.8-2.3,13,0.5c2.5,1.7,4.3,4,5.7,6.7c1.1,2.2,1.8,4.4,2.1,6.8C370.3,289.3,370.3,290,370.3,290.9z"/>
			<g>
				<path class="st11" d="M325.9,255.8c-4,1.9-7,4.9-9.1,8.8c-1.1,2.1-1.5,4.4-1.3,6.7c0.4,4.8,5.6,7.8,9.9,5.7
					c0.6-0.3,1.1-0.7,1.1-1.5c0-0.6-0.5-1.1-1.3-1.4c-0.8-0.3-1.5-0.2-2.3,0.1c-1,0.3-1.5,0.2-2.2-0.7c-0.7-0.9-1-1.8-1-2.9
					c0-0.7,0.1-1.4,0.4-2.1c1.5-3.8,3.8-6.9,7.3-9.1c2-1.3,4.3-1.7,6.7-1.3c3.2,0.6,5,2.7,6,5.7c0.9,2.7,0.8,5.4,0.1,8.1
					c-1.5,5.5-4.6,10-8.8,13.8c-4.7,4.2-10.3,6.9-16.2,8.8c-8.7,2.8-17.3,2.7-25.8-0.8c-2.5-1-4.8-2.3-7-3.7
					c0.1-0.1,0.1-0.2,0.1-0.2c0.2-0.2,0.4-0.4,0.6-0.5c2.9-2.4,5.8-4.8,8.5-7.5c6.7-6.6,12.3-14,17.3-22c8.5-13.8,14.7-28.7,19-44.3
					c0.9-3.2,1.8-6.5,2.2-9.9c0.2-1.7,0-3.4-0.6-5c-0.9-2.5-4.5-4.5-7.4-1.7c-0.5,0.5-1,1.1-1.4,1.8c-0.2,0.3-0.3,0.6-0.5,0.9
					c-0.2,0-0.3-0.1-0.4-0.3c-4.7-4.3-11.9-4.8-17.4-0.9c-1.7,1.2-3.2,2.7-4.6,4.2c-1.5,1.7-2.7,3.6-3.5,5.8
					c-0.7,1.8-1.1,3.6-1.3,5.5c-0.1,0.8-0.3,1.6-0.8,2.3c-3,4.5-6,8.9-8.7,13.6c-1.6,2.7-3.1,5.5-4.7,8.3c-0.2,0.3-0.3,0.6-0.7,0.9
					c0.1-0.5,0.2-0.8,0.3-1.1c1.2-3.2,2.3-6.5,3.6-9.7c2.9-7.1,5.9-14.1,9.1-21c1.5-3.3,2.9-6.5,3.9-10c0.6-2.2,1.1-4.4,0.8-6.7
					c-0.1-1-0.4-2-0.9-2.9c-1.4-2.7-4.4-3.9-7.3-2.9c-2.1,0.7-4,1.9-5.7,3.3c-3.8,2.9-6.9,6.5-9.8,10.3c-4,5.4-7.2,11.3-9.9,17.4
					c-0.1,0.3-0.2,0.7-0.5,1c-0.2-0.2-0.1-0.4-0.1-0.6c0.4-2.2,0.7-4.4,1.1-6.6c0.2-1.4,0.5-2.9,0.4-4.4c-0.2-1.9-1.4-3.3-3.2-3.7
					c-2.3-0.5-4.1,0.3-5.6,2c-1,1.1-1.6,2.4-2.1,3.8c-1.1,3.2-1.8,6.4-2.2,9.7c-0.1,0.5-0.2,1-0.4,1.4c-2,3.6-4,7.3-6.1,10.9
					c-0.7,1.1-1.3,2.2-2.1,3.3c-0.1,0.2-0.2,0.4-0.6,0.4c0-0.3-0.1-0.6-0.1-0.9c-0.1-1.5,0.2-3,0.5-4.5c0.3-1.2,0.6-2.5,0.7-3.7
					c0.5-5.3,1.3-10.6,2.2-15.8c0.2-1.3,0.5-2.6,0.4-4c-0.1-1.8-0.7-3.4-2.4-4.4c-2.3-1.4-5.1-0.8-6.8,1.2c-0.5,0.6-0.9,1.4-1.2,2.1
					c-0.4,1-0.8,2-1,3c-0.1,0.6-0.4,0.9-0.9,1.2c-3,1.8-5.9,3.7-8.9,5.7c-0.2,0.1-0.4,0.4-0.8,0.3c-0.9-2.3-1.6-4.6-2-7
					c-0.2-1.1-0.2-1.1,0.8-1.6c2.8-1.4,5.3-3.3,7.4-5.6c0.7-0.8,1.4-1.7,1.9-2.7c0.7-1.5,1-3,0.6-4.6c-0.5-2.3-2.2-3.7-4.3-4.4
					c-2.5-0.9-5-0.7-7.4,0.5c-4.3,2-7.3,5.4-9.1,9.7c-1.3,3.1-1.4,6.3-0.9,9.5c0.1,0.5,0.1,0.8-0.4,1.1c-3.5,1.9-6.7,4.3-9.9,6.7
					c-0.2,0.2-0.4,0.4-0.8,0.3c-0.7-2-1.2-4.1-1.6-6.2c-0.1-0.4,0.1-0.6,0.4-0.8c1.1-0.7,2.2-1.4,3.1-2.3c2.4-2.2,4.2-4.8,4.8-8
					c0.5-3-0.2-5.6-2.6-7.5c-2.6-2-5.6-2.5-8.6-1.2c-3.7,1.6-6.4,4.2-7.7,8.1c-0.8,2.5-1,5.1-0.9,7.8c0.1,2.1,0.3,4.1,0.8,6.2
					c0.1,0.5,0,0.8-0.4,1.1c-3.5,3-6.2,6.7-8.7,10.5c-1.9,2.9-3.7,5.8-5.4,8.8c-0.9,1.5-1.8,3-3,4.3c-0.2,0.2-0.4,0.6-0.8,0.6
					c-0.1-1.9-0.1-3.7-0.2-5.5c-0.3-5,0.3-9.9,1.3-14.8c0.2-0.7,0.5-1.1,1.2-1.2c2.2-0.5,4.2-1.3,6.2-2.4c4.3-2.6,5.9-8.9,1.7-13.6
					c-0.9-1-2-1.6-3.2-1.9c-2.3-0.6-4.6-0.3-6.8,0.7c-3.1,1.5-5.4,3.9-7,6.9c-0.9,1.7-1.6,3.5-2.2,5.4c-1.5,4.7-2.3,9.5-2.7,14.3
					c-0.2,2.7-0.3,5.5,0.3,8.2c0.1,0.4,0,0.7-0.1,1c-0.4,1.1-0.8,2.2-1.3,3.3c-1.2,3.1-2.4,6.1-4.1,9c-0.7,1.3-1.5,2.5-2.5,3.6
					c-0.3,0.3-0.6,0.7-1.1,0.9c-0.2-0.4-0.4-0.7-0.4-1.1c-0.3-1-0.4-2-0.4-3c0-1.8,0-3.5,0-5.3c0.1-2.7,0.3-5.4,0.4-8.2
					c0.1-4.7,0.4-9.3,1-14c0.6-5.5,1.6-10.9,2.9-16.3c0.3-1.4,1-2.3,2.2-3c6-3.6,11.5-7.8,16.5-12.7c3.3-3.3,6.1-7.1,8.1-11.4
					c1.4-3,2.2-6.1,2-9.5c-0.3-3.5-2.5-6-6-6.7c-2.5-0.5-4.9-0.1-7.2,0.9c-3.9,1.6-7.1,4.2-10.2,7c-4.4,4-7.7,8.9-10.2,14.3
					c-2.9,6.1-5,12.6-6.6,19.2c-0.2,0.7-0.2,1.5-0.6,2.1c-0.4,0.7-1.4,0.7-2.1,1c-5.1,2.3-10.3,4.4-15.5,6.4
					c-0.6,0.2-1.1,0.3-1.8,0.1c-2.8-0.8-5.6-0.9-8.5-0.6c-1,0.1-2,0.3-3.1,0.5c0.4-0.4,0.6-0.6,0.8-0.8c1.8-1.7,3.4-3.4,4.8-5.4
					c2.9-4.2,4.9-8.8,6-13.7c0.7-2.8,1.1-5.6,0.7-8.5c-0.4-3.1-1.8-5.6-4.3-7.5c-2.9-2.2-6.1-2.5-9.4-0.8c-1.1,0.6-2,1.2-2.9,2
					c-1.4,1.3-2.8,2.6-4.1,4c-6.5,7.2-11.7,15.3-15.3,24.4c-2,5-3.6,10.2-5.1,15.4c-0.1,0.4-0.1,0.9-0.5,1.3
					c-0.2-0.3-0.1-0.6-0.1-0.8c-0.1-1.6-0.2-3.1-0.2-4.7c-0.4-6.4-0.5-12.7-0.4-19.1c0-0.7,0.2-1.2,0.7-1.7c2.3-2.4,4.4-4.9,6.2-7.8
					c1.6-2.5,2.8-5.2,3.5-8.1c0.5-2.5,0.6-5.1-0.2-7.6c-1-3-3.6-4.5-6.7-3.7c-2.1,0.5-3.8,1.7-5.3,3.3c-1.6,1.7-3,3.6-4.2,5.5
					c-2.2,3.6-3.8,7.4-4.5,11.7c-0.6,4.1-0.9,8.2-1,12.3c0,0.6-0.2,1-0.7,1.4c-1.5,1.2-2.9,2.5-4.3,3.8c-0.7,0.7-1.4,1.4-2,2.2
					c-0.4,0.6-0.3,1.2,0.3,1.6c0.8,0.5,1.7,0.5,2.4-0.2c1.1-1,2.3-1.9,3.5-2.9c0.2-0.2,0.4-0.4,0.7-0.4c0.2,0.3,0.1,0.7,0.1,1
					c0,1.1,0,2.3,0.1,3.4c0.2,5.7,0.5,11.4,0.8,17.1c0.1,2.7,0.3,5.4,0.6,8.1c0.2,1.7,0.4,1.2-0.9,2.4c-3.4,3.2-6.5,6.7-8.8,10.7
					c-3.6,6.2-4.7,12.8-3,19.8c1.4,5.5,4.3,10.1,9,13.4c4,2.9,8.7,4.3,13.6,4.8c3.4,0.3,6.8,0.1,10.2-0.6c5.3-1.1,10.4-2.8,15.1-5.7
					c15.8-9.8,27.2-28,29.8-44.5c0.4-2.7,0.7-5.4,0.2-8c-0.9-5.5-3.6-10-7.7-13.7c-0.2-0.2-0.5-0.3-0.6-0.7
					c4.4-1.8,8.8-3.6,13.3-5.6c0,0.3,0,0.4,0,0.5c-1.3,7-2,14-2.4,21.1c-0.2,3.7,0,7.4,0.8,11.1c0.8,3.4,1.9,6.6,3.6,9.6
					c0.6,1.1,1.4,2.1,2.3,3c1.9,1.8,4.3,2.2,6.6,1c0.7-0.4,1.3-0.8,1.9-1.4c1.5-1.4,2.7-3.1,3.7-4.8c1.5-2.5,2.7-5.2,3.8-7.9
					c0.1-0.4,0.2-0.8,0.6-1.1c0.8,0.8,1.5,1.6,2.3,2.3c2.8,2.1,6.4,2,9-0.2c0.9-0.8,1.7-1.7,2.4-2.7c1-1.5,2-3,2.8-4.5
					c1.6-2.9,3.3-5.7,5.1-8.5c1.8-2.7,3.7-5.4,5.9-7.8c0.3-0.3,0.5-0.6,0.9-0.8c0.1,0.2,0.1,0.3,0.2,0.5c0.7,2.1,1.4,4.1,2.1,6.2
					c0.2,0.6,0.2,1-0.3,1.6c-1.8,2.2-3.2,4.7-4.1,7.5c-0.5,1.6-0.8,3.2-0.7,4.9c0.4,3.2,1.9,5.7,5,6.9c1.7,0.7,3.5,0.8,5.3,0.3
					c4.4-1.1,6.9-4.2,8-8.4c0.7-2.7,0.4-5.3-0.3-8c-0.7-2.6-1.6-5.1-2.6-7.7c-0.4-1.1-0.5-0.9,0.5-1.7c3-2.3,6.1-4.4,9.3-6.4
					c0.2-0.1,0.4-0.3,0.7-0.2c0.8,2.8,1.9,5.5,2.9,8.3c0.3,0.7,0.1,1.1-0.4,1.6c-2.2,2.1-4,4.5-5.4,7.3c-0.5,1-1,2-1.2,3
					c-1.1,4.2,0.9,8.2,4.9,9.5c3.8,1.2,7.4,0.7,10.4-1.8c4.4-3.7,6.3-8.4,5.1-14.1c-0.5-2.7-1.5-5.2-2.5-7.8
					c-0.3-0.8-0.3-0.8,0.4-1.2c2.3-1.5,4.5-2.9,6.8-4.3c0.1-0.1,0.3-0.2,0.5-0.1c-0.4,2.5-0.8,5-1.1,7.5c-0.3,2.5-0.4,4.9,0.1,7.4
					c0.7,3.4,2.2,6.4,4.5,8.9c2.3,2.5,5.5,2.6,7.8,0.1c1.3-1.5,2.5-3,3.5-4.7c1.1-1.8,2-3.7,2.9-5.5c0.1-0.2,0.2-0.5,0.5-0.6
					c0.1,0.4,0.1,0.7,0.2,1.1c0.5,1.9,0.9,3.8,2.1,5.5c0.4,0.7,0.9,1.2,1.6,1.7c1.8,1.3,5,1.4,6.3-1.5c0.4-0.9,0.8-1.8,1.1-2.7
					c1.9-4.8,3.6-9.8,5.7-14.5c3-6.6,6.7-12.7,11.5-18.2c2.1-2.3,4.3-4.4,6.8-6.1c0.3-0.2,0.6-0.5,1-0.6c0.1,0.3,0,0.4-0.1,0.5
					c-3.1,6.9-6.2,13.7-9.4,20.6c-3,6.4-5.2,13-6.1,20.1c-0.5,3.7-0.4,7.4,0.5,11.1c0.2,0.8,0.4,1.5,0.8,2.2c1.4,2.5,4.8,3,6.9,1
					c0.5-0.5,1-1.1,1.4-1.7c1.3-1.9,2.4-3.8,3.4-5.8c1.8-3.7,3.8-7.3,5.8-10.9c1.2-2.2,2.6-4.3,3.8-6.4c0.1,0.1,0.2,0.1,0.3,0.2
					c0.1,0.2,0.3,0.5,0.4,0.7c2.1,3.2,5,4.9,8.9,4.5c1.3-0.1,2.5-0.7,3.6-1.4c2.5-1.5,4.7-3.5,6.9-5.5c0.2-0.2,0.4-0.5,0.9-0.7
					c-0.1,0.4-0.2,0.7-0.3,1c-3,8.9-6.6,17.5-10.8,25.9c-7,13.8-16.2,25.8-27.6,36.3c-1,0.9-1,0.9-2.1,0c-2.5-2.4-5-4.8-7.7-7.1
					c-4-3.5-8.4-6.4-13.5-8.1c-0.4-0.1-0.6-0.3-0.8-0.7c-0.5-1.1-1.1-2.2-1.8-3.2c-3.2-4.7-7.4-8-13-9.2c-5.8-1.2-11.4-0.4-16.6,2.4
					c-7.8,4.2-13.4,10.4-16.2,18.8c-2.5,7.4-1.7,14.5,2.7,21c2.8,4.1,6.6,7,11.1,9c5.1,2.3,10.4,3.1,15.9,3.2
					c7.2,0.1,14.2-1.2,21-3.7c7.6-2.8,14.6-6.6,21.3-11.1c1.2-0.8,0.8-0.8,1.9,0c7.9,5.7,16.8,8.6,26.5,8.9c4.8,0.1,9.5-0.6,14-1.8
					c6.2-1.7,11.9-4.3,16.8-8.5c6.3-5.3,10.2-11.9,10.8-20.3c0.3-4.4-0.7-8.5-3.2-12.1C339,255,331.9,253,325.9,255.8z M224,194.4
					c0.4-0.5,1-0.9,1.5-1.1c1.2-0.6,2-0.1,2,1.3c0,0.7-0.1,1.3-0.4,1.9c-0.3,0.6-0.6,1.1-1,1.6c-1.4,1.7-3.1,3.1-5,4.4
					c-0.1,0.1-0.2,0.1-0.3,0.1c-0.1,0-0.1,0-0.3,0C221.1,199.5,222,196.7,224,194.4z M172.9,205.8c0.4-0.7,0.9-1.4,1.6-1.9
					c0.5-0.4,0.7-0.4,1.2,0.1c0.9,1.2,1.1,2.6,0.8,4.1c-0.3,1.3-0.9,2.3-1.9,3.2c-1.1,1-2.8,1.9-4.6,2.3
					C170.9,210.9,171.6,208.2,172.9,205.8z M152.9,196.2c1.7-5.2,3.8-10.1,6.1-15c1.3-2.8,2.6-5.6,4.3-8.2c1.5-2.3,3.3-4.3,5.4-5.9
					c1.1-0.9,2.3-1.5,3.7-1.9c0.2-0.1,0.5-0.1,0.7-0.1c1.2-0.1,1.6,0.2,2,1.3c0.6,1.7,0.5,3.5,0.1,5.3c-0.5,2.2-1.4,4.2-2.5,6.1
					c-2.1,3.6-4.8,6.8-7.8,9.7c-3.5,3.4-7.3,6.5-11.4,9.3c-0.3,0.2-0.5,0.4-0.9,0.5C152.7,196.8,152.8,196.5,152.9,196.2z
					 M78.1,189.9c0.3-2.5,0.4-5,0.9-7.5c0.4-2,0.8-4.1,1.6-6c0.5-1.2,1.1-2.4,2.1-3.4c1-1,1.3-1,1.7,0.5c0.6,2.2,0.4,4.3-0.2,6.4
					c-0.9,3.2-2.6,6.1-4.6,8.8c-0.4,0.5-0.8,1-1.2,1.5c0,0-0.1,0-0.2,0.1C78,190.2,78.1,190.1,78.1,189.9z M80.4,228.5
					c1.9-7.5,4.1-14.9,7-22c3.2-7.9,7.7-15,13.5-21.2c1.3-1.3,2.6-2.6,4-3.8c1-0.8,2.2-1.6,3.4-2c0.2-0.1,0.4-0.2,0.7-0.1
					c0.2,1.8,0.2,3.6-0.1,5.5c-0.6,4.3-1.9,8.4-3.7,12.3c-3.1,6.6-7,12.6-11.5,18.2c-1.1,1.4-2.2,2.8-3.2,4.2
					c-0.9,1.2-0.5,2.2,0.8,2.7c1.1,0.4,2.1,0.3,3.1-0.3c1.2-0.7,2.3-1.5,3.4-2.3c0.7-0.5,1.5-0.9,2.3-1.3c2.7-1,5.4-2,8.3-2.6
					c1.1-0.2,2.2-0.4,3.4-0.3c-0.2,0.3-0.4,0.4-0.7,0.5c-5.7,2.2-11.5,4.5-17.2,6.7c-4.4,1.8-8.7,3.8-12.9,6.2
					c-0.3,0.1-0.5,0.3-0.8,0.4C80.1,228.9,80.3,228.7,80.4,228.5z M120.5,238.4c-3.2,13.5-10.1,24.7-20.8,33.6
					c-3.4,2.8-7.2,5.2-11.1,7.3c-2.3,1.2-4.7,2-7.2,2.6c-1.3,0.3-2.6,0.6-3.9,0.6c-10,0.3-17.5-6.5-19.2-15.7
					c-0.7-3.8-0.3-7.5,1-11.2c1.9-5.1,5.2-9.2,9.2-13.1c0.2,0.9,0.5,1.7,0.7,2.4c0.7,2.7,1.8,5.3,3.1,7.8c0.3,0.5,0.6,1,0.9,1.5
					c0.9,1.3,2.2,1.7,3.7,1.5c1.4-0.2,2.4-1.2,2.6-2.7c0.1-0.8,0.2-1.6,0.2-2.4c0.1-4.7-0.2-9.3-0.5-14c0,0,0-0.1,0-0.1
					c-0.2-2.1-0.1-2.2,1.7-3.3c5.7-3.4,11.7-6.2,17.9-8.5c6.2-2.3,12.3-4.7,18.4-7.1c1.1-0.4,1.1-0.4,1.8,0.4c1.4,1.6,2,3.5,2.4,5.6
					C122,228.5,121.7,233.5,120.5,238.4z M192.8,239.8c-0.1,0.6-0.3,1.2-0.6,1.7c-0.4,0.6-0.8,0.7-1.5,0.4c-0.6-0.2-1-0.7-1.4-1.2
					c-0.6-0.8-0.9-1.7-1-2.6c-0.3-3.1,0.9-5.8,2.4-8.5c0.1,0.2,0.2,0.2,0.2,0.3c0.6,2.3,1.3,4.5,1.7,6.8
					C192.8,237.7,192.9,238.7,192.8,239.8z M196.3,206.4c0-2.3,0.1-4.3,0.6-6.4c0.2-0.8,0.4-1.7,0.6-2.5c0.2-0.9,0.8-1.6,1.5-2.2
					c0.8-0.7,1.6-0.5,2.2,0.3c0.5,0.7,0.6,1.6,0.5,2.4c-0.1,1.1-0.4,2.1-0.9,3.1c-1,1.9-2.4,3.6-4,5
					C196.6,206.3,196.5,206.3,196.3,206.4z M215.5,236.2c-0.2,0.9-0.5,1.7-1,2.4c-0.3,0.5-0.7,0.7-1.3,0.7c-1.2,0-2.1-0.6-2.7-1.6
					c-0.7-1.1-0.9-2.3-0.7-3.5c0.1-0.6,0.3-1.1,0.5-1.7c0.9-2.2,2.7-5,4.3-6.4C215.6,229.5,216.3,232.8,215.5,236.2z M308.2,220
					c-1.1,0.8-2.2,1.6-3.5,2.1c-0.2,0.1-0.4,0.2-0.6,0.1c-0.1-2.5-0.1-4.9,0.4-7.4c0.4-2,0.9-4,1.4-6c0.5-2,1.6-3.6,3.1-5
					c2.1-1.9,4.9-2.4,7.2-1.2c1,0.5,1.7,1.2,2.3,2.1c0.2,0.4,0.3,0.7,0.2,1.1c-0.4,1.3-0.8,2.5-1.2,3.8c-0.1,0.3-0.2,0.6-0.4,0.9
					C314.5,214.1,311.7,217.4,308.2,220z M241.6,270.8c0.3,1.2,0.5,2.3,0.4,3.5c0,2.2-0.4,4.3-1.4,6.2c-0.7,1.4-1.4,2.8-2.5,4
					c-1.1,1.3-2.6,2-4.2,2.4c-2,0.5-3.9-0.6-4.9-2.5c-0.7-1.5-0.8-3.1-0.5-4.7c0.5-2.6,2-4.6,4-6.2c2.3-1.8,4.9-3,7.8-3.5
					C241.4,269.7,241.4,269.7,241.6,270.8z M268.8,288.6c-6.6,5.1-13.6,9.4-21.4,12.5c-3.9,1.5-7.8,2.7-11.9,3.3
					c-6.1,0.8-12.1,0.5-17.7-2.2c-6.2-2.9-10.2-7.7-11.5-14.5c-0.8-4.1-0.4-8.2,1.1-12.1c2.8-7.1,7.7-12.2,14.6-15.2
					c2.6-1.2,5.4-1.6,8.3-1.2c1.2,0.2,2.4,0.6,3.5,1.1c2.5,1.3,4.4,3.3,5.9,5.7c0.1,0.2,0.3,0.4,0.2,0.7c-1.3,0.3-2.5,0.6-3.8,1.1
					c-3.4,1.3-6.3,3.3-8.5,6.3c-2.1,2.9-2.9,6.1-2.2,9.6c0.7,3.3,2.6,5.6,5.7,6.8c2.3,0.9,4.7,1.2,7.1,0.9c2.3-0.2,4.5-0.8,6.6-1.7
					c4.4-1.9,7.1-5.2,8.2-9.9c0.5-2.1,0.6-4.3,0.3-6.4c0-0.2,0-0.3,0-0.6c0.4,0,0.7,0.3,1,0.5c2.1,1.4,3.9,3,5.8,4.7
					c3.3,3.1,6.2,6.4,9.6,9.4c0.1,0.1,0.2,0.2,0.2,0.4C269.6,288.2,269.2,288.4,268.8,288.6z"/>
				<path class="st11" d="M356.9,212.6c-0.6-0.3-1.2-0.5-1.9-0.3c-0.4,0.1-0.7,0.2-1.1,0.4c-3,1.1-5.8,2.6-8.7,4
					c-0.3,0.2-0.6,0.4-1.1,0.4c-0.2-0.7-0.4-1.3-0.6-2c-1.2-4.1-1.9-8.2-1.5-12.5c0.1-1.3,0.1-2.7,0.5-3.9c0.2-0.6,0.4-1.2,0.9-1.5
					c0.8,0.6,1.1,1.1,1.5,2c0.8,2,0.8,4,0.1,6.1c-0.3,1,0,1.7,0.9,2.1c0.9,0.4,1.7,0,2.1-0.9c0.1-0.2,0.2-0.4,0.2-0.6
					c1.1-3.6,0.6-7-1.5-10.1c-2.7-3.9-7.5-4.5-11.1-1.4c-2.4,2.1-3.9,4.8-4.4,8c-0.5,3-0.3,6,0.3,8.9c0.7,3.7,1.5,7.5,2.3,11.2
					c0.2,0.7,0,1.2-0.6,1.6c-1.6,1.3-3.1,2.8-4.4,4.4c-1.4,1.7-2.6,3.4-3.3,5.5c-0.7,2-1,4-0.5,6c0.8,3.9,3.9,6.4,7.9,6.4
					c3.4,0,6.2-1.5,8.6-3.8c3.3-3.2,5-7.2,4.9-11.8c0-3.3-0.6-6.4-1.3-9.6c-0.2-1-0.2-0.9,0.6-1.3c2.4-1.3,5-2.4,7.6-3.4
					c1.2-0.5,2.4-1.1,3.6-1.7C357.9,214.2,357.9,213.2,356.9,212.6z M334.5,239.4c-0.1,0.8-0.3,1.5-0.7,2.2
					c-0.7,1.3-1.9,1.6-3.2,0.9c-1.5-0.9-2.1-2.4-2.3-4c-0.2-1.9,0.2-3.6,1.1-5.2c1.2-2.3,2.9-4.1,4.8-5.8c0.1-0.1,0.2-0.1,0.4,0
					c0,0.6,0.1,1.2,0.1,1.7C334.8,232.6,334.9,236,334.5,239.4z"/>
				<path class="st11" d="M238.6,197.2c3,2,6.2,0.8,7-2.7c0.1-0.4,0.1-0.8,0.2-1.2c0-0.8-0.2-1.6-0.5-2.4c-0.9-2.2-3.5-3.5-5.7-2.9
					c-1.2,0.3-2.2,1-3,2.1c-0.7,0.9-0.7,1.9-0.6,3C236.3,194.8,237.2,196.2,238.6,197.2z"/>
			</g>
		</g>
		<g>
			<path class="st12" d="M211.1,143.2c-1.4-1.5-3.2-1.2-6.7-1.2c-14.4,0.1-12.2-1.1-10.6,5.9c1.4,6.4-0.3,20.8-0.6,24.3
				c-0.5,5.9-0.9,3.8-2.3,5.4c-0.6,0.8-0.5,1.8,0.2,2.3c1.6,1.2,1.5,0.2,9.7,0.6c5.9,0.3,9.3,0.9,7.6-6.6c-0.4-1.7-2.8-2.2-2.6,1.2
				c0.1,0.9,0,1.5-0.2,2.2c-0.7,0-4.4,0-6.3,0c-0.3-3.8-0.3-1.7-0.5-6.4c3.1,0.1,1.2-0.3,2.7,0.9c1.3,1,2.6,0.2,2.7-1.1
				c0.1-2.7,0.2-3.4-0.1-4c-0.5-1.1-1.8-1.2-2.5-0.2c-0.2,0.3-0.3,0.5-0.6,0.8c-1.1-0.1-2-0.1-2.1-0.1c0-12.4,0.4-12.2,0.7-21.5
				c8.9,0,8.1-0.3,9.3,1.8c0.5,0.9,1.4,1.1,2.3,0.6C212.7,147.1,212.3,144.5,211.1,143.2z"/>
			<path class="st12" d="M234.8,160.5c-0.3-5.4-1-12.2-4-16.6c-2-2.9-4.3-2.9-6-1.5c-9.2,7.7-10.6,33.4-11.2,33.8
				c-7.8,4.3,4.8,5.3,5.7,3.1c0.5-1.2-0.9-2.3-2-2.9c1-7,0.8-5.2,0.8-5.7c12.8,0,2,0,11.6-0.2c-0.3,5.3-0.2,4.9-0.5,5.1
				c-4.7,3.3-2.3,5.1-0.1,5.1c0.1,0,2.3,0,2.1,0c2.8,0,7.7,0.4,6.1-2.8C234.4,171.9,236,183,234.8,160.5z M229.7,167.1
				c-3.7,0.4-2.6,0.1-11.1,0.5c2.2-18.2,9-22.3,9.1-22.4C229.7,146.7,229.7,166.7,229.7,167.1z"/>
			<path class="st12" d="M249.7,145.8c1.5-1.5,3.7-0.7,4.6,1c0,0.1,0.1,0.1,0.1,0.1c-4.8,4.4,6.5,4.7,4.9,1
				c-0.4-0.8-1.2-0.9-1.6-1.8c-3.8-9.4-14.1-4.2-15.3,4.8c-1.7,12.4,13.2,10,13.5,18c0.2,5.1-3.8,10.3-8.8,7.6
				c-6.3-3.4,3.1-6.1-5.4-6.9c-2.8-0.3-3.4,2.9-1,3.6c0.3,0.1,0.4,0.5,0.8,1.9l0,0c3.1,9.1,16.2,5.9,19.4-2.2
				C266.5,158.6,238.2,156.9,249.7,145.8z"/>
			<path class="st12" d="M280.5,142.6c-1.5-0.2-5.1-0.5-8-0.5c-2.9-0.1-5.9,0.4-9,0.8c-1.5,0.2-3,0.9-3.1,2.4
				c-0.4,5.6,2.8,4.8,2.8,2c3.4-0.3,0.6-0.2,5.8-0.5c0,0.3,0,1.1,0,5.6c-0.5,22.6,0.5,23.4-1.4,24.7c-1.9,1.2-1.2,3.3,1,3.4
				c3.2,0.1,10.1,0.9,6.7-3.3c-2.1-2.6-0.7-2.9-1-22.8c0-2.2,0-5.8,0.2-8c5.9-0.1,5.4,0.1,5.7,0.1c0.1,0.4,0.2,0.7,0.3,1
				c0.3,0.6,0.4,1.5,1.6,1.5c1.2-0.4,1.2-0.5,1.4-1c0.5-1.3,0.8-2.5,0-4.1C282.9,143.3,281.6,142.7,280.5,142.6z"/>
			<path class="st12" d="M299.4,142c-2.3,0-2,0-3.2,0c-2.9,0.1-3.5-0.2-6.3,0c-1.4,0.1-2.4,0.5-2.4,2c0,1,0.9,2.1,1.3,3.9
				c1.5,6.7-0.4,22.1-0.7,25.1c-0.5,5.6-2.9,3.7-2.6,5.9c0.2,1.7,2.5,1.7,4.1,1.6c2.5-0.3,6.9,0.2,10.8,0.2c5,0,3.2-6.9,2.7-7.4
				c-0.9-1.1-2.2-0.5-2.3,0.7c0,1.4,0.2,1.7-0.2,3.5c-0.8,0-4.2,0-6.3,0c-0.3-3.5-0.3-2.1-0.5-6.4c1.8,0.1,1.9-0.2,2.1,0.2
				c0.3,0.6,1.3,1.4,2.2,1c1.4-0.6,1.9-6.2-0.3-6.4c-1-0.1-1.4,0.9-1.9,1.5c-1.1-0.1-2-0.1-2.1-0.1c0-9.4,0.6-18.8,0.7-21.5
				c2.4,0,4.4-0.1,6.6,0c0.5,0,2,0.3,2.2,0.8l0.1,0.3c1.4,3,3.6,1.3,3.7-0.3c0.1-1.2-0.3-2.4-1.1-3.2
				C304.6,141.6,302.9,141.9,299.4,142z"/>
			<path class="st12" d="M328,176.8c-1.3-1-1.2-2.1-1.5-3.1c-0.9-4.2-3.3-7.5-7.1-9.6c12.3-6.3,7.9-22.3-2.4-22.2
				c-0.9,0-1.7,0-2.6,0c-1-0.1-2.1-0.2-3.1-0.2c-1.1,0-2.3,0.3-2.6,1.4c-0.2,0.9,0.3,1.5,1,2.1l0.2,0.2c0.9,0.8,1.8,26,1.3,29.6
				c-0.4,3.2-2.7,2.7-1.7,4.7c0.8,1.6,2.6,0.5,7.4,0.4c1.2,0,1.9-1.3,1.3-2.3c-0.5-1-2.5-1.2-2.4-11.1c3.9,1.1,7.5,9.1,5.3,11.2
				c-3.2,3,7.4,3.5,8.1,1.3C329.4,178.7,328.7,177.4,328,176.8z M315.7,145.7c1.7,0.3,2.9-0.4,4.4,1.4c3.9,4.7,3.4,11.2-4.5,15.1
				C315.6,155.9,316.1,152.1,315.7,145.7z"/>
		</g>
	</g>
	<path class="st20" d="M363.1,154.9c1.1-0.2,2.2-0.3,3.4-0.1c3.1,0.5,5.6,1.9,7.6,4.3c2.5,2.9,3.9,6.3,4,10.1
		c0.2,6.2-4,11.7-10.5,12.5c-6.1,0.8-10.7-3.4-11.6-7.7c-0.7-3.3-0.2-6.3,2.5-8.7c1.5-1.3,3.2-1.7,5.1-1.1c0.8,0.2,1.5,0.7,2,1.4
		c0.6,0.8,0.3,1.7-0.8,1.9c-0.6,0.1-1.2-0.1-1.7-0.4c-0.7-0.5-1.2-0.4-1.9,0.2c-0.8,0.7-1.3,1.5-1.5,2.5c-0.5,2.3,0.2,4.3,1.9,5.8
		c0.8,0.7,1.7,0.8,2.7,0.4c0.6-0.3,1.1-0.6,1.6-1.1c2.6-2.6,4.2-5.6,4.7-9.2c0.1-0.8,0-1.5-0.2-2.2c-0.3-1.3-0.9-2.5-1.6-3.6
		c-0.7-1-1.7-1.6-3-1.7c-1.7-0.1-3.3,0.1-4.8,0.7c-0.4,0.2-0.7,0.4-1,0.7c-3.3,3.8-7.5,6.1-12.2,7.4c-2.9,0.8-5.8,1.5-8.8,1.8
		c-2.6,0.2-5.1,0.1-7.6-0.7c-0.8-0.3-1.6-0.6-2.2-1.2c-0.6-0.5-0.9-1.1-0.7-1.6c0.2-0.5,0.8-0.8,1.7-0.6c1.3,0.3,2.5,0.5,3.8,0.7
		c3.6,0.4,7-0.3,10.4-1.1c2.4-0.6,4.8-1.4,7-2.5c4.1-2.1,7.1-5.3,9.2-9.4c1.5-3,1.9-6.2,0.9-9.4c-1-3.3-4.1-5.7-7.5-5.9
		c-1.3-0.1-2.4,0.3-3.5,0.9c-0.8,0.5-1.5,1.1-2.1,1.8c-2.7,3.4-4.1,7.3-4,11.7c0.1,1.6,0.8,2.6,2.1,3.4c0.7,0.4,1.4,0.4,2-0.1
		c0.7-0.5,1.2-1.1,1.5-1.9c0.2-0.5,0.5-1,0.8-1.4c0.4-0.7,1-0.8,1.8-0.6c0.8,0.3,1.3,1,1.2,1.7c-0.5,3.4-4.5,6.4-7.9,5.7
		c-4.2-0.8-6.9-3.3-8.2-7.4c-0.7-2.4-0.6-4.9,0-7.3c1-3.8,3-6.9,6.1-9.3c3-2.3,6.3-3,9.9-2c5.5,1.5,9.4,4.8,11,10.3
		c1.2,3.9,0.5,7.8-1.1,11.4c-0.1,0.3-0.3,0.6-0.4,0.8C363.1,154.7,363.1,154.8,363.1,154.9z"/>
	<path class="st20" d="M167.8,140.3c0-1,0-2.1,0.2-3.1c0.6-3.8,2-7.2,4.5-10c2-2.4,4.6-3.9,7.7-4.2c1.7-0.2,3.3,0.1,4.8,0.7
		c4.3,1.7,7.2,4.6,8.5,9c1.1,3.7-0.1,7.4-3,9.4c-2.7,2-5.8,2.2-8.8,0.9c-2.9-1.2-4.4-4.3-3.6-7.2c0.1-0.5,0.3-1,0.6-1.4
		c0.6-0.7,1.5-0.9,2.4-0.5c0.8,0.4,1,1,0.6,1.8c-0.1,0.2-0.3,0.5-0.4,0.7c-0.4,1.1-0.1,2.3,0.9,3c0.7,0.5,1.3,0.5,1.8-0.2
		c0.2-0.2,0.4-0.5,0.5-0.8c1.3-3.2,1.4-6.4-0.3-9.5c-1.1-2-2.9-2.7-5.1-2c-2,0.6-3.5,1.8-4.7,3.5c-1.5,2.1-2.4,4.4-2.7,7
		c-0.8,5.2,0.8,9.6,4.2,13.5c1.8,2.1,4,3.8,6.4,5.2c1,0.6,2,1.3,3,1.9c0.5,0.4,1.1,0.8,1,1.5c-0.2,0.8-0.8,1.1-1.6,1.3
		c-1.2,0.2-2.4,0-3.5-0.5c-1.8-0.8-3.3-1.9-4.7-3.2c-3.3-2.9-5.9-6.4-7.5-10.6c-0.2-0.5-0.4-0.9-0.8-1.3c-2.8-3.3-6.3-5.1-10.6-5
		c-3.1,0-5.7,1.9-6.5,4.7c-0.3,1.1-0.4,2.2-0.2,3.3c0.5,2.6,1.6,4.9,3.7,6.5c1.6,1.3,3.7,1.2,5.5-0.1c1.5-1.2,2.1-3.3,1.3-5.1
		c-0.1-0.3-0.3-0.5-0.5-0.8c-0.6-0.8-0.9-0.8-1.6-0.2c-0.4,0.3-0.8,0.4-1.3,0.4c-0.8,0-1.4-0.3-1.7-1.1c-0.3-0.6,0-1.4,0.6-1.9
		c0.7-0.6,1.5-0.9,2.4-0.9c2.9-0.2,5.5,1.9,6,4.7c0.4,2.5-0.2,4.7-2,6.6c-3.1,3.3-7.7,4.3-11.9,2.7c-4.3-1.6-7.1-5.4-7.2-10
		c-0.2-5.3,3-9.7,8.2-11.4c4-1.4,7.9-0.9,11.7,0.7c1,0.4,2,0.9,3,1.6C167.2,140.1,167.4,140.3,167.8,140.3z"/>
</g>
</svg>
