<?xml version="1.0" encoding="utf-8"?>
<!-- Generator: Adobe Illustrator 21.1.0, SVG Export Plug-In . SVG Version: 6.00 Build 0)  -->
<svg version="1.1" id="Calque_1" xmlns="http://www.w3.org/2000/svg" xmlns:xlink="http://www.w3.org/1999/xlink" x="0px" y="0px"
	 viewBox="0 0 432 432" style="enable-background:new 0 0 432 432;" xml:space="preserve">
<style type="text/css">
	.st0{fill:#3B4F20;}
	.st1{fill:#8CB225;}
	.st2{fill:#020203;}
	.st3{fill:#4A5C2D;}
	.st4{fill:#FFFFFF;}
	.st5{fill:#E2CF1B;}
	.st6{fill:#718A2A;}
	.st7{fill:#DFBB20;}
	.st8{fill:#EAC839;}
	.st9{fill:#1B1B1B;}
	.st10{fill:#8EC045;}
	.st11{fill:#066938;}
	.st12{fill:#E5AD30;}
	.st13{fill:#4E4D4D;}
	.st14{fill:#8BB226;}
	.st15{fill:#CD1A25;}
	.st16{fill:#4B6426;}
	.st17{fill:#7D9E3C;}
	.st18{fill:#3C4F20;}
	.st19{fill:#384A1F;}
	.st20{fill:#E7E6E6;}
	.st21{fill:#D4A624;}
	.st22{fill:#F7F0E3;}
	.st23{fill:#D2A206;}
	.st24{fill:#CE9835;}
	.st25{fill:#E5D9C2;}
	.st26{fill:#E2AE42;}
	.st27{fill:#EEDBBE;}
	.st28{fill:#F9EA31;}
	.st29{fill:#EB6518;}
	.st30{fill:#0A7132;}
	.st31{fill:#FFE109;}
	.st32{fill:#D76013;}
	.st33{fill:#BBA763;}
	.st34{fill:#7FA22A;}
	.st35{fill:#5B321B;}
	.st36{fill:#4A2615;}
	.st37{fill:#D6AD08;}
	.st38{fill:#F7BBBD;}
	.st39{fill:#D76324;}
	.st40{fill:#607829;}
	.st41{fill:#715C3B;}
	.st42{fill:#644F34;}
	.st43{fill:#89704C;}
	.st44{fill:#B2A38F;}
	.st45{fill:#A59076;}
	.st46{fill:#FFDE0D;}
	.st47{fill:#34AA4A;}
	.st48{fill:#75388D;}
	.st49{fill:#BBBBBB;}
	.st50{fill:#A9A9AA;}
	.st51{fill:#06993B;}
	.st52{fill:#CDCCCC;}
	.st53{fill:#4D2563;}
	.st54{fill:#E3B320;}
	.st55{fill:#0B9541;}
	.st56{fill:#264D23;}
	.st57{fill:#FDC834;}
	.st58{fill:#8C633A;}
	.st59{fill:#B5A059;}
	.st60{fill:#F2F2F2;}
	.st61{fill:#808181;}
	.st62{fill:#62A930;}
	.st63{fill:#A1C746;}
	.st64{fill:#85B04B;}
	.st65{fill:#5E802C;}
	.st66{fill:#BFD783;}
	.st67{fill:#EFC9AF;}
	.st68{fill:#343434;}
	.st69{fill:#EB5B28;}
	.st70{fill:#D1A98D;}
	.st71{fill:#E0A9B8;}
	.st72{fill:#754D24;}
	.st73{fill:#B2D17B;}
	.st74{fill:#62B338;}
	.st75{fill:#274E22;}
	.st76{fill:#CCDC81;}
	.st77{fill-rule:evenodd;clip-rule:evenodd;fill:#85B04B;}
	.st78{fill:#509733;}
	.st79{fill:#203F1E;}
	.st80{fill:#20963A;}
	.st81{fill:#62246B;}
	.st82{fill:#FDCA02;}
	.st83{fill:#B4CD50;}
	.st84{fill:#5C792A;}
	.st85{fill:#C29347;}
	.st86{fill:#4D5C22;}
	.st87{fill:none;}
	.st88{fill:#E19C11;}
	.st89{fill:#E5C997;}
	.st90{fill:#009245;}
	.st91{fill:#48AE4D;}
	.st92{fill:#049348;}
	.st93{fill:#04683B;}
	.st94{fill:#F8AE4C;}
	.st95{fill:#C57B39;}
	.st96{fill:#231F20;}
	.st97{fill:#BC2333;}
	.st98{fill:#EF7A7B;}
	.st99{fill:#46AE51;}
	.st100{fill:#07924B;}
	.st101{fill-rule:evenodd;clip-rule:evenodd;fill:#231F20;}
	.st102{fill:#279A9A;}
	.st103{fill:#8E3189;}
	.st104{fill:#9F6E8E;}
	.st105{fill:#3C3C3B;}
	.st106{fill:#00A69C;}
	.st107{fill:#D5DB41;}
	.st108{fill:#E04542;}
	.st109{fill:#9F1F3B;}
	.st110{fill:#EB5C35;}
	.st111{fill:#F9B233;}
	.st112{fill:#008D36;}
	.st113{fill:#F39200;}
	.st114{fill:#F2D8BD;}
	.st115{fill:#3AAA35;}
	.st116{fill:#95C11F;}
	.st117{fill:#7F5FA5;}
	.st118{fill:#5FA55F;}
	.st119{fill:#A55F8F;}
	.st120{fill:#229538;}
	.st121{fill:#622369;}
	.st122{fill:#FCC804;}
	.st123{fill:#628FB8;}
	.st124{fill:#B2B2B2;}
	.st125{fill:#63B8A4;}
	.st126{fill:#FDCE6C;}
	.st127{fill:#C8DADC;}
	.st128{fill:#ED6B6E;}
	.st129{fill:#EC6365;}
	.st130{fill:#8FC14D;}
	.st131{fill:#FECE6C;}
	.st132{fill:#037132;}
	.st133{fill:#B5CD25;}
	.st134{fill:#137E35;}
	.st135{fill:#7DBA28;}
	.st136{fill:#50AE32;}
	.st137{fill:#04612D;}
	.st138{fill:#F0828B;}
	.st139{fill:#63348B;}
	.st140{fill:#CF75AC;}
	.st141{fill:#895B7E;}
	.st142{fill:#AD94C4;}
	.st143{fill:#C581AB;}
	.st144{fill:#D1BAB0;}
	.st145{fill:#EF7B7C;}
	.st146{fill:#F7C0C2;}
	.st147{fill:#4F1C31;}
	.st148{fill:#9C3760;}
	.st149{fill:#A8768F;}
	.st150{fill:#A04170;}
	.st151{fill:#6CB863;}
</style>
<g>
	<g>
		<g>
			<path d="M272.2,183c0.1,4.2,0.3,8.4,1.9,12.3c0.7,0.1,1.3-0.1,1.7-0.5c0.9-0.7,1.8-1.4,2.5-2.3c1.2-1.5,2.2-3.1,3.3-4.6
				c0.2-0.2,0.3-0.6,0.2-0.9c-0.7-3.4-0.1-6.8,0.8-10.1c1.1-3.8,2.8-7.3,5.5-10.2c2.4-2.6,5.3-4.6,8.7-5.6c0.9-0.3,1.8-0.4,2.7-0.4
				c2.5-0.1,4.4,1,5.7,3.1c1.6,2.4,1.7,5,0.6,7.6c-1.5,3.7-4.2,6.3-8.1,7.6c-1,0.3-2.1,0.3-3.2,0.5c-0.2,0-0.4,0-0.8,0
				c-0.2,1.3-0.4,2.6-0.5,3.9c-0.1,1.2-0.1,2.5-0.1,3.7c0,0.8,0.2,1.7,0.5,2.4c0.8,2.1,2.4,3.3,4.6,3.6c1.2,0.1,2.3,0,3.5-0.4
				c2-0.7,3.9-1.7,5.6-3c2.5-1.8,4.8-3.7,7.2-5.5c0.4-0.3,0.8-0.5,1.2-0.7c0.4-0.2,0.7,0,1,0.2c0.3,0.3,0.4,0.6,0.2,1
				c-0.2,0.4-0.4,0.7-0.7,1c-0.3,0.3-0.6,0.6-0.9,0.9c-2.7,2.2-5.4,4.4-8.2,6.5c-2.6,1.8-5.4,3.4-8.5,4.3c-2.4,0.7-4.9,1-7.4,0.3
				c-3.5-1-5.9-3.2-7.5-6.3c-0.1-0.2-0.2-0.4-0.4-0.7c0,0-0.1,0-0.2-0.1c-0.2,0.3-0.4,0.6-0.6,1c-1,1.5-1.9,3-2.9,4.5
				c-1.3,1.8-2.9,3.1-4.7,4.4c-0.5,0.3-1,0.6-1.5,0.8c-1.7,0.8-3.4,0.8-5.1,0c-3.5-1.7-5.9-4.4-7.2-8.1c-0.1-0.2-0.2-0.5-0.2-0.7
				c0,0,0,0-0.1-0.1c-0.1,0.2-0.2,0.5-0.3,0.7c-0.6,1.6-1.1,3.2-1.9,4.7c-0.7,1.4-1.5,2.8-2.3,4.1c-0.3,0.6-0.8,1-1.3,1.5
				c-1.2,1-2.5,1.2-4,0.7c-1.6-0.6-2.7-1.7-3.5-3.2c-0.8-1.5-1.3-3.1-1.6-4.8c-0.4-2.7-0.4-5.3-0.1-8c0.2-2.5,0.5-5.1,0.8-7.6
				c0.3-2.4,0.8-4.7,1.5-7c0.1-0.2,0.1-0.4,0.1-0.7c-1.9,1-3.8,2-5.9,2.3c-0.9,7.9-4.4,14.7-8.9,21.1c0-0.1,0,0,0,0
				c1.7,3.4,2.7,6.9,2.9,10.7c0.2,3.6-0.1,7.1-1.3,10.6c-0.6,1.7-1.5,3.4-2.7,4.8c-1,1.2-2.1,2-3.6,2.5c-1.7,0.5-3.4,0.1-4.9-0.7
				c-1.3-0.7-2.3-1.8-3.2-2.9c-1.7-2.2-2.8-4.7-3.6-7.3c-0.9-2.7-1.4-5.4-1.8-8.2c0-0.1,0-0.2-0.1-0.3c-0.1-0.1-0.2-0.1-0.3-0.2
				c-3.1-1.2-4.8-4.2-4.2-7.5c0.4-2.5,1.5-4.7,3.5-6.4c0.3-0.3,0.3-0.5,0.3-0.9c0.1-2.1,0.2-4.2,0.3-6.3c0-0.5,0.1-1,0.1-1.6
				c-0.4,0.2-0.6,0.4-0.9,0.6c-1.4,0.9-2.9,1.7-4.5,2.1c-0.4,0.1-0.8,0.1-1.2,0.1c-0.2,0-0.4-0.3-0.5-0.5c-0.1-0.3,0.1-0.5,0.4-0.6
				c0.2-0.1,0.4-0.1,0.5-0.2c2.2-0.8,4.1-2.1,5.9-3.5c0.3-0.2,0.5-0.5,0.5-0.9c0.4-5.1,1.1-10.2,2-15.3c0.4-2.3,0.9-4.6,1.9-6.8
				c0.5-1.2,1.2-2.4,1.9-3.5c0.4-0.7,1-1.3,1.7-1.7c1.5-1.1,3.2-0.8,4.4,0.7c0.6,0.7,0.9,1.6,1.2,2.5c0.5,2,0.4,3.9,0,5.9
				c-0.8,4.7-2.8,8.9-5.5,12.8c-0.3,0.5-0.5,1-0.5,1.6c0,4.1,0.3,8.1,0.7,12.2c0,0.1,0,0.3,0.1,0.4c4.1,0.4,6.9,2.7,9.2,5.9
				c2.9-2.5,7.4-12.8,7.9-18.1c-0.4,0-0.9,0.1-1.3,0.1c-1,0-2,0-2.9-0.2c-3.8-0.9-5.6-4.4-4.8-8c0.6-2.5,2.1-4.2,4.7-4.7
				c2.1-0.4,3.9,0.3,5.1,2.1c0.9,1.3,1.3,2.8,1.5,4.3c0.1,0.9,0.1,1.8,0.2,2.8c0.3-0.1,0.6-0.2,0.8-0.3c2.4-1,4.6-2.4,6.7-3.9
				c1.2-0.8,2.4-1.6,3.6-2.3c0.7-0.4,1.5-0.6,2.3-0.8c1.8-0.4,3.3,0.4,4,2c0.6,1.3,0.6,2.6,0.3,3.9c-0.5,2.8-1.3,5.5-2.1,8.3
				c-1.1,3.9-2.1,7.9-2.8,11.9c-0.4,2.1-0.6,4.3-0.1,6.4c0,0.1,0,0.1,0.1,0.3c0.3-0.2,0.4-0.5,0.5-0.8c1.1-2.7,2.2-5.4,3.1-8.1
				c0.9-2.5,1.5-5,2.3-7.5c1.1-3.8,2.9-7.3,5.5-10.4c0.7-0.9,1.6-1.7,2.5-2.5c1.2-1,2.6-1.6,4.1-1.7c2.1-0.1,3.7,0.9,4.5,2.9
				c0.7,1.7,0.8,3.5,0.4,5.3c-0.8,3.5-2.6,6.1-5.9,7.6C272.4,182.9,272.4,182.9,272.2,183z M226.2,202.7c0,0,0,0.1,0,0.1
				c1.4,3.2,2.8,6.4,4.2,9.6c0.3,0.6,0.7,1.2,1.1,1.8c0.3,0.4,0.6,0.7,1.1,1.1c0.3-0.5,0.5-0.8,0.6-1.1c0.2-0.9,0.4-1.8,0.6-2.7
				c0.6-4.3-0.2-8.5-2-12.5c-0.1-0.2-0.2-0.4-0.3-0.6C229.6,199.9,227.9,201.2,226.2,202.7z M294.5,176.7c0.5-0.1,0.8-0.1,1.2-0.2
				c2.9-0.6,4.7-2.4,5.9-5c0.5-1.1,0.7-2.4,0.3-3.6c-0.3-1.3-1.4-1.8-2.5-1c-1.2,0.8-2.2,1.8-2.8,3.2
				C295.7,172.2,295.1,174.4,294.5,176.7z M225.8,155.1c-0.6,0.3-0.9,0.8-1.1,1.2c-0.9,1.4-1.3,2.9-1.6,4.5
				c-0.6,3.3-0.7,6.5-0.8,9.8c0,0.1,0,0.3,0.1,0.6c0.2-0.3,0.3-0.5,0.4-0.7c0.7-1.6,1.6-3.2,2.2-4.9c0.9-2.4,1.5-5,1.4-7.6
				C226.4,157.1,226.3,156.1,225.8,155.1z M223.4,190.7c0.4,3.3,1,6.4,1.9,9.5c1.9-1,3.5-2.3,5-3.6c0-0.1,0-0.2,0-0.2
				c-1.5-2.2-3.3-4.1-5.7-5.3C224.2,191,223.8,190.9,223.4,190.7z M272,180.7c0.4-0.3,0.7-0.4,1-0.6c2.1-1.5,3.1-3.7,3.3-6.2
				c0.1-1.1-0.1-2.2-0.7-3.1c-0.4-0.6-0.8-0.7-1.4-0.3c-0.2,0.2-0.5,0.5-0.6,0.8c-0.3,0.5-0.5,1.1-0.7,1.7
				C272.2,175.4,272.1,178,272,180.7z M238.7,166.7c-1,0.8-1.6,2.4-1.2,3.6c0.3,1.2,1.4,2.1,2.9,2.3
				C240.2,170.5,240.1,168.4,238.7,166.7z M214.9,202.2c-0.1-2-0.2-4-0.3-6.1C213,198.4,213.4,201.5,214.9,202.2z"/>
			<path d="M131.6,173.4c0.2-0.6,0.4-1,0.6-1.4c1.6-4,4-7.4,7.4-10.1c1.2-1,2.6-1.8,4.2-2.1c2.1-0.4,3.9,0.4,5,2.3
				c0.6,1.1,0.9,2.4,1,3.7c0.2,2.6,0,5.2-0.2,7.8c-0.4,4.9-0.6,9.8-0.3,14.7c0.1,1.4,0.3,2.9,0.4,4.3c0.5,0,0.6-0.3,0.8-0.6
				c0.5-0.8,1-1.6,1.4-2.4c1.1-2.4,1.8-4.9,2.4-7.4c0.4-1.7,0.7-3.4,1.2-5.1c0.3-1,0.6-2,1-3c0.5-1.3,1.4-2.1,2.6-2.7
				c1.3-0.6,2.6-0.9,4-0.8c1.4,0.1,2.3,0.8,3,2c0.5,1,0.8,2.1,1,3.2c0.4,2.5,0.7,5,1.1,7.5c0.1,0.8,0.3,1.6,0.5,2.5
				c0.5-0.1,0.6-0.4,0.8-0.7c0.7-1.1,1.2-2.3,1.6-3.6c0.7-2.6,1-5.2,1.1-7.9c0.1-1.3,0.2-2.5,0.3-3.8c0.1-0.6,0.3-1.2,0.6-1.7
				c0.9-1.6,2.4-2.8,4-3.6c1.2-0.6,2.5-0.3,3.5,0.5c0.6,0.5,1.2,1.2,1.7,1.9c0.8,1.2,1.3,2.6,1.8,4c1.8,5.3,3.1,10.7,4.2,16.2
				c0.2,0.8,0.3,1.7,0.5,2.6c0.3-0.3,0.5-0.5,0.7-0.7c1.6-1.8,3-3.6,4.8-5.1c0.6-0.6,1.3-1.1,2-1.6c0.2-0.2,0.5-0.3,0.8-0.4
				c0.5-0.2,1.1-0.1,1.5,0.3c0.4,0.4,0.5,1,0.3,1.5c-0.2,0.5-0.6,0.9-0.9,1.3c-2.4,2.5-4.8,5.1-7.2,7.6c-1.1,1.2-1.1,1.2-0.8,2.8
				c0.5,3.5,1,7.1,0.9,10.6c-0.2,5.6-1.3,10.9-3.8,15.9c-0.6,1.2-1.3,2.4-2.3,3.4c-0.7,0.7-1.6,1.3-2.6,1.5
				c-1.2,0.3-2.5,0.4-3.8,0.1c-1.4-0.4-2.4-1.3-3.2-2.5c-0.8-1.3-1.1-2.8-1.3-4.3c-0.6-3.6,0.2-6.9,1.5-10.2c1-2.6,2.3-5,3.8-7.4
				c0.3-0.5,0.4-1,0.3-1.6c-0.7-2.7-1.4-5.4-2-8.1c-0.8-3.6-1.5-7.2-2.2-10.8c0-0.1,0-0.2-0.1-0.4c-0.1,0.2-0.2,0.4-0.3,0.5
				c-0.6,1.5-1.2,3-1.9,4.4c-0.7,1.5-1.7,2.8-2.9,3.9c-1.3,1.1-2.8,1.8-4.6,1.7c-1.5-0.1-2.8-0.7-3.9-1.6c-1.2-1-2-2.2-2.6-3.6
				c-0.7-1.5-1.1-3.1-1.3-4.7c0-0.3-0.1-0.6-0.3-1c-0.1,0.3-0.2,0.5-0.3,0.8c-0.9,2.8-1.7,5.6-2.7,8.4c-0.5,1.5-1.3,2.9-2,4.3
				c-0.4,0.7-0.9,1.3-1.4,1.8c-1.5,1.5-3.3,1.6-5,0.4c-0.9-0.6-1.6-1.5-2.2-2.4c-1-1.7-1.6-3.5-2-5.4c-0.6-3.2-0.5-6.3-0.3-9.5
				c0.2-3.2,0.5-6.4,0.8-9.7c0.1-0.8,0-1.7-0.1-2.6c0-0.2-0.1-0.4-0.1-0.6c-0.2-0.7-0.5-0.9-1.2-0.5c-0.5,0.3-1,0.7-1.5,1.1
				c-1.1,1-1.9,2.2-2.6,3.4c-1.7,2.8-2.8,5.8-3.6,9c-0.4,1.7-0.8,3.3-1.2,5c-0.1,0.4-0.2,0.8-0.5,1.1c-0.6,0.9-1.8,1-2.4,0.1
				c-0.3-0.4-0.6-1-0.8-1.5c-0.8-2.5-1.5-5-2.3-7.5c-0.5-1.7-1-3.4-1.6-5c-0.3-0.8-0.7-1.6-1.2-2.3c-0.7-0.9-1.4-1-2.2-0.3
				c-0.3,0.2-0.6,0.5-0.8,0.8c-2,2.7-3.3,5.7-3.9,8.9c-0.3,1.8-0.5,3.6-0.7,5.3c-0.2,1.6-0.4,3.2-0.7,4.7c-0.2,1.3-0.9,2.3-2.3,2.6
				c-1.5,0.3-2.8,0-3.8-1.2c-0.5-0.6-0.9-1.4-1.2-2.2c-1.1-2.9-2.1-5.8-3-8.8c-1-2.9-1.6-5.9-2-8.9c-0.1-1.1-0.2-2.3,0.1-3.4
				c0.4-1.4,1.2-2.3,2.6-2.6c1.3-0.3,2.6-0.6,3.9-0.3c1.8,0.4,2.9,1.3,3.5,3.1c0.6,2.1,1,4.3,1.2,6.5c0.1,0.6,0.1,1.3,0.2,2
				c0.3-0.2,0.3-0.5,0.4-0.8c0.7-2.2,1.6-4.3,2.8-6.3c0.9-1.5,2-2.8,3.5-3.8c1.6-1.1,3.2-1.2,4.9-0.5c1.4,0.6,2.5,1.6,3.4,2.9
				c1,1.4,1.8,3,2.5,4.6C131.2,172.6,131.4,172.9,131.6,173.4z M179.8,207c-0.2,0.2-0.2,0.2-0.2,0.3c-1.2,2.4-2.3,4.8-3,7.4
				c-0.4,1.7-0.7,3.4-0.7,5.2c0.1,1.4,0.4,2.7,1.2,3.9c0.7,1,1.9,1.1,2.8,0.2c0.3-0.4,0.7-0.9,0.8-1.3c0.2-0.9,0.4-1.8,0.4-2.8
				c0.2-3-0.3-6-0.7-8.9C180.2,209.6,180,208.4,179.8,207z"/>
		</g>
		<g>
			<path d="M163,117.9c0.2-0.7,0.4-1.3,0.6-2c1.8-5.7,4.5-10.9,8.3-15.5c1.2-1.4,2.5-2.8,4.1-3.9c1.3-0.9,2.8-1.6,4.4-1.6
				c1.9,0,3.4,0.7,4.5,2.2c1.1,1.4,1.6,3,1.9,4.7c0.5,3,0.6,6,0.3,9.1c-0.5,6-1.2,11.9-1.7,17.9c-0.3,3.6-0.5,7.1-0.2,10.7
				c0.2,1.9,0.5,3.7,1.2,5.5c0.1,0.4,0.3,0.8,0.5,1.1c0.4,0.8,1.2,0.8,1.7,0c0.2-0.3,0.3-0.7,0.4-1c0.2-1.3,0.5-2.6,0.7-3.9
				c0.3-2.7,0.4-5.5,0.7-8.2c0.1-1.2-0.2-2.4-0.4-3.5c-1-5.2-0.2-10.2,2-14.9c1.1-2.4,2.7-4.4,5-5.9c1.3-0.8,2.6-1.3,4.1-1.3
				c1.4,0,2.5,0.6,3.3,1.7c1,1.4,1.6,3,1.9,4.7c0.4,2,0.4,4.1-0.1,6.1c-0.9,3.1-2.2,5.8-5,7.7c-0.1,0-0.1,0.1-0.2,0.2
				c0,0.1,0.1,0.3,0.1,0.5c0.5,1.3,1.1,2.5,2,3.6c0.3,0.4,0.6,0.8,1,1.1c0.9,0.7,1.9,0.9,3,0.5c0.9-0.4,1.7-1,2.4-1.7
				c1.4-1.5,2.5-3.2,3.5-5c1.5-2.6,2.6-5.5,3.5-8.4c1.2-4.1,1.9-8.3,2.4-12.6c0-0.3,0-0.6,0-0.9c0-0.1,0-0.3,0-0.5
				c-0.3,0.1-0.5,0.2-0.8,0.3c-1.5,0.5-3,0.9-4.5,0.7c-2.2-0.2-3.8-1.3-4.9-3.2c-0.9-1.5-1.2-3.2-1.1-4.9c0.1-2.3,0.7-4.5,2.2-6.3
				c0.6-0.7,1.2-1.3,1.9-1.8c1.5-1,3.1-1,4.6-0.2c1.1,0.6,2,1.5,2.8,2.5c1.5,2,2.2,4.3,2.6,6.7c0,0.3,0.1,0.5,0.2,0.9
				c0.3-0.2,0.6-0.4,0.8-0.6c2.1-1.6,4.3-3.1,6.6-4.4c1.6-0.9,3.3-1.6,5-2.1c1.4-0.4,2.8-0.6,4.3-0.3c1.3,0.3,2.3,1,3.1,2
				c1,1.4,1.3,3,1.5,4.6c0.3,2.4,0.1,4.9-0.2,7.3c-0.6,5.2-1.3,10.5-1.8,15.7c-0.6,5.5-0.7,11.1-0.4,16.6c0,0.1,0,0.1,0.1,0.3
				c0.2-0.3,0.4-0.6,0.5-0.8c1.5-2.7,2.5-5.6,3.3-8.5c0.7-2.2,1.3-4.4,1.9-6.6c0.1-0.4,0.2-0.9,0.2-1.4c0.1-4.1,0.9-8,2.8-11.6
				c1.1-2,2.4-3.9,4.1-5.4c1.4-1.2,2.9-2.1,4.7-2.5c2.3-0.4,4.3,0.2,5.8,2c1.2,1.4,1.9,3,2.2,4.8c0.6,3.4,0.3,6.7-1.3,9.7
				c-1,1.9-2.4,3.6-4.3,4.7c-0.1,0-0.1,0.1-0.2,0.2c0,0.1,0,0.2,0,0.3c0.5,1.5,0.9,3.1,1.5,4.6c0.5,1.2,1.2,2.2,2.3,3
				c1.1,0.7,1.8,0.8,2.9,0c0.7-0.6,1.4-1.3,2-2c1.4-1.9,2.8-3.8,4.2-5.6c0.6-0.7,1.1-1.5,1.8-2.2c0.4-0.5,0.9-1,1.5-1.3
				c1-0.6,2,0,2,1.1c0,0.5-0.1,1-0.3,1.4c-0.4,0.9-0.9,1.8-1.5,2.6c-1.9,2.7-4,5.3-6.2,7.7c-0.5,0.6-1.1,1.2-1.6,1.8
				c-1.3,1.4-2.7,2.7-4.3,3.8c-1.5,1-3.2,1.6-5,1.8c-2.1,0.2-4.1-0.4-5.9-1.6c-2.6-1.8-4.4-4.3-5.6-7.2c-0.3-0.8-0.6-1.7-0.9-2.7
				c-0.1,0.3-0.2,0.4-0.3,0.6c-0.8,2.3-1.5,4.7-2.4,7c-0.6,1.7-1.4,3.2-2.5,4.7c-1,1.3-2.1,2.3-3.7,2.8c-1.3,0.5-2.6,0.3-3.8-0.4
				c-1.4-0.8-2.4-2.1-3.1-3.6c-1-2.1-1.6-4.3-1.9-6.7c-0.5-3.4-0.3-6.7,0-10.1c0.6-6.6,1.9-13.1,3.2-19.6c0.2-1.3,0.4-2.6,0.4-3.9
				c0-1.6-0.4-1.9-1.9-1.5c-1.1,0.3-2.2,0.7-3.2,1.2c-2.1,1.1-4.1,2.3-6.1,3.5c0,0.2-0.1,0.4-0.1,0.5c0,7.2-1.5,14.1-4.2,20.8
				c-0.8,2-1.5,3.9-2.4,5.8c-1,2.1-2.1,4.2-3.5,6.1c-2.3,3-5.2,5-8.8,5.9c-1.9,0.4-3.7,0.3-5.5-0.4c-1-0.4-1.9-0.9-2.8-1.4
				c-1-0.5-1.7-1.3-2.3-2.2c-0.1-0.3-0.3-0.5-0.6-0.9c-0.1,0.8-0.2,1.3-0.2,1.9c-0.2,2.5-0.5,5.1-1.3,7.5c-0.3,0.9-0.7,1.8-1.3,2.6
				c-1.2,1.5-3,1.9-4.8,1c-1.7-0.8-2.9-2.1-3.9-3.6c-1.5-2.4-2.5-5-3.2-7.8c-1.1-4.1-1.7-8.3-2.1-12.5c-0.4-4.9-0.3-9.8,0-14.7
				c0.1-1.4,0-2.8-0.1-4.1c0-0.2-0.1-0.5-0.2-0.7c-0.3-0.7-0.7-0.9-1.3-0.4c-0.9,0.7-1.7,1.5-2.3,2.5c-1.9,2.8-3.3,5.9-4.2,9.1
				c-0.8,2.6-1.3,5.3-1.4,8c-0.1,2-0.1,4-0.1,6c0,0.9,0,1.8-0.1,2.7c-0.1,1.2-0.8,2.2-1.9,2.7c-1.7,0.8-3.5,1-5.3,0.7
				c-1-0.2-1.8-0.7-2.4-1.5c-0.7-0.9-1.2-1.8-1.4-2.9c-0.6-2.4-1.1-4.8-1.6-7.2c-0.8-4.2-1.4-8.4-1.7-12.7c-0.1-1.3-0.1-2.6-0.2-3.9
				c0-0.3,0-0.5,0-0.9c-1.2,0.7-2.2,1.3-3.4,2c0,0.7,0.1,1.5,0.2,2.2c0.2,2.3,0.1,4.6-0.1,6.9c-0.2,2.6-0.6,5.3-1.3,7.8
				c-0.8,3.2-2,6.2-3.8,9c-1.1,1.7-2.3,3.2-3.9,4.4c-1.1,0.8-2.3,1.5-3.7,1.7c-1.8,0.2-3.3-0.2-4.8-1.2c-1.3-0.9-2.4-2-3.4-3.2
				c-2.1-2.7-3.3-5.7-4-9c-0.4-1.7-0.6-3.4-0.9-5.1c-0.1,0.2-0.2,0.3-0.2,0.5c-0.8,3.5-1.5,6.9-2.8,10.2c-0.5,1.4-1.2,2.8-1.9,4.1
				c-0.7,1.4-1.7,2.5-2.9,3.4c-2.3,1.6-4.6,1.8-7.1,0.4c-1.5-0.8-2.5-2-3.4-3.4c-1.4-2.2-2.3-4.6-2.9-7.1c-0.7-3-1.2-6-1.3-9
				c-0.1-2-0.1-3.9-0.1-5.9c0-0.6,0.1-1.2,0.2-1.8c0.2-1.4,0.9-2.5,2.1-3.2c1.5-0.9,3.2-1.3,4.9-1.2c1.5,0.1,2.6,0.9,3.3,2.2
				c0.5,1,0.8,2.2,1,3.3c0.2,2,0.4,4.1,0.6,6.1c0.4,4.2,0.7,8.5,1.4,12.7c0.1,0.5,0.2,0.9,0.3,1.4c0.2,0.5,0.4,0.9,0.9,1.1
				c0.6-0.3,0.8-0.8,1.1-1.3c0.9-1.6,1.5-3.3,2-5c0.9-3.1,1.4-6.2,1.9-9.3c0.2-1.5,0.4-3.1,0.7-4.6c0.4-2.4,1.8-4.1,4.1-5
				c0.9-0.4,1.9-0.7,2.9-0.8c1.6-0.3,2.9,0.4,3.8,1.9c0.7,1.2,1.1,2.6,1.3,3.9c0.5,2.8,1,5.7,1.6,8.5c0.4,1.9,0.8,3.7,1.6,5.5
				c0.4,1,0.9,2,1.7,2.8c1.3,1.4,2,1.4,3.3,0c1-1.2,1.6-2.6,2.2-4c1-2.3,1.5-4.8,1.8-7.3c0.4-2.8,0.6-5.6,0.8-8.4
				c0.1-1.1,0-2.2,0-3.3c-0.8,0.1-1.4,0.3-2.1,0.4c-4.2,0.6-8.1-1.5-9.9-5.4c-1.5-3.3-0.6-7.7,2.2-10.1c1.7-1.5,3.8-1.7,5.8-0.5
				c1.1,0.6,1.9,1.5,2.6,2.5c1.3,2,2.2,4.2,2.8,6.4c0.3,1,0.5,2.1,0.8,3.2c0.2-0.1,0.4-0.2,0.6-0.3c1-0.7,2-1.5,3-2.2
				c0.4-0.3,0.5-0.6,0.4-1.1c-0.2-4.1-0.4-8.1-0.5-12.2c-0.1-5.4,0.3-10.8,1.8-16.1c0.6-2.3,1.4-4.5,2.6-6.5
				c0.7-1.2,1.4-2.3,2.5-3.2c0.6-0.5,1.3-1,2-1.3c2.2-1,4.5-0.3,5.7,1.8c0.6,1,1,2.2,1.2,3.3c0.3,1.5,0.3,3,0.2,4.5
				c-0.1,1.3-0.2,2.6-0.2,4c-0.2,4.1-1.3,8-2.8,11.8c-0.8,1.9-1.7,3.8-2.6,5.7c-0.2,0.4-0.3,0.8-0.3,1.3c0.5,5.2,0.9,10.3,1.4,15.5
				c0.1,1.3,0.2,2.5,0.4,3.8C162.8,117.2,162.9,117.6,163,117.9C162.9,117.9,163,117.9,163,117.9z M160.8,91.5c0.1,0,0.1,0,0.2,0.1
				c0.2-0.4,0.3-0.8,0.5-1.2c2-5.1,3.2-10.3,2.9-15.8c-0.1-1.7-0.3-3.5-1.1-5.1c-0.2-0.3-0.3-0.6-0.6-0.9c-0.3-0.4-0.6-0.3-0.7,0.1
				c-0.2,0.5-0.4,1-0.5,1.6c-0.5,2.2-0.7,4.4-0.7,6.6c-0.1,4.7,0,9.4,0,14.2C160.7,91.2,160.7,91.3,160.8,91.5z M200.4,126
				c0.4-0.3,0.7-0.5,0.9-0.8c0.9-0.8,1.5-1.8,2-2.9c1-2.4,1.2-5,0.9-7.5c-0.1-1.1-0.5-2-1.3-2.8c-1-1.1-2.2-0.8-2.7,0.6
				c0,0.2-0.1,0.3-0.1,0.5c-0.2,1.3-0.4,2.6-0.5,3.9c-0.1,1.9,0.1,3.8,0.3,5.7C200,123.6,200.2,124.7,200.4,126z M260.2,120.3
				c0.1,0,0.1,0.1,0.2,0.1c0.4-0.4,0.9-0.8,1.3-1.2c2.5-3,3.2-6.4,1.7-10.1c-0.3-0.7-0.7-1.4-1.1-2.1c-0.4-0.6-0.9-0.5-1.2,0.1
				c-0.1,0.2-0.2,0.4-0.3,0.7c-0.2,0.8-0.4,1.6-0.5,2.4c-0.4,2.7-0.3,5.3-0.2,8C260,118.8,260.1,119.6,260.2,120.3z M145,109.3
				c-0.1-1.5-0.8-4.7-1.3-5.9c-0.3-0.6-0.6-1.2-1-1.7c-1-1.2-2.3-1-2.9,0.5c-0.8,1.9-0.2,4.6,1.4,6
				C142.2,109.2,143.5,109.5,145,109.3z M219,101.2c-0.2-1.9-0.6-3.7-2-5c-0.1-0.1-0.3-0.3-0.4-0.4c-0.6-0.5-1.3-0.5-2-0.1
				c-1.1,0.8-1.4,1.9-1.2,3.1c0.2,1.2,0.8,2.1,2.1,2.4C216.6,101.6,217.7,101.4,219,101.2z"/>
			<path d="M320.9,122.8c0.8-0.6,1.5-1.1,2.2-1.7c1.9-1.7,3.7-3.3,5.6-5c0.3-0.3,0.6-0.6,0.9-0.8c0.2-0.2,0.4-0.3,0.7-0.5
				c0.7-0.4,1.3-0.3,1.8,0.1c0.4,0.4,0.5,1,0.1,1.7c-0.2,0.4-0.5,0.8-0.8,1.1c-0.4,0.5-0.9,0.9-1.4,1.3c-2.7,2.3-5.4,4.6-8.2,6.9
				c-0.3,0.2-0.5,0.5-0.5,0.9c0.1,5.9-2.3,10.8-6.1,15.1c-2.5,2.9-5.6,5-9.1,6.4c-2.4,1-5,1.5-7.6,1.2c-2.5-0.3-5.4-2.4-5.1-6.1
				c0.1-1.5,0.6-2.8,1.4-4c1.1-1.9,2.7-3.4,4.4-4.7c2.5-1.9,5.4-3.3,8.2-4.6c1.4-0.6,2.8-1.3,4.3-1.9c-0.2-0.4-0.3-0.8-0.4-1.2
				c-0.7-1.6-1.6-3.1-2.6-4.6c-1.2-1.7-2.5-3.4-3.7-5.2c-1.3-1.9-2.5-3.9-3.7-5.8c-0.1-0.2-0.2-0.3-0.3-0.5
				c-0.2,0.1-0.4,0.2-0.5,0.3c-3.4,2.4-7.1,4-11,5.1c-0.3,0.1-0.5,0.1-0.8,0.1c-0.6,0-1-0.2-1.1-0.6c-0.1-0.4,0.1-0.8,0.6-1
				c0.2-0.1,0.5-0.2,0.8-0.3c1.5-0.6,2.9-1.2,4.4-1.8c2.1-0.9,4.1-2.1,6-3.3c0.2-0.1,0.4-0.3,0.6-0.5c-0.1-0.3-0.2-0.6-0.3-0.8
				c-1.2-2.8-2.1-5.8-1.9-8.9c0.1-3.2,1.2-6,3.2-8.4c0.9-1,1.9-1.8,3.1-2.4c3-1.3,5.9,0.6,6.9,2.8c0.9,2,1,4.1,0.5,6.2
				c-0.6,2.3-1.6,4.3-3,6.2c-0.1,0.2-0.3,0.4-0.5,0.7c0.3,0.2,0.6,0.4,0.8,0.6c1.3,1.2,2.7,2.5,4,3.7c1.8,1.7,3.4,3.5,4.8,5.5
				c1.6,2.4,2.7,5,3.4,7.8C320.8,122.2,320.8,122.5,320.9,122.8z M311.6,132.3c-1,0.4-1.8,0.7-2.7,1c-2.2,0.8-4.3,1.8-6.4,2.9
				c-1.4,0.7-2.6,1.6-3.7,2.7c-1.1,1.1-1.9,2.3-2.2,3.8c-0.2,1.2,0.2,2,1.3,2.6c0.7,0.4,1.5,0.6,2.2,0.4c2.5-0.4,4.9-1.1,6.6-3.1
				c0.8-0.9,1.7-1.9,2.5-2.9C310.8,137.7,311.4,135.2,311.6,132.3z M306.4,102.5c0.1-0.1,0.2-0.2,0.3-0.3c0.9-1.6,1.6-3.3,2-5
				c0.3-1.3,0.4-2.7,0.1-4c-0.2-0.9-0.8-1.6-1.7-1.9c-0.8-0.3-1.7-0.1-2.2,0.6c-0.3,0.4-0.6,0.9-0.8,1.5c-0.4,1-0.3,2.1-0.2,3.1
				C304.2,98.6,305,100.6,306.4,102.5z"/>
			<path d="M283.6,98.4c-0.1,1.8-0.3,3.5-0.9,5.1c-0.2,0.6-0.6,1.2-1,1.8c-0.3,0.4-0.8,0.7-1.4,0.5c-0.6-0.2-0.8-0.6-0.9-1.2
				c-0.1-1.1-0.3-2.1-0.4-3.2c-0.3-2.1-0.9-4-2.2-5.7c-0.6-0.8-1.1-1.7-1.6-2.6c-0.3-0.7-0.5-1.4-0.3-2.2c0.3-1.8,1.9-2.9,3.7-2.6
				c1,0.2,1.8,0.6,2.5,1.3c0.9,0.9,1.5,1.9,1.8,3.1C283.3,94.6,283.5,96.5,283.6,98.4z"/>
		</g>
		<g>
			<path d="M149,268.3c-1.6-3.9-3.3-7.9-4.9-11.8c-1.4-3.4-2.6-6.9-3.7-10.4c-0.1-0.3-0.2-0.5-0.3-0.9c-0.2,0.2-0.3,0.3-0.4,0.4
				c-2.9,3.8-5.7,7.6-8,11.8c-1.3,2.3-2.4,4.6-2.9,7.2c-0.1,0.6-0.2,1.3-0.3,2c-0.1,0.6-0.3,1.2-0.5,1.7c-0.2,0.5-0.7,0.8-1.3,0.7
				c-0.6-0.1-1-0.4-1.1-0.9c-0.1-0.6-0.2-1.3-0.2-2c0.3-3.2,1.2-6.1,2.7-8.9c1.7-3.3,3.7-6.3,5.9-9.2c1.5-2.1,3.1-4.1,4.7-6.1
				c0.3-0.4,0.4-0.8,0.3-1.3c-1.2-4.6-1.9-9.3-2.2-14c-0.4-4.8,0-9.6,1.6-14.2c0.6-1.7,1.4-3.4,2.4-4.9c1.1-1.7,2.6-3.1,4.4-4.1
				c2.7-1.5,5.3-1.2,7.6,0.9c1.8,1.6,2.7,3.7,3.1,6c0.6,3,0.3,5.9-0.3,8.9c-0.9,4.1-2.4,8-4.5,11.6c-0.4,0.7-0.9,1.5-1.3,2.2
				c-0.2,0.3-0.2,0.5-0.1,0.8c1.1,3.6,2.2,7.3,3.3,10.9c1.2,3.6,2.5,7.2,3.7,10.8c0.1,0.3,0.2,0.5,0.4,0.9c0.2-0.4,0.3-0.6,0.5-0.9
				c1.8-3.5,4-6.8,6.8-9.5c1.8-1.7,3.7-3.1,6-4c5.4-2.1,10,0,12.8,3.9c1.3,1.9,2.1,4,2.5,6.3c0.5,2.4,0.7,4.8,0.6,7.3
				c0,0.3,0,0.6,0,0.8c0,0,0,0.1,0.1,0.2c1.1-0.1,2.1-0.5,3.1-0.9c0.6-0.2,1.1-0.5,1.7-0.7c0.5-0.2,0.7-0.5,0.7-0.9
				c0.3-1.7,0.5-3.5,0.9-5.2c0.8-3.2,1.9-6.2,3.6-9.1c1-1.7,2.1-3.2,3.7-4.4c0.9-0.7,1.9-1.3,3.1-1.6c1.6-0.4,3.1-0.1,4.5,0.9
				c1.8,1.3,2.4,3,2.5,5.1c0.1,2.3-0.4,4.5-1.5,6.6c-1.2,2.3-2.7,4.3-4.8,5.9c0.1,0.9,0.3,1.9,0.4,2.8c0.4,2.7,0.8,5.4,1.7,8
				c0.6,1.5,1.2,3,1.9,4.5c0.3,0.7,0.8,1.4,1.3,2c0.4,0.5,0.9,0.6,1.5,0.3c0.9-0.5,1.7-1.2,2.2-2.2c1.1-2.4,2-4.9,2.7-7.4
				c0.7-2.3,1.3-4.6,1.9-6.9c0.3-1.3,0.4-2.7,0.5-4.1c0.5-5.5,2.6-10.3,6.6-14.3c1.6-1.6,3.5-2.8,5.8-3.3c2.9-0.6,5.8,0.8,7.1,3.3
				c0.5,1,0.9,2.1,1,3.2c0.3,3.2-0.3,6.2-2,8.9c-1.3,2.2-3,3.7-5.3,4.6c-0.3,0.1-0.5,0.2-0.9,0.4c0.3,0.6,0.5,1.1,0.7,1.6
				c0.7,1.6,1.6,3.1,2.6,4.4c0.5,0.7,1.1,1.3,1.7,1.9c1.3,1.2,2.9,1.6,4.6,1.1c0.8-0.3,1.7-0.6,2.4-1c4.2-2.3,7.3-5.6,9.4-9.9
				c1.8-3.8,2.9-7.8,3.8-11.8c0.5-2.3,0.6-4.6,0.7-7.1c-0.3,0.1-0.6,0.2-0.8,0.3c-1.4,0.6-2.7,1.2-4.2,1.4c-2.2,0.4-4-0.3-5.4-2.1
				c-1.4-1.9-1.9-4-1.7-6.2c0.2-2.5,1.1-4.7,2.7-6.7c0.8-1,1.8-1.9,3-2.4c2.1-1,4.3-0.7,6,0.9c0.8,0.8,1.5,1.7,2,2.7
				c1.1,2,1.7,4.2,2,6.5c0,0.2,0.1,0.3,0.1,0.6c0.3-0.1,0.6-0.3,0.9-0.4c2.6-1.1,5.1-2.2,7.7-3.3c2.3-0.9,4.8-1.5,7.3-1.7
				c1-0.1,2.1,0,3.1,0.2c2.3,0.5,3.8,2,4.5,4.2c0.5,1.5,0.6,3,0.4,4.6c-0.4,2.6-0.7,5.2-1.2,7.8c-1.5,7-3.1,14.1-4.7,21.1
				c-0.9,4-1.6,8.1-2.3,12.2c-0.3,2.1-0.3,4.3-0.5,6.4c0,0.3,0,0.6,0.1,0.9c0.2,1.1,0.6,1.4,1.6,1.5c0.9,0.1,1.8-0.1,2.6-0.5
				c1.2-0.6,2.3-1.4,3.2-2.5c1.7-2,3.5-3.9,5-6.1c2.1-2.9,4.1-6,6.1-9.1c0.2-0.3,0.4-0.6,0.6-0.8c0.7-0.7,1.8-0.5,2.1,0.5
				c0.1,0.3,0.1,0.7,0,1.1c-0.3,0.8-0.5,1.7-1,2.5c-1.2,2-2.4,4-3.6,5.9c-2.2,3.5-4.7,6.7-7.5,9.8c-1.8,2-3.8,3.8-6,5.4
				c-1.8,1.3-3.7,2.1-6,2.3c-1.7,0.1-3.2-0.3-4.6-1.2c-2.9-2-4.6-4.8-5.2-8.2c-0.6-3.2-0.6-6.5-0.2-9.7c0.2-1.8,0.3-3.5,0.6-5.3
				c0.7-4,1.4-8,2.2-12c1-5.2,2.6-10.3,4.1-15.4c0.6-2,1.2-4.1,1.4-6.2c0.1-0.7,0-1.3,0-2c0-0.7-0.4-1.1-1.1-1.3c-1-0.3-2-0.2-3,0
				c-2.4,0.4-4.5,1.5-6.7,2.4c0,0.2,0,0.4,0,0.6c0,3.7-0.7,7.3-1.8,10.8c-1.7,5.6-4,11-7.3,15.9c-1.8,2.6-3.7,5.1-6.1,7.2
				c-2.5,2.3-5.4,4-8.8,4.6c-2.5,0.5-5.1,0.6-7.6-0.1c-4.2-1.2-6.9-4-8.3-8c-0.3-0.8-0.4-1.5-0.6-2.3c0-0.1-0.1-0.2-0.1-0.4
				c-0.1,0-0.1,0-0.1,0c-1,2.6-2,5.3-3,7.9c-0.8,2.2-1.9,4.3-3.3,6.2c-0.8,1.1-1.6,2-2.7,2.8c-3.2,2.5-7.1,2.6-10.5,0.5
				c-2.1-1.4-3.7-3.2-5-5.4c-1.7-2.9-2.5-6.1-2.9-9.4c-0.1-0.7-0.1-1.4-0.2-2.2c-1.9,0.3-3.8,0.7-5.7,1c-0.1,0.5-0.2,1.1-0.3,1.6
				c-1.5,7.2-4.3,13.8-8.4,19.9c-4.4,6.4-10.4,11-17.8,13.4c-2.3,0.7-4.6,1.1-7,0.9c-3.3-0.3-6.1-1.7-8.6-3.8
				c-2.1-1.8-3.7-4.1-4.4-6.9c-0.7-2.5-0.5-5,0.4-7.5c1.5-4.6,4.3-8.4,8-11.5c0.4-0.4,0.9-0.7,1.3-1.1
				C149,268.4,149,268.4,149,268.3z M150.2,270.9c-0.7,0.6-1.2,1-1.7,1.5c-0.7,0.7-1.4,1.5-2.1,2.2c-2,2.5-3.6,5.3-4.3,8.5
				c-0.7,2.9,0,5.4,1.9,7.6c3.3,3.8,8.7,5,13.2,3.3c5-1.9,8.7-5.3,11.4-9.8c3.1-5.1,5-10.8,5.8-16.7c0.2-1.2,0.3-2.5,0.4-3.8
				c-4.3-0.5-8.5-0.3-12.7,0.6c0,0.3,0,0.5,0,0.7c0.1,2.1,0.3,4.1,0.8,6.2c0.2,0.8,0.3,1.6,0.2,2.4c-0.6,2.8-2.4,4.4-5,5.3
				c-1,0.4-2,0.2-2.8-0.4c-0.6-0.4-1.1-1-1.6-1.6c-0.8-1.1-1.5-2.3-2.2-3.4C151.1,272.7,150.7,271.9,150.2,270.9z M162.1,262.2
				c2.2-0.6,4.2-1.2,6.3-1.3c2.1-0.1,4.2,0,6.4,0c0-0.3,0-0.5,0-0.7c-0.1-1.1-0.1-2.3-0.2-3.4c-0.2-2.1-0.5-4.2-1.2-6.2
				c-0.3-0.8-0.6-1.6-1.2-2.3c-0.5-0.6-1.1-0.8-1.8-0.6c-0.7,0.3-1.4,0.6-2.1,1c-2,1.4-3.4,3.3-4.3,5.6c-0.6,1.5-1.1,3.1-1.4,4.7
				C162.4,260,162.3,261.1,162.1,262.2z M148.2,229.3c0.1-0.2,0.2-0.3,0.3-0.5c1.3-2,2.3-4.1,3.1-6.3c1-2.9,1.7-5.9,1.5-9.1
				c-0.1-1.3-0.3-2.6-1-3.8c-0.6-1.1-1.4-1.9-2.8-1.8c-1.3,0.1-2.2,0.8-2.7,2c-0.3,0.8-0.6,1.6-0.6,2.5c-0.1,1.3-0.1,2.7,0,4.1
				c0.2,4.2,1,8.4,2.1,12.5C148.1,228.9,148.1,229.1,148.2,229.3z M229.6,254c1.9-0.6,3.3-1.7,4.3-3.2c1-1.5,1.7-3.2,2-5
				c0.3-1.7,0.2-3.4-0.5-5c-0.3-0.6-0.7-1.2-1.2-1.8c-0.4-0.5-0.9-0.5-1.4-0.1c-0.5,0.4-1,0.9-1.3,1.4c-0.5,0.8-0.9,1.8-1.2,2.7
				c-0.9,3-1.1,6.1-0.9,9.3C229.4,252.8,229.5,253.3,229.6,254z M202.9,253.4c0.2,0,0.2,0,0.2,0c0.1,0,0.1-0.1,0.2-0.1
				c2-1.7,3.3-3.8,3.8-6.4c0.1-0.6,0.2-1.3,0.3-2c0.1-1.1,0-2.1-0.5-3.1c-0.4-0.7-0.9-0.8-1.4-0.3c-0.5,0.5-0.9,1.1-1.2,1.7
				c-1.4,2.6-1.7,5.3-1.6,8.2C202.7,252.1,202.9,252.7,202.9,253.4z M254.7,232.6c0.2,0,0.4,0,0.7-0.1c0.6-0.1,0.7-0.2,0.6-0.9
				c-0.1-0.9-0.4-1.8-0.8-2.6c-0.3-0.5-0.7-0.9-1.2-1.1c-0.5-0.2-1.1-0.2-1.6,0.1c-1,0.7-1.2,2.3-0.4,3.2
				C252.7,232.1,253.6,232.6,254.7,232.6z"/>
			<g>
				<path d="M319.6,213.3c0,2.1-0.6,4-1.4,5.9c-1.1,2.5-2.5,4.8-4.3,6.9c-1.5,1.7-2.9,3.4-4.5,5c-3,3-5.4,6.5-7.4,10.3
					c-0.6,1.1-1.2,2.3-1.8,3.4c-0.3,0.5-0.6,1-0.9,1.4c-0.7,1-1.8,1.3-2.9,1c-0.8-0.2-1.6-0.5-2.4-0.8c-1.2-0.6-2-1.6-2.3-2.9
					c-0.4-1.6-0.3-3.2,0-4.8c1-5.2,3.3-9.8,6.6-13.8c1.8-2.2,3.9-4.3,5.8-6.5c1.4-1.6,2.8-3.1,4.2-4.7c0.6-0.7,1.1-1.6,1.6-2.4
					c0.3-0.5,0.5-1,0.6-1.5c0.4-1.5-0.2-2.7-1.7-3.2c-1-0.4-2-0.5-3-0.3c-3.7,0.7-6.8,2.3-9,5.4c-0.7,1-1.2,2.1-1.2,3.3
					c0,0.2-0.1,0.4-0.1,0.7c-0.1,0.5-0.4,0.8-0.9,0.9c-0.5,0.1-1-0.1-1.3-0.5c-0.4-0.5-0.5-1.1-0.6-1.8c-0.1-1,0.1-2,0.6-2.9
					c0.4-0.9,0.9-1.8,1.5-2.5c3.1-3.9,7.1-6.2,12-6.7c4.2-0.4,7.8,1.1,10.5,4.4C318.9,208.3,319.7,210.6,319.6,213.3z"/>
				<path d="M294.6,248.4c1.8,0.1,3.2,0.8,4,2.3c0.4,0.7,0.6,1.4,0.8,2.2c0.2,0.9,0,1.8-0.6,2.6c-0.2,0.3-0.4,0.5-0.5,0.8
					c-1,1.9-3,2.7-5,1.9c-2.4-0.9-3.7-3.4-3.1-5.9c0.1-0.6,0.3-1.1,0.6-1.6C291.6,249.1,293,248.4,294.6,248.4z"/>
			</g>
		</g>
	</g>
	<g>
		<path class="st54" d="M253,334.7c0-6.5,1.1-14.6-2.2-20.5c-2.5-4.6-7.4-5.3-12.2-5.3v-3.5c0-5.1-4.6-9.2-10.3-9.2h-29.9
			c-5.7,0-10.3,4.1-10.3,9.2V358c0,5.1,4.6,9.2,10.3,9.2h29.9c3.9,0,7.3-2,9.1-4.9c5.1-0.1,10.5-0.9,13.6-5.2
			C255.1,351.5,253,341.3,253,334.7z M246.4,348.8c-0.8,5.5-3.8,6.7-7.9,6.9v-40.3c4.1,0,7,1,7.7,6.5c0.5,4.2,0.2,8.5,0.2,12.7
			C246.4,339.2,247.1,344.4,246.4,348.8z"/>
		<g>
			<path class="st62" d="M238,354h-49.5c-1.5,0-2.8-1.3-2.8-2.8v-31.1c0-1.5,1.3-2.8,2.8-2.8H238c1.5,0,2.8,1.3,2.8,2.8v31.1
				C240.8,352.7,239.6,354,238,354z"/>
			<path class="st63" d="M217.2,346.9c-0.3-3.1-0.4-4.1-1.8-6.9c0.9,5.7-0.6,8.9-3.5,7.8c-1.8-0.6-2.1-2.4-1.7-3.1
				c-2.4,2-3.9,1-4.6-0.3c-0.8-1.3,0.4-3.9,2.8-5.4c-5.5,1.2-7,0.1-7-1.6c0-1.8,1.6-2.6,2.6-2.9c-2.2-2.6-1.4-3.9-1-4.5
				c0.4-0.6,1.3-2.8,7,2.5c-2-6.6-0.7-7.4,0.9-7.7c1.7-0.3,2.7,1.6,2.9,2.1c1.8-2.2,3.2-2.7,4.5-1.9c2.6,1.6-0.8,7.4-1.6,8.4
				c5.4-3.4,7.1-4.2,8.6-2.1c1.3,1.8-1.1,3.7-1.6,4.1c2.4,0.6,3.2,1.8,2.7,3.2c-0.8,2.1-5,2.8-9,0.4c0.9,2.6,2.3,5.4,2.8,7.5
				c0.2,0.7-0.2,1.4-0.9,1.7c-0.1,0-0.1,0.1-0.2,0.1C218.3,348.7,217.3,348,217.2,346.9z"/>
		</g>
		<path class="st20" d="M184.5,303.9c-1.6-8.9,5.7-15.1,13.5-15.9s37.2-4.2,41.7,6.7s-7.5,17.7-13.4,16.6c-6-1.1-14.5-3.6-15.9-0.4
			c-1.4,3.2,2.9,7.1-0.2,9.4s-7.5-0.6-9,3.6c-1.5,4.2,1.6,10.3-2.1,10.2s-2.4-12.4-5-19.1C191.6,308.3,185.8,310.9,184.5,303.9z"/>
	</g>
</g>
</svg>
