<?xml version="1.0" encoding="utf-8"?>
<!-- Generator: Adobe Illustrator 20.1.0, SVG Export Plug-In . SVG Version: 6.00 Build 0)  -->
<svg version="1.1" id="Calque_1" xmlns="http://www.w3.org/2000/svg" xmlns:xlink="http://www.w3.org/1999/xlink" x="0px" y="0px"
	 viewBox="0 0 432 432" style="enable-background:new 0 0 432 432;" xml:space="preserve">
<style type="text/css">
	.st0{fill:#A3195B;}
	.st1{fill:#433E3B;}
	.st2{fill:#E94E1B;}
	.st3{fill:#F39200;}
	.st4{fill:#A8C813;}
	.st5{fill:#662483;}
	.st6{fill:#43342B;}
	.st7{fill:#F9B233;}
</style>
<g>
	<g>
		<g>
			<path class="st3" d="M107.4,143.2c0-0.1,0.1-0.3,0.3-0.4c3.8-2.8,7.9-11.8,7.9-17.4c0-16.3-9.4-25.2-25.4-25.2
				c-1.4,0-20,0.3-20,1.1l3.8,104.5l0.3,3.1c4.4,0.3,8.9,0.4,13.5,0.4c21.8,0,43.1-4.5,43.1-30.6v-0.6
				C130.5,144.4,107.4,145.1,107.4,143.2z M87.7,136.4l-0.4-0.4l-0.6-20c0-0.9,1.3-0.9,2-0.9c6.1,0,8.8,6.1,8.8,11.2
				c0,5-3.3,10.1-8.4,10.1H87.7z M94.5,192.7c-0.4,0-2.3-0.1-2.7-0.1c-1-0.4-0.9-2-1-2.7c-0.9-11.2-1-22.4-1-33.7
				c1.7-1.3,3.7-1.8,5.7-1.8c6.1,0,12.9,5.1,14.9,10.4c1.7,4.5,2.1,8.5,2.1,13.5C112.5,189,104,192.7,94.5,192.7z"/>
			<path class="st3" d="M166.4,128.6c-8.2,0.7-17.4,4.4-22.3,11.2c0,0.4,0.3,0.6,0.7,1.1c2.1,3,7.5,9.9,7.7,10.1l0.6,0.7
				c2.7-4.4,10.1-7.5,15.7-7.5h0.7c7.2,0.4,10.4,9.9,10.4,17c0,0,0,0-0.3,0.4c-19.4,3-40.1,11.6-41.8,34.2
				c0.9,13,10.1,17.4,20.4,17.4c9.1,0,19-3.3,25.4-7.2c0.1,0,0.6,0,0.7,0.4l0.6,4.4c0.1,0.3,3.8,0.4,7.7,0.4c3.4,0,6.8-0.1,7.4-0.7
				l0.4-0.7c-4.5-59.3-3-57.1-6.1-65.8C188.6,131.5,178.9,128.6,166.4,128.6z M179.8,192.2l-18.3,6.7c-3.1,0-7.7,0-7.8-3.8
				c0-11.3,15-17.4,23.7-19.9c1.4,0,2,0.7,2.1,1.6c0.3,2.3,0.3,4.1,0.3,6V192.2z"/>
			<path class="st3" d="M252.7,136.6H252c-8.4,0-14.7,3.7-20.7,9.4v-5.4c0-14.7,1.3-23.3,1.4-37.1c0-1-0.1-3.7-0.1-3.8
				c0-0.6,0-2.3-1-2.6c-1.3-0.3-7.2-1-8.6-1.1h-2.1c-2,0-3.5,0-4.5,1.4c-1.4,21-1.8,41.3-1.8,61c0,17,0.3,33.6,0.4,50.2
				c0,0.4,0.3,1.1,0.7,1.4h4.3c1.6,0,8.4-0.3,9.8-0.3c0.3-0.1,0.3-0.3,0.3-0.6c0-0.3,0.1-6.9,0.1-7.1c5.7,8.5,12.1,9.5,17.6,9.5
				c23.1,0,36.4-21.8,36.4-42C284.1,152.3,274.3,136.6,252.7,136.6z M248.2,196.4c-0.6,0-1.3,0-1.8-0.1
				c-10.4-1.6-14.9-7.7-14.9-16.6c0-2.6,0.6-14.6,0.6-15.9c3.4-7.8,12.1-12.8,21-12.8c11.9,0,16.6,9.9,16.6,19
				C269.6,183.1,259.8,196.4,248.2,196.4z"/>
			<path class="st3" d="M358.9,132l-17.3,1.7c0,0.1,0,0.6,0,0.6c1.6,6.8,2.3,12.9,2.3,18c0,19-9.2,25.9-17.6,25.9
				c-7.1,0-13.6-4.5-13.6-14.9c0-10.5,2.4-18.7,4.4-30.9l-15.6-2c-4.3,12.5-7.8,24.1-7.8,36.9c0,15.6,14.6,23.8,29.5,23.8
				c7.9,0,17.4-3.8,23.3-8.6c0.4,2,0.6,4,0.6,5.8c0,15-11.5,22.7-25.9,22.7c-5.2,0-10.8-0.9-16-2.4l-1.4,13
				c6.4,1.7,13.8,2.8,19.3,2.8c22.3,0,38.9-13.8,38.9-40.1v-1.8L358.9,132z"/>
		</g>
		<g>
			<path class="st2" d="M123.3,279.3c-0.7-2.3,9.9-7.1,9.5-21.4c-0.3-16.5-12.7-23.2-28.2-25.3c0,0-28.4-0.4-32.2,3.2
				c-3.8,3.6-2,88.8,1.5,92.9c3.6,4.2,30.2,3.4,30.2,3.4c21.9,0,37.1-11,37.1-27.5C141.2,287.5,124,281.6,123.3,279.3z M119.3,296.4
				c-0.8,2-8.5,4.1-9.7,2.6c-1.3-1.6,0.5-10.1,3-10.2C114.4,288.7,120.1,294.8,119.3,296.4z M94.5,252c5.8-3.4,19-0.2,18.8,6.3
				c-0.2,10.4-10.1,16.3-18.6,14.8C90.2,272.3,89.9,254.7,94.5,252z M107.6,303.5c-0.6,0.8-4.6,0.9-4.9,0c-0.4-0.9,1.4-4,2.5-4.1
				C106.1,299.5,108.3,302.9,107.6,303.5z M97.4,288.8c1.8-0.1,5,8.3,3.5,9.6c-1.3,1.2-9,0.2-10.3-1.3
				C89.5,295.6,95,288.9,97.4,288.8z M117.7,313.8c-0.5,0.1-3.1-1.8-3.4-1.5c-0.5,0.2-1.2,3.1-1.5,3.8c-0.2,0.6-4.2,1.3-4.9,0.7
				c-0.7-0.5-2.4-3.4-3-3.4c-0.5,0-2.8,3.2-3.1,3.6c-0.6,0.8-3.8-0.2-4.3-0.8c-0.4-0.5-1.3-3.7-2-3.9c-0.4-0.2-3,2.7-3.4,2.6
				c-5.2-0.9-9.6-9.9-9.1-10.1c0.5-0.2,3.2,1.6,7.1,2.5c0.6,0.1,1.4,3.6,2,3.8c0.4,0.2,3-2.3,3.5-2.5c0.5-0.2,2.3,0.4,2.7,0.9
				c0.5,0.5,1.6,4.2,2.1,4.2c0.6,0,2.4-3.2,2.7-3.5c0.5-0.4,2.9-0.3,3.2,0c0.2,0.2,2.6,4.1,3.1,3.9c0.5-0.1,1.4-3.9,1.6-4.4
				c0.2-0.5,2.7-0.4,3.2-0.3c0.6,0,2.7,2.4,3.1,2.1c0.4-0.2,0.4-3.1,0.9-3.3c2.9-0.9,6.3-3.2,6.6-3.2
				C125.3,305.1,122.9,312.1,117.7,313.8z"/>
			<path class="st2" d="M191.5,231.5c-22.8,0-41.3,23.4-41.3,52.3c0,28.9,18.5,52.3,41.3,52.3c22.8,0,41.3-23.3,41.3-52.3
				C232.8,255,214.3,231.5,191.5,231.5z M191.5,260.6c1.7,0,3.4,0.2,5.1,0.6c-4,2.7-9.5,6.7-10.1,6.3c-1-0.5-1.3-3.4-1.6-3.5
				c-0.3-0.1-0.4,1.6-1.6,2c-1.3,0.4-2.2-1.1-2.4-0.8c-0.2,0.2,1.2,2.8,0.6,3.8c-0.2,0.5-3.4,0.2-6.9-0.1
				C178.7,263.8,184.7,260.6,191.5,260.6z M206,282.5c-0.2-0.2-0.5,0.9-1.3,0.8c-0.9-0.1-1-1.1-1.3-1c-0.2,0.1,0.1,1.9-0.5,2.4
				c-0.5,0.4-8.4-4.2-9.5-3.6c-0.2,0.2,0.9,0.7,1.3,1.6c0.4,0.9,0.2,2,0.2,2.2c0.2,0.2,1.5,0.4,2.4,1.6c0.9,1.3,0.5,3.3,0.6,3.5
				c0.2,0.2,1.9-0.1,3.5,1.2c1.6,1.2,1.7,3.8,2.1,3.8c0.3,0.1,0.6-2,2.5-3.2c1.9-1.1,3.8-0.6,4-0.8c0.2-0.2-0.1-1.9,1.2-3.2
				c0.8-0.9,1.6-1.2,2.1-1.3c-1.3,11.6-10.6,20.6-21.9,20.6c-12.2,0-22.1-10.4-22.1-23.3c0-3.5,0.7-6.7,2-9.7c0.8,0.1,1.7,0.3,2.7,1
				c2.2,1.5,2.6,4.7,3,4.9c0.4,0.2,2.7-1.2,6-0.2c3.2,0.9,4.9,4.9,5.5,4.7c0.5-0.2-0.2-3.5,2-6.3c2.2-2.8,5.4-3.1,5.6-3.5
				c0.2-0.4-1.3-2.7-0.2-5.6c1.1-2.8,3.1-3.1,3.3-3.4s-0.7-1.3-0.2-3.4c0-0.1,0-0.1,0-0.2c8.3,3.2,14.3,11.5,14.5,21.2
				c-2.9,0.7-7.1,2-7.4,1.6C205.7,284.3,206.2,282.5,206,282.5z"/>
			<path class="st2" d="M193,298c-0.1,0.1,0.6,0.7,0.6,1c-0.1,0.4-4.7,1.4-4.9,2c-0.1,0.1,0.5-0.1,1,0.2c0.5,0.2,0.8,0.7,0.9,0.7
				c0.1,0.1,0.6-0.3,1.4-0.2c0.9,0.2,1.4,1.1,1.5,1.1c0.2,0,0.7-0.7,1.7-0.8c1.1-0.1,2.1,0.9,2.2,0.7c0.2-0.1-0.5-1-0.2-2.1
				c0.3-1.1,1.3-1.6,1.3-1.7c0-0.2-0.7-0.6-0.7-1.6c0-0.9,0.5-1.3,0.5-1.4c0-0.1-0.4-0.3-0.5-1c-0.2-0.7,0.2-1,0.1-1.1
				c-0.3-0.1-2.8,4.3-3.2,4.2c-0.3,0-0.8-0.9-0.9-0.9c-0.1,0.1,0.1,0.5-0.2,0.8C193.5,298.2,193,297.9,193,298z"/>
			<path class="st2" d="M189.7,292c0.2-0.1,0-0.8,0.7-1.6c0.7-0.8,1.4-0.7,1.5-0.9c-0.2-0.5-8,0.9-8.3,0.3c-0.3-0.5,0.3-1.8,0.2-1.9
				c-0.2-0.2-0.5,0.6-1.2,0.5c-0.6-0.2-0.7-1-0.9-0.9c-0.2,0-0.2,1.5-0.6,1.8c-0.5,0.3-6.3-4.3-7.3-3.9c-0.2,0.1,0.6,0.6,0.9,1.5
				c0.2,0.8-0.1,1.6,0,1.8c0.1,0.2,1.1,0.4,1.7,1.6c0.5,1.2,0,2.7,0.1,2.9c0.2,0.2,1.5,0.2,2.7,1.3c1.2,1.2,1,3.3,1.3,3.4
				c0.3,0.1,0.8-1.6,2.4-2.3c1.6-0.7,3.1,0,3.4-0.2c0.2-0.1,0.1-1.5,1.3-2.5C188.6,291.8,189.6,292.1,189.7,292z"/>
			<path class="st2" d="M282.5,266.5c-0.1-1.3-1.3-2.3-2.6-2.2c-1.3,0.1-2.3,1.3-2.2,2.6c0.1,1.3,1.3,2.3,2.6,2.2
				C281.5,269,282.6,267.8,282.5,266.5z"/>
			<path class="st2" d="M285.1,231.5c-22.8,0-41.3,23.4-41.3,52.3c0,28.9,18.5,52.3,41.3,52.3c22.8,0,41.3-23.3,41.3-52.3
				C326.4,255,307.9,231.5,285.1,231.5z M306.8,308.3c-1.9,1.2-3.5-1.5-6-0.6c-1.6,0.6-1.3,3.8-2.3,4.2c-2,0.9-4.4-2-6.9-1.6
				c-1.6,0.2-3.1,3.4-4.9,3.4c-2.6,0.1-2.7-4.2-5.2-4.5c-2.4-0.3-3.8,3.2-5.9,2.6c-2-0.5-1.8-4.4-3.4-5.2c-1.6-0.8-4.9,1.4-6,0.7
				c-3.3-1.8,4.8-10.8,5.7-21.1c0.9-10.3-4.2-17.6,0.5-27.7c3.4-7.4,18.3-8.1,22.9-1.6c6.9,9.9,2.7,16.6,4.8,28.4
				C301.8,295.5,310.9,305.6,306.8,308.3z"/>
			<path class="st2" d="M288.4,263.7c-1.3,0.2-2.3,1.3-2.2,2.6c0.1,1.3,1.3,2.3,2.6,2.2c1.3-0.1,2.3-1.2,2.2-2.5
				C290.9,264.6,289.7,263.6,288.4,263.7z"/>
			<path class="st2" d="M284.9,274.9c-3.4,0.3-5.8-2-6.1-1.3c-0.2,0.7,3.8,3.9,6.3,3.8c2.5-0.2,6.2-4.1,5.7-4.5
				C290.2,272.5,287.3,274.8,284.9,274.9z"/>
			<path class="st2" d="M350.5,308.7c-6.5,0-11.2,5.2-11.2,11.8c0,6.6,5,11.8,11.2,11.8c6.3,0,11.3-5.2,11.3-11.8
				C361.8,313.9,356.7,308.7,350.5,308.7z"/>
			<path class="st2" d="M358.8,299.7c2.4-2,4.2-59.9,0.3-63.1c-3.8-3.1-17.2-2.6-18.8,1.7c-1.5,4.4,0,58.3,2.1,61
				C344.5,301.9,356.4,301.7,358.8,299.7z"/>
		</g>
	</g>
	<g>
		<path d="M128.6,121.3c-1-0.2-1.8,1.3-2.7,1c-0.9-0.3-0.7-2-1.4-2.4c-0.7-0.4-2.2,0.5-2.7,0.1c-1.4-0.9,1.9-5,2.6-9.6
			c0.8-4.6-0.8-7.7,1.7-12.1c1.8-3.2,8.5-3.1,10.3,0c2.8,4.6,0.6,7.5,1.2,12.9c0.5,4.6,4.3,9.4,2.3,10.5c-0.9,0.5-1.5-0.8-2.6-0.4
			c-0.8,0.2-0.7,1.7-1.2,1.8c-0.9,0.3-1.9-1-3-0.9c-0.8,0-1.5,1.5-2.3,1.4C129.6,123.4,129.7,121.5,128.6,121.3z M130.3,102.1
			c0-0.6-0.5-1.1-1.1-1.1c-0.6,0-1.1,0.5-1.1,1.1c0,0.6,0.5,1.1,1.1,1.1C129.8,103.2,130.3,102.7,130.3,102.1z M133.8,105.3
			c-0.2-0.2-1.6,0.8-2.7,0.8c-1.5,0-2.6-1.1-2.7-0.8c-0.1,0.3,1.6,1.9,2.7,1.9C132.3,107.1,134.1,105.5,133.8,105.3z M134.2,102.1
			c0-0.6-0.5-1.1-1.1-1.1c-0.6,0-1.1,0.5-1.1,1.1c0,0.6,0.5,1.1,1.1,1.1C133.7,103.2,134.2,102.7,134.2,102.1z"/>
		<path class="st2" d="M160.9,121.3c-1-0.2-1.8,1.3-2.7,1c-0.9-0.3-0.7-2-1.4-2.4c-0.7-0.4-2.2,0.5-2.7,0.1c-1.4-0.9,1.9-5,2.6-9.6
			c0.8-4.6-0.8-7.7,1.7-12.1c1.8-3.2,8.5-3.1,10.3,0c2.8,4.6,0.6,7.5,1.2,12.9c0.5,4.6,4.3,9.4,2.3,10.5c-0.9,0.5-1.5-0.8-2.6-0.4
			c-0.8,0.2-0.7,1.7-1.2,1.8c-0.9,0.3-1.9-1-3-0.9c-0.8,0-1.5,1.5-2.3,1.4C162,123.4,162.1,121.5,160.9,121.3z M162.7,102.1
			c0-0.6-0.5-1.1-1.1-1.1c-0.6,0-1.1,0.5-1.1,1.1c0,0.6,0.5,1.1,1.1,1.1C162.2,103.2,162.7,102.7,162.7,102.1z M166.2,105.3
			c-0.2-0.2-1.6,0.8-2.7,0.8c-1.5,0-2.6-1.1-2.7-0.8c-0.1,0.3,1.6,1.9,2.7,1.9C164.6,107.1,166.4,105.5,166.2,105.3z M166.5,102.1
			c0-0.6-0.5-1.1-1.1-1.1c-0.6,0-1.1,0.5-1.1,1.1c0,0.6,0.5,1.1,1.1,1.1C166,103.2,166.5,102.7,166.5,102.1z"/>
		<path d="M193.3,121.3c-1-0.2-1.8,1.3-2.7,1c-0.9-0.3-0.7-2-1.4-2.4c-0.7-0.4-2.2,0.5-2.7,0.1c-1.4-0.9,1.9-5,2.6-9.6
			c0.8-4.6-0.8-7.7,1.7-12.1c1.8-3.2,8.5-3.1,10.3,0c2.8,4.6,0.6,7.5,1.2,12.9c0.5,4.6,4.3,9.4,2.3,10.5c-0.9,0.5-1.5-0.8-2.6-0.4
			c-0.8,0.2-0.7,1.7-1.2,1.8c-0.9,0.3-1.9-1-3-0.9c-0.8,0-1.5,1.5-2.3,1.4C194.4,123.4,194.5,121.5,193.3,121.3z M195.1,102.1
			c0-0.6-0.5-1.1-1.1-1.1c-0.6,0-1.1,0.5-1.1,1.1c0,0.6,0.5,1.1,1.1,1.1C194.6,103.2,195.1,102.7,195.1,102.1z M198.6,105.3
			c-0.2-0.2-1.6,0.8-2.7,0.8c-1.5,0-2.6-1.1-2.7-0.8c-0.1,0.3,1.6,1.9,2.7,1.9C197,107.1,198.8,105.5,198.6,105.3z M198.9,102.1
			c0-0.6-0.5-1.1-1.1-1.1c-0.6,0-1.1,0.5-1.1,1.1c0,0.6,0.5,1.1,1.1,1.1C198.4,103.2,198.9,102.7,198.9,102.1z"/>
		<path class="st2" d="M248.5,121.3c-1-0.2-1.8,1.3-2.7,1c-0.9-0.3-0.7-2-1.4-2.4c-0.7-0.4-2.2,0.5-2.7,0.1c-1.4-0.9,1.9-5,2.6-9.6
			c0.8-4.6-0.8-7.7,1.7-12.1c1.8-3.2,8.5-3.1,10.3,0c2.8,4.6,0.6,7.5,1.2,12.9c0.5,4.6,4.3,9.4,2.3,10.5c-0.9,0.5-1.5-0.8-2.6-0.4
			c-0.8,0.2-0.7,1.7-1.2,1.8c-0.9,0.3-1.9-1-3-0.9c-0.8,0-1.5,1.5-2.3,1.4C249.6,123.4,249.7,121.5,248.5,121.3z M250.3,102.1
			c0-0.6-0.5-1.1-1.1-1.1c-0.6,0-1.1,0.5-1.1,1.1c0,0.6,0.5,1.1,1.1,1.1C249.8,103.2,250.3,102.7,250.3,102.1z M253.8,105.3
			c-0.2-0.2-1.6,0.8-2.7,0.8c-1.5,0-2.6-1.1-2.7-0.8c-0.1,0.3,1.6,1.9,2.7,1.9C252.2,107.1,254,105.5,253.8,105.3z M254.1,102.1
			c0-0.6-0.5-1.1-1.1-1.1c-0.6,0-1.1,0.5-1.1,1.1c0,0.6,0.5,1.1,1.1,1.1C253.6,103.2,254.1,102.7,254.1,102.1z"/>
		<path d="M282.3,121.3c-1-0.2-1.8,1.3-2.7,1c-0.9-0.3-0.7-2-1.4-2.4c-0.7-0.4-2.2,0.5-2.7,0.1c-1.4-0.9,1.9-5,2.6-9.6
			c0.8-4.6-0.8-7.7,1.7-12.1c1.8-3.2,8.5-3.1,10.3,0c2.8,4.6,0.6,7.5,1.2,12.9c0.5,4.6,4.3,9.4,2.3,10.5c-0.9,0.5-1.5-0.8-2.6-0.4
			c-0.8,0.2-0.7,1.7-1.2,1.8c-0.9,0.3-1.9-1-3-0.9c-0.8,0-1.5,1.5-2.3,1.4C283.3,123.4,283.4,121.5,282.3,121.3z M284,102.1
			c0-0.6-0.5-1.1-1.1-1.1c-0.6,0-1.1,0.5-1.1,1.1c0,0.6,0.5,1.1,1.1,1.1C283.6,103.2,284,102.7,284,102.1z M287.6,105.3
			c-0.2-0.2-1.6,0.8-2.7,0.8c-1.5,0-2.6-1.1-2.7-0.8c-0.1,0.3,1.6,1.9,2.7,1.9C286,107.1,287.8,105.5,287.6,105.3z M287.9,102.1
			c0-0.6-0.5-1.1-1.1-1.1c-0.6,0-1.1,0.5-1.1,1.1c0,0.6,0.5,1.1,1.1,1.1C287.4,103.2,287.9,102.7,287.9,102.1z"/>
		<path class="st2" d="M316.1,121.3c-1-0.2-1.8,1.3-2.7,1c-0.9-0.3-0.7-2-1.4-2.4c-0.7-0.4-2.2,0.5-2.7,0.1c-1.4-0.9,1.9-5,2.6-9.6
			c0.8-4.6-0.8-7.7,1.7-12.1c1.8-3.2,8.5-3.1,10.3,0c2.8,4.6,0.6,7.5,1.2,12.9c0.5,4.6,4.3,9.4,2.3,10.5c-0.9,0.5-1.5-0.8-2.6-0.4
			c-0.8,0.2-0.7,1.7-1.2,1.8c-0.9,0.3-1.9-1-3-0.9c-0.8,0-1.5,1.5-2.3,1.4C317.1,123.4,317.2,121.5,316.1,121.3z M317.8,102.1
			c0-0.6-0.5-1.1-1.1-1.1c-0.6,0-1.1,0.5-1.1,1.1c0,0.6,0.5,1.1,1.1,1.1C317.3,103.2,317.8,102.7,317.8,102.1z M321.3,105.3
			c-0.2-0.2-1.6,0.8-2.7,0.8c-1.5,0-2.6-1.1-2.7-0.8c-0.1,0.3,1.6,1.9,2.7,1.9C319.8,107.1,321.6,105.5,321.3,105.3z M321.7,102.1
			c0-0.6-0.5-1.1-1.1-1.1c-0.6,0-1.1,0.5-1.1,1.1c0,0.6,0.5,1.1,1.1,1.1C321.2,103.2,321.7,102.7,321.7,102.1z"/>
		<path d="M349.9,121.3c-1-0.2-1.8,1.3-2.7,1c-0.9-0.3-0.7-2-1.4-2.4c-0.7-0.4-2.2,0.5-2.7,0.1c-1.4-0.9,1.9-5,2.6-9.6
			c0.8-4.6-0.8-7.7,1.7-12.1c1.8-3.2,8.5-3.1,10.3,0c2.8,4.6,0.6,7.5,1.2,12.9c0.5,4.6,4.3,9.4,2.3,10.5c-0.9,0.5-1.5-0.8-2.6-0.4
			c-0.8,0.2-0.7,1.7-1.2,1.8c-0.9,0.3-1.9-1-3-0.9c-0.8,0-1.5,1.5-2.3,1.4C350.9,123.4,351,121.5,349.9,121.3z M351.6,102.1
			c0-0.6-0.5-1.1-1.1-1.1c-0.6,0-1.1,0.5-1.1,1.1c0,0.6,0.5,1.1,1.1,1.1C351.1,103.2,351.6,102.7,351.6,102.1z M355.1,105.3
			c-0.2-0.2-1.6,0.8-2.7,0.8c-1.5,0-2.6-1.1-2.7-0.8c-0.1,0.3,1.6,1.9,2.7,1.9C353.6,107.1,355.3,105.5,355.1,105.3z M355.5,102.1
			c0-0.6-0.5-1.1-1.1-1.1c-0.6,0-1.1,0.5-1.1,1.1c0,0.6,0.5,1.1,1.1,1.1C355,103.2,355.5,102.7,355.5,102.1z"/>
	</g>
</g>
</svg>
