<?xml version="1.0" encoding="utf-8"?>
<!-- Generator: Adobe Illustrator 21.1.0, SVG Export Plug-In . SVG Version: 6.00 Build 0)  -->
<svg version="1.1" id="Calque_1" xmlns="http://www.w3.org/2000/svg" xmlns:xlink="http://www.w3.org/1999/xlink" x="0px" y="0px"
	 viewBox="0 0 432 432" style="enable-background:new 0 0 432 432;" xml:space="preserve">
<style type="text/css">
	.st0{fill:#343434;}
	.st1{fill:#ADCA60;}
	.st2{fill:#6EABC7;}
	.st3{fill:#EC6350;}
	.st4{fill:#EF8E81;}
	.st5{fill:#1B1B1B;}
	.st6{fill:#D2CE75;}
	.st7{fill:#F3C559;}
	.st8{fill:#AE5237;}
	.st9{fill:#73543B;}
	.st10{fill:#020203;}
	.st11{fill:#E4E0DF;}
	.st12{fill:#C1BB63;}
	.st13{fill:#F6D9D3;}
	.st14{fill:#EFAA9C;}
	.st15{fill:#F2C559;}
	.st16{fill:#303D46;}
	.st17{fill:#5A676E;}
	.st18{fill:#E46459;}
	.st19{fill:#A1263C;}
	.st20{fill:#483B3E;}
	.st21{fill:#DE9F84;}
	.st22{fill:#8B936E;}
	.st23{fill:#9A8E7C;}
	.st24{fill:#7E8D66;}
	.st25{fill:#D3C0AF;}
	.st26{fill:#6C2C3D;}
	.st27{fill:#A4BED3;}
	.st28{fill:#9FB187;}
	.st29{fill:#FAD5D2;}
	.st30{fill:#D7A2AE;}
	.st31{fill:#4E4D4D;}
	.st32{fill:#B84645;}
	.st33{fill:#756357;}
	.st34{fill:#9FAF88;}
	.st35{fill:#A08155;}
	.st36{fill:#EED0C6;}
	.st37{fill:#D4A77E;}
	.st38{fill:#CDC5BB;}
	.st39{fill:#9F4843;}
	.st40{fill:#D09F99;}
	.st41{fill-rule:evenodd;clip-rule:evenodd;fill:#A08155;}
	.st42{fill:#AE4759;}
	.st43{fill:#C9868F;}
	.st44{fill:#7F8D62;}
	.st45{fill:#D27F8E;}
	.st46{fill:#C69390;}
	.st47{fill:#9A9999;}
	.st48{fill:#B68368;}
	.st49{fill:#6D1F1F;}
	.st50{fill:#D2B6B4;}
	.st51{fill:#A7909E;}
	.st52{fill:#F8BD93;}
	.st53{fill:#397D59;}
	.st54{fill:#C4CEB3;}
	.st55{fill:#93A477;}
	.st56{fill:#D18B2E;}
	.st57{fill:#3C3C3B;}
	.st58{fill:#575756;}
	.st59{fill:#E6007E;}
	.st60{fill:none;}
	.st61{fill:#F9B233;}
	.st62{fill:#85CBCA;}
	.st63{fill:#E99F2B;}
	.st64{fill-rule:evenodd;clip-rule:evenodd;fill:#F9B233;}
	.st65{fill:#D60B52;}
	.st66{fill:#F4DCB5;}
	.st67{fill:#E58096;}
	.st68{fill:#E94865;}
	.st69{fill:#C21F4A;}
	.st70{fill:#C6C6C6;}
	.st71{fill:#DAA8CE;}
	.st72{fill:#F59F61;}
	.st73{fill:#E9E4AC;}
	.st74{fill:#E8375E;}
	.st75{fill:#833B12;}
	.st76{fill:#BB5D1C;}
	.st77{fill:#D17A3F;}
	.st78{fill:#DE184E;}
	.st79{fill:#D98892;}
	.st80{fill:#45553F;}
	.st81{fill:#517861;}
	.st82{fill:#A63070;}
	.st83{fill:#932065;}
	.st84{fill:#598967;}
	.st85{fill:#679275;}
	.st86{fill:#9A9A9A;}
	.st87{fill:#D8A49D;}
	.st88{fill:#D48A57;}
	.st89{fill:#E8BB98;}
	.st90{fill:#BA6F68;}
	.st91{fill:#924642;}
	.st92{fill:#E8C5AF;}
	.st93{fill:#D1906C;}
	.st94{fill:#C47C5C;}
	.st95{fill:#A2AD74;}
	.st96{fill:#F4EBD8;}
	.st97{fill:#C8A464;}
	.st98{fill:#F4A3A3;}
	.st99{fill:#F4CA71;}
	.st100{fill:#18223C;}
	.st101{fill:#E5B642;}
	.st102{fill:#224422;}
	.st103{fill:#245727;}
	.st104{fill:#386C38;}
	.st105{fill:#C54923;}
	.st106{fill:#264239;}
	.st107{fill:#C1292E;}
	.st108{fill:#D39812;}
	.st109{fill:#A67D52;}
	.st110{fill:#715640;}
	.st111{fill:#AB4B58;}
	.st112{fill:#67482E;}
	.st113{fill:#E7E6E6;}
	.st114{fill:#3C5259;}
	.st115{fill:#544842;}
	.st116{fill:#7DAD91;}
	.st117{fill:#5D9373;}
	.st118{fill-rule:evenodd;clip-rule:evenodd;fill:#C57B39;}
	.st119{fill:#C57B39;}
	.st120{fill:#B4DEF0;}
	.st121{fill:#923951;}
</style>
<g>
	<path class="st57" d="M321.8,148.8c-0.4-0.7-1.1-0.9-1.9-0.8c-0.7,0-1.2,0.4-1.7,0.8c-0.8,0.7-1.6,1.4-2.4,2.1
		c-3.1,2.8-6.6,4.9-10.7,6.2c-2.9,0.9-5.8,1.4-8.7,2.2c-0.9,0.3-1.4,0.1-1.8-0.8c-1.5-3-3.4-5.8-5.2-8.7c-1.4-2.3-2.9-4.6-4.1-7.1
		c-0.7-1.5-0.7-1.5,0.6-2.3c2.6-1.6,4.8-3.7,6.7-6c1.9-2.4,3.3-5,3.7-8.1c0.4-4-0.9-7.2-4.1-9.6c-3.2-2.3-6.6-2.2-9.9-0.4
		c-2.9,1.5-5,3.8-6.7,6.6c-3.8,6.4-4.1,13.1-1.7,20.1c0.6,1.7,1.3,3.3,2.1,4.8c-0.2,0.2-0.3,0.5-0.5,0.8c-1.5,3.3-3,6.5-4.6,9.7
		c-2.5,5.4-4.9,10.9-7.7,16.1c-1.3,2.5-2.8,4.9-4.6,7c-0.9,1-1.9,1.9-3.2,2.5c-0.8,0.4-1.4,0.1-1.8-0.6c-0.4-0.8-0.7-1.6-0.7-2.5
		c-0.2-1.9-0.4-3.9-0.3-5.8c0.3-6.9,1.2-13.7,2.6-20.4c1.3-6.1,3.3-12,5.1-18c0.7-2.3,1.4-4.5,1.6-6.9c0.2-2.4-0.7-4.1-2.8-5
		c-2.1-0.9-3.9-0.5-5.6,1.4c-0.9,1-1.7,2.1-2.8,3.6c-0.8-0.9-1.4-1.8-2.1-2.4c-7.2-6.3-16.6-6-23.1,0.9c-0.9,1-1.8,2.1-2.5,3.2
		c-3.9,6.1-5.4,12.9-5,20.1c0,0.7,0.1,1.3,0.2,2c-6.3,1-11,0.9-16.4-2.9c-0.9-0.6-1-1.2-0.8-2.2c0.4-1.6,0.7-3.2,1-4.8
		c1.1-5.9,1.9-11.8,1.5-17.7c-0.1-1.2-0.3-2.4-0.6-3.6c-1.1-3.6-4.6-5.3-8.2-4.1c-2.1,0.7-3.6,2.1-4.7,3.9c-2.6,4-2.9,8.5-2.2,13.1
		c0.9,5.6,3.2,10.5,7,14.8c0.7,0.8,0.9,1.5,0.6,2.5c-0.9,3.1-1.7,6.2-2.6,9.3c-1.5,4.7-3.1,9.4-5.5,13.7c-0.7,1.2-1.4,2.5-2.5,3.5
		c-0.9-1.1-1.1-2.3-1.4-3.5c-1.7-6.7-2.5-13.5-3.1-20.4c-0.4-5.2-0.8-10.4-1.3-15.6c-0.2-2.4-0.7-4.8-1.7-7.1
		c-0.9-2.1-2.3-3.8-4.7-4.4c-2.5-0.6-4.2,0.2-4.9,2.7c-2.4,7.8-5.3,15.4-8.1,23.1c-2.2,6.2-4.5,12.4-7.2,18.4
		c-0.8,1.7-1.5,3.4-2.9,4.8c-0.6-0.6-0.8-1.2-1.1-1.9c-1.1-2.4-1.8-5-2.5-7.5c-2.8-10.8-4.8-21.7-6.9-32.6
		c-0.7-3.6-1.4-7.2-2.9-10.5c-0.5-1.1-1-2.1-1.9-2.8c-1.3-1.1-2.8-1.4-4.4-0.7c-1.4,0.6-1.7,1.9-1.7,3.2c0,2.4,0,4.7,0.1,7.1
		c0.1,9.4,1.4,18.6,4.1,27.6c1.8,6.2,4.2,12.2,7.8,17.6c1.1,1.6,2.3,3.1,3.9,4.3c4,2.9,7.9,2.1,10.4-2.1c1.2-2,2.1-4.1,2.9-6.2
		c2.8-7.6,5.5-15.2,8.3-22.8c0.4-1.2,0.7-2.4,1.6-3.7c0.4,1.3,0.3,2.4,0.3,3.5c0.1,4.6,0.6,9.2,1.5,13.7c1.3,6.2,3.5,12,7.5,17
		c1.1,1.4,2.3,2.6,3.8,3.5c3.3,1.9,6.6,1.3,9.1-1.6c0.9-1,1.6-2.2,2.3-3.4c1.6-2.9,2.9-5.9,4-9c1.8-4.9,3.2-9.9,4.6-15.2
		c4.2,2,7.8,4.1,17.9,3c0.4,0,0.7-0.1,1.1-0.2c0.6,2.1,1.4,4.1,2.6,6.1c1.3,2.2,3,4,5.4,5c3,1.3,6,0.6,8.1-1.9
		c1.1-1.3,1.9-2.7,2.7-4.1c1.1-2,2.1-4.1,3.2-6.1c0.2-0.5,0.3-1.1,1-1.2c0,0.1,0.1,0.2,0.1,0.3c0,0.3-0.1,0.6-0.1,0.8
		c-1.4,7.1-1.3,14.2,0.6,21.3c0.9,3.3,2.6,6.2,5.2,8.5c3.8,3.2,8.3,3.2,12.1-0.1c1.1-0.9,2-2,2.9-3.2c1.6-2.3,3-4.7,4.2-7.3
		c3.7-7.9,7.3-15.9,11-23.8c0.4,0.7,0.8,1.4,1.2,2c1.8,3.2,3.7,6.5,5.6,9.7c0.6,1.1,0.6,1.8-0.4,2.7c-2.6,2.7-4.3,5.9-4.7,9.7
		c-0.5,5.3,3.2,9.6,8.4,9.5c6.6,0,11.7-5.2,11.5-11.9c0-0.4-0.1-0.9-0.1-1.3c-0.3-2.7-1.1-5.3-2.1-7.9c-0.5-1.4-0.5-1.4,0.8-1.8
		c0.7-0.2,1.4-0.3,2.1-0.5c3.1-0.6,6.1-1.4,9.1-2.6c4.8-1.9,8.7-4.9,12.2-8.6C321.7,150.1,322.2,149.5,321.8,148.8z M197.2,143.7
		c0,0.2-0.2,0.3-0.4,0.6c-1.6-2.6-2.2-5.5-2.7-8.4c-0.6-3.6-0.6-7.1,0.8-10.6c0.5-1.1,1-2.2,1.9-3.1c0.5-0.5,1.1-0.4,1.3,0.3
		c0.2,0.7,0.5,1.5,0.5,2.3C199.3,131.3,198.5,137.5,197.2,143.7z M247.4,136.4c-1.1,2.9-2.6,5.6-4.2,8.2c-2.4,4-4.6,8.1-6.9,12.1
		c-1,1.7-2,3.5-3.3,5c-0.6,0.7-1.2,1.4-2.1,1.9c-1-1.4-1.4-3.1-1.7-4.7c-1.3-6.8-1.3-13.7,0.3-20.5c0.7-3,2.1-5.8,4.3-8
		c3.2-3.1,6.6-3.5,10.3-1.1c0.7,0.5,1.4,1,2,1.6C248.7,133.1,248.6,133.2,247.4,136.4z M283.3,137.9c-1.8-5.8-1.4-11.1,1.8-16.1
		c0.3-0.4,0.6-0.8,1-1.2c2.1-2.5,3.8-1.4,5.1,0.6c1.2,2,0.9,4.1,0.4,6.3c-0.5,2-1.6,3.7-2.9,5.3
		C287.2,134.6,285.5,136.3,283.3,137.9z M288.2,179.9c-1.4,1.2-2.5,1.1-3.6-0.4c-0.6-0.8-1-1.8-1-2.8c-0.3-3.4,1-6.1,3.3-8.7
		c1.4,2.8,2.5,5.4,2.8,8.3C289.7,177.7,289.3,178.9,288.2,179.9z"/>
	<g>
		<path class="st58" d="M144.4,232.2c-2,0-4.1,0-6.1,0c-0.7,0-0.7,0-0.8,0.7c-0.3,1.9-0.6,3.9-0.9,5.8c-0.1,0.4,0,0.7,0.4,0.9
			c0.5,0.3,1,0.7,1.4,1.1c0.3,0.3,0.5,0.7,0.3,1.1c-0.2,0.4-0.5,0.5-1,0.6c-1.7,0.2-3.4,0.1-5.1,0.1c-0.2,0-0.4-0.1-0.6-0.1
			c-0.4-0.1-0.7-0.4-0.8-0.8c-0.1-0.4,0.1-0.8,0.5-1c0.6-0.4,1.2-0.8,1.8-1.2c0.4-0.2,0.5-0.4,0.5-0.9c0.7-6.2,1.6-12.3,3.2-18.3
			c0.8-2.9,1.8-5.7,2.9-8.5c1-2.4,2.2-4.7,3.7-6.8c0.5-0.7,1.1-1.3,1.8-1.9c1.5-1.3,3.3-0.8,4.3,0.2c0.5,0.4,0.8,0.9,1.2,1.5
			c1.7,2.5,2.6,5.4,3.1,8.4c0.5,3,0.8,6,1,9.1c0.1,2.4,0.2,4.7,0.3,7.1c0,0.7,0.1,1.4,0.2,2.1c0.2,2.1,0.2,4.2,0.1,6.4
			c0,0.4,0.1,0.7,0.4,1c0.4,0.4,0.8,0.9,1.2,1.4c0.2,0.3,0.4,0.6,0.6,0.9c0.5,0.9,0,1.7-1,1.9c-0.5,0.1-1,0.1-1.4,0.2
			c-1.9,0-3.9,0-5.8,0c-0.4,0-0.7-0.1-1-0.2c-1.2-0.4-1.5-1.6-0.6-2.5c0.7-0.6,1.4-1.2,2.2-1.7c0.4-0.3,0.6-0.6,0.6-1
			c0.1-1.6,0.2-3.3,0.3-4.9c0-0.7,0-0.7-0.7-0.7C148.5,232,146.4,232.1,144.4,232.2z M137.9,230.3c0.3,0.1,0.7,0.1,1,0
			c2.4-0.2,4.9-0.2,7.3-0.3c1.4,0,2.8-0.2,4.2-0.3c0.8-0.1,0.8-0.1,0.8-0.8c-0.1-4.8,0-9.7-0.4-14.5c-0.2-2.4-0.5-4.7-1-7
			c-0.2-0.7-0.4-1.4-0.7-2c-0.3-0.5-0.7-0.6-1.2-0.2c-0.2,0.1-0.4,0.3-0.5,0.5c-0.6,0.6-1.2,1.3-1.7,1.9c-2.3,2.7-3.6,6-4.8,9.3
			C139.2,221.3,138.4,225.8,137.9,230.3z"/>
		<path class="st58" d="M174.1,243c-1.7,0-3.7-0.3-5.7-0.4c-1.9-0.1-3.9-0.1-5.8,0.3c-0.7,0.2-1,0.1-1.2-0.3
			c-0.2-0.4,0.1-0.8,0.7-1.1c0.9-0.5,1.9-0.8,2.9-1.1c0.2,0,0.4-0.1,0.6-0.1c0.3,0,0.5-0.2,0.5-0.5c0-0.5,0-1,0-1.5
			c-0.3-5.8-0.2-11.5-0.5-17.3c-0.2-3.9-0.1-7.9-0.1-11.8c0-0.7,0.1-1.5,0.2-2.2c0-0.4,0-0.7-0.3-1c-0.2-0.2-0.4-0.5-0.5-0.7
			c-0.4-0.6-0.3-1.2,0.4-1.6c0.4-0.2,0.9-0.3,1.3-0.3c1.4-0.1,2.8,0.1,4.2,0.2c0.2,0,0.4,0.1,0.5,0.1c0.7,0.3,0.8,1.1,0.2,1.6
			c-0.4,0.3-0.8,0.7-1.2,1.1c-0.2,0.2-0.2,0.4-0.2,0.7c0.4,4.2,0.3,8.4,0.4,12.7c0,3.6-0.2,7.2-0.3,10.8c0,1.1,0,2.3,0,3.4
			c0,1.8,0,3.6-0.1,5.3c0,0.6,0,0.7,0.6,0.7c2,0.2,3.9,0.5,5.9,0.4c0.8,0,1.6-0.2,2.3-0.5c1-0.4,1.6-1.1,1.8-2.1
			c0.1-0.3,0.1-0.5,0.2-0.8c0.1-0.4,0.5-0.7,0.9-0.6c0.4,0.1,0.7,0.4,0.7,0.8c-0.1,1.5-0.5,3-1.8,4c-1.1,0.8-2.4,1.2-3.8,1.5
			C176.2,243,175.2,243,174.1,243z"/>
		<path class="st58" d="M198.5,232.3c0.2-0.2,0.2-0.4,0.3-0.6c1-5.1,2-10.2,2.9-15.3c0.3-1.8,0.7-3.6,1-5.3c0.1-0.3,0.1-0.7,0.1-1
			c0.1-0.5,0.3-0.8,0.8-0.9c0.4-0.1,0.8,0.1,1.1,0.4c0.3,0.4,0.4,0.9,0.5,1.4c0.6,2.8,1,5.5,1.5,8.3c0.8,5.3,1.7,10.5,3.4,15.6
			c0.1,0.3,0.1,0.7,0.4,1c0.2-1.8,0.4-3.5,0.6-5.2c0.4-3,0.9-6,1.3-9c0.6-4.1,1.5-8.1,2.8-12c0.3-1.1,0.7-2.1,1.1-3.2
			c0.1-0.3,0.1-0.5-0.2-0.7c-0.3-0.2-0.5-0.3-0.7-0.5c-0.8-0.7-0.6-1.7,0.3-2c0.4-0.1,0.7-0.2,1.1-0.2c1.3,0,2.7,0,4,0
			c0.4,0,0.7,0.2,0.9,0.6c0.2,0.4,0.1,0.8-0.2,1.2c-0.3,0.4-0.7,0.8-1,1.2c-0.6,0.8-1.1,1.6-1.3,2.6c-0.8,5-1.6,10.1-2.4,15.1
			c-0.9,5.4-2.1,10.8-3.5,16c-0.1,0.4-0.2,0.9-0.2,1.3c-0.1,1.4-1,2-2.3,1.5c-0.7-0.3-1.1-0.8-1.3-1.5c-0.5-1.8-1-3.6-1.6-5.4
			c-1.9-6-3.2-12.2-4.4-18.4c0-0.2-0.1-0.3-0.1-0.5c0,0-0.1-0.1-0.1-0.2c-0.2,0.6-0.3,1.2-0.4,1.8c-1.1,6.6-2.4,13.1-3.7,19.7
			c-0.1,0.5-0.1,0.9-0.1,1.4c0.1,0.5,0,1.1,0,1.7c0,0.6-0.3,1.1-0.7,1.5c-0.9,0.8-2,0.4-2.4-0.7c-0.2-0.5-0.2-1.1-0.2-1.6
			c-0.5-3-1.2-6-2-8.9c-1.6-6.1-3.2-12.2-4.5-18.4c-0.4-2-1-3.9-1.5-5.9c-0.1-0.4-0.3-0.7-0.7-0.9c-0.4-0.2-0.8-0.3-1.1-0.6
			c-0.9-0.8-0.7-1.8,0.3-2.2c0.5-0.2,1-0.3,1.6-0.3c1.2,0,2.4,0.1,3.5,0.2c1.1,0.1,1.6,0.9,1,1.8c-0.7,1.1-0.5,2.1-0.1,3.2
			c2.5,6.9,4.2,14,5.4,21.2C198.2,230.3,198.3,231.3,198.5,232.3z"/>
		<path class="st58" d="M235.3,232.2c-2,0-4.1,0-6.1,0c-0.7,0-0.7,0-0.8,0.7c-0.3,1.9-0.6,3.9-0.9,5.8c-0.1,0.4,0,0.7,0.4,0.9
			c0.5,0.3,1,0.7,1.4,1.1c0.3,0.3,0.5,0.7,0.3,1.1c-0.2,0.4-0.5,0.5-1,0.6c-1.7,0.2-3.4,0.1-5.1,0.1c-0.2,0-0.4-0.1-0.6-0.1
			c-0.4-0.1-0.7-0.4-0.8-0.8c-0.1-0.4,0.1-0.8,0.5-1c0.6-0.4,1.2-0.8,1.8-1.2c0.4-0.2,0.5-0.4,0.5-0.9c0.7-6.2,1.6-12.3,3.2-18.3
			c0.8-2.9,1.8-5.7,2.9-8.5c1-2.4,2.2-4.7,3.7-6.8c0.5-0.7,1.1-1.3,1.8-1.9c1.5-1.3,3.3-0.8,4.3,0.2c0.5,0.4,0.8,0.9,1.2,1.5
			c1.7,2.5,2.6,5.4,3.1,8.4c0.5,3,0.8,6,1,9.1c0.1,2.4,0.2,4.7,0.3,7.1c0,0.7,0.1,1.4,0.2,2.1c0.2,2.1,0.2,4.2,0.1,6.4
			c0,0.4,0.1,0.7,0.4,1c0.4,0.4,0.8,0.9,1.2,1.4c0.2,0.3,0.4,0.6,0.6,0.9c0.5,0.9,0,1.7-1,1.9c-0.5,0.1-1,0.1-1.4,0.2
			c-1.9,0-3.9,0-5.8,0c-0.4,0-0.7-0.1-1-0.2c-1.2-0.4-1.5-1.6-0.6-2.5c0.7-0.6,1.4-1.2,2.2-1.7c0.4-0.3,0.6-0.6,0.6-1
			c0.1-1.6,0.2-3.3,0.3-4.9c0-0.7,0-0.7-0.7-0.7C239.3,232,237.3,232.1,235.3,232.2z M228.8,230.3c0.3,0.1,0.7,0.1,1,0
			c2.4-0.2,4.9-0.2,7.3-0.3c1.4,0,2.8-0.2,4.2-0.3c0.8-0.1,0.8-0.1,0.8-0.8c-0.1-4.8,0-9.7-0.4-14.5c-0.2-2.4-0.5-4.7-1-7
			c-0.2-0.7-0.4-1.4-0.7-2c-0.3-0.5-0.7-0.6-1.2-0.2c-0.2,0.1-0.4,0.3-0.5,0.5c-0.6,0.6-1.2,1.3-1.7,1.9c-2.3,2.7-3.6,6-4.8,9.3
			C230,221.3,229.3,225.8,228.8,230.3z"/>
		<path class="st58" d="M264.2,221.1c0.7-2.8,1.2-5.4,1.7-8.1c0.4-2.5,1-5,1.9-7.4c0.3-0.7,0.2-1.2-0.2-1.7
			c-0.6-0.9-0.3-1.5,0.7-1.6c0.2,0,0.3,0,0.5,0c1.5,0,2.9,0,4.4,0c0.3,0,0.5,0,0.8,0.1c0.9,0.2,1.2,1,0.6,1.7
			c-0.4,0.5-0.8,0.9-1.2,1.4c-0.5,0.5-0.7,1-0.9,1.7c-0.9,3.5-1.7,6.9-2.5,10.4c-1.1,5-2.5,9.8-3.9,14.7c-0.7,2.4-1.3,4.9-1.7,7.4
			c-0.1,0.5,0.1,0.9,0.5,1.3c0.2,0.2,0.4,0.4,0.6,0.6c0.2,0.3,0.3,0.6,0.1,0.9c-0.1,0.3-0.4,0.4-0.7,0.4c-2.1,0.1-4.3,0.2-6.4,0.3
			c-0.1,0-0.2,0-0.3,0c-0.3-0.1-0.6-0.2-0.7-0.6c-0.1-0.4,0.1-0.7,0.4-0.9c0.3-0.2,0.6-0.3,1-0.4c0.4-0.2,0.7-0.5,0.8-0.9
			c0.5-1.4,1-2.8,1.3-4.3c0.6-2.7,1.2-5.4,1.7-8c0.1-0.3,0.1-0.5,0-0.8c-1.6-4.2-3.2-8.3-4.6-12.5c-0.8-2.5-1.9-4.9-3-7.2
			c-0.6-1.2-1.2-2.3-2.4-3c-0.8-0.5-0.6-1.2,0.3-1.5c0.9-0.4,1.9-0.3,2.9-0.2c0.7,0.1,1.4,0.1,2.2,0.2c1.1,0.1,1.5,1,0.8,1.9
			c-0.4,0.5-0.4,0.9-0.3,1.5c0.4,1.8,1,3.5,1.6,5.2c1.1,3,2.3,6,3.6,9C263.8,220.5,263.9,220.8,264.2,221.1z"/>
		<path class="st58" d="M280.5,237.5c-0.5-1.5-0.6-2.2-1.4-2.4c-0.6-0.2-1.2-0.6-1.1-1.3c0.1-0.8,0.7-1.4,1.9-1.2
			c1.6,0.2,4.5,0.2,3.2,2.1c-0.6,0.9-1.1,1.1-0.4,2.3c0.7,1.2,1.6,2.3,2.7,2.9c8.8,4.7,14.3-10.9,7.2-14.6c-4-2.1-6.6-2.8-8.8-5.2
			c-2.1-2.3-2.8-5.1-2.4-8.2c0.5-4,2.5-6.9,5.7-8.9c3.4-2.2,7.4-1.2,9.4,3.9c0.5,1.1,1.4,1.4,1.7,2c0.8,1.9-2.9,1.9-4,1.7
			c-1.1-0.1-1.5-1.4-0.7-2.1c0.5-0.5,1-0.6,0.6-1.4c-0.9-1.8-3.8-3.4-6-1.3c-9.4,9,5.3,14.9,7.8,17.1
			C311.3,236.4,285.1,251.2,280.5,237.5z"/>
	</g>
	<path class="st57" d="M309.4,294.5c-1.1-0.2-2,0.2-2.5,1.2c-0.2,0.3-0.3,0.7-0.4,1c-2.2,6-4.5,11.9-7.4,17.7
		c-1.3,2.7-2.8,5.3-4.5,7.7c-0.8,1.1-1.7,2.2-2.8,2.9c-0.9,0.6-1.2,0.5-1.7-0.5c-0.4-0.9-0.6-1.8-0.7-2.7c-0.9-5.5-1.1-11-1.3-16.5
		c-0.2-4.7,0-9.4-0.5-14.1c-0.2-2.2-0.6-4.3-1.5-6.3c-0.5-1.1-1.1-2.1-2.1-2.8c-2.5-1.9-5.5-1.4-7.2,1.3c-0.6,0.9-1,1.8-1.5,2.8
		c-2.5,5.2-5,10.4-7.5,15.6c-1.6,3.4-3.4,6.8-5.6,9.9c-0.8,1.2-1.6,2.3-2.7,3.3c-0.9,0.8-1.2,0.8-1.9-0.3c-1.1-1.6-1.7-3.4-2.1-5.3
		c-0.9-4.3-0.9-8.6-0.8-13c0-3.5,0.2-7.1,0.3-10.6c0.1-2.6,0-5.2-0.6-7.8c-0.5-1.9-1.7-3-3.4-3.2c-2-0.2-3.3,0.6-4.1,2.5
		c-0.4,1-0.7,2-1,3c-0.7,2.9-1.2,5.8-1.5,8.7c-2.9,1.6-7.2,3.3-13.6,3.2c0.3-4.7,0-9.8-0.7-13.3c-8.6-42-43.4-15-28.2,8.4
		c-0.2,0.8-0.3,1.6-0.5,2.5c-0.2,1.3-0.4,2.7-0.5,4.2c-0.5,0.8-0.9,1.6-1.3,2.4c-3.9,7.8-9.2,14.5-15.7,20.3c-1.8,1.6-3.6,3-5.8,4.4
		c0-0.4-0.1-0.6,0-0.8c0.9-5.4,1.7-10.8,2.3-16.2c0.9-7.9,1.9-15.8,2.3-23.7c0.1-1.8,0-3.6-0.2-5.4c-0.4-2.3-1.6-4-3.8-4.8
		c-2.6-1-4.4-0.1-5.2,2.5c-0.3,0.9-0.5,1.8-0.6,2.7c-0.1,1.1-0.4,2.1-0.9,3c-3.1,7.1-6.6,13.9-10.9,20.3c-1.3,1.9-2.7,3.7-4.4,5.3
		c-1.6,1.5-3.3,2.7-5.3,3.4c-1.6,0.6-2.1,0.4-3-1.1c-0.7-1.2-1.1-2.5-1.4-3.8c-1.2-5.5-1.6-11.2-1.5-16.8c0.1-3.8,0.3-7.7,0.4-11.5
		c0-1,0-2-0.3-2.9c-0.7-1.9-2.3-3.2-4.3-3.3c-2-0.1-3.2,1-4,2.7c-0.5,1-0.8,2.1-1,3.2c-1.5,6.7-1.9,13.5-1.1,20.3
		c0.8,6.1,3.2,11.3,8,15.3c3.8,3.2,7.6,3.4,11.8,0.8c3.3-2,5.9-4.8,8.1-7.9c2.3-3.4,4.3-6.9,6.4-10.5c0.4-0.7,0.7-1.4,1.4-2.1
		c0.2,0.7,0,1.3,0,1.8c-0.6,4.6-1.1,9.1-1.7,13.7c-1,7.4-2.2,14.8-3.5,22.2c-0.2,1.3-0.8,1.9-1.9,2.5c-4.5,2.4-8.8,5.1-12.9,8.2
		c-5.8,4.3-9.5,10.1-11,17.2c-0.7,3.3-0.1,6.3,2,8.9c1.5,1.9,3.5,2.9,5.9,3c4.2,0.2,7.7-1.5,10.9-4c4.5-3.6,7.8-8.1,10.6-13
		c3.9-7,6.1-14.5,7.4-22.3c0.2-1.1,0.6-1.8,1.5-2.3c4.6-2.9,8.9-6.3,12.7-10.2c3.7-3.8,6.8-8.1,9.5-12.6c0.3,5.5,1.7,10.7,5.5,14.2
		c4.6,4.4,11.5,4.3,16.1-0.1c1.3-1.2,2.3-2.6,3.1-4.1c2.6-4.5,4.3-10.7,5-16.9c5,0.6,10.1-0.9,13.8-3c0,0.9-0.1,1.9-0.1,2.8
		c0,4.3,0.3,8.6,1.8,12.7c1.4,4.1,3.8,7.5,7.5,9.9c3.8,2.5,7.5,1.8,10.4-1.7c1.4-1.8,2.6-3.8,3.7-5.8c2.7-4.8,4.8-9.8,7.1-14.7
		c0.7-1.5,1.4-3,2.5-4.6c0.3,0.8,0.2,1.4,0.2,1.9c-0.1,5.6-0.3,11.2,0.1,16.8c0.3,4.6,1.3,9,3.4,13c0.9,1.8,2.2,3.4,3.9,4.7
		c3,2.2,6.8,2.3,9.9,0.2c1.5-1,2.6-2.4,3.6-3.9c1.9-2.8,3.5-5.8,4.9-9c2.2-5.2,4.4-10.5,6.6-15.8c0.4-0.9,0.7-1.8,1-2.8
		C310.9,295.4,310.5,294.7,309.4,294.5z M163.5,337.3c-1.5,6.8-3.8,13.2-7.5,19.1c-1.1,1.7-2.3,3.4-3.9,4.7c-1,0.9-2.2,1.6-3.5,2
		c-1.3,0.4-2.3,0.1-3.2-0.8c-1.3-1.3-2-2.9-2.1-4.8c-0.1-3.2,0.8-6.3,2.4-9.1c1.7-3.1,4-5.7,6.8-7.8c3.4-2.6,7.1-4.8,10.8-6.8
		c0.2-0.1,0.4-0.2,0.8-0.3C164.2,334.9,163.7,336.1,163.5,337.3z M220.1,312c-0.9,1.3-2,2.4-3.5,3c-1.9,0.8-2.9,0.4-3.6-1.5
		c-1.7-4.9-1.4-15.5-1.2-21.8c4.7,1.7,9.4,2.9,14.3,3.7C225.1,301.7,223.1,308,220.1,312z M226.7,291.4c-0.6-0.1-1.2-0.2-1.8-0.3
		c-4.4-0.6-8.7-1.7-12.9-3.3c0-0.7,0-1.5-0.1-2.2c-0.3-2.3-2.9-4.9-5.4-4.5c-5.7-18.8,14.2-33.4,20-2.8
		C227.1,281.9,227.2,286.6,226.7,291.4z"/>
	<g>
		<path class="st58" d="M206.7,100c0.3,0.8,0.1,1.3-0.7,1.6c-0.4,0.1-0.8,0.2-1.2,0.2c-1.2,0-2.4,0.1-3.6,0c-0.3,0-0.5,0-0.7-0.2
			c-0.4-0.3-0.5-0.8-0.2-1.2c0.3-0.4,0.6-0.7,0.9-1.1c0.3-0.3,0.4-0.7,0.4-1.2c-0.1-2.5-0.2-5.1-0.3-7.6c-0.1-2.9-0.2-5.8-0.2-8.7
			c-0.1-3.3-0.1-6.6,0-9.9c0-0.8,0.1-1.7,0.1-2.5c0-0.4,0-0.8-0.2-1.2c-0.3-0.4-0.5-0.9-0.7-1.3c-1.3-2.4,2.2-1.9,3.3-1.8
			c1.2,0,4.2-0.3,2.9,1.7c-0.4,0.6-0.8,1.3-1.1,2c-0.1,0.3-0.2,0.6-0.1,1c0.5,6,0.4,27,0.3,27.9c0,0.5,0,1,0.4,1.4
			C206.4,99.3,206.6,99.6,206.7,100z"/>
		<path class="st58" d="M221.2,64.8c2.3,0,4.6,0.1,6.8,0.3c0.6,0.1,1.3,0.2,1.9,0.3c0.7,0.1,1.2,0.5,1.6,1.1
			c0.4,0.7,0.5,1.5,0.3,2.3c-0.1,0.4-0.2,0.8-0.4,1.2c-0.1,0.4-0.4,0.6-0.8,0.6c-0.4,0-0.7-0.2-0.8-0.6c-0.1-0.5-0.4-1-0.5-1.5
			c0-0.3-0.2-0.4-0.5-0.5c-0.3,0-0.5-0.1-0.8-0.1c-1.6,0-3.2,0-4.9,0c-0.7,0-0.7,0-0.8,0.8c-0.2,2.6-0.2,5.2-0.2,7.8
			c0.1,4.5,0,9-0.1,13.4c-0.1,2.3,0,4.7,0,7c0,0.7,0.3,1.2,0.6,1.7c0.3,0.4,0.6,0.8,1,1.2c0.7,0.9,0.4,1.6-0.7,1.8
			c-1.2,0.2-2.3,0.2-3.5,0.1c-0.8,0-1.5-0.1-2.3-0.1c-0.6,0-1.2-0.1-1.4-0.7c-0.2-0.5,0-1,0.7-1.5c1-0.7,1.5-1.6,1.5-2.9
			c-0.1-6.2,0.1-12.3,0.2-18.5c0-3,0.1-6,0.1-9c0-0.1,0-0.2,0-0.4c0-0.4-0.1-0.5-0.5-0.5c-0.9,0.1-1.8,0.1-2.7,0.2
			c-1.1,0.1-2.2,0.3-3.3,0.4c-0.4,0-0.5,0.2-0.5,0.5c0,0.3,0,0.6,0,0.8c-0.1,0.4-0.4,0.7-0.6,0.7c-0.3,0-0.6-0.3-0.7-0.7
			c-0.1-0.9-0.2-1.8-0.2-2.8c0-0.8,0.5-1.2,1.2-1.5c0.4-0.2,0.9-0.3,1.4-0.4C215.3,65.2,218.3,64.8,221.2,64.8z"/>
	</g>
	<g>
		<path class="st57" d="M177.8,67.5c-7.8-3.9-15,3.9-11.1,14.9c-4.1-2.4-8.2-5.5-13.2-4.7c-7.4,1.3-16,18.3,24.1,22.3
			c0.5,0.2,1.4,0,1.5-0.8C181.1,79,183.3,70.3,177.8,67.5z"/>
		<path class="st57" d="M273.6,77.7c-5-0.9-9.1,2.2-13.2,4.7c3.9-11-3.3-18.8-11.1-14.9c-5.5,2.7-3.4,11.5-1.3,31.7
			c0.1,0.9,1,1.1,1.5,0.8C289.5,96.1,281,79.1,273.6,77.7z"/>
	</g>
	<g>
		<path class="st57" d="M187.4,344.8c0.3-9,10.9-9.1,17.5-8.4c6.7,0.7,13.5,1.7,20.2,2.7c12.6,1.8,25.1,3.7,37.8,4.9
			c12.3,1.2,25.4,2.4,37.6,0.5c7.7-1.2,14.7-6.2,13.5-14.7c-0.3-2.1-3.4-1.2-3.1,0.9c2.9,20.5-65.9,8-76.6,6.5
			c-11.3-1.6-23.4-4.5-34.9-4.4c-7.4,0.1-14.9,3.8-15.2,12C184.1,346.9,187.3,346.9,187.4,344.8L187.4,344.8z"/>
	</g>
	<g>
		<g>
			<path class="st57" d="M310.5,222.1c-0.3,0-0.5,0.1-0.8,0.3c-1.4,0.4-1.8,2.8,0,3.4c3.7,1.2,7.6,2.2,11.5,2.6
				c2.2,0.2,5.6,0.1,6.6-2.5C330.1,219.2,313.2,221.8,310.5,222.1z"/>
			<path class="st57" d="M329.6,198.3c-3.3-4.3-8.6,0.5-11.2,2.8c-5.2,4.6-8.9,9.9-12.3,15.9c-0.9,1.6,1.1,3,2.3,2.1
				c5.8-2.5,11.1-5.6,15.9-9.7C327.1,207.1,332.8,202.4,329.6,198.3z"/>
			<path class="st57" d="M331.6,246.2c-2.7,4.6-8.5,0.5-11.3-1.5c-5.6-3.9-9.8-8.7-13.8-14.2c-1-1.4,0.8-3.1,2-2.3
				c5.9,1.8,11.5,4.3,16.6,7.7C328.1,237.9,334.2,241.8,331.6,246.2z"/>
		</g>
		<g>
			<path class="st57" d="M121.5,222.1c0.3,0,0.5,0.1,0.8,0.3c1.4,0.4,1.8,2.8,0,3.4c-3.7,1.2-7.6,2.2-11.5,2.6
				c-2.2,0.2-5.6,0.1-6.6-2.5C101.9,219.2,118.8,221.8,121.5,222.1z"/>
			<path class="st57" d="M102.4,198.3c3.3-4.3,8.6,0.5,11.2,2.8c5.2,4.6,8.9,9.9,12.3,15.9c0.9,1.6-1.1,3-2.3,2.1
				c-5.8-2.5-11.1-5.6-15.9-9.7C104.9,207.1,99.2,202.4,102.4,198.3z"/>
			<path class="st57" d="M100.4,246.2c2.7,4.6,8.5,0.5,11.3-1.5c5.6-3.9,9.8-8.7,13.8-14.2c1-1.4-0.8-3.1-2-2.3
				c-5.9,1.8-11.5,4.3-16.6,7.7C103.9,237.9,97.8,241.8,100.4,246.2z"/>
		</g>
	</g>
</g>
</svg>
