<?xml version="1.0" encoding="iso-8859-1"?>
<!-- Generator: Adobe Illustrator 19.0.0, SVG Export Plug-In . SVG Version: 6.00 Build 0)  -->
<svg version="1.1" id="Capa_1" xmlns="http://www.w3.org/2000/svg" xmlns:xlink="http://www.w3.org/1999/xlink" x="0px" y="0px"
	 viewBox="0 0 512.009 512.009" style="enable-background:new 0 0 512.009 512.009;" xml:space="preserve">
<g>
	<g>
		<g>
			<path d="M213.143,382.095c-0.922-5.068-5.334-8.753-10.485-8.757h-21.333v-10.667h21.333c5.891,0,10.667-4.776,10.667-10.667v-32
				c0-5.891-4.776-10.667-10.667-10.667H31.991c-5.891,0-10.667,4.776-10.667,10.667v32c0,5.891,4.776,10.667,10.667,10.667h21.333
				v10.667H31.991c-5.151,0.004-9.563,3.689-10.485,8.757L0.172,499.428c-0.114,0.627-0.172,1.263-0.172,1.9
				c-0.005,5.891,4.767,10.671,10.658,10.676h213.333c0.637,0,1.273-0.058,1.9-0.172c5.796-1.055,9.64-6.608,8.585-12.404
				L213.143,382.095z M42.658,330.671h149.333v10.667h-21.333H63.991H42.658V330.671z M74.658,362.671h85.333v10.667H74.658V362.671
				z M35.084,426.671h71.573v32H29.271L35.084,426.671z M23.458,490.671l1.938-10.667h91.929c5.891,0,10.667-4.776,10.667-10.667
				v-53.333c0-5.891-4.776-10.667-10.667-10.667H38.96l1.938-10.667H193.73l17.461,96H23.458z"/>
			<path d="M509.1,69.135c-3.378-3.46-8.065-5.324-12.896-5.131c-6.548,0-15.907,3.399-26.88,9.039V32.004c0-17.673-14.327-32-32-32
				H127.991c-17.673,0-32,14.327-32,32v256h21.333v-256c0-5.891,4.776-10.667,10.667-10.667h309.333
				c5.891,0,10.667,4.776,10.667,10.667v53.333h0.154c-42.175,26.753-94.706,71.315-111.802,89.504
				c-18.953,20.241-28.608,47.367-26.835,74.878l-15.533,16.952h-27.317v21.333h32c2.989,0,5.841-1.253,7.861-3.456l17.352-18.927
				c3.672,0.852,7.444,1.258,11.235,1.167c14.667,0,36.267-5.749,60.203-31.189c14.33-15.247,33.821-40.239,52.683-65.662v267.401
				c0,5.891-4.776,10.667-10.667,10.667h-192v21.333h192c17.673,0,32-14.327,32-32V140.691
				c21.939-30.533,39.359-56.068,40.843-58.244C512.977,78.309,512.533,72.773,509.1,69.135z M330.562,245.242
				c-0.476-20.674,7.18-40.709,21.323-55.797c0.035-0.034,0.071-0.068,0.107-0.103v23.996c0,5.891,4.776,10.667,10.667,10.667
				h14.144C355.492,245.219,338.57,246.384,330.562,245.242z M394.979,202.671h-21.655v-32H371.9
				c32.495-29.303,67.733-55.445,105.253-78.037C451.449,130.548,424.018,167.257,394.979,202.671z"/>
			<rect x="223.991" y="266.671" width="21.333" height="21.333"/>
			<rect x="181.324" y="266.671" width="21.333" height="21.333"/>
			<rect x="138.658" y="266.671" width="21.333" height="21.333"/>
			<path d="M191.991,64.004V42.671h-42.667c-5.891,0-10.667,4.776-10.667,10.667v42.667h21.333v-32H191.991z"/>
			<rect x="213.324" y="42.671" width="21.333" height="21.333"/>
			<path d="M426.658,416.004v-42.667h-21.333v32h-32v21.333h42.667C421.882,426.671,426.658,421.895,426.658,416.004z"/>
			<rect x="330.658" y="405.338" width="21.333" height="21.333"/>
			<path d="M138.658,224.004h42.667c2.829-0.001,5.541-1.125,7.541-3.125l45.792-45.792l24.459,24.459
				c2,2.001,4.713,3.125,7.541,3.125h42.667v-21.333h-38.251l-28.875-28.875c-4.165-4.164-10.917-4.164-15.083,0l-50.208,50.208
				h-38.251V224.004z"/>
		</g>
	</g>
</g>
<g>
</g>
<g>
</g>
<g>
</g>
<g>
</g>
<g>
</g>
<g>
</g>
<g>
</g>
<g>
</g>
<g>
</g>
<g>
</g>
<g>
</g>
<g>
</g>
<g>
</g>
<g>
</g>
<g>
</g>
</svg>
