<?xml version="1.0" encoding="iso-8859-1"?>
<!-- Generator: Adobe Illustrator 19.0.0, SVG Export Plug-In . SVG Version: 6.00 Build 0)  -->
<svg version="1.1" id="Capa_1" xmlns="http://www.w3.org/2000/svg" xmlns:xlink="http://www.w3.org/1999/xlink" x="0px" y="0px"
	 viewBox="0 0 484.31 484.31" style="enable-background:new 0 0 484.31 484.31;" xml:space="preserve">
<path style="fill:#4DCFE0;" d="M468.637,67.135H15.673C6.792,67.135,0,73.927,0,82.808v318.694c0,8.882,6.792,15.673,15.673,15.673
	h452.963c8.882,0,15.673-6.792,15.673-15.673V82.808C484.31,73.927,477.518,67.135,468.637,67.135z"/>
<path style="fill:#D4E1F4;" d="M414.824,230.139c8.882,0,15.673-6.792,15.673-15.673v-78.367c0-8.882-6.792-15.673-15.673-15.673
	h-78.367c-8.882,0-15.673,6.792-15.673,15.673v78.367c0,8.882,6.792,15.673,15.673,15.673H414.824z"/>
<g>
	<path style="fill:#00BBD3;" d="M79.412,151.771h40.229c8.882,0,15.673-6.792,15.673-15.673s-6.792-15.673-15.673-15.673H79.412
		c-8.882,0-15.673,6.792-15.673,15.673S70.531,151.771,79.412,151.771z"/>
	<path style="fill:#00BBD3;" d="M79.412,301.192h94.041c8.882,0,15.673-6.792,15.673-15.673s-6.792-15.673-15.673-15.673H79.412
		c-8.882,0-15.673,6.792-15.673,15.673S70.531,301.192,79.412,301.192z"/>
	<path style="fill:#00BBD3;" d="M79.412,359.706h200.62c8.882,0,15.673-6.792,15.673-15.673s-6.792-15.673-15.673-15.673H79.412
		c-8.882,0-15.673,6.792-15.673,15.673S70.531,359.706,79.412,359.706z"/>
</g>
<g>
</g>
<g>
</g>
<g>
</g>
<g>
</g>
<g>
</g>
<g>
</g>
<g>
</g>
<g>
</g>
<g>
</g>
<g>
</g>
<g>
</g>
<g>
</g>
<g>
</g>
<g>
</g>
<g>
</g>
</svg>
