<?xml version="1.0" encoding="iso-8859-1"?>
<!-- Generator: Adobe Illustrator 19.0.0, SVG Export Plug-In . SVG Version: 6.00 Build 0)  -->
<svg version="1.1" id="Capa_1" xmlns="http://www.w3.org/2000/svg" xmlns:xlink="http://www.w3.org/1999/xlink" x="0px" y="0px"
	 viewBox="0 0 512 512" style="enable-background:new 0 0 512 512;" xml:space="preserve">
<g>
	<g>
		<g>
			<path d="M480,245.333V128c0-5.891-4.776-10.667-10.667-10.667h-32V10.667C437.333,4.776,432.558,0,426.667,0H160
				c-0.57,0-1.133,0.058-1.689,0.147c-0.122,0.019-0.245,0.031-0.366,0.055c-0.161,0.032-0.319,0.078-0.479,0.117
				c-0.18,0.044-0.362,0.082-0.54,0.136c-0.115,0.035-0.227,0.081-0.341,0.119c-0.217,0.073-0.434,0.144-0.647,0.232
				c-0.086,0.036-0.169,0.08-0.254,0.118c-0.233,0.103-0.466,0.207-0.692,0.327c-0.08,0.042-0.154,0.093-0.233,0.138
				c-0.224,0.126-0.447,0.253-0.663,0.397c-0.117,0.078-0.226,0.167-0.339,0.249c-0.169,0.123-0.341,0.24-0.505,0.374
				c-0.275,0.225-0.54,0.464-0.793,0.717L77.792,77.792c-2,2-3.125,4.713-3.125,7.541v32h-32C36.776,117.333,32,122.109,32,128
				v117.333c-17.673,0-32,14.327-32,32v192C0,475.224,4.776,480,10.667,480h64v21.333c0,5.891,4.776,10.667,10.667,10.667h341.333
				c5.891,0,10.667-4.776,10.667-10.667V480h64c5.891,0,10.667-4.776,10.667-10.667v-192C512,259.66,497.673,245.333,480,245.333z
				 M458.667,138.667v106.667h-21.333V138.667H458.667z M160,96c5.891,0,10.667-4.776,10.667-10.667v-64H416v224H96V89.749
				l53.333-53.333v38.251H128V96H160z M53.333,138.667h21.333v106.667H53.333V138.667z M416,490.667H96v-53.333
				c0-17.673,14.327-32,32-32h256c17.673,0,32,14.327,32,32V490.667z M490.667,458.667h-53.333v-21.333
				C437.298,407.893,413.441,384.035,384,384H128c-29.441,0.035-53.298,23.893-53.333,53.333v21.333H21.333V277.333
				c0-5.891,4.776-10.667,10.667-10.667h53.333h341.333H480c5.891,0,10.667,4.776,10.667,10.667V458.667z"/>
			<rect x="42.667" y="288" width="21.333" height="21.333"/>
			<rect x="85.333" y="288" width="21.333" height="21.333"/>
			<rect x="117.333" y="437.333" width="234.667" height="21.333"/>
			<rect x="138.667" y="117.333" width="234.667" height="21.333"/>
			<rect x="138.667" y="160" width="234.667" height="21.333"/>
			<rect x="138.667" y="202.667" width="234.667" height="21.333"/>
			<rect x="202.667" y="74.667" width="85.333" height="21.333"/>
			<rect x="352" y="74.667" width="21.333" height="21.333"/>
			<rect x="309.333" y="74.667" width="21.333" height="21.333"/>
			<rect x="373.333" y="437.333" width="21.333" height="21.333"/>
			<path d="M458.667,288h-64c-5.891,0-10.667,4.776-10.667,10.667v42.667c0,5.891,4.776,10.667,10.667,10.667h64
				c5.891,0,10.667-4.776,10.667-10.667v-42.667C469.333,292.776,464.558,288,458.667,288z M448,330.667h-42.667v-21.333H448
				V330.667z"/>
		</g>
	</g>
</g>
<g>
</g>
<g>
</g>
<g>
</g>
<g>
</g>
<g>
</g>
<g>
</g>
<g>
</g>
<g>
</g>
<g>
</g>
<g>
</g>
<g>
</g>
<g>
</g>
<g>
</g>
<g>
</g>
<g>
</g>
</svg>
