<?xml version="1.0" encoding="utf-8"?>
<!-- Generator: Adobe Illustrator 21.1.0, SVG Export Plug-In . SVG Version: 6.00 Build 0)  -->
<svg version="1.1" id="Calque_1" xmlns="http://www.w3.org/2000/svg" xmlns:xlink="http://www.w3.org/1999/xlink" x="0px" y="0px"
	 viewBox="0 0 432 432" style="enable-background:new 0 0 432 432;" xml:space="preserve">
<style type="text/css">
	.st0{fill:#3B4F20;}
	.st1{fill:#8CB225;}
	.st2{fill:#020203;}
	.st3{fill:#4A5C2D;}
	.st4{fill:#FFFFFF;}
	.st5{fill:#E2CF1B;}
	.st6{fill:#718A2A;}
	.st7{fill:#DFBB20;}
	.st8{fill:#EAC839;}
	.st9{fill:#1B1B1B;}
	.st10{fill:#8EC045;}
	.st11{fill:#066938;}
	.st12{fill:#E5AD30;}
	.st13{fill:#4E4D4D;}
	.st14{fill:#8BB226;}
	.st15{fill:#CD1A25;}
	.st16{fill:#4B6426;}
	.st17{fill:#7D9E3C;}
	.st18{fill:#3C4F20;}
	.st19{fill:#384A1F;}
	.st20{fill:#E7E6E6;}
	.st21{fill:#D4A624;}
	.st22{fill:#F7F0E3;}
	.st23{fill:#D2A206;}
	.st24{fill:#CE9835;}
	.st25{fill:#E5D9C2;}
	.st26{fill:#E2AE42;}
	.st27{fill:#EEDBBE;}
	.st28{fill:#F9EA31;}
	.st29{fill:#EB6518;}
	.st30{fill:#0A7132;}
	.st31{fill:#FFE109;}
	.st32{fill:#D76013;}
	.st33{fill:#BBA763;}
	.st34{fill:#7FA22A;}
	.st35{fill:#5B321B;}
	.st36{fill:#4A2615;}
	.st37{fill:#D6AD08;}
	.st38{fill:#F7BBBD;}
	.st39{fill:#D76324;}
	.st40{fill:#607829;}
	.st41{fill:#715C3B;}
	.st42{fill:#644F34;}
	.st43{fill:#89704C;}
	.st44{fill:#B2A38F;}
	.st45{fill:#A59076;}
	.st46{fill:#FFDE0D;}
	.st47{fill:#34AA4A;}
	.st48{fill:#75388D;}
	.st49{fill:#BBBBBB;}
	.st50{fill:#A9A9AA;}
	.st51{fill:#06993B;}
	.st52{fill:#CDCCCC;}
	.st53{fill:#4D2563;}
	.st54{fill:#E3B320;}
	.st55{fill:#0B9541;}
	.st56{fill:#264D23;}
	.st57{fill:#FDC834;}
	.st58{fill:#8C633A;}
	.st59{fill:#B5A059;}
	.st60{fill:#F2F2F2;}
	.st61{fill:#808181;}
	.st62{fill:#62A930;}
	.st63{fill:#A1C746;}
	.st64{fill:#85B04B;}
	.st65{fill:#5E802C;}
	.st66{fill:#BFD783;}
	.st67{fill:#EFC9AF;}
	.st68{fill:#343434;}
	.st69{fill:#EB5B28;}
	.st70{fill:#D1A98D;}
	.st71{fill:#E0A9B8;}
	.st72{fill:#754D24;}
	.st73{fill:#B2D17B;}
	.st74{fill:#62B338;}
	.st75{fill:#274E22;}
	.st76{fill:#CCDC81;}
	.st77{fill-rule:evenodd;clip-rule:evenodd;fill:#85B04B;}
	.st78{fill:#509733;}
	.st79{fill:#203F1E;}
	.st80{fill:#20963A;}
	.st81{fill:#62246B;}
	.st82{fill:#FDCA02;}
	.st83{fill:#B4CD50;}
	.st84{fill:#5C792A;}
	.st85{fill:#C29347;}
	.st86{fill:#4D5C22;}
	.st87{fill:none;}
	.st88{fill:#E19C11;}
	.st89{fill:#E5C997;}
	.st90{fill:#009245;}
	.st91{fill:#48AE4D;}
	.st92{fill:#049348;}
	.st93{fill:#04683B;}
	.st94{fill:#F8AE4C;}
	.st95{fill:#C57B39;}
	.st96{fill:#231F20;}
	.st97{fill:#BC2333;}
	.st98{fill:#EF7A7B;}
	.st99{fill:#46AE51;}
	.st100{fill:#07924B;}
	.st101{fill-rule:evenodd;clip-rule:evenodd;fill:#231F20;}
	.st102{fill:#279A9A;}
	.st103{fill:#8E3189;}
	.st104{fill:#9F6E8E;}
	.st105{fill:#3C3C3B;}
	.st106{fill:#00A69C;}
	.st107{fill:#D5DB41;}
	.st108{fill:#E04542;}
	.st109{fill:#9F1F3B;}
	.st110{fill:#EB5C35;}
	.st111{fill:#F9B233;}
	.st112{fill:#008D36;}
	.st113{fill:#F39200;}
	.st114{fill:#F2D8BD;}
	.st115{fill:#3AAA35;}
	.st116{fill:#95C11F;}
	.st117{fill:#7F5FA5;}
	.st118{fill:#5FA55F;}
	.st119{fill:#A55F8F;}
	.st120{fill:#229538;}
	.st121{fill:#622369;}
	.st122{fill:#FCC804;}
	.st123{fill:#628FB8;}
	.st124{fill:#B2B2B2;}
	.st125{fill:#63B8A4;}
	.st126{fill:#FDCE6C;}
	.st127{fill:#C8DADC;}
	.st128{fill:#ED6B6E;}
	.st129{fill:#EC6365;}
	.st130{fill:#8FC14D;}
	.st131{fill:#FECE6C;}
	.st132{fill:#037132;}
	.st133{fill:#B5CD25;}
	.st134{fill:#137E35;}
	.st135{fill:#7DBA28;}
	.st136{fill:#50AE32;}
	.st137{fill:#04612D;}
	.st138{fill:#F0828B;}
	.st139{fill:#63348B;}
	.st140{fill:#CF75AC;}
	.st141{fill:#895B7E;}
	.st142{fill:#AD94C4;}
	.st143{fill:#C581AB;}
	.st144{fill:#D1BAB0;}
	.st145{fill:#EF7B7C;}
	.st146{fill:#F7C0C2;}
	.st147{fill:#4F1C31;}
	.st148{fill:#9C3760;}
	.st149{fill:#A8768F;}
	.st150{fill:#A04170;}
	.st151{fill:#6CB863;}
</style>
<g>
	<g>
		<path class="st64" d="M157.7,228.7c0.5-0.1,1-0.2,1.5-0.3c4.4-1.5,7.1-4.5,7.9-9.1c0.5-3,0.4-6,0.1-9c-0.1-0.9-0.2-1.7-0.3-2.7
			c-0.4,0-0.6,0-0.9,0.1c-2.6,0.5-5,1.4-7.1,3c-3.8,2.8-6.2,6.4-7.1,11C150.8,225.5,153.9,229.4,157.7,228.7z"/>
		<g>
			<path class="st64" d="M312.1,213.3c-2.3-5.2-5.8-9.4-10.1-13c-6-4.9-12.8-8.2-20.1-10.6c-4.1-1.3-8.2-2-12.4-2.6
				c-0.3,0-0.6-0.1-1-0.2c0.2-0.1,0.2-0.1,0.3-0.2c0.6-0.2,1.3-0.4,1.9-0.5c8.9-2.3,17-6.4,24.1-12.2c5.8-4.8,10.4-10.5,13.3-17.4
				c2.3-5.5,3.3-11.2,2.2-17.1c-0.8-4.4-2.7-8.2-5.9-11.4c-2.3-2.2-5-3.7-7.9-4.8c-5.3-2-10.8-2.5-16.4-2.4c-1.3,0-2.6,0.1-3.9,0.1
				c-0.3,0-0.6,0-0.9-0.1c0-0.4,0-0.7,0-1c0-1.6,0-3.3,0-4.9c0-3.9-0.7-7.6-1.9-11.3c-1.8-5.1-4.8-9.2-9.3-12.2
				c-5.7-3.7-12-4.6-18.5-3.1c-5.1,1.2-9.7,3.6-13.8,6.8c-4,3.1-7.4,6.7-10.5,10.6c-4.3,5.5-8.2,11.2-11.3,17.4
				c-0.2,0.5-0.5,0.9-0.9,1.5c-0.3-0.4-0.5-0.7-0.7-1c-1.2-1.9-2.5-3.8-3.7-5.8c-1.8-2.7-3.6-5.4-5.7-7.9
				c-4.4-5.2-9.7-8.9-16.2-10.9c-4.5-1.4-9.1-1.8-13.8-1.5c-5.3,0.4-10.2,2-14.6,5.1c-4.5,3.2-7.8,7.4-9.1,12.9
				c-0.6,2.8-0.9,5.6-0.4,8.4c0.1,0.7,0.3,1.5,0.5,2.2c-0.2,0-0.4,0-0.6,0c-2.3-0.1-4.5,0.2-6.7,0.6c-7.9,1.5-14.1,5.5-18.5,12.2
				c-2.1,3.2-3.5,6.6-4,10.4c-0.5,3.8-0.1,7.4,1,11c3.7,11.8,10.9,20.8,21.4,27.2c4.5,2.7,9.3,4.7,14.2,6.4c2.7,1,5.4,2,8.2,3
				c0.3,0.1,0.6,0.3,0.9,0.4c-0.2,0.1-0.2,0.1-0.3,0.2c-0.2,0-0.3,0.1-0.5,0.1c-5.9,1.2-11.5,3.1-17,5.4
				c-6.4,2.7-12.1,6.5-16.9,11.4c-4.4,4.5-7.6,9.6-9.2,15.8c-0.9,3.4-1.3,6.8-0.5,10.3c2.4,10.1,8.6,16.8,18.4,20.1
				c3.3,1.1,6.7,1.2,10.2,0.8c2.8-0.3,5.5-1.1,7.8-2.6c0.1-0.1,0.3-0.2,0.5-0.3c0,0.2,0,0.3,0,0.4c-0.1,1.2-0.3,2.4-0.4,3.7
				c-0.2,2.6-0.3,5.2,0.3,7.8c1,5.2,3.4,9.7,7.7,13.1c4.8,3.8,10.2,5.6,16.3,5.8c3.3,0.1,6.6-0.3,9.8-1c9.9-2.3,18.4-7,25.1-14.8
				c0.1-0.1,0.3-0.2,0.4-0.4c-0.3,2-0.6,3.9-1.1,5.7c-1.3,5.5-2.9,10.9-4.6,16.3c-2.1,6.5-4.1,12.9-6.8,19.2
				c-4.1,9.5-9,18.6-14.8,27.2c-0.6,0.9-1.1,1.7-1.6,2.6c-0.6,0.9-0.7,1.9-0.3,3c0.5,1.4,1.7,2.2,3.1,2.5c1.2,0.2,2.4,0.3,3.6,0.4
				c1.5,0.2,3,0.2,4.5,0.5c2.8,0.4,5.5,0.9,8.2,1.4c2.2,0.4,3.9-0.4,5.2-2.2c0.3-0.4,0.6-0.9,0.8-1.4c0.6-1.4,1.3-2.8,1.8-4.2
				c1-3.1,2-6.3,2.8-9.5c1.5-5.8,2.9-11.6,4.4-17.4c1.5-5.7,2.9-11.3,3.9-17.1c1-5.7,1.9-11.4,2.8-17.2c0.8-4.8,1.5-9.6,1.6-14.5
				c0-0.2,0.1-0.4,0.1-0.7c0.3,0.4,0.5,0.6,0.7,0.8c0.6,0.7,1.1,1.5,1.7,2.2c4.5,5.5,10.1,9.8,16.6,12.6c7.2,3.1,14.5,3.8,22.1,1.8
				c6.3-1.6,11.4-5,15.3-10.3c2.7-3.7,4.1-7.9,4-12.6c0-2.3-0.5-4.5-1.1-6.7c-0.7-2.3-1.6-4.5-2.6-6.6c-0.2-0.4-0.3-0.8-0.5-1.3
				c0.5,0,0.9,0,1.3,0c1.3,0.1,2.5,0.2,3.8,0.3c4.7,0.2,9.2-0.6,13.4-2.8c7.9-4.1,12.3-10.6,13.3-19.4
				C314.7,221.7,313.9,217.4,312.1,213.3z M183.2,164.8c0.5,1,0.8,2.1,1.1,3.2c0.5,2.7,1,5.4,1.4,8c0.5,3.2,1.2,6.4,2.2,9.5
				c0.2,0.7,0.5,1.4,1.4,1.8c0.2-0.3,0.4-0.6,0.5-0.9c0.7-1.7,1.1-3.6,1.4-5.4c0.4-2.1,0.2-4.3,0.1-6.4c-0.3-4.7-1.3-9.2-2.2-13.8
				c-0.4-1.9-0.7-3.9-0.9-5.8c-0.4-2.5,0.7-4.3,2.7-5.7c1.3-0.9,2.7-1.3,4.3-1.5c1.3-0.1,2.3,0.4,3,1.5c0.5,0.9,0.9,1.8,1,2.8
				c0.3,2,0.6,4,0.9,6c0.7,6.6,1.3,13.3,2,19.9c0.1,1.3,0.4,2.7,0.7,4c0,0.3,0.2,0.5,0.4,0.9c0.4-0.4,0.7-0.6,0.9-0.9
				c0.3-0.6,0.7-1.2,0.9-1.9c0.7-2.9,1.3-5.8,2.1-8.6c0.5-1.7,0.2-3.3,0.1-5c-0.2-2.7-0.2-5.4,0.4-8c0.5-1.9,1.3-3.6,2.7-5.1
				c2.2-2.3,5.5-2.7,8-0.9c0.6,0.4,1,0.9,1.3,1.5c0.2,0.4,0.2,0.7-0.1,1.1c-0.3,0.3-0.7,0.2-1.1,0c-0.7-0.3-1.4-0.6-2.2-0.9
				c-0.3-0.1-0.7-0.1-1-0.1c-0.9,0-1.1,0.3-1.3,1.2c-0.2,1.3-0.1,2.5,0.3,3.7c0.9,3.1,1.9,6.2,2.9,9.2c1.1,3.3,2.5,6.5,4.2,9.6
				c0.6,1,1.2,2,1.8,2.9c0.3,0.4,0.6,0.7,1,1c0.6,0.4,0.9,0.3,1.2-0.3c0.3-0.4,0.5-0.9,0.7-1.4c0.7-2.4,1.2-4.8,1.5-7.2
				c0.2-1.6-0.1-3-0.5-4.5c-2-6.1-3.3-12.4-4.3-18.8c-0.8-5.5-1.3-11-1.2-16.6c0.2-6.2,1.5-12.1,4.5-17.6c1-1.8,2.2-3.5,3.7-4.9
				c1.2-1.1,2.5-1.9,4.1-2.4c1.4-0.4,2.6-0.1,3.8,0.7c1,0.7,1.7,1.6,2.3,2.6c1.3,2.1,1.9,4.4,2.2,6.8c0.6,5.2-0.3,10.1-2,14.9
				c-1.5,4.3-3.6,8.4-6,12.3c-0.8,1.3-1.6,2.6-2.5,3.9c-0.2,0.3-0.3,0.7-0.2,1.1c0.7,2.8,1.4,5.7,2.1,8.5c0,0.1,0.1,0.1,0.2,0.3
				c0.1-0.9,0.2-1.8,0.3-2.6c0.6-4.4,1.9-8.6,4-12.6c0.9-1.7,2.1-3.2,3.5-4.5c0.8-0.8,1.8-1.3,2.9-1.6c2.1-0.6,3.8,0,5.1,1.6
				c1.1,1.3,1.7,2.9,1.9,4.7c0.4,3-0.3,5.8-1.3,8.5c-0.9,2.2-2.1,4.3-3.8,6.3c0.1,0,0.2,0.1,0.3,0.1c1.4,0.7,2.4,1.7,3.1,3
				c0.7,1.2,1.3,2.4,2,3.6c0.4,0.8,0.8,1.5,1.2,2.3c0.1,0.3,0.3,0.5,0.6,1c0.2-0.5,0.3-0.8,0.4-1.2c0.8-2.8,1-5.8,1.1-8.7
				c0.1-4.8,0.1-9.6,0.1-14.4c0-1.5-0.1-3-0.1-4.5c0-1.1,0-2.2,0.2-3.3c0.4-2.1,1.8-3.5,3.9-4c1.6-0.4,3.3,0.2,4.1,1.6
				c0.5,0.8,0.8,1.7,1.1,2.6c0.4,1.4,0.6,2.8,0.9,4.1c0.4,1.7,0.8,3.4,1.3,5.1c0.1,0.4,0.4,0.9,0.6,1.2c0.4,0.5,0.7,0.6,1.1,0.1
				c0.5-0.5,0.9-1.1,1.2-1.7c1.2-3,2.1-6.1,2.2-9.5c0-2,0.1-4.1-0.1-6.1c-0.2-2.2,0.6-3.8,2.5-5c0.6-0.4,1.2-0.8,1.8-1.1
				c1.2-0.7,2.3-0.5,3.3,0.3c0.6,0.5,1.1,1.1,1.4,1.8c0.6,1,1.1,2.1,1.5,3.3c2.3,5.9,3.9,12,5,18.2c0,0.2,0.1,0.5,0.2,0.7
				c0.1,0,0.2-0.1,0.3-0.1c4.3-3.7,7.9-7.9,10.3-13c0.4-1,0.8-2,1.1-3c0.1-0.3,0.2-0.6,0.3-0.8c0.2-0.4,0.6-0.6,1.1-0.6
				c0.5,0,0.9,0.3,1,0.7c0.1,0.4,0.3,0.9,0.2,1.4c-0.2,1.4-0.3,2.8-0.6,4.2c-0.8,3.5-2.3,6.7-4.4,9.7c-1.9,2.7-4,5.3-6.4,7.5
				c-0.4,0.4-0.8,0.9-1.3,1.2c-0.7,0.4-0.8,1-0.8,1.8c0.1,1.4,0.2,2.8,0.2,4.1c0,2.5-0.4,5-1,7.4c-0.8,2.7-2.2,5-4.1,7
				c-1.5,1.6-3.3,2.5-5.5,2.9c-1.4,0.2-2.6,0-3.8-0.7c-2.3-1.4-3.5-3.4-3.6-6.1c-0.1-2.1,0.4-4.2,1.2-6.2c1-2.4,2.5-4.5,4.3-6.3
				c0.6-0.6,1.3-1.1,1.9-1.5c0.5-0.4,0.7-0.7,0.5-1.3c-1-4-1.9-8-2.8-12c-0.3-1.3-0.6-2.7-1-4c-0.1,0.2-0.1,0.3-0.2,0.5
				c-0.5,2.1-1,4.3-1.9,6.3c-0.7,1.6-1.5,3.1-2.5,4.5c-0.8,1-1.7,1.9-2.9,2.5c-2.2,1.1-4.4,0.9-6.3-0.7c-0.6-0.5-1-1.1-1.5-1.7
				c-0.1-0.1-0.2-0.3-0.5-0.6c0,0.4,0,0.7,0,0.9c-0.2,3-0.3,6.1-0.6,9.1c-0.4,3.8-1.2,7.6-2.6,11.2c-0.3,0.8-0.7,1.6-1.2,2.4
				c-0.3,0.5-0.8,1-1.3,1.4c-1.1,0.9-2.6,0.9-3.7,0c-0.5-0.4-1-1-1.3-1.6c-0.7-1.2-1.2-2.5-1.9-3.8c-0.6-1.1-1.2-2.3-1.8-3.4
				c-0.3-0.5-0.7-0.9-1.1-1.3c-1.3-1.3-3.6-1.2-4.9,0.1c-0.2,0.2-0.4,0.4-0.6,0.7c-0.7,0.8-0.8,1.7-0.3,2.7
				c1.7,3.7,3.1,7.5,5.1,11.1c0.7,1.3,1.3,2.7,1.9,4.1c0.8,2,0.2,4.1-1.6,5.3c-0.8,0.5-1.7,1-2.6,1.3c-1.5,0.5-2.9,0.2-3.9-1
				c-0.6-0.7-1.2-1.5-1.6-2.3c-1.4-2.4-2.3-5-3.2-7.6c-0.3-0.9-0.6-1.9-0.9-2.8c-0.1-0.2-0.2-0.4-0.4-0.6c-0.1,0.8-0.2,1.5-0.2,2.3
				c-0.3,2.6-0.8,5.1-1.6,7.5c-0.5,1.5-1.3,3-2.5,4.1c-1.1,1-2.4,1.7-4,1.6c-0.9,0-1.7-0.3-2.5-0.8c-2.2-1.2-3.9-2.9-5.3-5.1
				c-1.5-2.5-2.7-5.1-3.7-7.8c-0.4-1.1-0.7-2.2-1.2-3.5c-0.1,0.3-0.2,0.4-0.2,0.6c-0.5,1.9-0.9,3.8-1.4,5.7
				c-0.3,1.1-0.8,2.1-1.4,3.1c-0.4,0.7-0.9,1.3-1.5,1.8c-1.4,1.2-3,1.3-4.6,0.5c-1.1-0.5-1.9-1.4-2.5-2.4c-1.2-1.6-1.9-3.5-2.5-5.4
				c-0.1-0.4-0.3-0.9-0.6-1.3c-0.1,0.8-0.2,1.6-0.3,2.3c-0.3,2.2-0.7,4.3-1.4,6.4c-0.4,1.1-0.8,2.1-1.5,2.9
				c-1.1,1.4-2.5,2.2-4.3,2.3c-1.1,0-2.1-0.3-3-1c-1.1-0.8-1.9-1.7-2.7-2.8c-1.7-2.4-2.6-5-3.3-7.8c-0.7-2.7-1.1-5.5-1.4-8.3
				c-0.2-1.5-0.4-3-0.6-4.5c-0.1-0.8,0.1-1.6,0.6-2.3c1-1.3,2.4-2.2,4-2.5C181.4,162.8,182.5,163.3,183.2,164.8z M148.6,219.6
				c1.9-7.7,8.2-13.7,16.1-15.3c0.4-0.1,0.9-0.2,1.4-0.3c0-0.3,0-0.6-0.1-0.9c-0.9-4.2-1.8-8.4-2.6-12.6c-1.2-5.6-2.4-11.2-3.5-16.9
				c-0.5-2.5-0.8-5-1.2-7.5c0-0.2-0.1-0.3-0.1-0.6c-0.2,0.2-0.4,0.4-0.5,0.6c-2.3,3-4.6,5.9-6.8,9c-1.9,2.7-3.1,5.7-3.5,9
				c-0.1,0.7,0,1.5,0,2.2c0,0.2,0,0.4,0,0.6c-0.1,0.4-0.3,0.7-0.6,0.8c-0.4,0.1-0.8,0.1-1-0.3c-0.3-0.4-0.5-0.8-0.7-1.2
				c-1.3-3.5-1.5-7.1-0.3-10.7c1-2.8,2.3-5.4,4.1-7.9c1.5-2.1,3.1-4,4.9-5.9c1.1-1.2,2.2-2.4,3.4-3.6c0.3-0.3,0.4-0.7,0.4-1.2
				c-0.4-5.5-0.5-11.1,0.3-16.6c0.7-5.2,2.2-10.2,4.5-15c1-2,2.3-3.8,3.6-5.6c1.2-1.5,2.7-2.5,4.6-2.9c2-0.4,3.7,0.3,5,1.8
				c1,1.1,1.5,2.4,1.8,3.8c0.6,2.4,0.6,4.8,0.3,7.2c-0.5,3.5-1.5,6.9-2.9,10.2c-2,4.7-4.3,9.3-7.2,13.5c-0.3,0.4-0.3,0.7-0.3,1.1
				c1.2,8.4,2.6,16.8,4.3,25.2c1,5.3,1.9,10.6,2.3,15.9c0.2,2.3,0.1,4.6,0.2,6.9c0,0.2,0,0.5,0,0.8c0.3,0,0.6,0.1,0.8,0.1
				c4.5,0.3,8.9,1.2,13.4,2.1c6,1.3,12.1,2.4,18.3,3.2c5.1,0.7,10.3,0.9,15.4,0.7c5.9-0.2,11.6-1.3,17-3.5c4.9-2,9.2-4.9,12.6-9
				c2.4-2.9,3.9-6.3,4.4-10c0.2-1.7,0.1-3.5,0-5.3c-0.1-1.4-0.3-2.8-0.4-4.2c-0.1-0.5,0-1,0.5-1.3c0.5-0.3,1-0.2,1.5,0.2
				c0.7,0.5,1.1,1.2,1.3,2c0.3,1.1,0.6,2.2,0.7,3.3c0.2,3.3,0,6.6-1.1,9.7c-1.2,3.6-3.3,6.7-5.9,9.4c-3.9,4-8.6,6.7-13.7,8.6
				c-3.7,1.4-7.5,2.2-11.3,2.7c-5.9,0.7-11.8,0.7-17.6,0.2c-7-0.6-13.8-1.8-20.7-3.1c-3.7-0.7-7.4-1.3-11.1-1.9
				c-1.2-0.2-2.5-0.2-3.8-0.3c-0.1,0-0.3,0-0.4,0c-0.2,1.2-0.3,2.4-0.4,3.6c-0.6,3.8-1.4,7.6-3.2,11.1c-1.3,2.5-2.8,4.8-4.9,6.6
				c-2.4,1.9-5,3.2-8.1,3.4c-2.4,0.2-4.5-0.6-6.2-2.3C148.4,226.8,147.7,223.5,148.6,219.6z M303.9,231.5c-0.4,0.5-0.9,0.9-1.5,1.2
				c-1.8,1.1-3.9,0.7-5.2-0.7c-0.7-0.7-1.3-1.6-1.7-2.6c-0.9-2.2-1.4-4.4-1.7-6.7c-0.5-3.4-0.9-6.8-1.4-10.2
				c-0.2-1.1-0.5-2.1-0.9-3.1c-0.3-0.8-0.8-0.8-1.3-0.1c-0.3,0.5-0.6,1-0.8,1.5c-1,2.2-1.5,4.5-1.9,6.8c-0.8,4.3-1,8.6-0.9,12.9
				c0,0.4,0,0.7,0,1.1c-0.1,0.7-0.5,1.2-1.3,1.4c-0.6,0.2-1.4-0.1-1.8-0.7c-0.3-0.4-0.5-0.9-0.6-1.4c-0.7-2.1-1.3-4.2-2-6.3
				c-0.6-1.7-1.2-3.4-2-5.1c-0.4-0.8-0.9-1.6-1.5-2.2c-0.5-0.6-1-0.6-1.6-0.2c-0.6,0.4-1.1,0.9-1.3,1.6c-0.9,2.3-1.2,4.7-0.9,7.2
				c0.5,3.3,0.8,6.6,1.2,9.9c0.1,0.6,0,1.3,0,1.9c-0.1,1.4-0.8,2.3-2.2,2.6c-0.7,0.2-1.4,0.2-2.1,0.2c-1.1,0-1.9-0.6-2.4-1.6
				c-0.2-0.5-0.4-1-0.5-1.5c-1.1-3.8-2.2-7.7-2.9-11.6c0-0.1-0.1-0.2-0.3-0.3c0,1,0,1.9,0,2.9c0.1,2.8,0.3,5.6,0.5,8.4
				c0.2,3.1,0.5,6.3,0.6,9.4c0.2,4.1,0.2,8.2-0.6,12.2c-0.2,1-0.5,2-0.9,2.9c-0.3,0.7-0.7,1.3-1.1,1.9c-1.1,1.4-2.8,1.8-4.4,1
				c-1.2-0.5-2-1.4-2.8-2.4c-1.3-1.7-2.1-3.7-2.7-5.7c-1.1-3.5-1.7-7-1.9-10.6c-0.3-4.7-0.4-9.4-0.6-14.1c-0.1-2.3-0.3-4.6-0.9-6.8
				c-0.2-0.6-0.4-1.3-0.7-1.9c-0.5-0.9-1-1.1-1.9-0.6c-0.9,0.5-1.8,1-2.7,1.6c0.1,0.3,0.2,0.5,0.3,0.7c1.5,3.2,2.4,6.7,2.9,10.2
				c0.4,2.6,0.5,5.3,0.3,7.9c-0.2,3.3-0.8,6.5-1.9,9.6c-0.4,1.2-1,2.4-1.8,3.4c-2,2.7-5.2,3.1-7.9,1.1c-1.4-1-2.3-2.4-3-4
				c-0.2-0.4-0.3-0.7-0.5-1.3c-0.2,0.7-0.3,1.2-0.5,1.8c-0.4,1.1-0.8,2.2-1.3,3.3c-0.4,1-1.1,1.8-2,2.4c-1.3,1-2.8,1.2-4.4,0.6
				c-1.2-0.5-2.2-1.1-3.1-2c-0.2-0.2-0.4-0.3-0.7-0.6c-0.2,0.9-0.3,1.7-0.6,2.6c-0.3,1.3-0.7,2.7-1.1,4c-0.2,0.6-0.4,1.1-0.7,1.6
				c-0.9,1.6-2.2,2.1-4,1.8c-1.3-0.2-2.5-0.8-3.5-1.7c-1.2-1.2-2.1-2.6-2.9-4.1c-1.3-2.6-2.2-5.4-2.8-8.2c-0.6-2.9-1.1-5.9-1.6-8.8
				c-0.2-1.1-0.5-2.2-0.8-3.2c-0.1-0.4-0.3-0.7-0.6-1.1c-0.9,0.6-1.3,1.3-1.6,2.2c-0.4,1.6-0.8,3.3-1.1,5c-0.6,4.3-0.3,8.5,0,12.8
				c0.2,2.7,0.3,5.4,0.5,8.1c0,0.5-0.1,0.9-0.1,1.4c-0.1,0.7-0.5,1.2-1.1,1.5c-0.8,0.4-1.6,0.7-2.4,0.9c-1,0.3-1.9-0.1-2.4-1
				c-0.3-0.5-0.5-1-0.7-1.5c-0.7-2.2-1.3-4.3-1.9-6.5c-0.1-0.2-0.1-0.4-0.2-0.7c-0.1,0.3-0.2,0.5-0.2,0.7c-0.7,2.7-1.3,5.4-2.1,8.1
				c-0.7,2.3-1.7,4.4-3.2,6.2c-1.1,1.4-2.4,2.5-4.1,3c-3.3,1-6.3,0.3-8.8-2.1c-1.2-1.1-2.1-2.5-3-3.9c-2.1-3.6-3.3-7.4-3.9-11.5
				c-0.8-5.6-0.6-11.2,0.5-16.8c0-0.1,0-0.2,0.1-0.3c0-0.1,0-0.2,0-0.4c-0.3,0-0.6,0-0.9,0.1c-2.9,0.2-5.8,0.5-8.8,0.7
				c-4.1,0.3-8.1,0.6-12.1,1.6c-1.1,0.3-2.2,0.7-3.3,1.2c-1.2,0.6-2.1,1.4-2.5,2.8c-0.1,0.3-0.2,0.6-0.6,0.6c-0.4,0-0.6-0.3-0.7-0.6
				c-0.1-0.4-0.1-0.9,0-1.3c0.3-0.7,0.6-1.4,1-2c1.4-1.9,3.2-3.1,5.3-4c2.5-1,5-1.6,7.6-1.9c3.4-0.4,6.8-0.6,10.2-0.9
				c1.6-0.1,3.3-0.3,4.9-0.4c0.6,0,0.9-0.2,1.1-0.9c0.6-2,1.5-3.8,2.5-5.6c0.9-1.4,1.9-2.8,3.2-3.8c1.7-1.3,3.6-2.1,5.7-2.1
				c3.8,0.1,6.1,3.4,4.8,7c-0.5,1.5-1.5,2.7-2.7,3.7c-1.4,1.2-2.9,2-4.6,2.7c-0.3,0.2-0.7,0.3-1,0.5c0,0.1-0.1,0.2-0.1,0.4
				c-0.1,3.9,0,7.7,0.6,11.6c0.7,4.9,1.9,9.7,3.6,14.3c0.3,0.9,0.6,1.8,1.3,2.6c0.8,1,1.5,1.1,2.4,0.2c0.6-0.6,1.1-1.3,1.5-2
				c1.4-2.5,2-5.2,2.5-7.9c0.5-2.8,1-5.6,1.5-8.5c0-0.3,0-0.5,0-0.8c-1-5.3-1.7-10.6-2.3-15.9c-0.4-3.4-0.7-6.9-0.9-10.3
				c-0.2-2.9,0-5.7,0.4-8.6c0-0.2,0.1-0.3,0.1-0.5c0.6-2.9,3.3-4.2,6-3.1c1,0.4,1.7,1.2,1.9,2.3c0.1,0.5,0.1,1,0.1,1.5
				c0,2.5,0,5.1,0.1,7.6c0.1,2.8,0.3,5.6,0.4,8.4c0.1,2.3,0.3,4.6,0.4,6.9c0.1,1.1,0.2,2.3,0.5,3.4c0.1-0.3,0.1-0.6,0.2-0.9
				c0.8-4.1,2.5-7.8,5.4-10.9c0.7-0.8,1.6-1.6,2.5-2.2c0.6-0.4,1.3-0.7,2.1-0.9c1.7-0.3,3.1,0.4,4.1,1.8c0.5,0.7,0.8,1.6,1.1,2.5
				c0.8,2.4,1.1,4.9,1.4,7.3c0.5,4.3,1,8.7,1.6,13c0.4,2.9,0.9,5.8,1.9,8.6c0,0.1,0.1,0.3,0.2,0.6c0.2-0.4,0.3-0.7,0.4-1
				c0.5-1.9,0.8-3.8,1.4-5.7c0.4-1.5,0.3-2.8-0.3-4.3c-2-5.1-2.2-10.3-0.8-15.5c0.5-1.9,1.3-3.7,2.5-5.3c0.8-1.1,1.7-2.1,2.9-2.8
				c1.5-1,3.1-1.5,4.8-1.3c0.3,0,0.6,0,0.8,0.1c0.3-0.4,0.6-0.8,1-1.1c1.7-1.2,4.2-0.5,4.8,1.5c0.5,1.4,0.7,3,0.9,4.5
				c0.6,4.4,1.1,8.8,2.1,13.1c0.5,2.4,1.1,4.7,2.3,6.9c0.2,0.4,0.5,0.9,0.8,1.2c0.6,0.7,1.5,0.7,2.2,0.2c0.6-0.4,0.9-1,1.2-1.6
				c0.8-2,1.3-4.1,1.6-6.3c0.7-5.7,0.3-11.3-1.7-16.8c-0.3-0.8-0.6-1.6-0.9-2.4c0-0.1-0.1-0.2-0.2-0.3c-0.6,0.3-1.1,0.7-1.7,1
				c-2.1,1-3.9,0.4-5.6-1c-1.7-1.4-2.4-3.2-1.8-5.3c0.5-2,2.3-3.1,4.4-2.8c1.5,0.2,2.8,1,3.9,2.1c0.5,0.5,0.9,1,1.3,1.4
				c1.4-1.2,2.8-2.4,4.2-3.5c1.3-1,2.8-1.9,4.4-2.5c0.5-0.2,1-0.3,1.5-0.4c1.6-0.2,2.9,0.4,3.8,1.9c0.3,0.6,0.6,1.3,0.8,1.9
				c0.4,1.6,0.7,3.1,0.9,4.7c0.3,3.9,0.4,7.7,0.6,11.6c0.3,5.6,0.6,11.1,0.9,16.7c0.2,2.6,0.6,5.2,1.4,7.7c0.1,0.4,0.2,0.7,0.4,1.3
				c0.2-0.5,0.3-0.7,0.4-1c0.3-1.5,0.7-3.1,0.9-4.7c0.4-4,0.2-8-0.1-11.9c-0.3-3.8-0.6-7.5-0.8-11.3c-0.1-3.3-0.2-6.6-0.1-9.8
				c0-1.7,0.3-3.5,0.6-5.2c0.2-1.5,0.9-2.7,2.2-3.4c0.9-0.6,1.9-1.1,2.9-1.6c1.2-0.5,2.2-0.1,2.8,1c0.5,0.9,0.8,1.9,0.9,3
				c0,0.4,0.1,0.8,0.1,1.3c0.4,0,0.4-0.4,0.4-0.6c0.7-1.7,1.8-3.1,3.1-4.4c0.4-0.4,0.9-0.8,1.4-1c1.6-0.9,3.1-0.7,4.4,0.5
				c1.2,1.1,2,2.5,2.7,3.9c0.1,0.3,0.3,0.6,0.5,1c0.1-0.3,0.2-0.5,0.2-0.7c0.5-1.9,0.9-3.8,1.6-5.6c0.8-2.2,2-4.1,3.6-5.8
				c0.6-0.6,1.2-1.1,1.9-1.5c1.8-1.1,3.7-0.9,5.3,0.5c0.9,0.8,1.5,1.7,1.9,2.8c0.6,1.5,1.1,3,1.4,4.5c1,3.9,1.5,7.8,2,11.8
				c0.1,1.1,0.3,2.2,0.4,3.2c0,0.2,0.1,0.4,0.2,0.6c0.6-0.7,1-1.5,1.2-2.3c0.5-2.1,1-4.2,1.4-6.2c0.1-0.3,0.1-0.7,0.2-1
				c0.1-0.5,0.4-0.8,0.9-0.9c0.5-0.1,0.9,0.2,1.1,0.6c0.3,0.7,0.5,1.4,0.6,2.1C308.1,223.2,307.1,227.7,303.9,231.5z"/>
			<path class="st64" d="M230.1,237.6c-0.3-2.1-0.5-4.3-0.8-6.4c-0.1-0.9-1-1.2-1.7-0.6c-0.2,0.2-0.4,0.4-0.5,0.7
				c-0.3,0.6-0.6,1.3-0.8,1.9c-0.5,1.8-0.6,3.6-0.5,5.5c0.3,4.6,1.3,9.1,2.9,13.4c0,0.1,0.1,0.2,0.2,0.4c0.1-0.4,0.3-0.7,0.4-1
				c0.6-2,0.9-4.1,1.3-6.2c0.3-1.8,0.3-3.5-0.1-5.3C230.3,239.2,230.2,238.4,230.1,237.6z"/>
			<path class="st64" d="M180.8,235c0.4-0.5,0.6-1.1,0.8-1.7c0.3-0.9-0.4-1.5-1.3-1.2c-0.5,0.2-1,0.5-1.5,0.9
				c-1.6,1.4-1.9,3.4-2.3,5.4C178.2,237.5,179.8,236.5,180.8,235z"/>
			<path class="st64" d="M238.2,220.6c-0.6,1-0.4,2.2,0.4,2.8c0.6,0.5,1.3,0.4,2.1-0.4C240.1,222.1,239.3,221.2,238.2,220.6z"/>
			<path class="st64" d="M230.1,145.9c0.1,0,0.1,0,0.2,0c0.6-1.1,1.2-2.2,1.9-3.3c2-3.6,3.8-7.3,5.1-11.3c1.3-4,2.1-8,1.8-12.2
				c-0.2-2.1-0.6-4.1-1.6-6c-0.4-0.7-0.9-1.4-1.5-1.9c-0.5-0.6-0.8-0.5-1.5-0.1c-0.7,0.5-1.2,1.1-1.6,1.8c-1.3,2.1-2.1,4.3-2.6,6.7
				c-0.9,4-1,8-1.2,12c-0.1,3.6,0.1,7.2,0.5,10.8C229.8,143.6,230,144.8,230.1,145.9z"/>
			<path class="st64" d="M237,162.1c2.5-2.3,4.8-4.9,6.3-8c0.8-1.7,0.7-3.5-0.1-5.2c-0.3-0.7-0.6-0.8-1.2-0.3
				c-0.7,0.5-1.3,1-1.8,1.6c-1.1,1.3-1.9,2.9-2.3,4.6c-0.3,1.3-0.6,2.6-0.8,3.9c-0.2,1.1-0.3,2.3-0.5,3.5c0.1,0,0.1,0.1,0.2,0.1
				C236.7,162.3,236.9,162.2,237,162.1z"/>
			<path class="st64" d="M274.6,167.9c-0.5,0.9-0.9,1.9-1.1,2.9c-0.2,1,0,1.9,0.5,2.7c0.6,1.1,2.5,1.3,3.1,0
				c0.2-0.5,0.5-0.9,0.7-1.4c0.9-2.7,0.9-5.5,0.5-8.4C276.7,164.9,275.5,166.3,274.6,167.9z"/>
			<path class="st64" d="M166.7,146.2c0.1,0,0.1,0,0.2,0c0.1-0.2,0.2-0.3,0.3-0.5c3.1-4.8,5.4-9.9,7.3-15.2c0.6-1.8,0.8-3.6,0.8-5.4
				c0-1.5-0.5-2.9-1.6-4c-1-1-2.1-1.1-3.3-0.2c-0.2,0.2-0.4,0.4-0.6,0.6c-1.3,1.5-2.2,3.2-2.5,5.1c-0.3,2-0.7,4-0.7,6
				c-0.1,3.5,0,7,0,10.4C166.5,144.1,166.7,145.1,166.7,146.2z"/>
		</g>
	</g>
	<g>
		<g>
			<g>
				<circle class="st54" cx="102.7" cy="128.4" r="48.7"/>
				<path class="st57" d="M84.3,148.6c6.5-4,10.5-7,13.7-13.9c-10.7,9.2-20.9,11.4-22.4,3.8c-1-4.7,2.3-7.6,4.4-7.6
					c-7.2-2.6-7-6.9-5.4-10.1c1.8-3.5,10-2.9,16.3,0.4c-9.7-10-10.6-16-6.9-18.2c3.8-2.2,7.6,0.1,9.5,1.7c2.6-7.9,6.3-7.9,8.1-7.8
					c1.8,0.1,7.4,0.1,3.5,19c11.3-12.8,14.8-12.2,17.6-9.1c2.7,3.1,0,7.7-0.6,8.9c6.9,1,9.8,3.4,9.8,7c0,7.5-18,7.2-21.1,6.9
					c14.1,6.9,19.3,10.2,16.8,16c-2.1,4.9-9.2,2.5-10.6,2c1.7,5.8,0.4,9.1-3.2,9.8c-5.4,1-12.4-6.9-12.4-18.4
					c-4.2,5.1-8.4,11.9-12.1,15.6c-1.3,1.3-3.3,1.4-4.8,0.4c-0.1-0.1-0.3-0.2-0.4-0.3C81.9,153.1,82.1,149.9,84.3,148.6z"/>
			</g>
			<g>
				
					<ellipse transform="matrix(4.935784e-02 -0.9988 0.9988 4.935784e-02 19.1963 592.8783)" class="st54" cx="321" cy="286.4" rx="30.7" ry="30.7"/>
				<path class="st57" d="M333.2,298.6c-2.3-4.2-4.1-6.8-8.3-9c5.5,7,6.5,13.5,1.7,14.2c-3,0.5-4.7-1.7-4.6-3
					c-1.8,4.5-4.5,4.2-6.5,3.1c-2.1-1.2-1.5-6.4,0.7-10.2c-6.6,5.8-10.4,6.2-11.7,3.8c-1.3-2.4,0.3-4.8,1.4-5.9
					c-4.9-1.9-4.8-4.2-4.6-5.4s0.3-4.7,12.1-1.6c-7.7-7.5-7.2-9.7-5.2-11.3c2-1.6,4.8,0.2,5.6,0.7c0.8-4.3,2.4-6.1,4.7-5.9
					c4.7,0.2,4,11.6,3.7,13.5c4.8-8.7,7-11.8,10.6-10.1c3,1.5,1.3,5.9,0.9,6.7c3.7-0.9,5.8,0,6.1,2.3c0.5,3.4-4.7,7.6-12,7.2
					c3.1,2.8,7.2,5.7,9.4,8.1c0.8,0.9,0.8,2.1,0.1,3c-0.1,0.1-0.1,0.2-0.2,0.2C336,300.2,334,300,333.2,298.6z"/>
			</g>
		</g>
		<g>
			<path class="st64" d="M154.1,327.4c-2.3-4.2-4.1-6.8-8.3-9c5.5,7,6.5,13.5,1.7,14.2c-3,0.5-4.7-1.7-4.6-3
				c-1.8,4.5-4.5,4.2-6.5,3.1c-2.1-1.2-1.5-6.4,0.7-10.2c-6.6,5.8-10.4,6.2-11.7,3.8c-1.3-2.4,0.3-4.8,1.4-5.9
				c-4.9-1.9-4.8-4.2-4.6-5.4s0.3-4.7,12.1-1.6c-7.7-7.5-7.2-9.7-5.2-11.3c2-1.6,4.8,0.2,5.6,0.7c0.8-4.3,2.4-6.1,4.7-5.9
				c4.7,0.2,4,11.6,3.7,13.5c4.8-8.7,7-11.8,10.6-10.1c3,1.5,1.3,5.9,0.9,6.7c3.7-0.9,5.8,0,6.1,2.3c0.5,3.4-4.7,7.6-12,7.2
				c3.1,2.8,7.2,5.7,9.4,8.1c0.8,0.9,0.8,2.1,0.1,3c-0.1,0.1-0.1,0.2-0.2,0.2C156.9,329,154.9,328.8,154.1,327.4z"/>
			<path class="st64" d="M336.1,197.1c5.6-5.1,8.9-8.8,10.8-16.1c-8.7,11-18.2,15.1-21.2,7.9c-1.9-4.4,0.8-7.8,2.9-8.2
				c-7.5-1.2-8.2-5.4-7.2-8.8c1.1-3.7,9.2-4.7,16-2.7c-11.3-7.9-13.4-13.7-10.1-16.5s7.4-1.3,9.6-0.1c1-8.2,4.7-8.9,6.5-9.1
				c1.8-0.3,7.3-1.3,7,17.9c8.6-14.6,12.2-14.7,15.5-12.1c3.3,2.5,1.4,7.5,1,8.8c6.9-0.3,10.2,1.5,10.9,5
				c1.4,7.3-16.3,10.4-19.4,10.7c15,4.1,20.8,6.4,19.4,12.5c-1.1,5.2-8.6,4.1-10,4c2.8,5.3,2.1,8.8-1.3,10.2
				c-5.1,2-13.4-4.4-15.5-15.7c-3.2,5.8-6,13.2-8.9,17.5c-1,1.5-3,2-4.6,1.2c-0.2-0.1-0.3-0.1-0.5-0.2
				C334.7,202,334.2,198.8,336.1,197.1z"/>
		</g>
	</g>
</g>
</svg>
