<?xml version="1.0" encoding="utf-8"?>
<!-- Generator: Adobe Illustrator 21.1.0, SVG Export Plug-In . SVG Version: 6.00 Build 0)  -->
<svg version="1.1" id="Calque_1" xmlns="http://www.w3.org/2000/svg" xmlns:xlink="http://www.w3.org/1999/xlink" x="0px" y="0px"
	 viewBox="0 0 432 432" style="enable-background:new 0 0 432 432;" xml:space="preserve">
<style type="text/css">
	.st0{fill:#766185;}
	.st1{fill:#575756;}
</style>
<g>
	<g>
		<path class="st0" d="M339.7,253.2c-23.2-5.5-46.3,7.5-64.2,20.7c-3.2,2.4-6.4,4.8-9.6,7.2c-26.3-1.8-52.3-6.5-78.3-11
			c-14.6-2.5-29.2-5.1-43.8-7c-13.7-1.8-27.6-2.8-41.3-1c-6.8,0.9-13.5,2.6-19.9,5c-1.8,0.7-1.1,3.6,0.8,2.9
			c24.8-8.9,51.5-4.8,76.8-0.6c26.3,4.4,52.4,9.8,78.9,13.3c7.1,1,14.3,1.8,21.5,2.4c-5.1,3.8-10.2,7.6-15.6,11
			c-5.1,3.2-10.3,6.2-15.7,8.8c-4.3-3.6-8.8-6.6-13.1-8.9c-10.4-5.6-22-9-33.7-9.9c-10.9-0.8-25.6-0.4-34.2,7.3
			c-7.8,7-7.3,17.9,0.8,24.4c9.5,7.6,23.5,7.8,35,6.5c15.5-1.8,30.7-6.8,44.9-13.7c3.1,2.9,5.9,6.1,8.2,9.6
			c6.1,9.2,9.7,21.8,2.1,31.3c-6.2,7.8-17.6,10.8-27.2,10.2c-9.9-0.6-23.2-7.6-17.6-19.5c1.2-2.7,3.2-4.9,5.4-6.7
			c7.2-5.7,11-2.8,10.2-1.1c-1.2,2.6,2.8,4.9,3.9,2.3c1.5-3.6,0-7.5-3.9-8.7c-5.1-1.7-11,2.1-14.6,5.4c-7.5,6.8-9.9,18.4-2.2,26.1
			c13.9,13.7,44.1,8.1,52.5-9.2c7.4-15.2-1-30.5-12.7-41.7c9.3-4.9,18.2-10.6,26.4-16.7c2.6-2,5.2-4,7.9-6.1c17.4,1.2,34.9,1,52.1-2
			c9.9-1.7,21.8-4.9,28.3-13.2C354.1,262.5,348.1,255.2,339.7,253.2z M210.9,312.8c-12.3,4.3-25.2,7.6-38.3,7.2
			c-8.7-0.3-28.2-3.8-25.1-16.8c2.9-12.3,21.1-13.1,31.2-12.8c11.2,0.3,22.5,3.1,32.5,8.1c4.8,2.4,9.5,5.3,13.8,8.7
			C220.3,309.3,215.6,311.1,210.9,312.8z M342.9,269.3c-4.7,4.7-11.6,7.2-18,8.8c-14.7,3.7-30.4,4.2-45.5,3.8
			c-2.2-0.1-4.4-0.1-6.6-0.3c18.1-14,38-27.7,61.6-25c2.9,0.3,6.1,0.8,8.7,2.4C347.6,261.7,346.2,266,342.9,269.3z"/>
		<path class="st0" d="M92.3,178.8c23.2,5.5,46.3-7.5,64.2-20.7c3.2-2.4,6.4-4.8,9.6-7.2c26.3,1.8,52.3,6.5,78.3,11
			c14.6,2.5,29.2,5.1,43.8,7c13.7,1.8,27.6,2.8,41.3,1c6.8-0.9,13.5-2.6,19.9-5c1.8-0.7,1.1-3.6-0.8-2.9
			c-24.8,8.9-51.5,4.8-76.8,0.6c-26.3-4.4-52.4-9.8-78.9-13.3c-7.1-1-14.3-1.8-21.5-2.4c5.1-3.8,10.2-7.6,15.6-11
			c5.1-3.2,10.3-6.2,15.7-8.8c4.3,3.6,8.8,6.6,13.1,8.9c10.4,5.6,22,9,33.7,9.9c10.9,0.8,25.6,0.4,34.2-7.3c7.8-7,7.3-17.9-0.8-24.4
			c-9.5-7.6-23.5-7.8-35-6.5c-15.5,1.8-30.7,6.8-44.9,13.7c-3.1-2.9-5.9-6.1-8.2-9.6c-6.1-9.2-9.7-21.8-2.1-31.3
			c6.2-7.8,17.6-10.8,27.2-10.2c9.9,0.6,23.6,7.8,17.6,19.5c-6.5,12.8-17.4,11.6-15.6,7.8c1.2-2.6-2.8-4.9-3.9-2.3
			c-3,7,5.9,14.7,18.4,3.3c7.5-6.8,9.9-18.4,2.2-26.1c-13.9-13.7-44.1-8.1-52.5,9.2c-7.4,15.2,1,30.5,12.7,41.7
			c-9.3,4.9-18.2,10.6-26.4,16.7c-2.6,2-5.2,4-7.9,6.1c-17.4-1.2-34.9-1-52.1,2c-9.9,1.7-21.8,4.9-28.3,13.2
			C77.9,169.5,83.9,176.8,92.3,178.8z M221.1,119.2c12.3-4.3,25.2-7.6,38.3-7.2c8.7,0.3,28.2,3.8,25.1,16.8
			c-2.9,12.3-21.1,13.1-31.2,12.8c-11.2-0.3-22.5-3.1-32.5-8.1c-4.8-2.4-9.5-5.3-13.8-8.7C211.7,122.7,216.4,120.9,221.1,119.2z
			 M89.1,162.7c4.7-4.7,11.6-7.2,18-8.8c14.7-3.7,30.4-4.2,45.5-3.8c2.2,0.1,4.4,0.1,6.6,0.3c-18.1,14-38,27.7-61.6,25
			c-2.9-0.3-6.1-0.8-8.7-2.4C84.4,170.3,85.8,166,89.1,162.7z"/>
	</g>
	<g>
		<path class="st1" d="M162.8,218.2c-0.5,8.3-1.4,16.6-1.9,24.8c-1.4,0.2-2.7,0.5-4,0.9c-2.5,0.8-1.9,4.2,0.6,4.4
			c4.7,0.5,9.9-0.7,14.7-1c4.9-0.3,9.9-0.6,14.8-1c2.5-0.2,2.5-3.8,0-3.9c-1.7-0.1-3.4-0.2-5.2-0.2c0.1-9.6,0-19.2-0.2-28.8
			c-0.1-4.6-0.2-9.3-0.4-13.9c-0.1-2.9,0.2-6.4-0.4-9.5c1.4-0.1,2.7-0.2,4.1-0.7c1.8-0.6,1.8-3.1,0-3.7c-6.2-1.9-13.9-1.6-18.6,3.2
			c-5.2,5.2-10.8,10.8-15.4,16.6c-4.7-5.8-10.3-11.4-15.4-16.6c-4.7-4.8-12.4-5.1-18.6-3.2c-1.8,0.6-1.8,3.2,0,3.7
			c1.4,0.4,2.7,0.6,4.1,0.7c-0.5,2.8-0.2,6-0.3,8.7c-0.2,4.9-0.3,9.8-0.4,14.8c-0.2,9.6-0.3,19.2-0.2,28.8c-1.7,0-3.4,0.1-5.2,0.2
			c-2.5,0.2-2.5,3.7,0,3.9c4.9,0.4,9.8,0.7,14.8,1c4.8,0.3,10,1.5,14.7,1c2.5-0.2,3.1-3.6,0.6-4.4c-1.3-0.4-2.6-0.7-4-0.9
			c-0.5-8.3-1.4-16.5-1.9-24.8c-0.2-4.1-0.4-8.1-0.6-12.2c-0.1-1.8-0.1-3.7-0.1-5.5c3.4,3.9,6.8,7.8,10.6,11.1
			c0.6,0.5,1.2,0.7,1.9,0.6c0.7,0,1.4-0.2,1.9-0.6c3.8-3.3,7.2-7.2,10.6-11.1c-0.1,1.8-0.1,3.7-0.1,5.5
			C163.2,210.1,163,214.2,162.8,218.2z M170.1,239.4c-1.5-0.4-0.8-2.7,0.6-2.4C172.2,237.4,171.5,239.8,170.1,239.4z M171.3,234.2
			c-1.7-0.4-1.2-3,0.5-2.7C173.5,231.8,173,234.6,171.3,234.2z M173.9,227.6c-0.1,0.8-0.8,1.5-1.6,1.4c-0.8-0.1-1.4-0.9-1.3-1.7
			c0.1-0.8,0.8-1.4,1.6-1.4C173.3,225.9,174,226.7,173.9,227.6z M174.2,207.8c0.1,0.8-0.6,1.6-1.4,1.6c-0.8,0-1.5-0.6-1.6-1.5
			c-0.1-0.8,0.6-1.6,1.4-1.6C173.4,206.3,174.1,206.9,174.2,207.8z M172.4,203.7c-1.7,0.1-1.9-2.6-0.2-2.8
			C173.9,200.8,174.1,203.6,172.4,203.7z M171.8,195.7c1.5-0.1,1.7,2.3,0.2,2.5C170.5,198.2,170.2,195.8,171.8,195.7z M167.5,214.4
			c1.2-2.6,3.9-1.6,5.4,0.3c1.4-1.9,4.1-3.2,5.4-0.5c0.9,1.9-0.3,4.1-1.8,5.6c-1.5,1.6-3.4,2.6-3.7,2.6c-0.4-0.1-2.1-1.3-3.5-2.9
			C167.9,218,166.7,216.1,167.5,214.4z M130.1,195.7c1.5,0.1,1.3,2.6-0.2,2.5C128.4,198,128.6,195.5,130.1,195.7z M129.7,201
			c1.7,0.1,1.5,2.9-0.2,2.8C127.8,203.6,128,200.8,129.7,201z M129.3,206.3c0.8,0.1,1.4,0.8,1.4,1.6c0,0.8-0.8,1.5-1.6,1.5
			c-0.8,0-1.4-0.8-1.4-1.6C127.7,206.9,128.5,206.3,129.3,206.3z M128,227.6c-0.1-0.9,0.5-1.6,1.3-1.7c0.8-0.1,1.6,0.6,1.6,1.4
			c0.1,0.8-0.5,1.6-1.3,1.7C128.9,229,128.1,228.4,128,227.6z M130.1,231.5c1.7-0.3,2.2,2.4,0.5,2.7
			C128.9,234.6,128.4,231.8,130.1,231.5z M131.8,239.4c-1.5,0.4-2.1-2-0.6-2.4C132.7,236.7,133.3,239,131.8,239.4z M132.6,219.6
			c-1.4,1.5-3.1,2.8-3.5,2.8c-0.4-0.1-2.2-1.1-3.7-2.7c-1.5-1.6-2.7-3.7-1.8-5.6c1.3-2.7,4-1.5,5.4,0.5c1.5-1.9,4.2-2.9,5.4-0.3
			C135.2,216.2,134,218.1,132.6,219.6z"/>
		<path class="st1" d="M292.9,218.2c-0.5,8.3-1.4,16.6-1.9,24.8c-1.4,0.2-2.7,0.5-4,0.9c-2.5,0.8-1.9,4.2,0.6,4.4
			c4.7,0.5,9.9-0.7,14.7-1c4.9-0.3,9.9-0.6,14.8-1c2.5-0.2,2.5-3.8,0-3.9c-1.7-0.1-3.4-0.2-5.2-0.2c0.1-9.6,0-19.2-0.2-28.8
			c-0.1-4.6-0.2-9.3-0.4-13.9c-0.1-2.9,0.2-6.4-0.4-9.5c1.4-0.1,2.7-0.2,4.1-0.7c1.8-0.6,1.8-3.1,0-3.7c-6.2-1.9-13.9-1.6-18.6,3.2
			c-5.2,5.2-10.8,10.8-15.4,16.6c-4.7-5.8-10.3-11.4-15.4-16.6c-4.7-4.8-12.4-5.1-18.6-3.2c-1.8,0.6-1.8,3.2,0,3.7
			c1.4,0.4,2.7,0.6,4.1,0.7c-0.5,2.8-0.2,6-0.3,8.7c-0.2,4.9-0.3,9.8-0.4,14.8c-0.2,9.6-0.3,19.2-0.2,28.8c-1.7,0-3.4,0.1-5.2,0.2
			c-2.5,0.2-2.5,3.7,0,3.9c4.9,0.4,9.8,0.7,14.8,1c4.8,0.3,10,1.5,14.7,1c2.5-0.2,3.1-3.6,0.6-4.4c-1.3-0.4-2.6-0.7-4-0.9
			c-0.5-8.3-1.4-16.5-1.9-24.8c-0.2-4.1-0.4-8.1-0.6-12.2c-0.1-1.8-0.1-3.7-0.1-5.5c3.4,3.9,6.8,7.8,10.6,11.1
			c0.6,0.5,1.2,0.7,1.9,0.6c0.7,0,1.4-0.2,1.9-0.6c3.8-3.3,7.2-7.2,10.6-11.1c-0.1,1.8-0.1,3.7-0.1,5.5
			C293.3,210.1,293.1,214.2,292.9,218.2z M300.2,239.4c-1.5-0.4-0.8-2.7,0.6-2.4C302.3,237.4,301.6,239.8,300.2,239.4z M301.4,234.2
			c-1.7-0.4-1.2-3,0.5-2.7C303.6,231.8,303.1,234.6,301.4,234.2z M304,227.6c-0.1,0.8-0.8,1.5-1.6,1.4c-0.8-0.1-1.4-0.9-1.3-1.7
			c0.1-0.8,0.8-1.4,1.6-1.4C303.4,225.9,304.1,226.7,304,227.6z M304.3,207.8c0.1,0.8-0.6,1.6-1.4,1.6c-0.8,0-1.5-0.6-1.6-1.5
			c-0.1-0.8,0.6-1.6,1.4-1.6C303.5,206.3,304.2,206.9,304.3,207.8z M302.5,203.7c-1.7,0.1-1.9-2.6-0.2-2.8
			C304,200.8,304.2,203.6,302.5,203.7z M301.9,195.7c1.5-0.1,1.7,2.3,0.2,2.5C300.6,198.2,300.3,195.8,301.9,195.7z M297.6,214.4
			c1.2-2.6,3.9-1.6,5.4,0.3c1.4-1.9,4.1-3.2,5.4-0.5c0.9,1.9-0.3,4.1-1.8,5.6c-1.5,1.6-3.4,2.6-3.7,2.6c-0.4-0.1-2.1-1.3-3.5-2.9
			C298,218,296.8,216.1,297.6,214.4z M260.2,195.7c1.5,0.1,1.3,2.6-0.2,2.5C258.5,198,258.7,195.5,260.2,195.7z M259.8,201
			c1.7,0.1,1.5,2.9-0.2,2.8C257.9,203.6,258.1,200.8,259.8,201z M259.4,206.3c0.8,0.1,1.4,0.8,1.4,1.6c0,0.8-0.8,1.5-1.6,1.5
			c-0.8,0-1.4-0.8-1.4-1.6C257.8,206.9,258.6,206.3,259.4,206.3z M258.1,227.6c-0.1-0.9,0.5-1.6,1.3-1.7c0.8-0.1,1.6,0.6,1.6,1.4
			c0.1,0.8-0.5,1.6-1.3,1.7C259,229,258.2,228.4,258.1,227.6z M260.2,231.5c1.7-0.3,2.2,2.4,0.5,2.7
			C259,234.6,258.5,231.8,260.2,231.5z M261.9,239.4c-1.5,0.4-2.1-2-0.6-2.4C262.8,236.7,263.4,239,261.9,239.4z M262.7,219.6
			c-1.4,1.5-3.1,2.8-3.5,2.8c-0.4-0.1-2.2-1.1-3.7-2.7c-1.5-1.6-2.7-3.7-1.8-5.6c1.3-2.7,4-1.5,5.4,0.5c1.5-1.9,4.2-2.9,5.4-0.3
			C265.3,216.2,264.1,218.1,262.7,219.6z"/>
		<path class="st1" d="M197.1,196.3c-5.1,11-5.3,25.1-0.1,36c4.5,9.3,14.5,18.1,25.3,13.3c11.4-5.1,14.3-20.3,13.7-31.5
			C234.4,183.2,207.9,172.9,197.1,196.3z M203.4,199.5c0.3-0.7,1-1.1,1.8-0.7c0.7,0.4,0.9,1.2,0.6,1.7c-0.2,0.6-0.9,1.1-1.7,0.8
			C203.2,201,203.1,200.1,203.4,199.5z M201.6,204.9c0.1-0.9,1-1.4,1.8-1.2c0.8,0.2,1.2,1,1.1,1.8c-0.1,0.8-0.9,1.3-1.7,1.2
			C201.9,206.5,201.4,205.7,201.6,204.9z M196.9,211.3c0.7-1.4,1.7-1.8,2.7-1.5c1,0.3,2,1.1,2.7,2.1c0.7-0.9,1.8-1.6,2.9-1.7
			c1-0.1,2,0.3,2.5,1.5c0.8,1.7-0.4,3.4-1.7,4.9c-1.4,1.5-3,2.8-3.3,2.9c-0.4,0-2.3-1-3.8-2.5C197.2,215.5,196,213.2,196.9,211.3z
			 M201.9,224.7c-0.1-0.8,0.3-1.7,1.2-1.8c0.8-0.1,1.6,0.4,1.7,1.2c0.1,0.8-0.3,1.6-1.1,1.8C202.9,226.1,202,225.5,201.9,224.7z
			 M203.5,230c-0.2-0.7,0-1.5,0.8-1.7c0.8-0.2,1.4,0.3,1.6,0.9c0.2,0.6,0,1.4-0.8,1.7C204.4,231.2,203.7,230.7,203.5,230z
			 M207.4,235.7c-0.6,0.4-1.3,0-1.6-0.5c-0.3-0.6-0.2-1.3,0.5-1.6c0.7-0.3,1.3,0,1.5,0.5C208.1,234.6,208,235.3,207.4,235.7z
			 M208.6,195.5c0,0.3-0.2,0.5-0.4,0.7c-0.2,0.2-0.4,0.3-0.7,0.4c-0.3,0-0.6,0-0.9-0.3c-0.3-0.2-0.4-0.5-0.4-0.9
			c0-0.3,0.2-0.6,0.4-0.9c0.2-0.2,0.6-0.4,0.9-0.4c0.3,0,0.6,0.1,0.8,0.4C208.6,194.9,208.6,195.2,208.6,195.5z M231.3,219.5
			c-1.1,17.6-13.6,27.5-16.3,20.3c-6.9-18.3-1.2-54.7,8-47.3C230.1,198.2,231.8,211.9,231.3,219.5z"/>
	</g>
</g>
</svg>
