<?xml version="1.0" encoding="utf-8"?>
<!-- Generator: Adobe Illustrator 21.1.0, SVG Export Plug-In . SVG Version: 6.00 Build 0)  -->
<svg version="1.1" id="Calque_1" xmlns="http://www.w3.org/2000/svg" xmlns:xlink="http://www.w3.org/1999/xlink" x="0px" y="0px"
	 viewBox="0 0 432 432" style="enable-background:new 0 0 432 432;" xml:space="preserve">
<style type="text/css">
	.st0{fill:#1B1B1B;}
	.st1{fill:#746458;}
	.st2{fill:#C1944E;}
	.st3{fill-rule:evenodd;clip-rule:evenodd;fill:#C1944E;}
	.st4{fill:#020203;}
	.st5{fill:#92AA3C;}
	.st6{fill:#A67D52;}
	.st7{fill:#C69C6C;}
	.st8{fill:#E7E6E6;}
	.st9{fill:#B83A44;}
	.st10{fill:#78716A;}
	.st11{fill:#343434;}
	.st12{fill:#AC2F39;}
	.st13{fill:#B4B4B4;}
	.st14{fill:#BA9BC9;}
	.st15{fill:#CA9685;}
	.st16{fill:#99A5AF;}
	.st17{fill:#6B897C;}
	.st18{fill:#718AA5;}
	.st19{fill:#B28E81;}
	.st20{fill:#808181;}
	.st21{fill:#AD8963;}
	.st22{fill:#CDCCCC;}
	.st23{fill:#CC9485;}
	.st24{fill:#A192B1;}
	.st25{fill:#758971;}
	.st26{fill:#97A8B2;}
	.st27{fill:#5B6876;}
	.st28{fill:#7A8F44;}
	.st29{fill:#30354C;}
	.st30{fill:#6D798D;}
	.st31{fill:#946277;}
	.st32{fill:#4E4D4D;}
	.st33{fill:#D59985;}
	.st34{fill:#975B5D;}
	.st35{fill:#566567;}
	.st36{fill:#BBCC53;}
	.st37{fill:#A9807A;}
	.st38{fill:#676767;}
	.st39{fill:#BF8B7B;}
	.st40{fill:#743F2F;}
	.st41{fill:#C29347;}
	.st42{fill-rule:evenodd;clip-rule:evenodd;fill:#C29347;}
	.st43{fill:#BF924C;}
	.st44{fill:#D39A46;}
	.st45{fill:#476FA1;}
	.st46{fill:#BF694C;}
	.st47{fill:#934735;}
	.st48{fill:#F39A94;}
	.st49{fill:#F7BDB9;}
	.st50{fill:#2B2525;}
	.st51{fill:#DAB0B3;}
	.st52{fill:#8E6568;}
	.st53{fill:#BD684F;}
	.st54{fill:#EAAA63;}
	.st55{fill:#6D8FB0;}
	.st56{fill:#E99C4F;}
	.st57{fill:#EB8563;}
	.st58{fill:#F39149;}
	.st59{fill:#B56955;}
	.st60{fill:#B73736;}
	.st61{fill:#D8AD74;}
	.st62{fill:#C07A41;}
	.st63{fill:#F9B03D;}
	.st64{fill:#C1292E;}
	.st65{fill:#A8A1CF;}
	.st66{fill:#F8C6CC;}
	.st67{fill:#AE748E;}
	.st68{fill:#738998;}
	.st69{fill:#5B856E;}
	.st70{fill:#32353E;}
	.st71{fill:#537791;}
	.st72{fill:#3C3C3A;}
	.st73{fill:#823231;}
	.st74{fill:#C19446;}
	.st75{fill:#CDA372;}
	.st76{fill:#C26647;}
	.st77{fill:#B16F59;}
	.st78{fill:#823D26;}
	.st79{fill:#C7AA72;}
	.st80{fill:#A46B75;}
	.st81{fill:#688698;}
	.st82{fill:#C1949E;}
	.st83{fill:#7CA991;}
	.st84{fill:#758F5E;}
	.st85{fill:#908E60;}
	.st86{fill:#4C4B3D;}
	.st87{fill:#4E5E6E;}
	.st88{fill:#C1BD99;}
	.st89{fill:#DEE3B1;}
	.st90{fill:#ADA6AD;}
	.st91{fill:#90535D;}
	.st92{fill:#59493C;}
	.st93{fill:#009245;}
	.st94{fill:#3B8E5F;}
	.st95{fill:#82A0B3;}
	.st96{fill:#974B4B;}
	.st97{fill:#FFFFFF;}
	.st98{fill:#D7A564;}
	.st99{fill:#C78859;}
	.st100{fill:#76ABBC;}
	.st101{fill:#58A2B3;}
	.st102{fill:#797AA5;}
	.st103{fill:#B38F6E;}
	.st104{fill:#739AA8;}
	.st105{fill:#CD9C8C;}
</style>
<g>
	<g>
		<path class="st0" d="M91.1,139c-0.2-9.6-0.9-17.8-3.1-25.8c-1.1-4-2.6-7.8-5.3-11c-0.7-0.9-1.6-1.6-2.5-2.4
			c-1.3-1.1-2.7-1-4.2-0.1c-1.6,1-2.8,2.4-3.7,4c-1.4,2.4-2.2,5-2.7,7.7c-0.7,4.4-0.3,8.8,0.6,13.1c1.3,6.4,3.4,12.6,6.8,18.2
			c0.3,0.5,0.6,1.1,0.8,1.7c0.4,0.9,0.4,1.9-0.4,2.7c-0.7,0.7-1.8,0.9-2.8,0.3c-1-0.7-2-1.4-2.9-2.4c-2-2.3-3.6-4.9-4.8-7.7
			c-2.4-5.6-4.2-11.3-4.9-17.3c-0.9-7.1,0.2-13.9,2.9-20.5c1.2-2.9,3-5.4,5.3-7.5c5.6-5.1,13-5.2,18.8-0.4c2.1,1.8,3.9,3.9,5.4,6.2
			c2.9,4.5,4.7,9.5,5.9,14.7c1.2,4.9,1.8,10,2.3,15c0.4,4.5,0.6,9,0.4,13.4c-0.2,4.3-0.5,8.6-1,12.9c-0.6,5.7-1.6,11.3-3.2,16.7
			c-1.2,4.4-2.8,8.6-5,12.6c-1,1.8-2.1,3.6-3.3,5.3c-3.1,4.2-7.3,6.5-12.4,7.3c-5.7,0.9-10.3-1.1-14-5.5c-2.6-3.2-4.4-6.9-5.7-10.9
			c-0.6-1.9-1.1-3.7-1.6-5.6c-0.2-0.6-0.2-1.2-0.1-1.8c0.3-2,2.3-2.8,3.9-1.7c0.8,0.5,1.2,1.3,1.5,2.1c0.4,1.1,0.7,2.1,1.1,3.2
			c1.2,3.3,2.6,6.4,4.9,9c0.7,0.8,1.5,1.5,2.4,2.2c1.4,1.1,3,1.1,4.6,0.2c1.4-0.8,2.6-1.9,3.7-3.1c4.5-5,6.9-11.1,8.6-17.5
			c1.4-5.3,2.3-10.6,2.8-16.1C90.7,146.1,90.9,141.9,91.1,139z"/>
		<g>
			<path class="st0" d="M252.4,156.7c-0.4,0.3-0.7,0.5-1,0.8c-3.1,2.6-6.4,4.9-9.8,7c-0.6,0.4-0.8,0.8-0.9,1.5
				c-0.2,6.9-1.1,13.6-2.9,20.3c-2.1,7.7-5.4,14.9-10.4,21.2c-1.6,2-3.3,3.7-5.2,5.3c-2.9,2.4-6.2,4-9.9,4.7c-4.4,0.8-8.6,0-12.6-2
				c-6-2.9-10.8-7.2-14-13.2c-1.1-2-1.9-4.1-2.8-6.2c-0.2-0.4-0.3-0.7-0.5-1.3c-0.3,0.6-0.5,0.9-0.7,1.4c-1.4,2.8-3.1,5.5-5,8
				c-1.4,1.9-3.1,3.6-5,5c-2,1.6-4.3,2.6-6.9,2.9c-0.8,0.1-1.6,0-2.4-0.1c-3.8-0.4-7.2-1.9-10.1-4.4c-3.2-2.8-5.8-6.2-7.7-10
				c-3-5.9-4.9-12.1-6-18.5c-1.2-7.3-1.5-14.6-1.2-22c0.4-9.9,1.9-19.6,4.3-29.3c1.8-7.5,4.1-14.9,7.1-22
				c2.7-6.2,6.3-11.9,11.1-16.7c3.2-3.2,6.7-5.8,11-7.4c2.5-1,5.1-1.4,7.8-0.8c2.4,0.5,4.4,1.6,6,3.5c2.6,3.1,3.8,6.7,3.9,10.7
				c0.2,4.6-0.9,9.1-2.3,13.4c-2.5,7.4-6.3,14.2-11,20.4c-5.9,7.9-12.9,14.6-21,20.2c-1.1,0.8-2.3,1.5-3.5,2.2c-0.7,0.4-1,0.8-1,1.5
				c-0.1,2-0.3,4-0.3,6c-0.3,10.6,0.9,21,4,31.2c0.9,3.1,2.1,6.1,3.9,8.7c1,1.5,2.2,2.9,3.4,4.3c0.3,0.3,0.6,0.6,0.9,0.8
				c1.9,1.4,3.8,1.7,5.9,0.6c1.9-1,3.5-2.3,4.9-4c3.1-3.7,5.8-7.7,7.9-12c0.2-0.4,0.3-0.9,0.2-1.3c-0.7-6.1-0.1-12.2,1.4-18.2
				c0.2-1,0.1-1.6-0.6-2.5c-5.9-7.8-7.8-16.5-5.2-25.9c3.1-10.9,10.3-17.9,21-21.3c4.9-1.5,9.9-1.4,14.8,0.2
				c7.4,2.4,13.4,6.7,18.2,12.9c4.5,5.7,7.3,12.1,8.8,19.2c0.4,2,0.7,4,1.1,6c0,0.2,0.1,0.4,0.2,0.7c3.6-1.7,6.7-4.1,9.9-6.4
				c-0.1-0.4-0.3-0.8-0.4-1.2c-5-12.6-8.7-25.5-11-38.8c-0.8-4.6-1.6-9.2-1.8-13.8c-0.1-1.6,0-3.2,0.6-4.6c0.7-1.7,1.9-3,3.8-3.4
				c1.3-0.3,2.4,0.1,3.4,0.7c1.5,0.9,2.5,2.3,2.9,3.9c0.6,2.1,1.2,4.2,1.5,6.4c1.6,9.3,3.3,18.5,5.9,27.6
				c4.2,14.9,10.5,28.8,18.2,42.2c2.4,4.2,5,8.3,7.4,12.4c0.2,0.4,0.5,0.7,0.9,1.3c0.3-1.2,0.6-2,0.7-2.9c1.7-8.6,3.5-17.2,5.2-25.7
				c1.7-8.4,3.3-16.9,4.9-25.3c1-5.2,1.7-10.4,2.2-15.7c0.4-4.5,0.8-9.1,0.7-13.7c0-0.5,0-0.9-0.1-1.5c-0.5,0.1-0.9,0.2-1.2,0.3
				c-3.6,1-7.3,1.4-11.1,0.8c-8.8-1.3-15.9-9.1-16.1-18c-0.1-4.8,1.7-8.8,5.4-12c3.3-2.9,9.9-3.9,14.5-1.1c3.3,2,6,4.7,7.9,8.1
				c2,3.6,3.5,7.4,4.5,11.4c0.1,0.3,0.2,0.6,0.3,1.1c0.6-0.2,1.1-0.3,1.6-0.5c4.3-1.6,8.6-3.2,13-4.7c6-2.1,12.1-3.2,18.5-3.1
				c7.9,0.1,15.4,2,22.2,6.2c6.5,4,11.7,9.2,15.2,15.9c2.4,4.5,3.9,9.3,4.6,14.4c0.5,3.6,0.7,7.3,0,10.9c-0.4,2.3-1.1,4.6-1.8,6.9
				c-0.3,0.9-0.8,1.7-1.4,2.5c-0.5,0.7-1.3,1-2.2,0.8c-0.8-0.2-1.4-0.8-1.5-1.7c-0.1-0.9-0.1-1.7,0-2.6c0.3-2.3,0.8-4.5,1.1-6.8
				c0.2-1.2,0.3-2.4,0.2-3.6c-0.2-2.8-0.4-5.6-0.9-8.4c-0.8-4.6-2.8-8.7-5.4-12.5c-2.9-4.2-6.6-7.4-10.8-10.2
				c-3.1-2-6.7-3.2-10.3-3.9c-2.6-0.5-5.3-0.8-7.9-0.9c-2.3-0.1-4.6,0.3-6.8,0.5c-7.5,0.8-14.6,3.1-21.4,6.2c-1.6,0.7-3.2,1.3-4.8,2
				c0,0.4,0,0.8,0,1.2c0.4,5.7-0.2,11.4-0.7,17.2c-0.9,9.8-2.8,19.5-4.7,29.1c-1,5.2-1.9,10.5-2.6,15.7c-1.2,8.2-2.3,16.3-3.5,24.5
				c-0.3,2.4-0.9,4.7-2,6.9c-1,1.9-2.5,3.2-4.7,3.5c-1.5,0.2-2.8-0.2-4.1-0.8c-1.6-0.8-3-1.8-4.2-3c-2.7-2.6-4.9-5.5-7-8.6
				c-5.6-8.1-10-16.9-14.1-25.8C252.9,157.6,252.7,157.2,252.4,156.7z M235.5,161.3c-0.1-2.9-0.6-5.6-1.2-8.4
				c-1.8-8.6-5.8-16-12.1-22.2c-3.4-3.3-7.4-5.8-12-7.1c-4.6-1.3-9.2-0.9-13.4,1.5c-5,2.8-8.6,6.9-10.4,12.4
				c-0.4,1.3-0.8,2.6-1.1,3.9c-1,4.2-0.6,8.3,1.1,12.3c0.1,0.3,0.3,0.6,0.5,1c0.3-0.5,0.5-0.9,0.7-1.3c1.5-3,3.1-6,5.1-8.7
				c0.8-1.1,1.8-2.1,3-2.8c1.2-0.7,2.4-1.1,3.8-0.9c3.6,0.5,5.7,3.6,4.7,7.1c-0.4,1.2-1,2.3-1.6,3.5c-1.6,3-3.2,5.9-4.7,8.9
				c-0.7,1.3-1.1,2.7-1.7,4.1c0.2,0.2,0.3,0.3,0.5,0.4c0.5,0.3,0.9,0.5,1.4,0.8c5.8,2.6,11.8,3.3,18,2.5c3.6-0.5,7.1-1.7,10.5-3
				C229.6,164.2,232.5,162.8,235.5,161.3z M235.4,168.1c-0.6,0.3-1,0.5-1.4,0.7c-6.8,3.7-14,6.6-21.7,7.7
				c-6.2,0.9-12.2,0.8-18.2-1.2c-0.2-0.1-0.4-0.1-0.6-0.1c-0.1,0.3-0.2,0.5-0.2,0.7c-0.6,3.8-0.8,7.5-0.1,11.3
				c1.6,8.3,5.9,14.9,13,19.6c4.2,2.8,8.8,2.2,12.5-0.4c1.2-0.9,2.4-1.9,3.4-3.1c3.6-3.7,6.1-8.1,8.2-12.8
				c2.3-5.2,3.7-10.7,4.5-16.3C235,172.3,235.2,170.3,235.4,168.1z M150.8,145.9c0.6-0.4,1.1-0.8,1.6-1.1c6.8-5,12.8-10.8,18.2-17.3
				c5.2-6.4,9.2-13.4,11.5-21.3c1-3.5,1.7-7.1,1.4-10.8c-0.2-2.5-0.9-4.8-2.5-6.8c-1.5-1.7-3.5-2-5.3-1.2c-1,0.4-1.9,1-2.7,1.7
				c-2.5,2-4.4,4.6-6.2,7.3c-2.1,3.4-3.8,7-5.3,10.7c-5.2,12-8.6,24.6-10.5,37.5C150.9,145,150.9,145.4,150.8,145.9z M294.7,92.1
				c-1.1-5-2.7-9.6-5.7-13.7c-1.3-1.7-2.9-3-4.8-4.1c-2.6-1.4-6.6-0.2-7.8,2.9c-0.4,1.1-0.7,2.3-0.6,3.5c0.2,3,1.6,5.5,3.6,7.6
				C283.6,92.8,288.9,93.3,294.7,92.1z"/>
			<path class="st0" d="M315.9,154.7c0.2,1.9,0.4,3.7,0.7,5.4c1.1,6.5,3.7,12.5,7.8,17.7c1.4,1.8,3.1,3.4,5,4.6
				c3.5,2.2,7.2,2.5,11.1,0.8c1.6-0.7,3-1.6,4.3-2.8c5.5-5.2,9.5-11.3,11.1-18.8c0.1-0.4,0.1-0.7,0.2-1.1c0.2-0.5,0.3-1.1,0.6-1.6
				c0.6-0.9,1.5-1.2,2.4-1c1,0.3,1.6,1,1.7,1.9c0.1,1,0.1,2-0.1,3c-1.4,7.6-4.7,14.3-9.5,20.3c-1.2,1.4-2.5,2.8-3.9,4
				c-7,6.1-14.8,7.2-23.3,3.7c-2.9-1.2-5.4-3-7.7-5.2c-5.3-5.2-8.7-11.5-10.6-18.7c-2-7.5-2.2-15.1-1.3-22.8
				c0.9-7.3,3.3-14.1,7-20.4c2.2-3.7,5-6.9,8.5-9.5c3.2-2.3,6.7-3.6,10.6-3.9c3.8-0.2,7.2,0.8,10.4,2.7c2.8,1.7,5.2,4.1,6.9,6.9
				c2.9,4.7,3,9.7,1.2,14.8c-0.8,2.2-2,4.2-3.3,6.1c-5.5,7.9-13,12.4-22.5,13.5c-2,0.2-4.1,0.2-6.1,0.2
				C316.8,154.7,316.5,154.7,315.9,154.7z M316.1,149.6c0.5,0,0.9,0.1,1.3,0.1c3.4,0,6.7-0.6,9.9-1.5c7-2,12.1-6.5,15.7-12.8
				c1.8-3.2,2.2-6.7,0.8-10.2c-1-2.7-3-4.8-5.4-6.3c-2.8-1.8-5.7-2-8.8-0.6c-1.9,0.9-3.4,2.1-4.8,3.7c-2.4,2.8-4.1,5.9-5.3,9.4
				c-1.9,5.4-2.9,11.1-3.5,16.8C316.1,148.6,316.1,149.1,316.1,149.6z"/>
		</g>
		<g>
			<path class="st0" d="M126.3,201.5c0.3,0.3,0.6,0.6,0.8,0.8c3.9,3.1,7.7,6.3,11.6,9.4c4.7,3.7,9.8,7,15.1,9.8
				c6.8,3.6,14,5.9,21.6,7c3.3,0.5,6.7,0.8,10,0.8c4.5-0.1,8.9-0.8,13-3c0.7-0.4,1.4-0.6,2.2-0.8c1.5-0.4,2.8,0.3,3.4,1.6
				c0.5,1.3,0,2.7-1.4,3.3c-4.4,2.1-8.9,4.2-13.9,4.5c-11,0.7-21.5-1-31.7-5.1c-2.7-1.1-5.3-2.4-7.8-3.8c-7.1-3.9-13.6-8.5-20-13.5
				c-2.5-2-4.9-3.9-7.5-5.9c-0.3,0.3-0.6,0.6-0.9,0.9c-5.5,6.6-10.4,13.7-14.7,21.2c-2.1,3.7-3.6,7.6-4.4,11.7
				c-0.3,1.5-0.4,3-0.2,4.5c0.5,2.8,1.9,4.1,4.7,4.1c1.2,0,2.3-0.2,3.5-0.4c1.4-0.3,2.8-0.7,4.2-1c0.6-0.1,1-0.4,1.2-1.1
				c1-3,2.4-5.9,4.1-8.6c2-3.1,4.3-5.9,7.3-8.1c3.7-2.7,7.8-4,12.4-3.8c5.6,0.2,10.1,3.9,11.2,9c1.2,5.6-1.3,11.3-6.2,14.2
				c-2.7,1.6-5.7,2.4-8.9,2.7c-2.8,0.2-5.6,0.2-8.4-0.7c-0.1,0.2-0.3,0.3-0.3,0.4c-1.3,4.5-2,9-1.3,13.7c0.1,0.8,0.4,1.6,0.7,2.4
				c0.8,1.6,2.1,2.5,3.9,2.8c2.8,0.4,5.6-0.1,8.3-0.7c1.7-0.4,3.3-1,4.9-1.4c0.8-0.2,1.1-0.7,1.4-1.4c1.9-4.7,3.8-9.4,5.8-14
				c0.6-1.5,1.4-2.9,2.3-4.3c0.7-1.1,1.6-2,2.5-2.9c0.8-0.8,1.8-1.2,2.9-1.4c2.8-0.5,5.2,1.4,5.5,4.5c0.1,1.3,0,2.6-0.4,3.8
				c-0.8,2.2-1.6,4.4-2.5,6.7c-3,7.7-6,15.5-8.9,23.2c-0.5,1.3-0.8,2.6-1.2,3.9c0.1,0,0.2,0.1,0.2,0.1c0.3-0.4,0.5-0.8,0.8-1.2
				c2.8-4.4,5.5-8.9,8.3-13.3c2.2-3.5,4.7-6.8,7.4-9.9c2.4-2.7,5-5,8.1-6.8c2.5-1.5,5.2-2.3,8.2-2.2c2.3,0.1,4.3,1,5.9,2.8
				c1.8,1.9,2.7,4.2,3,6.8c0.4,3.7-0.1,7.2-1.2,10.7c-1.7,5.6-3.6,11.2-5.4,16.8c-2.2,6.9-4.7,13.8-6.5,20.9
				c-0.7,2.8-1.2,5.6-1.3,8.5c-0.1,2,0.1,4.1,0.7,6c0.5,1.4,1.1,1.8,2.5,1.1c1.2-0.6,2.4-1.3,3.3-2.2c2.9-2.6,5.2-5.7,7.5-8.8
				c0.2-0.3,0.3-0.8,0.3-1.1c0-3.8-0.1-7.6,0.1-11.3c0.4-7.8,0.6-15.6,1.7-23.3c0.3-1.9,0.7-3.8,1.2-5.7c0.4-1.4,1.1-2.7,2.1-3.8
				c2.6-2.8,6.3-2.2,7.9,1.3c0.7,1.4,1,2.9,0.9,4.5c-0.1,2.9-0.3,5.8-0.5,8.7c-0.2,3.2-0.5,6.5-0.7,9.7c-0.2,4.1-0.4,8.2-0.5,12.3
				c0,0.5,0,0.9,0.2,1.4c0.3-1.5,0.5-3,0.8-4.5c1.4-7.2,3.3-14.3,6.2-21.1c1.1-2.7,2.4-5.3,4.2-7.6c1-1.3,2.1-2.5,3.3-3.5
				c3.4-2.7,7.5-2.9,11.3-0.7c1.9,1.1,3.3,2.6,4.5,4.4c2,3,3.1,6.2,3.8,9.7c0.7,3.6,1.1,7.2,1.8,10.8c1.1,6.3,1.9,12.7,3.5,19
				c0.5,1.9,1.1,3.8,1.7,5.6c0.4,1,0.9,2,1.6,2.8c1,1.3,2.4,1.1,3.1-0.3c0.5-1,0.9-2.1,1.2-3.1c2.1-7.5,3.7-15.1,4.9-22.7
				c0.1-0.5,0-1,0.1-1.5c0.5-2-0.1-3.6-1.1-5.3c-2.9-5-4.6-10.5-5.7-16.3c-0.8-4.3-1.4-8.5-1.7-12.8c-0.2-3.1-0.3-6.2,0.4-9.3
				c0.2-1.1,0.6-2.2,1.2-3.1c2.1-3.4,6.4-3.4,8.6-0.1c0.7,1.1,1.1,2.2,1.3,3.5c0.2,1,0.3,2,0.3,3c0.2,9.7,2,19.1,4.8,28.4
				c1.1,3.6,2.5,7.1,5.3,9.8c0.9,0.9,2,1.7,3.1,2.4c1.5,0.9,2.9,0.7,4.2-0.4c1.1-0.9,1.9-2,2.6-3.3c1.3-2.4,2.1-5,2.9-7.7
				c1.8-6.3,2.8-12.8,3.3-19.4c0.1-2,0.3-4,0.4-6c0.1-0.9,0-1.8,0-2.7c-0.5-0.2-0.8-0.3-1.1-0.4c-11.6-3.7-18.4-11.9-21.4-23.4
				c-1.7-6.3-1.4-12.7,0.9-18.9c0.9-2.4,2.2-4.6,3.9-6.6c4.7-5.5,15.2-7.7,22-0.3c1.8,1.9,2.9,4.1,2.8,6.8c0,0.6-0.2,1.2-0.4,1.7
				c-0.5,0.9-1.5,1-2.1,0.1c-0.3-0.4-0.5-0.9-0.7-1.3c-1-2.5-2.7-4.4-5-5.7c-4.4-2.4-9.5-0.9-11.9,3.5c-1,1.8-1.5,3.8-1.8,5.8
				c-1.1,7.5,0.6,14.3,4.8,20.6c2.8,4.2,6.5,7.1,11.3,8.4c2.7,0.7,5.4,1.4,8,2.2c1.9,0.5,3.8,1.1,5.6,1.7c0.9,0.3,1.5,0.3,2.2-0.4
				c3.3-3.2,7.1-5.6,11.4-7.1c4.1-1.4,8.3-2.2,12.6-1.4c1,0.2,2,0.5,3,0.8c0.9,0.3,1.5,0.9,1.8,1.7c0.4,0.9,0.4,1.8-0.3,2.6
				c-0.6,0.8-1.5,1.1-2.4,0.9c-0.9-0.2-1.8-0.5-2.7-0.6c-3.9-0.6-7.6,0.1-11.2,1.4c-2.5,0.9-4.9,2.3-7,4c-0.3,0.2-0.5,0.5-0.9,0.8
				c0.4,0.3,0.8,0.5,1.1,0.8c3.4,2.2,6.2,5,7.8,8.9c1.2,2.8,1.5,5.6,0.4,8.5c-2.5,6.4-10.5,9.4-16.2,5.3c-1.5-1.1-2.7-2.5-3.4-4.2
				c-1.7-3.8-1.9-7.8-0.7-11.8c0.1-0.4,0.3-0.9,0.4-1.4c-2-0.6-4-1.1-6.1-1.7c-0.1,1.4-0.2,2.7-0.4,4.1c-0.5,4.5-0.9,8.9-1.6,13.4
				c-0.9,6.1-2.1,12.1-4.2,17.9c-0.8,2.2-1.8,4.3-3.3,6.1c-3.4,4.1-8.3,5.4-13.3,3.5c-2.3-0.9-4.5-2.1-6.4-3.7
				c-0.2-0.2-0.5-0.3-0.8-0.6c-0.1,0.4-0.2,0.7-0.2,1c-0.9,7-2.2,13.9-3.8,20.8c-0.5,2-1.1,4-1.8,6c-0.4,1.2-1,2.3-1.6,3.3
				c-2.1,3.2-5.9,4.4-9.5,3.1c-1.5-0.6-2.8-1.4-4-2.4c-2.1-1.8-3.8-3.9-5.2-6.3c-2.7-4.6-4.4-9.6-5.3-14.8
				c-0.9-5.9-1.7-11.9-2.5-17.9c-0.5-3.1-0.9-6.2-1.5-9.3c-0.2-1.1-0.7-2.2-1.2-3.2c-0.8-1.4-1.8-1.6-3.1-0.6c-1,0.8-2,1.7-2.8,2.8
				c-1.9,2.4-3.2,5.1-4.3,8c-2,5.1-3.3,10.5-4.2,15.9c-0.8,5.3-1.5,10.7-2,16.1c-0.6,5.6-0.9,11.2-1.3,16.8
				c-0.1,1.2-0.2,2.3-0.5,3.4c-0.7,2.9-3.8,4.1-6.2,2.4c-0.9-0.6-1.6-1.5-2.2-2.3c-2-2.8-3.2-6-4-9.3c-0.5-2.5-0.9-5.1-1.4-7.6
				c-0.1-0.4-0.1-0.9-0.3-1.5c-0.5,0.5-0.8,0.8-1.1,1.2c-1.8,2.1-3.8,4.1-6,5.7c-1.1,0.8-2.2,1.6-3.5,2.2c-3,1.4-5.9,0.8-8.3-1.4
				c-2.1-2.1-3.4-4.7-4.2-7.5c-1.2-4-1.2-8-0.9-12.1c0.7-8.9,3.1-17.4,6-25.9c2.2-6.6,4.3-13.2,6.5-19.9c0.3-1.1,0.5-2.3,0.6-3.4
				c0.1-1.1-0.3-1.5-1.4-1.5c-0.8,0-1.6,0.1-2.3,0.3c-1.8,0.5-3.3,1.4-4.7,2.5c-2.9,2.1-5.3,4.7-7.4,7.5c-3.6,4.8-6.6,9.9-9.6,15.2
				c-1.8,3.2-3.7,6.4-5.5,9.6c-0.5,0.9-1.1,1.7-1.8,2.4c-1.9,2.1-4.7,2-6.5-0.2c-1-1.2-1.5-2.6-1.9-4c-0.8-2.9-0.8-5.8-0.4-8.7
				c0.5-3.4,1.2-6.7,1.8-10c0.1-0.3,0.1-0.6,0.2-1.1c-0.4,0.1-0.7,0.2-1,0.3c-2.5,0.9-5,2.1-7.7,2.4c-9.1,1-15.6-2.5-18.9-10.9
				c-1.5-3.8-1.7-7.8-1.1-11.9c0-0.3,0-0.6,0-0.9c-1.2,0.4-2.3,0.8-3.5,1.1c-2.2,0.6-4.5,0.8-6.8,0.5c-3.1-0.5-5.5-2-7.4-4.4
				c-2.3-3-3.3-6.4-3.4-10.1c-0.2-5.3,1.1-10.4,3.1-15.3c1.2-3.1,2.8-6,4.6-8.8c3.2-4.9,6.6-9.7,10.3-14.2c0.2-0.2,0.3-0.5,0.6-0.8
				c-0.3-0.2-0.6-0.3-0.9-0.4c-3.1-1.1-6.2-1.4-9.4-1.2c-2.4,0.1-4.8,0.5-7.1,1.3c-1.4,0.5-2.8,1.2-4.2,1.8
				c-0.5,0.2-0.9,0.5-1.3,0.7c-0.8,0.4-1.5,0.4-2.2-0.2c-0.6-0.6-0.8-1.4-0.4-2.2c0.3-0.7,0.6-1.4,1-2c1.2-1.6,2.7-2.8,4.5-3.7
				c7.6-3.7,15.3-3.7,23-0.6c0.3,0.1,0.7,0.3,1,0.4c0.3,0.1,0.6,0.3,1.1,0.5c0.3-0.4,0.6-0.8,0.9-1.1c1.9-1.9,3.8-3.8,5.8-5.6
				c1.1-1,2.4-1.7,4-1.9c2.8-0.4,5.4,1.6,5.7,4.4c0.2,1.5-0.1,3-0.9,4.3c-1,1.5-2,2.8-3.1,4.2C127.9,199.8,127.2,200.6,126.3,201.5z
				 M128.2,247.2c2.2,0.6,4.7,0.4,7.3,0.1c1.9-0.2,3.8-0.7,5.6-1.7c2.2-1.1,3.7-2.9,4.5-5.3c0.4-1.3,0.5-2.6,0-3.9
				c-0.7-1.9-2.2-2.8-4.2-2.4c-1.5,0.3-2.9,1-4.1,2c-2.8,2.3-5.4,5-7.3,8.1C129.3,245.1,128.8,246.1,128.2,247.2z M302.4,261.2
				c-1,2.2-1.5,4.4-1.2,6.7c0.2,1.4,0.6,2.8,1.5,4.1c1.5,2.1,4.2,2.6,6.4,1.1c2-1.3,2.4-3.5,1-5.8
				C308.2,264.5,305.5,262.8,302.4,261.2z"/>
			<path class="st0" d="M256.7,233.3c0.1,4-2.7,7.3-6.6,7.7c-0.7,0.1-1.5,0-2.2-0.2c-4.6-1.1-7.3-6.7-5.3-11
				c1.3-2.7,3.6-4.1,6.5-4.1c2.8,0,5.1,1.1,6.7,3.6C256.5,230.7,256.6,232,256.7,233.3z"/>
		</g>
	</g>
	<g>
		<path class="st32" d="M112.4,173.4c0.1-2,0.2-4.2,0.3-6.4c0.1-0.7,0.2-1.5,0.4-2.2c0.2-0.8,0.7-1.4,1.4-1.8c0.4-0.2,0.6-0.5,0.6-1
			c0.2-4.8,0.4-9.6,0.6-14.4c0.1-2.5,0-5,0-7.5c0-6.2-0.9-12.3-2.6-18.3c-1.5-5-2.9-10-4.2-15c-1.2-4.6-2.1-9.2-1.9-14
			c0.4-7.6,2.6-14.5,6.9-20.8c2.5-3.6,5.9-6,10.2-7c3.9-0.9,7.4,0,10.4,2.7c2.3,2.1,3.9,4.6,5.1,7.4c2.2,5.3,3.2,10.9,3.5,16.6
			c0.4,7.9-0.9,15.5-3.8,22.8c-1,2.6-2.5,5.1-3.8,7.6c-1.2,2.2-2.5,4.4-3.7,6.6c-3.1,5.4-5.2,11.2-6.6,17.3
			c-1.2,5.1-1.9,10.3-2.2,15.5c0,0.7,0,1.3,0.6,1.9c0.7,0.7,1,1.6,1,2.6c0.4,4.3,0.3,8.5-0.3,12.8c-0.1,0.8-0.3,1.5-0.6,2.3
			c-0.5,1.5-1.6,2.5-3.2,2.8c-2,0.4-4,0.2-5.7-0.9c-1.2-0.8-2-1.9-2.1-3.3C112.6,177.7,112.5,175.7,112.4,173.4z M122,80.4
			c1.9,0,3.7,0,5.6,0c0.2-3.3,0.5-6.6,0.7-9.8c-1.7-0.6-4.5-0.2-5.8,0.8c-0.2,0.2-0.4,0.6-0.4,1c-0.1,1.4-0.2,2.7-0.2,4.1
			C122,77.7,122,79,122,80.4z M129.6,114c4.1-1.3,7.6-7.4,7.8-10.6c-2.4,0.1-4.8,0.2-7.3,0.3C129.9,107.1,129.8,110.5,129.6,114z
			 M138.3,93.1c-2.7,0.1-5.2,0.2-7.8,0.3c-0.1,2.1-0.2,4.1-0.2,6.2c2.7,0,5.3,0,8,0C138.5,97.5,138.4,95.4,138.3,93.1z M122,135.9
			c0.1-0.2,5.3-12.6,5.2-12.5c-2.3-0.3-4.6-0.7-6.9-1C120.9,126.9,121.5,131.3,122,135.9z M118.9,93.6c-2.2,0-4.3,0-6.5,0
			c0.2,2.3,0.4,4.3,0.6,6.5c2.1,0,4,0,5.9-0.3C118.9,97.7,118.9,95.7,118.9,93.6z M122.2,103.9c0,0.4-0.1,0.6-0.1,0.9
			c0,3,0.1,6,0.1,8.9c0,0.5,0.2,0.8,0.6,0.9c0.9,0.2,1.7,0.4,2.7,0.7c0.2-3.9,0.4-7.6,0.6-11.4C124.8,103.9,123.6,103.9,122.2,103.9
			z M130.7,89.6c2.5,0,4.8,0,7.2,0c-0.2-2-0.6-4-1.2-5.9c-1,0-2,0-2.9,0c-0.9,0-1.9,0-2.8,0C130.9,85.8,130.8,87.6,130.7,89.6z
			 M112.7,90.2c2.3-0.1,4.2-0.2,6.2-0.3c0-2,0-3.9,0-5.9c-1.7,0-3.3,0-5,0C113.6,86,113.1,88,112.7,90.2z M127,89.7
			c0.1-2,0.2-3.9,0.4-5.8c-1.9,0-3.6,0-5.3,0c0,2,0,3.9,0,5.8C123.7,89.7,125.3,89.7,127,89.7z M122.1,99.9c1.5-0.1,2.9-0.2,4.3-0.2
			c0.1-2.1,0.2-4.1,0.3-6.1c-1.6,0-3.1,0-4.6,0C122.1,95.6,122.1,97.7,122.1,99.9z M114.2,104c0.4,2.7,2.9,7,4.8,8.1
			c0-2.7,0-5.3,0-8.1C117.4,104,115.8,104,114.2,104z M135.9,80.8c-1.1-2.9-2.1-5.6-4.1-7.7c-0.1,0-0.2,0-0.3,0.1
			c-0.1,2.4-0.2,4.9-0.3,7.4C132.7,80.6,134.1,80.7,135.9,80.8z M115.3,80.3c1.4,0,2.5,0,3.7,0c0-1.1,0.1-2.1,0.1-3.2
			c0-1,0-2.1,0-3.3C117.4,75.7,116.4,77.8,115.3,80.3z"/>
		<g>
			<path class="st12" d="M217.3,244.6c0.2-0.7,0.4-1.3,0.5-1.9c0.7-2.8,2.3-4.9,4.6-6.6c4.5-3.4,10-1.6,11.4,4.2
				c0.4,1.6,0.3,3.1-0.1,4.7c-1.2,4.7-3.3,9-6.2,12.9c-2.6,3.4-5.7,4.5-9.8,3.2c-3.6-1.1-6.9-2.6-10.1-4.5c-2.9-1.8-4.7-4.4-5.3-7.8
				c-1.1-5.4,4.2-9.1,8.4-8c2.1,0.6,3.9,1.6,5.6,2.9C216.6,244,216.9,244.2,217.3,244.6z"/>
			<path class="st12" d="M217.6,352.5c0.7-0.5,1.3-1.1,2-1.5c1.3-0.9,2.8-1.4,4.5-1.3c3.3,0.3,5.3,3.1,4.4,6.3
				c-0.2,0.8-0.6,1.6-1.1,2.4c-1.5,2.4-3.3,4.4-5.6,6.1c-0.9,0.6-1.8,1.3-2.8,1.9c-1.9,1.2-3.8,1.1-5.6-0.2c-1-0.7-1.9-1.6-2.6-2.6
				c-2.4-3.1-3.7-6.7-4.2-10.5c-0.5-3.7,2.7-6.6,6.1-5.7c1.5,0.4,2.7,1.3,3.5,2.6C216.7,350.8,217.1,351.6,217.6,352.5z"/>
			<path class="st12" d="M309,70c1.2-0.7,2.2-1.3,3.3-1.9c1.3-0.6,2.8-0.9,4.2-0.4c2.9,0.9,4.5,3.8,3.5,6.7
				c-0.3,0.9-0.8,1.8-1.4,2.6c-2.8,3.6-6.6,5.7-11,6.9c-1.2,0.3-2.3,0.1-3.4-0.5c-0.7-0.4-1.5-0.9-2.1-1.6c-3-3.4-4.3-7.4-3.9-11.9
				c0.1-0.6,0.3-1.3,0.5-1.9c1.4-3.1,4.9-4,7.5-1.7c0.6,0.6,1.1,1.3,1.6,2C308.5,68.7,308.7,69.3,309,70z"/>
			<path class="st12" d="M251.5,195c1.2-1.1,2.3-2.2,3.5-3c0.8-0.6,1.7-1.1,2.7-1.3c3.3-0.9,6.1,1.8,5.5,5.2c-0.3,1.5-1,2.7-1.9,3.9
				c-1.8,2.2-4.1,4-6.4,5.7c-1.8,1.3-3.8,1.3-5.8,0.3c-0.6-0.3-1.1-0.6-1.6-1c-3.2-2.6-5-5.9-5.6-9.9c-0.4-2.4,0.9-4.3,3-4.8
				c1.5-0.4,2.8,0.1,3.8,1.1c0.8,0.8,1.5,1.8,2.2,2.7C251,194.1,251.2,194.6,251.5,195z"/>
			<path class="st12" d="M200.9,105.4c1,0.3,2,0.5,2.9,0.9c1.7,0.7,2.9,1.9,3.4,3.7c0.2,0.8,0.2,1.6-0.2,2.3c-1,1.6-2.3,2.8-4.3,3.1
				c-2.7,0.4-5.4-0.1-7.9-0.9c-1.6-0.5-2.5-1.8-2.9-3.4c-0.7-3-0.6-5.9,0.3-8.8c0.2-0.6,0.4-1.2,0.6-1.7c0.6-1.4,1.6-2.4,3-3
				c2-0.8,4-0.1,5,1.7c0.9,1.6,1,3.2,0.6,4.9C201.2,104.5,201.1,104.9,200.9,105.4z"/>
			<path class="st12" d="M355.7,197.1c0.5-0.4,0.9-0.8,1.3-1.2c1-0.7,2-1.5,3.1-2c1.2-0.6,2.5-0.4,3.6,0.6c1.1,1,1.4,2.2,1.1,3.6
				c-0.2,0.7-0.4,1.3-0.8,2c-0.4,0.6-0.8,1.3-1.3,1.8c-1.6,1.6-3.3,2.9-5.3,3.9c-2.4,1.3-4.3,1-6.2-0.9c-2.2-2.2-3.9-4.7-4.6-7.8
				c-0.1-0.6-0.2-1.2-0.2-1.8c0.1-1.4,0.7-2.5,2-3.1c1.3-0.6,2.6-0.5,3.7,0.4c0.8,0.7,1.4,1.5,2.1,2.3
				C354.8,195.5,355.2,196.3,355.7,197.1z"/>
		</g>
		<g>
			<path class="st5" d="M328.6,206.5c3.7-1.8,10.5-0.2,13.5,3.2c-5.2,7.1-7.1,14.9-4.4,23.6c-3.6,1.8-10.7-0.4-13.4-3.6
				C330.3,222.9,331,215,328.6,206.5z"/>
			<path class="st5" d="M341.3,231.8c-2.6-5.3-0.6-14.7,3.3-19.1c0.8,1,1.2,2.2,1.6,3.3c1,3.2,1,6.5,0,9.7
				C345.4,228.4,343.4,230.2,341.3,231.8z"/>
			<path class="st5" d="M321.9,226.6c-4.2-4.6-2.3-15.2,3.1-18.3C326.9,212.7,326.8,221.7,321.9,226.6z"/>
		</g>
	</g>
</g>
</svg>
