<?xml version="1.0" encoding="iso-8859-1"?>
<!-- Generator: Adobe Illustrator 19.0.0, SVG Export Plug-In . SVG Version: 6.00 Build 0)  -->
<svg version="1.1" id="Capa_1" xmlns="http://www.w3.org/2000/svg" xmlns:xlink="http://www.w3.org/1999/xlink" x="0px" y="0px"
	 viewBox="0 0 511.998 511.998" style="enable-background:new 0 0 511.998 511.998;" xml:space="preserve">
<g>
	<g>
		<g>
			<path d="M508.875,39.427l-14.987-14.933c-4.165-4.164-10.917-4.164-15.083,0l-7.458,7.426c-4.169-4.121-10.887-4.109-15.038,0.04
				l-61.643,61.628V74.627c0-5.891-4.776-10.667-10.667-10.667H74.667C33.449,64.007,0.047,97.409,0,138.627v256
				c0,5.891,4.776,10.667,10.667,10.667h330.667v21.333h-128c-17.673,0-32,14.327-32,32s14.327,32,32,32h192
				c52.995-0.059,95.941-43.005,96-96V293.134c0.051-19.813-7.822-38.824-21.867-52.8l-18.258-18.25l10.216-10.219
				c4.164-4.165,4.164-10.917,0-15.083l-14.922-14.922c4.062-4.173,4.034-10.845-0.096-14.976l-22.473-22.481l67.401-67.418
				c4.142-4.143,4.16-10.842,0.063-15.013l7.478-7.462C513.039,50.344,513.039,43.592,508.875,39.427z M464.373,255.416
				c10.035,9.982,15.662,23.563,15.627,37.717v101.493c-0.047,41.218-33.449,74.62-74.667,74.667h-192
				c-5.891,0-10.667-4.776-10.667-10.667s4.776-10.667,10.667-10.667H352c5.891,0,10.667-4.776,10.667-10.667v-32H384
				c5.891,0,10.667-4.776,10.667-10.667V237.369c0.571,0.094,1.148,0.147,1.728,0.149c2.823,0.011,5.534-1.098,7.541-3.083
				l7.474-7.474l14.926,14.919c2,2.001,4.713,3.125,7.541,3.125c2.844-0.001,5.571-1.137,7.573-3.157l4.676-4.678L464.373,255.416z
				 M441.424,196.947l7.365,7.365l-14.933,14.933l-7.365-7.365L441.424,196.947z M393.429,214.776l-21.568-6.592l47.179-48.587
				l14.784,14.784L393.429,214.776z M373.333,230.957V383.96h-352v-21.333H160v-21.333H21.333V319.96H160v-21.333H21.333v-21.333h96
				V255.96h-96V138.627c0.035-29.441,23.893-53.298,53.333-53.333h298.667v29.622l-134.4,134.367
				c-0.625,0.625-1.144,1.314-1.582,2.038l-0.018-0.011l-22.475,37.483c-2.522,4.197-1.862,9.572,1.6,13.035l14.987,15.008
				c2.003,2.003,4.72,3.128,7.552,3.125c1.932-0.003,3.827-0.53,5.483-1.525l36.885-22.152c0.966-0.498,1.861-1.141,2.645-1.922
				l69.454-69.471L373.333,230.957z M276.469,271.758l-14.933-14.933l89.87-89.884l14.935,14.932L276.469,271.758z M248.591,274.02
				l10.649,10.645l-18.611,11.156l-3.2-3.2L248.591,274.02z M381.425,166.786l-14.935-14.932l97.329-97.344l14.933,14.933
				L381.425,166.786z"/>
			<path d="M248.459,210.168l15.083-15.083L256,187.544v-38.251h64v-10.667c0-5.891-4.776-10.667-10.667-10.667h-64
				c-5.891,0-10.667,4.776-10.667,10.667v53.333c0.001,2.829,1.125,5.541,3.125,7.541L248.459,210.168z"/>
			<path d="M85.333,106.627c-23.564,0-42.667,19.102-42.667,42.667s19.102,42.667,42.667,42.667S128,172.858,128,149.294
				S108.897,106.627,85.333,106.627z M85.333,170.627c-11.782,0-21.333-9.551-21.333-21.333c0-11.782,9.551-21.333,21.333-21.333
				c11.782,0,21.333,9.551,21.333,21.333C106.667,161.076,97.115,170.627,85.333,170.627z"/>
			<rect x="138.667" y="255.96" width="21.333" height="21.333"/>
		</g>
	</g>
</g>
<g>
</g>
<g>
</g>
<g>
</g>
<g>
</g>
<g>
</g>
<g>
</g>
<g>
</g>
<g>
</g>
<g>
</g>
<g>
</g>
<g>
</g>
<g>
</g>
<g>
</g>
<g>
</g>
<g>
</g>
</svg>
