<?xml version="1.0" encoding="iso-8859-1"?>
<!-- Generator: Adobe Illustrator 19.0.0, SVG Export Plug-In . SVG Version: 6.00 Build 0)  -->
<svg version="1.1" id="Capa_1" xmlns="http://www.w3.org/2000/svg" xmlns:xlink="http://www.w3.org/1999/xlink" x="0px" y="0px"
	 viewBox="0 0 492.147 492.147" style="enable-background:new 0 0 492.147 492.147;" xml:space="preserve">
<path style="fill:#4DCFE0;" d="M303.02,99.265v16.718c0,5.224-4.18,9.404-9.404,9.404s-9.404-4.18-9.404-9.404V99.265h-31.347
	v16.718v5.747c0,9.927-8.359,18.286-18.286,18.286c-8.882,0-16.196-6.269-17.763-14.629c0-1.045,0-2.09,0-3.657V99.265h-0.522
	h-30.824h-0.522v22.465c0,1.045,0,2.09,0,3.657c-1.567,8.359-8.882,14.629-17.763,14.629c-8.882,0-16.196-6.269-17.763-14.629
	c0-1.045,0-2.09,0-3.657V99.265h-0.522h-30.824h-0.522v22.465c0,1.045,0,2.09,0,3.657c-1.567,8.359-8.882,14.629-17.763,14.629
	c-9.927,0-18.286-7.837-18.286-17.763c0.522-2.09,0.522-4.18,0.522-6.269V99.265h-0.522H50.678h-0.522v19.853
	c-1.045,3.657-4.702,6.269-8.882,6.269c-5.224,0-9.404-4.18-9.404-9.404V99.265H0.522v16.718c0,21.42,16.718,39.184,37.616,40.751
	v106.58c0,8.882,6.792,15.673,15.673,15.673H279.51c8.882,0,15.673-6.792,15.673-15.673v-106.58
	c21.943-1.045,39.184-18.808,39.184-40.751V99.265C334.367,99.265,303.02,99.265,303.02,99.265z M263.837,247.641H69.486v-86.727
	c8.359,6.269,18.808,10.449,30.302,10.449c13.061,0,25.078-5.224,33.437-13.061c8.882,8.359,20.898,13.061,33.437,13.061
	s25.078-5.224,33.437-13.061c8.882,8.359,20.898,13.061,33.437,13.061c10.971,0,20.898-3.657,29.257-9.404v85.682H263.837z"/>
<path style="fill:#1185E0;" d="M490.057,215.771l-42.841-74.188c-2.612-4.702-7.837-7.837-13.584-7.837H334.89V99.265
	c0-8.882-6.792-15.673-15.673-15.673H15.673C6.792,83.592,0,90.384,0,99.265v249.208c0,8.882,6.792,15.673,15.673,15.673h48.588
	c6.792,25.6,30.302,44.408,57.992,44.408s51.2-18.808,57.992-44.408h156.212c6.792,25.6,30.302,44.408,57.992,44.408
	c27.69,0,51.2-18.808,57.992-44.408h24.033c8.882,0,15.673-6.792,15.673-15.673V223.608
	C492.147,220.996,491.624,218.384,490.057,215.771z M424.751,165.094l25.078,43.363H334.89v-43.363H424.751z M122.253,377.208
	c-15.673,0-28.735-13.061-28.735-28.735s13.061-28.735,28.735-28.735s28.735,13.061,28.735,28.735S137.927,377.208,122.253,377.208z
	 M122.253,288.392c-27.69,0-51.2,18.808-57.992,44.408H31.347V114.939h272.196V332.8H180.245
	C173.453,307.2,149.943,288.392,122.253,288.392z M394.449,377.208c-15.673,0-28.735-13.061-28.735-28.735
	s13.061-28.735,28.735-28.735s28.735,13.061,28.735,28.735S410.122,377.208,394.449,377.208z M460.8,332.8h-8.359
	c-6.792-25.6-30.302-44.408-57.992-44.408c-27.69,0-51.2,18.808-57.992,44.408h-1.567v-92.996H460.8V332.8z"/>
<g>
</g>
<g>
</g>
<g>
</g>
<g>
</g>
<g>
</g>
<g>
</g>
<g>
</g>
<g>
</g>
<g>
</g>
<g>
</g>
<g>
</g>
<g>
</g>
<g>
</g>
<g>
</g>
<g>
</g>
</svg>
