<?xml version="1.0" encoding="utf-8"?>
<!-- Generator: Adobe Illustrator 21.1.0, SVG Export Plug-In . SVG Version: 6.00 Build 0)  -->
<svg version="1.1" id="Calque_1" xmlns="http://www.w3.org/2000/svg" xmlns:xlink="http://www.w3.org/1999/xlink" x="0px" y="0px"
	 viewBox="0 0 432 432" style="enable-background:new 0 0 432 432;" xml:space="preserve">
<style type="text/css">
	.st0{fill:#905269;}
	.st1{fill:#5B473E;}
	.st2{fill:#EE8081;}
	.st3{fill:#455063;}
	.st4{fill:#A5998D;}
	.st5{fill:#B94E46;}
	.st6{fill:#8D7867;}
	.st7{fill:#E4C08C;}
	.st8{fill:#BEC1A4;}
	.st9{fill:#B3AEA8;}
	.st10{fill:#F39DA0;}
	.st11{fill:#1A1A1A;}
	.st12{fill:#F7C7C5;}
	.st13{fill:#997BA1;}
	.st14{fill:#658367;}
	.st15{fill:#EA7563;}
	.st16{fill:#3BBACB;}
	.st17{fill:#F98600;}
	.st18{fill:#F5CD00;}
	.st19{fill:#CCCCCC;}
	.st20{fill:#449BC4;}
	.st21{fill:#C69C6D;}
	.st22{fill:#B7C8A4;}
	.st23{fill:#333333;}
	.st24{fill:#B6DB00;}
	.st25{fill:#C10810;}
	.st26{fill:#B98D4D;}
	.st27{fill:#D6A8B2;}
	.st28{fill:#F3532F;}
	.st29{fill:#0071BC;}
	.st30{fill:#006837;}
	.st31{fill:#F1E06C;}
	.st32{fill:#FFB07F;}
	.st33{fill:#B26E6E;}
	.st34{fill:#89A57D;}
	.st35{fill:#E4B1B1;}
	.st36{fill:#A35061;}
	.st37{fill:#677763;}
	.st38{fill:#DFAFB4;}
	.st39{fill:#6D2E2E;}
	.st40{fill:#D79191;}
	.st41{fill:#A51A1A;}
	.st42{fill:#E16F6F;}
	.st43{fill:#ECA3A3;}
	.st44{fill:#A99FC8;}
	.st45{fill:#F4CDA1;}
	.st46{fill:#F28460;}
	.st47{fill:#666666;}
	.st48{fill:#FE6467;}
	.st49{fill:#FBB03B;}
	.st50{fill:#5E417B;}
	.st51{fill:#8EA73D;}
	.st52{fill:#A677B5;}
	.st53{fill:#D397D5;}
	.st54{fill:#8FBA72;}
	.st55{fill:#525541;}
	.st56{fill:#FEB8BD;}
	.st57{fill:#B86B8B;}
	.st58{fill:#4EA8D0;}
	.st59{fill:#A7343B;}
	.st60{fill:#F3A61D;}
	.st61{fill:#BD607F;}
	.st62{fill:#678A6C;}
	.st63{fill:#5B2642;}
	.st64{fill:#A5A184;}
	.st65{fill:#BF8F56;}
	.st66{fill:#2C2B27;}
	.st67{fill:#3C3C3B;}
	.st68{fill:#E7AE61;}
	.st69{fill:#A3897A;}
	.st70{fill:#F1B4B4;}
	.st71{fill:#DEE1DA;}
	.st72{fill:#8BAA67;}
	.st73{fill:#634E42;}
	.st74{fill:#EF810D;}
	.st75{fill:#493D38;}
	.st76{fill:#DEBA88;}
	.st77{fill:#697279;}
	.st78{fill:#5A6054;}
	.st79{fill:#E6421C;}
	.st80{fill:#DCBA6E;}
	.st81{fill:#EB608A;}
	.st82{fill:#D8BFAC;}
	.st83{fill:#507B64;}
	.st84{fill:#7A6A58;}
	.st85{fill:#BD1622;}
	.st86{fill:#B18EAC;}
	.st87{fill:#82A091;}
	.st88{fill:#422813;}
	.st89{fill:#B17F49;}
	.st90{fill:#E68A9C;}
	.st91{fill:#1D1D1B;}
	.st92{fill:#E7A460;}
	.st93{fill:#6A7C5D;}
	.st94{fill:#B23032;}
	.st95{fill:#5E7C4A;}
	.st96{fill:#65052B;}
	.st97{fill:#C42A52;}
	.st98{fill:#390200;}
	.st99{fill:#A1A395;}
	.st100{fill:#ADA667;}
	.st101{fill:#886766;}
	.st102{fill:#96977D;}
	.st103{fill:#607254;}
	.st104{fill:#925673;}
	.st105{fill:#D86E63;}
	.st106{fill:#A2BC70;}
	.st107{fill:#E37A17;}
	.st108{fill:#778A15;}
	.st109{fill:#BE013B;}
	.st110{fill:#CAACC4;}
	.st111{fill:#874D80;}
	.st112{fill:#E7E2DE;}
	.st113{fill:#748565;}
	.st114{fill:#736357;}
	.st115{fill:#8E9091;}
	.st116{fill:#6A665F;}
	.st117{fill:#576B4A;}
	.st118{fill:#606060;}
	.st119{fill:#EBBFC0;}
	.st120{fill:#B297CA;}
	.st121{fill:#DCC6D6;}
	.st122{fill:#420909;}
	.st123{fill:#E2A759;}
	.st124{fill:#DD7576;}
	.st125{fill:#B23838;}
	.st126{fill:#CC9A6D;}
	.st127{fill:#7F454F;}
</style>
<g>
	<g>
		<g>
			<path class="st7" d="M220.2,286.2c-0.1-1.3-0.2-2.7-0.4-4c-0.4-2.3-1-4.6-1.8-6.8c-0.7-2-1.6-4-2.8-5.8c-0.9-1.4-1.9-2.7-3.1-3.8
				c-0.9-0.8-1.9-1.6-3-2.1c-1.6-0.7-3.2-1-5-0.8c-1.4,0.2-2.7,0.6-4,1.4c-1.3,0.8-2.3,1.8-3.3,2.9c-1.2,1.4-2.1,2.9-3,4.5
				c-1.3,2.6-2.3,5.3-2.9,8.2c-0.3,1.4-0.6,2.9-0.7,4.3c-0.1,1-0.2,2-0.2,3c0,1.1,0,2.1,0.2,3.2c0.2,1.5,0.5,2.9,1.1,4.3
				c0.7,1.6,1.6,3,2.9,4.2c1,0.9,2.1,1.7,3.4,2.2c1.1,0.5,2.2,0.8,3.4,1c1.7,0.3,3.4,0.4,5.1,0.3c1.1,0,2.2-0.2,3.2-0.4
				c1.4-0.3,2.7-0.7,4-1.4c1-0.5,2-1.2,2.8-2c1-0.9,1.8-2,2.4-3.2c0.7-1.3,1.1-2.7,1.4-4.2C220.2,289.6,220.2,287.9,220.2,286.2z"/>
			<path class="st7" d="M197.6,312.4c-0.6-1.2-1.4-2.3-2.2-3.4c-1.4-1.9-2.9-3.7-4.7-5.3c-1.6-1.5-3.3-2.8-5.1-3.9
				c-1.4-0.8-2.9-1.5-4.4-2c-1.2-0.3-2.4-0.5-3.7-0.5c-1.7,0-3.4,0.5-4.8,1.5c-1.2,0.8-2.2,1.8-2.9,3c-0.8,1.3-1.3,2.6-1.6,4.1
				c-0.4,1.8-0.6,3.6-0.6,5.4c0,2.9,0.4,5.8,1.1,8.6c0.3,1.4,0.8,2.8,1.3,4.2c0.3,0.9,0.7,1.8,1.2,2.7c0.5,1,1,1.9,1.6,2.8
				c0.8,1.2,1.8,2.4,2.9,3.3c1.3,1.1,2.8,2,4.5,2.5c1.3,0.4,2.7,0.5,4,0.4c1.2-0.1,2.3-0.3,3.5-0.6c1.6-0.5,3.2-1.1,4.7-2
				c0.9-0.5,1.8-1.1,2.7-1.8c1.1-0.9,2.1-1.9,3-3c0.7-0.9,1.2-1.9,1.6-3c0.4-1.3,0.7-2.6,0.7-4c0-1.5-0.2-2.9-0.7-4.3
				C199.1,315.4,198.4,313.9,197.6,312.4z"/>
			<path class="st7" d="M163.3,296.1c0-1.1-0.1-2.2-0.3-3.3c-0.3-1.9-0.7-3.8-1.3-5.7c-0.6-1.7-1.3-3.3-2.2-4.9
				c-0.7-1.2-1.5-2.2-2.5-3.2c-0.7-0.7-1.6-1.3-2.5-1.8c-1.3-0.6-2.7-0.9-4.1-0.8c-1.2,0.1-2.3,0.5-3.3,1.1c-1.1,0.6-2,1.4-2.8,2.3
				c-1,1.1-1.8,2.4-2.5,3.7c-1.1,2.1-2,4.4-2.6,6.7c-0.3,1.2-0.5,2.3-0.7,3.5c-0.1,0.8-0.2,1.6-0.2,2.4c0,0.9,0,1.8,0.1,2.6
				c0.1,1.2,0.4,2.4,0.9,3.6c0.5,1.3,1.3,2.5,2.3,3.5c0.8,0.8,1.7,1.4,2.8,1.9c0.9,0.4,1.8,0.7,2.8,0.9c1.4,0.3,2.8,0.4,4.2,0.4
				c0.9,0,1.8-0.1,2.7-0.3c1.2-0.2,2.3-0.6,3.3-1.1c0.9-0.4,1.6-1,2.3-1.6c0.8-0.8,1.5-1.7,2-2.6c0.6-1.1,1-2.2,1.2-3.4
				C163.2,298.9,163.3,297.5,163.3,296.1z"/>
		</g>
		<path class="st7" d="M257.8,211.5c0.3,0.2,0.5,0.3,0.8,0.5c1.5,1,3,2,4.2,3.4c0.2,0.3,0.5,0.5,0.7,0.8c0.9,1.2,1.3,2.7-0.1,4.3
			c0,0.1,0.1,0.2,0.2,0.2c2.8,2.4,4.9,5.3,6.6,8.4c0.8,1.5,1.6,3.2,2.3,4.8c0.2,0.5,0.4,1.1,0.4,1.7c0.1,1.3-1,2.2-2.2,1.8
			c-0.1,0-0.2,0-0.3-0.1c0.1,0.2,0.1,0.4,0.2,0.6c0.8,2.4,1.8,4.7,2.9,7c0.9,1.7,1.7,3.5,2.6,5.3c1,2.3,2.5,4.1,4.5,5.6
			c2.3,1.8,4.8,3.3,7.5,4.3c0.4,0.1,0.8,0.3,1.1,0.5c0.7,0.3,1.2,0.8,1.4,1.5c0.1,0.3,0.2,0.5,0.5,0.6c3.3,1.1,6.7,1.9,10.1,1.9
			c1,0,2-0.2,2.9-0.4c2.1-0.5,3.5-1.7,4.4-3.6c0.9-1.9,1.7-3.8,2.6-5.6c1.1-2.3,2.5-4.5,4-6.6c3.9-5.5,9.3-8.8,15.8-10.3
			c0.6-0.1,1.2-0.2,1.8-0.1c1,0.1,1.7,0.7,2,1.6c0.2,0.6,0.3,1.2,0.3,1.8c0.1,1.5,0.9,2.6,2.4,3.1c0.6,0.2,1.2,0.4,1.8,0.7
			c0.5,0.2,1,0.5,1.5,0.8c0.8,0.5,1.2,1.3,1.2,2.3c0,0.4,0,0.8,0,1.1c-0.1,0.6,0.1,1.1,0.5,1.5c0.7,0.7,1.5,1.2,2.3,1.6
			c1.3,0.6,2.5,1.1,3.8,1.7c1.8,0.8,3.5,1.6,5,2.8c0.4,0.3,0.8,0.7,1.2,1.1c1,1.2,1,2.5,0,3.7c-0.4,0.5-0.9,0.8-1.4,1.2
			c-0.9,0.8-1.8,1.6-2.7,2.4c-0.5,0.5-0.7,1.1-0.5,1.8c0.4,1.8,0.1,3.4-0.9,4.9c-0.7,1-1.4,2.1-2.1,3.1c-1.4,1.9-2.6,4-3.6,6.1
			c-0.4,0.9-0.8,1.8-1.3,2.6c-1.5,3-3.6,5.5-6.4,7.4c-1.5,1.1-3.1,2.1-4.6,3.1c-2.9,1.9-5.7,3.7-8.3,5.9c-0.3,0.3-0.6,0.6-1,0.9
			c0.3,0.2,0.5,0.3,0.7,0.4c0.4,0.2,0.8,0.4,1.1,0.7c1.1,0.8,1.4,2.1,0.6,3.2c-0.4,0.6-0.9,1.1-1.4,1.7c-0.9,0.8-1.8,1.6-2.7,2.4
			c-2.3,2-4.3,4.4-5.8,7c-0.5,0.8-1,1.5-1.5,2.2c-1.9,2.7-4.4,4.7-7.5,5.9c-1.4,0.5-2.8,1.1-4.2,1.6c-0.8,0.3-1.5,0.6-2.2,1
			c-1.5,0.7-2.8,1.7-3.8,3c-0.8,0.9-1.6,1.8-2.5,2.6c-3.5,3.7-6.1,8-7.7,12.8c-0.7,2-0.5,4,0.7,5.8c0.4,0.7,0.9,1.4,1.3,2.1
			c0.2,0.4,0.4,0.7,0.5,1.1c0.3,1.1-0.3,2.1-1.5,2.3c-0.8,0.1-1.5-0.1-2.2-0.3c-0.5-0.2-1-0.4-1.5-0.6c-0.1,0.3-0.1,0.6-0.2,1
			c0,0.4,0,0.7,0,1.1c0,1.6-0.8,2.7-2.2,3.3c-0.7,0.3-1.5,0.6-2.2,0.9c-1.6,0.6-3.1,1.4-4.4,2.6c-0.6,0.5-1.3,1-1.9,1.5
			c-0.6,0.4-1.3,0.8-2,0.3c-0.8-0.5-0.8-1.3-0.6-2c0.3-1,0.7-2,1.1-3.1c0.2-0.4,0.4-0.9,0.7-1.4c-1-0.1-1.8-0.1-2.7,0
			c-1.5,0.1-2.9,0.2-4.4,0.3c-0.9,0-1.7-0.2-2.6-0.3c-0.3,0-0.5-0.1-0.8-0.3c-1.1-0.5-1.2-1.6-0.3-2.4c0.7-0.6,1.6-1,2.5-1.3
			c1.8-0.6,3.6-1.1,5.5-1.7c2.2-0.7,3.9-2.1,5.4-4c-1,0.2-2,0.5-2.9,0.7c-0.4,0.1-0.9,0.2-1.3,0.2c-0.4,0-0.8,0-1.1-0.1
			c-0.6-0.1-1-0.4-1.2-1c-0.2-0.6,0.1-1.2,0.6-1.5c0.8-0.5,1.6-1,2.5-1.4c1.4-0.5,2.9-0.9,4.3-1.3c0.7-0.2,1.5-0.3,2.2-1
			c-0.2-0.2-0.5-0.5-0.7-0.7c-0.4-0.4-0.5-1-0.3-1.5c0.2-0.6,0.7-0.8,1.3-0.8c0.5,0,1,0,1.6,0c0.2-0.8,0.4-1.6,0.5-2.4
			c0.3-1.9,0.8-3.7,1.4-5.4c0.1-0.3,0.2-0.7,0.3-1c0.2-0.9,0.2-1.2-0.6-1.7c-0.8-0.5-1.5-1.1-2.4-1.5c-3-1.5-5.4-3.7-7.7-6.1
			c-0.4-0.4-0.7-0.8-1.1-1.2c-0.1,0.1-0.2,0.1-0.3,0.2c-0.9,0.6-1.7,0.7-2.6,0c-0.6-0.4-1.1-0.9-1.5-1.5c-0.8-1-1.6-2-2.4-3.1
			c-1.6-2.2-3.5-4.1-5.6-5.8c-2.6-2.1-4.8-4.6-6.8-7.4c-0.5-0.7-1.1-1.4-1.8-2c-1.2,0.7-2.2,0.2-3-0.8c-0.6-0.7-1.2-1.4-1.6-2.2
			c-1.4-2.4-2.8-4.7-4.1-7.1c-1.3-2.4-2-5.1-2.5-7.7c-0.3-1.6-0.5-3.2-0.7-4.8c0-0.2-0.1-0.3-0.1-0.4c-0.1,0-0.1-0.1-0.2-0.1
			c-1.3-0.1-1.9-0.7-2-1.9c-0.1-1.3,0-2.7,0.2-4c0.5-2.6,1.4-5.1,2.3-7.7c0.2-0.7,0.5-1.4,0.8-2.2c0.8-2.2,0.8-4.4,0.6-6.6
			c-0.2-2.7-1-5.2-1.6-7.8c-0.5-2.1-0.7-4.2-0.8-6.4c0-1.4-0.3-2.8-0.4-4.2c-0.1-0.9-0.5-1.8-0.9-2.6c-1-1.8-1.9-3.6-2.3-5.6
			c-0.4-1.7-0.5-3.5-0.4-5.3c0-0.2,0-0.4,0-0.6c0,0,0-0.1-0.1-0.2c-1,0.1-2.1,0.1-3.1,0.2c-0.8,0-1.6,0.1-2.4,0.1
			c-0.2,0-0.5-0.1-0.7-0.1c-0.8-0.2-1.1-0.9-0.7-1.6c0.2-0.4,0.5-0.8,0.8-1c0.7-0.7,1.5-1.3,2.3-2c0.8-0.7,1.7-1.4,2.5-2.1
			c0.4-0.3,0.5-0.6,0.6-1.1c0-0.6,0.1-1.2,0.3-1.8c1-3.1,2.3-6,4.9-8.1c3-2.5,6.5-3.9,10.5-3.9c4,0,7.7,1.1,11.2,3
			c0.3,0.2,0.7,0.4,1,0.6c1.1,0.8,1.3,2,0.6,3.2C258.1,211.1,257.9,211.3,257.8,211.5z"/>
	</g>
	<g>
		<g>
			<path class="st8" d="M176.7,260.7c-4.7,1.6-9.4,2.9-14.2,4c-5.4,1.3-10.9,2.5-16.3,3.6c-5.4,1.1-10.7,2.1-16.1,3.2
				c-5,1-10,2.1-14.9,3.6c-3.8,1.1-7.6,2.3-11.3,3.6c-6.3,2.2-11.9,5.6-16.6,10.4c-2.4,2.4-4.4,5-6.1,8c-0.2,0.4-0.4,0.8-0.7,1.1
				c-0.5,0.7-1.1,1.2-2.1,1c-0.9-0.2-1.4-0.8-1.6-1.7c-0.3-1.1-0.4-2.3-0.3-3.5c0.2-1.6,0.7-3,1.4-4.4c1.5-2.9,3.5-5.4,5.8-7.7
				c3.6-3.5,7.7-6.4,12.2-8.8c3.3-1.8,6.7-3.2,10.2-4.5c4-1.5,8.1-2.6,12.3-3.8c6.3-1.7,12.7-3,19.1-4.2c5.5-1,11-2,16.5-3
				c1.7-0.3,3.4-0.7,5.1-1.1c2.2-0.5,4.3-0.9,6.5-1.4c6.5-1.5,12.9-3.1,19.2-5.4c4.2-1.5,8.4-3.2,12.5-5.1c3.4-1.6,6.7-3.4,9.8-5.6
				c2.4-1.7,4.4-3.8,6.3-6c0.4-0.5,0.9-0.9,1.4-1.3c0.2-0.2,0.5-0.3,0.7-0.4c1.4-0.5,2.6,0.5,2.5,1.9c-0.1,0.9-0.4,1.6-0.9,2.3
				c-2,3.2-4.5,5.8-7.4,8.1c-3.8,3.2-8,5.9-12.4,8.2c-4.8,2.6-9.8,4.8-15,6.7C180.4,259.6,178.5,260.1,176.7,260.7z"/>
			<path class="st8" d="M153.7,103.4c4.7-1.6,9.4-2.9,14.2-4c5.4-1.3,10.9-2.5,16.3-3.6c5.4-1.1,10.7-2.1,16.1-3.2
				c5-1,10-2.1,14.9-3.6c3.8-1.1,7.6-2.3,11.3-3.6c6.3-2.2,11.9-5.6,16.6-10.4c2.4-2.4,4.4-5,6.1-8c0.2-0.4,0.4-0.8,0.7-1.1
				c0.5-0.7,1.1-1.2,2.1-1c0.9,0.2,1.4,0.8,1.6,1.7c0.3,1.1,0.4,2.3,0.3,3.5c-0.2,1.6-0.7,3-1.4,4.4c-1.5,2.9-3.5,5.4-5.8,7.7
				c-3.6,3.5-7.7,6.4-12.2,8.8c-3.3,1.8-6.7,3.2-10.2,4.5c-4,1.5-8.1,2.6-12.3,3.8c-6.3,1.7-12.7,3-19.1,4.2c-5.5,1-11,2-16.5,3
				c-1.7,0.3-3.4,0.7-5.1,1.1c-2.2,0.5-4.3,0.9-6.5,1.4c-6.5,1.5-12.9,3.1-19.2,5.4c-4.2,1.5-8.4,3.2-12.5,5.1
				c-3.4,1.6-6.7,3.4-9.8,5.6c-2.4,1.7-4.4,3.8-6.3,6c-0.4,0.5-0.9,0.9-1.4,1.3c-0.2,0.2-0.5,0.3-0.7,0.4c-1.4,0.5-2.6-0.5-2.5-1.9
				c0.1-0.9,0.4-1.6,0.9-2.3c2-3.2,4.5-5.8,7.4-8.1c3.8-3.2,8-5.9,12.4-8.2c4.8-2.6,9.8-4.8,15-6.7C150,104.5,151.9,104,153.7,103.4
				z"/>
		</g>
		<g>
			<path class="st9" d="M309.8,186.2c-0.2-0.6-0.7-1.1-1.4-1.1c-0.6-0.1-1.1,0.3-1.4,0.8c-0.4,0.7-0.8,1.4-1.2,2.1
				c-2,3.6-4,7.2-6,10.8c-0.5,0.8-1,1.6-1.5,2.4c-0.8,1.3-1.8,2.4-2.9,3.4c-0.3,0.3-0.7,0.5-1.1,0.9c-0.5-1-0.9-2-1.2-3
				c-0.9-3.2-1.1-6.5-1-9.8c0.2-4.6,0.7-9.2,1.3-13.8c0.6-5.2,1.4-10.4,1.6-15.7c0.1-3.2,0.1-6.4-0.6-9.6c-0.5-2.3-1.2-4.4-2.6-6.3
				c-1.1-1.5-2.5-2.6-4.2-3.2c-2.3-0.8-4.5-0.5-6.7,0.5c-2.5,1.1-4.5,2.9-6.1,5.1c-1.3,1.8-2.6,3.7-3.7,5.7
				c-2.4,4.2-4.3,8.6-5.9,13.1c-1.4,3.9-2.5,7.9-3.8,11.8c-0.1,0.3-0.2,0.5-0.3,1c-0.2-0.5-0.4-0.9-0.5-1.2c-0.5-1.5-1.1-3-1.6-4.6
				c-1.2-3.7-2-7.5-2.7-11.4c-0.1-0.5,0.1-0.8,0.3-1.1c1.6-2.2,3-4.6,4.1-7c2.7-5.6,4.2-11.6,5.1-17.7c0.4-2.7,0.6-5.4,0.1-8.1
				c-0.4-2.2-1.2-4.2-2.5-6c-1.2-1.6-2.8-2.5-4.8-2.6c-1-0.1-2,0.1-3,0.4c-2.5,0.7-4.4,2.3-5.9,4.4c-1.7,2.5-2.8,5.2-3.5,8.1
				c-1.2,4.5-1.3,9.1-1.2,13.7c0.1,3.5,0.4,7,0.9,10.5c0.4,3,0.9,5.9,1.5,8.9c0.1,0.5,0,0.9-0.4,1.3c-3.4,3.6-7,7.1-10.7,10.3
				c-0.1,0.1-0.3,0.2-0.5,0.3c-0.1-0.1-0.2-0.3-0.3-0.4c-1.4-1.6-3.1-3-4.8-4.3c-1.9-1.5-3.7-2.9-5.5-4.5c-1.8-1.6-3.1-3.6-3.5-6
				c-0.2-1.3-0.2-2.6,0.6-3.8c0.4-0.6,0.9-0.9,1.6-0.9c0.8,0,1.5,0.2,2.1,0.7c1,0.7,2,1.5,3,2.2c0.2,0.2,0.5,0.4,0.7,0.5
				c1,0.6,1.9,0.2,2.3-0.8c0.1-0.3,0.2-0.7,0.2-1.1c0-1.4-0.5-2.6-1.3-3.7c-1.5-2.1-3.5-3.5-6.1-4.2c-1-0.2-2-0.4-3-0.2
				c-2.3,0.3-4.3,1.3-5.9,3c-3.4,3.6-4.2,7.8-3,12.4c0.7,2.7,2.2,5,4,7.2c0.7,0.8,1.4,1.5,2.1,2.3c-0.7,2.6-1.4,5.2-2.2,7.9
				c-1.5,5.3-3.3,10.4-5.5,15.5c-0.5,1.2-1.2,2.3-1.9,3.3c-0.4,0.6-1.1,1.1-1.7,1.6c-0.7,0.5-1.6,0.6-2.3,0.1
				c-0.7-0.5-1.3-1-1.8-1.6c-0.8-1.1-1.5-2.3-2.1-3.5c-1.2-2.4-2-4.9-2.7-7.4c-0.2-0.8-0.4-1.5-0.5-2.3c0.3-0.2,0.6-0.3,0.8-0.4
				c3-1.4,5.4-3.5,7.1-6.3c1.6-2.6,2.2-5.5,1.2-8.4c-1.1-3.3-3.5-5.3-6.9-6c-3.5-0.7-6.5,0.5-8.9,3.1c-1.7,1.8-2.5,4.1-3,6.4
				c-0.8,3.2-1.1,6.5-1,9.9c0.1,3.9,0.6,7.7,1.7,11.5c0.1,0.4,0.2,0.9,0.1,1.4c-0.6,4.5-1.3,8.9-2,13.4c-0.4,2.8-0.9,5.5-1.8,8.2
				c-0.4,1.1-1,2.2-1.5,3.3c-0.3,0.7-0.8,0.8-1.5,0.6c-0.9-0.3-1.6-1-1.9-1.9c-0.3-1.1-0.6-2.2-0.7-3.3c-0.2-2.4-0.2-4.8-0.3-7.3
				c0-1.8,0-3.6,0.1-5.5c0.1-2.6,0.3-5.2,0.4-7.8c0.2-3.6,0.3-7.2,0.4-10.8c0-1.9-0.1-3.7-0.6-5.5c-0.7-2.9-2.4-4.8-5.3-5.6
				c-1.9-0.5-3.9-0.6-5.8-0.1c-1.2,0.3-2.4,0.6-3.7,0.9c-0.1-0.3-0.2-0.6-0.3-0.8c-0.9-2.3-2.5-4-4.7-5c-1.4-0.6-2.8-0.9-4.3-0.6
				c-2.9,0.7-5.3,3.4-5.7,6.5c-0.3,2.3,0.6,4.3,2.7,5.4c0.7,0.4,1.4,0.6,2.1,0.8c1.7,0.4,3.4,0.2,5-0.2c0.4-0.1,0.8-0.2,1.2-0.3
				c0,0.2,0,0.3,0,0.3c-0.1,0.2-0.1,0.4-0.2,0.6c-1,2.2-2.3,4.1-4.3,5.6c-2.7,2.1-5.8,3.4-9.2,4.3c-0.1-0.3-0.1-0.6-0.2-0.9
				c-0.3-1.7-0.5-3.5-0.8-5.2c-1.1-6.1-1.8-12.2-2.5-18.3c-0.5-4.6-0.8-9.2-0.8-13.8c0-0.2,0-0.4,0-0.6c0.3-0.1,0.5-0.2,0.7-0.2
				c2.2-0.6,4.3-1.4,6.3-2.4c4-1.9,7.3-4.6,9.8-8.3c1.9-2.8,3-5.8,3.2-9.1c0.2-3.7-1-6.9-3.8-9.3c-2.4-2.1-5.2-2.9-8.3-2.9
				c-4,0-7.5,1.5-10.6,4c-3.3,2.8-5.3,6.3-6.5,10.5c-1,3.6-1.4,7.4-1.5,11.1c-0.1,1.3-0.1,2.7-0.2,4.1c-0.7,0-1.3,0-2,0
				c-1,0-1.9-0.1-2.9-0.1c-3.4-0.1-6.8-0.1-10.2-0.2c-5.5-0.1-11,0.1-16.4,1.1c-2.6,0.5-5.1,1.2-7.4,2.4c-2.3,1.1-4.2,2.6-5.7,4.7
				c-2.7,3.6-3.6,7.7-2.8,12.1c0.6,3.6,2.2,6.7,4.6,9.4c0.7,0.7,1.4,1.4,2.3,1.8c0.6,0.3,1.2,0.4,1.8,0.3c0.9-0.1,1.5-0.9,1.3-1.8
				c-0.1-0.5-0.4-0.7-0.8-1c-0.9-0.5-1.6-1.2-2.2-2.1c-2.1-2.7-3.3-5.8-3.2-9.2c0-4.2,1.8-7.5,5.5-9.6c1.6-0.9,3.4-1.5,5.3-2
				c2.4-0.6,4.8-0.8,7.2-1.1c3.8-0.4,7.7-0.5,11.5-0.5c3.5,0,7-0.1,10.5-0.1c1.2,0,2.4-0.1,3.6-0.2c0,0.7,0.1,1.3,0.1,2
				c0.1,2.6,0.2,5.2,0.5,7.8c0.3,3.8,0.8,7.6,1.2,11.4c0.4,3.6,0.9,7.2,1.4,10.8c0.3,2.1,0.6,4.2,0.9,6.3c0.1,1,0.3,2,0.4,3
				c-0.1,0.1-0.1,0.2-0.2,0.2c-0.2,0.1-0.4,0.2-0.7,0.3c-3.7,1.7-7.3,3.8-10.6,6.2c-3.7,2.7-6.9,5.9-9.4,9.7
				c-2.7,4.1-4.3,8.7-4.5,13.6c-0.2,5.2,1.3,9.9,4.3,14.2c2.6,3.7,6.1,5.8,10.4,6.8c3.1,0.8,6.2,0.7,9.3-0.1
				c3.7-0.9,6.8-2.7,9.3-5.6c1.5-1.8,2.6-3.8,3.4-5.9c2-5.1,2.6-10.4,2.7-15.9c0-2.5-0.1-5.1-0.4-7.6c-0.2-1.9-0.4-3.8-0.7-5.7
				c-0.5-3.1-1-6.1-1.5-9.2c0-0.2,0-0.5,0-0.8c0.2-0.1,0.4-0.1,0.5-0.2c2.4-0.7,4.8-1.4,7.1-2.5c5.6-2.6,8.7-7.1,9.7-13
				c0-0.2,0.1-0.5,0.1-0.7c1.1-0.3,2.2-0.4,3.3-0.4c0.8,0.1,1,0.2,1,1c0,0.4,0.1,0.8,0,1.1c-0.3,2.4-0.5,4.8-0.9,7.2
				c-1,6.6-1.9,13.3-1.8,20c0,3.1,0.4,6.2,1.1,9.2c0.7,2.7,1.7,5.2,3.6,7.3c1.5,1.7,3.3,3.1,5.5,3.9c3.3,1.2,6.4,0.2,8.6-2.6
				c0.8-1,1.4-2.2,1.8-3.4c0.7-1.8,1.3-3.7,1.7-5.6c0.9-4.2,1.4-8.5,1.8-12.9c0.1-1,0.2-2.1,0.4-3.3c0.3,0.5,0.6,0.9,0.8,1.2
				c2.2,3.2,5,5.5,8.8,6.3c1.3,0.3,2.5,0.4,3.8,0.2c2.7-0.4,4.8-1.9,6.5-4c1-1.3,1.8-2.7,2.4-4.2c1.3-3,2.2-6,2.9-9.2
				c1.4-5.7,2.6-11.5,4-17.2c0.1-0.2,0.1-0.5,0.2-0.8c2.9,2.2,5.8,4.4,8.6,6.5c-0.2,0.2-0.3,0.4-0.4,0.6c-1.4,1.8-2.5,3.7-3.1,5.9
				c-0.4,1.5-0.6,2.9-0.2,4.4c0.8,3.1,3.7,5,6.9,4.3c1.4-0.3,2.7-0.9,3.8-1.8c3.5-2.6,4.9-6,4.2-10.3c-0.4-2.1-1.3-4-2.4-5.9
				c-0.2-0.4-0.5-0.8-0.8-1.2c1.8-1.5,3.5-3,5.2-4.5c1.7-1.5,3.4-3.1,5.2-4.7c0.1,0.3,0.1,0.4,0.2,0.6c0.9,3.8,2,7.5,3.5,11
				c0.8,2,1.7,4,3.1,5.7c0.8,0.9,1.7,1.7,2.8,2.2c1.1,0.5,2.2,0.7,3.3,0.5c1.8-0.3,3.1-1.4,3.9-3.1c0.4-1,0.8-2,1-3
				c0.5-2.1,0.8-4.2,1.2-6.3c0.9-5.7,2.4-11.3,4.7-16.7c1.2-2.9,2.7-5.7,4.5-8.2c0.9-1.2,1.9-2.4,3.2-3.3c0.6-0.4,1.3-0.8,2-1
				c1-0.3,1.6-0.1,2.1,0.8c0.3,0.5,0.5,1.1,0.7,1.6c0.5,1.7,0.7,3.5,0.8,5.2c0.1,3.6-0.2,7.2-0.6,10.8c-0.7,6.4-1.6,12.8-2.1,19.2
				c-0.3,4-0.3,7.9,0.2,11.9c0.3,2.1,0.9,4.2,1.8,6.2c0.7,1.6,1.7,3,3.1,4c3.1,2.5,6.7,2.4,9.7-0.2c1.4-1.2,2.6-2.6,3.6-4.2
				c1.6-2.4,3-5,4.1-7.7c1.5-3.5,2.8-7,4.2-10.5c0.1-0.4,0.3-0.7,0.3-1.1C309.9,187.1,309.9,186.6,309.8,186.2z M143.5,151.1
				c0.2-3.3,0.6-6.5,1.5-9.7c0.5-1.9,1.1-3.7,2.1-5.4c0.9-1.6,2.2-2.8,3.9-3.5c2.2-0.8,4.3-0.7,6.3,0.7c1.4,1,2.2,2.5,2.4,4.2
				c0.2,2.2-0.2,4.3-1,6.3c-1.3,3.1-3.4,5.7-6.3,7.6c-2.6,1.7-5.5,3-8.6,3.7c-0.1,0-0.2,0-0.5,0
				C143.4,153.7,143.5,152.4,143.5,151.1z M135.3,235.1c-1,2.5-2.2,5-4,7.1c-1,1.2-2.2,2.2-3.8,2.6c-0.9,0.2-1.8,0.1-2.7-0.2
				c-1.5-0.5-2.7-1.4-3.7-2.5c-1.9-2.2-3.2-4.7-3.6-7.6c-0.8-5.6,0.7-10.7,3.7-15.4c1.7-2.6,3.8-4.7,6.1-6.6c3-2.5,6.3-4.6,9.8-6.5
				c0.2-0.1,0.3-0.2,0.6-0.3c0.1,1.8,0.3,3.4,0.4,5c0.1,2,0.3,4.1,0.3,6.1C138.4,223.1,137.6,229.2,135.3,235.1z M157.5,180.7
				c-0.5-0.2-0.9-0.6-1.2-1.2c-0.3-0.6-0.2-1,0.4-1.4c0.6-0.4,1.2-0.4,1.8-0.1c1.4,0.6,2.3,1.7,2.9,3.3
				C160,181.3,158.7,181.2,157.5,180.7z M197.9,187.4c-0.4-3-0.3-5.8,0.7-8.5c0.1-0.3,0.2-0.6,0.3-0.8c0.4-0.9,1-1.6,2-1.6
				c1.1,0,2.2,0.8,2.6,1.8c0.4,1,0.3,2,0.1,3.1c-0.3,1.2-0.9,2.2-1.7,3.1c-1,1.2-2.3,2.1-3.6,2.9
				C198.2,187.3,198.1,187.4,197.9,187.4z M232,197.5c-0.9,0.3-1.7-0.1-2-1c-0.2-0.5-0.3-1-0.2-1.4c0.2-1,0.4-1.9,0.7-2.8
				c0.5-1.3,1.2-2.5,2.1-3.8c1.3,1.4,2.5,2.8,2.5,4.8C235.2,195.2,233.5,197,232,197.5z M255.9,157.6c-0.1,0.2-0.2,0.3-0.4,0.6
				c-0.1-0.9-0.2-1.7-0.3-2.4c-0.4-4-0.8-7.9-0.8-11.9c0-3.8,0-7.7,0.6-11.5c0.3-1.6,0.7-3.1,1.6-4.5c0.4-0.6,0.8-1.2,1.4-1.6
				c1-0.8,2-0.7,2.9,0.2c1.1,1.2,1.8,2.7,2.1,4.3c0.4,2.1,0.3,4.1,0.1,6.2C262.2,144.4,259.6,151.2,255.9,157.6z"/>
			<g>
				<path class="st8" d="M172.8,137.2c0.1-1.1,0.1-2.2,0.2-3.3c0.1-1.1,0.2-2.2,0.3-3.4c0.1-0.9,0.2-1.8,0.4-2.8
					c0.1-0.5,0.3-1,0.6-1.4c0.3-0.5,0.7-0.8,1.3-0.9c0,0,6,0,6,0c0.3,0,0.6,0,0.8,0.1c0.2,0.1,0.4,0.2,0.6,0.3
					c0.4,0.3,0.4,0.8-0.1,1.1c-0.3,0.2-0.6,0.3-1,0.3c-0.6-0.1-1.2-0.1-1.9-0.1c-0.7,0-1.5,0-2.2,0c-0.3,0-0.3,0-0.3,0.3
					c0.1,0.8,0.1,1.7,0,2.5c-0.1,1.6-0.3,3.2-0.4,4.8c-0.1,1.2-0.1,2.3-0.2,3.5c0,0.3,0,0.3,0.3,0.3c0.2,0,0.4,0,0.5,0
					c0.1,0,0.2,0,0.3,0c0.4,0,0.6,0.2,0.6,0.5c0,0.3-0.1,0.4-0.5,0.5c-0.4,0.1-0.7,0.2-1.1,0.3c-0.2,0-0.3,0.1-0.3,0.3
					c0,0.1,0,0.2,0,0.3c-0.1,1.1-0.2,2.2-0.2,3.2c0,0.4-0.2,0.8-0.4,1.1c-0.5,0.8-1.6,0.9-2.2,0.1c-0.3-0.3-0.5-0.7-0.6-1.2
					c-0.2-1.1-0.5-2.2-0.6-3.3C172.8,139.4,172.8,138.3,172.8,137.2z"/>
				<path class="st8" d="M186.2,140.6c0-0.9,0.1-2.3,0.2-3.6c0.2-2.8,0.7-5.5,1.8-8c0.3-0.8,0.7-1.5,1.2-2.2c1-1.5,2.6-1.7,4-1.1
					c1,0.4,1.8,1.1,2.4,2c1.1,1.4,1.8,3.1,2.1,4.8c0.4,1.8,0.4,3.7,0.4,5.5c0,1.5-0.1,2.9-0.2,4.4c-0.1,0.7-0.2,1.4-0.4,2.1
					c-0.2,0.5-0.5,0.9-0.9,1c-0.8,0.3-1.6-0.2-1.8-1c-0.1-0.4-0.1-0.8-0.1-1.3c0-0.5,0-0.5-0.4-0.5c-1-0.1-1.9,0.1-2.9,0.2
					c-1.2,0.1-2.5,0.2-3.7,0.1c-0.2,0-0.2,0.1-0.2,0.2c0,0.5,0,0.9-0.1,1.4c0,0.2-0.1,0.3-0.1,0.5c-0.2,0.5-0.7,0.5-1,0
					c-0.2-0.3-0.2-0.5-0.2-0.8C186.2,143.1,186.2,142.1,186.2,140.6z M187.7,138.8c0,0.8,0,1.7,0,2.5c0,0.4,0,0.4,0.4,0.4
					c1.8,0,3.6-0.1,5.4-0.3c0.4,0,0.8-0.1,1.2-0.1c0.2,0,0.3-0.1,0.3-0.3c0-1,0-2-0.1-3c-0.1-0.9-0.2-1.7-0.3-2.5
					c-0.1-1.2-0.3-2.3-0.6-3.4c-0.3-1.2-0.8-2.4-1.5-3.4c-0.3-0.4-0.6-0.7-1-1c-0.4-0.3-0.6-0.2-1,0.1c-0.3,0.3-0.5,0.6-0.7,1
					c-0.5,0.9-0.9,1.9-1.2,2.9C188,133.9,187.7,136.3,187.7,138.8z"/>
				<path class="st8" d="M205.6,140.4c0,0.4,0,0.6,0,0.9c-0.1,0.9-0.2,1.7-0.4,2.5c-0.1,0.3-0.2,0.6-0.4,0.9c-0.7,1-2,1-2.7,0
					c-0.3-0.5-0.5-1.1-0.6-1.7c-0.2-1-0.2-2-0.2-3c0.1-2.8,0.1-5.7,0.1-8.5c0-1.1,0-2.2,0.2-3.3c0.1-0.5,0.2-1,0.5-1.5
					c0.2-0.3,0.4-0.7,0.7-0.9c0.6-0.4,1.2-0.4,1.7,0.2c0.2,0.3,0.4,0.6,0.5,0.9c0.3,0.9,0.5,1.8,0.5,2.7c0,0.2,0,0.3,0,0.5
					c0.2,0,0.2-0.1,0.2-0.2c0.9-1.4,2-2.7,3.4-3.7c0.6-0.4,1.3-0.8,2.1-0.9c0.9-0.2,1.8,0.1,2.5,0.7c0.8,0.7,1.1,1.6,1.3,2.6
					c0.1,1,0,2-0.3,2.9c-0.7,2.4-2.1,4.3-4.1,5.7c-0.8,0.6-1.7,1.1-2.7,1.4c-0.3,0.1-0.6,0.2-0.9,0.2c-0.1,0-0.2,0-0.2,0.1
					c0,0,0,0.1,0,0.1c1.4,1.1,2.5,2.5,3.6,3.9c0.3,0.3,0.5,0.7,0.6,1.1c0,0.1,0,0.1,0,0.2c0.1,0.6-0.3,1-0.9,0.8
					c-0.4-0.1-0.7-0.3-1-0.6c-0.6-0.6-1.1-1.2-1.6-1.8c-0.6-0.7-1.1-1.3-1.7-2C205.8,140.6,205.7,140.5,205.6,140.4z M205.6,137.7
					c0.1,0,0.3,0,0.4-0.1c1.1-0.4,2.2-1,3.1-1.7c0.2-0.1,0.4-0.3,0.5-0.5c1.1-1.2,2-2.7,2.5-4.3c0.2-0.6,0.3-1.2,0.3-1.8
					c0-0.6-0.1-1.2-0.5-1.7c-0.3-0.4-0.7-0.6-1.2-0.5c-0.4,0.1-0.8,0.2-1.1,0.4c-1.9,1-3.1,2.6-4,4.5c-0.1,0.2-0.1,0.3-0.1,0.5
					c0,1.6,0,3.2,0,4.7C205.6,137.4,205.6,137.6,205.6,137.7z"/>
				<path class="st8" d="M227.3,130.9c0.1,0,0.1-0.1,0.1-0.1c0.3-0.6,0.7-1.1,1.1-1.7c0.6-0.8,1.2-1.7,1.9-2.5
					c0.4-0.5,1-0.9,1.6-1.2c0.5-0.2,1-0.1,1.5,0.2c0.3,0.2,0.5,0.6,0.6,0.9c0.3,0.6,0.4,1.2,0.5,1.8c0.1,1.2,0.1,2.3,0.1,3.5
					c0,1.1-0.1,2.2-0.1,3.4c-0.7,11.8-4.2,12.1-4.2,7.3c0-1.1,0-2.3,0-3.4c-0.1-2.2-0.1-4.4,0.1-6.6c0.1-1,0.1-2,0.2-3
					c0,0,0-0.1,0-0.1c-0.1,0-0.2,0.2-0.3,0.3c-0.7,0.9-1.4,1.8-1.9,2.8c-0.1,0.2-0.2,0.3-0.3,0.5c-0.5,0.7-1.3,0.9-2.1,0.3
					c-0.3-0.2-0.6-0.6-0.8-0.9c-0.3-0.4-0.6-0.9-0.9-1.4c-0.5-0.8-1-1.5-1.6-2.1c-0.1-0.1-0.2-0.2-0.3-0.2c-0.1,0-0.1,0.1-0.1,0.1
					c0.1,1,0,2,0.1,2.9c0,2.1,0.1,4.2,0.1,6.3c0.1,1.7,0,3.4-0.3,5c0,0.2-0.1,0.5-0.2,0.7c-0.1,0.5-0.4,0.8-0.8,1.1
					c-0.4,0.3-0.8,0.3-1.3,0c-0.5-0.3-0.8-0.7-1-1.2c-0.3-0.8-0.4-1.6-0.6-2.5c-0.2-1.5-0.3-3-0.3-4.6c-0.1-2.1-0.1-4.3,0-6.4
					c0.1-3.1,0.8-5.8,4.3-4.6c0.7,0.3,1.3,0.7,1.9,1.2c1.2,1,2.1,2.2,2.8,3.7C227.2,130.6,227.2,130.8,227.3,130.9z"/>
			</g>
		</g>
	</g>
</g>
</svg>
