<?xml version="1.0" encoding="iso-8859-1"?>
<!-- Generator: Adobe Illustrator 19.0.0, SVG Export Plug-In . SVG Version: 6.00 Build 0)  -->
<svg xmlns="http://www.w3.org/2000/svg" xmlns:xlink="http://www.w3.org/1999/xlink" version="1.1" id="Capa_1" x="0px" y="0px" viewBox="0 0 490 490" style="enable-background:new 0 0 490 490;" xml:space="preserve" width="512px" height="512px">
<g>
	<g>
		<g>
			<polygon points="425.8,228.3 354.7,228.3 354.7,261.7 425.8,261.7 386.2,301.4 409.9,325.1 490,245 409.9,164.9 386.2,188.6         " fill="#FFFFFF"/>
			<polygon points="64.2,261.7 135.3,261.7 135.3,228.3 64.2,228.3 103.8,188.6 80.1,164.9 0,245 80.1,325.1 103.8,301.4    " fill="#FFFFFF"/>
			<rect x="178.5" width="50.2" height="490" fill="#FFFFFF"/>
			<rect x="269.5" width="50.2" height="490" fill="#FFFFFF"/>
		</g>
	</g>
</g>
<g>
</g>
<g>
</g>
<g>
</g>
<g>
</g>
<g>
</g>
<g>
</g>
<g>
</g>
<g>
</g>
<g>
</g>
<g>
</g>
<g>
</g>
<g>
</g>
<g>
</g>
<g>
</g>
<g>
</g>
</svg>
