<?xml version="1.0" encoding="utf-8"?>
<!-- Generator: Adobe Illustrator 21.1.0, SVG Export Plug-In . SVG Version: 6.00 Build 0)  -->
<svg version="1.1" id="Calque_1" xmlns="http://www.w3.org/2000/svg" xmlns:xlink="http://www.w3.org/1999/xlink" x="0px" y="0px"
	 viewBox="0 0 432 432" style="enable-background:new 0 0 432 432;" xml:space="preserve">
<style type="text/css">
	.st0{fill:#191464;}
	.st1{fill:#C82933;}
	.st2{fill:#E4C877;}
	.st3{fill:#B3B3B3;}
	.st4{fill:#342E8C;}
	.st5{fill:#CCCCCC;}
	.st6{fill:#F44244;}
	.st7{fill:#E6E6E6;}
	.st8{fill:#BD0725;}
	.st9{fill:#1A1A1A;}
	.st10{fill:#DA8F92;}
	.st11{fill:#F4D497;}
	.st12{fill:#F0A762;}
	.st13{fill:#8D4C36;}
	.st14{fill:#DAA18E;}
	.st15{fill:#E0C4BA;}
	.st16{fill:#DA9D8F;}
	.st17{fill:#70796B;}
	.st18{fill:#C5907E;}
	.st19{fill:#AAC69B;}
	.st20{fill:#B098A2;}
	.st21{fill:#2F3448;}
	.st22{fill:#8D1D11;}
	.st23{fill:#1B1E55;}
	.st24{fill:#B22931;}
	.st25{fill:#6E8BC4;}
	.st26{fill:#8B8286;}
	.st27{fill:#E3A8A3;}
	.st28{fill:#D7A392;}
	.st29{fill:#8B6E68;}
	.st30{fill:#C8A093;}
	.st31{fill:#333333;}
	.st32{fill:#B8B195;}
	.st33{fill:#864C38;}
	.st34{fill:#BA9490;}
	.st35{fill:#8D5948;}
	.st36{fill:#656E6E;}
	.st37{fill:#C6A687;}
	.st38{fill:#D6AA9C;}
	.st39{fill:#A06352;}
	.st40{fill:#ECBAA9;}
</style>
<g>
	<g>
		<path class="st15" d="M259.6,182.3c0.2-0.5,0.4-1,0.6-1.4c0.4-0.9,1-1.8,1.7-2.5c0.3-0.3,0.6-0.5,0.9-0.7c1.8-1.1,3.9-0.1,4.2,2
			c0.1,0.7,0.1,1.5-0.2,2.2c-0.5,1.5-1.1,2.9-2.1,4.2c-1.2,1.6-2.4,3.1-3.7,4.6c-1.1,1.3-2.5,1.4-3.8,0.2c-0.5-0.4-0.9-1-1.2-1.5
			c-1.3-1.9-2.2-4-2.9-6.1c-0.3-1-0.6-2.1-0.9-3.1c-0.2-0.7-0.1-1.4,0.1-2.1c0.5-1.8,2.5-2.5,4-1.4c0.7,0.5,1.2,1.1,1.6,1.9
			c0.5,1,0.8,2,1.2,3C259.4,181.7,259.5,181.9,259.6,182.3z"/>
		<path class="st15" d="M288,185.3c0.4-0.9,0.7-1.5,1-2.2c0.7-1.5,1.5-2.8,2.7-3.9c0.5-0.4,0.9-0.8,1.5-1.2c2.8-1.7,6.1-0.1,6.5,3.2
			c0.2,1.2,0.1,2.3-0.3,3.4c-0.8,2.3-1.7,4.6-3.2,6.5c-1.8,2.4-3.7,4.9-5.7,7.2c-1.8,2.1-3.9,2.1-5.9,0.3c-0.7-0.7-1.4-1.5-1.9-2.3
			c-2-2.9-3.4-6.2-4.5-9.5c-0.5-1.6-0.9-3.2-1.3-4.8c-0.3-1.1-0.2-2.2,0.1-3.3c0.9-2.8,3.8-3.9,6.3-2.2c1.1,0.7,1.9,1.8,2.4,3
			c0.7,1.5,1.3,3.1,1.9,4.6C287.7,184.4,287.8,184.8,288,185.3z"/>
		<path class="st15" d="M146.2,349.2c0.5-1,0.8-1.9,1.2-2.7c0.8-1.8,1.9-3.5,3.3-4.8c0.6-0.5,1.2-1,1.8-1.4c3.5-2,7.4-0.1,8,3.9
			c0.2,1.4,0.1,2.8-0.4,4.2c-1,2.8-2.1,5.6-3.9,8c-2.3,3-4.6,6-7,8.8c-2.2,2.5-4.8,2.6-7.3,0.3c-0.9-0.8-1.7-1.8-2.4-2.8
			c-2.5-3.6-4.1-7.6-5.5-11.7c-0.6-1.9-1.1-3.9-1.6-5.9c-0.3-1.4-0.2-2.7,0.2-4.1c1-3.5,4.7-4.8,7.7-2.7c1.3,0.9,2.3,2.2,3,3.6
			c0.9,1.9,1.6,3.8,2.3,5.7C145.8,348,146,348.5,146.2,349.2z"/>
		<path class="st15" d="M291.3,342.6c0.3-0.7,0.5-1.2,0.8-1.7c0.5-1.1,1.2-2.2,2.1-3.1c0.4-0.3,0.7-0.7,1.2-0.9
			c2.2-1.3,4.8-0.1,5.1,2.5c0.1,0.9,0.1,1.8-0.2,2.7c-0.6,1.8-1.4,3.6-2.5,5.1c-1.4,1.9-2.9,3.8-4.5,5.7c-1.4,1.6-3.1,1.7-4.6,0.2
			c-0.6-0.5-1.1-1.2-1.5-1.8c-1.6-2.3-2.7-4.8-3.5-7.5c-0.4-1.2-0.7-2.5-1.1-3.8c-0.2-0.9-0.1-1.7,0.1-2.6c0.7-2.2,3-3,4.9-1.7
			c0.9,0.6,1.5,1.4,1.9,2.3c0.6,1.2,1,2.4,1.5,3.6C291,341.9,291.1,342.2,291.3,342.6z"/>
		<path class="st15" d="M272.5,359.9c0.2-0.4,0.3-0.7,0.5-1c0.3-0.7,0.7-1.3,1.3-1.8c0.2-0.2,0.4-0.4,0.7-0.5c1.3-0.8,2.8,0,3,1.5
			c0.1,0.5,0,1.1-0.1,1.6c-0.4,1.1-0.8,2.1-1.5,3c-0.9,1.1-1.7,2.3-2.7,3.3c-0.8,1-1.8,1-2.7,0.1c-0.3-0.3-0.6-0.7-0.9-1.1
			c-0.9-1.4-1.6-2.9-2.1-4.4c-0.2-0.7-0.4-1.5-0.6-2.2c-0.1-0.5-0.1-1,0.1-1.5c0.4-1.3,1.8-1.8,2.9-1c0.5,0.3,0.9,0.8,1.1,1.4
			c0.3,0.7,0.6,1.4,0.9,2.1C272.4,359.4,272.4,359.6,272.5,359.9z"/>
		<path class="st15" d="M286.2,227.7c0.2-0.5,0.4-0.9,0.6-1.3c0.4-0.9,0.9-1.7,1.6-2.3c0.3-0.3,0.6-0.5,0.9-0.7c1.7-1,3.6,0,3.9,1.9
			c0.1,0.7,0.1,1.4-0.2,2c-0.5,1.4-1,2.7-1.9,3.9c-1.1,1.5-2.2,2.9-3.4,4.3c-1.1,1.2-2.3,1.3-3.5,0.2c-0.4-0.4-0.8-0.9-1.2-1.4
			c-1.2-1.7-2-3.7-2.7-5.7c-0.3-0.9-0.6-1.9-0.8-2.9c-0.2-0.7-0.1-1.3,0.1-2c0.5-1.7,2.3-2.3,3.7-1.3c0.7,0.4,1.1,1.1,1.4,1.8
			c0.4,0.9,0.8,1.8,1.1,2.8C286,227.2,286.1,227.4,286.2,227.7z"/>
		<path class="st15" d="M140,307.7c0.2-0.5,0.4-0.8,0.5-1.2c0.4-0.8,0.8-1.5,1.5-2.1c0.2-0.2,0.5-0.5,0.8-0.6c1.6-0.9,3.3,0,3.6,1.7
			c0.1,0.6,0,1.3-0.2,1.9c-0.4,1.3-0.9,2.5-1.8,3.6c-1,1.3-2,2.7-3.1,3.9c-1,1.1-2.1,1.2-3.2,0.1c-0.4-0.4-0.7-0.8-1.1-1.3
			c-1.1-1.6-1.8-3.4-2.4-5.2c-0.3-0.9-0.5-1.8-0.7-2.6c-0.2-0.6-0.1-1.2,0.1-1.8c0.5-1.5,2.1-2.1,3.4-1.2c0.6,0.4,1,1,1.3,1.6
			c0.4,0.8,0.7,1.7,1,2.5C139.8,307.2,139.9,307.4,140,307.7z"/>
	</g>
	<g>
		<g>
			<path class="st30" d="M247,281.9c-0.2,0.4-0.3,0.8-0.4,1.1c-0.9,3-2,5.9-3.7,8.5c-0.4,0.6-0.8,1.1-1.2,1.7
				c-2.4,2.8-5.9,3.6-9.2,1.9c-2-1-3.7-2.4-5-4.2c-1.7-2.3-3.1-4.8-4.1-7.6c-0.1-0.1-0.1-0.3-0.2-0.4c0-0.1-0.1-0.1-0.2-0.2
				c-0.3,1.4-0.7,2.7-1,4.1c-1,4.2-2.2,8.4-3.8,12.5c-0.6,1.5-1.2,2.9-2.3,4.2c-1.2,1.5-2.8,2.1-4.7,1.6c-0.6-0.1-1.2-0.4-1.7-0.7
				c-1.8-0.9-3.1-2.3-4.3-3.9c-3-4.1-5-8.6-5.9-13.5c-0.7-3.5-1.1-7-1.3-10.5c-0.2-2-0.3-4-0.4-6.1c-0.1,0.3-0.2,0.4-0.3,0.6
				c-0.7,2-1.3,4.1-2.1,6.1c-0.6,1.7-1.4,3.3-2.5,4.8c-0.8,1.1-1.7,2.1-3.1,2.7c-2,0.8-3.9,0.5-5.8-0.4c-1.6-0.9-2.9-2.1-3.9-3.5
				c-2.2-3.1-3.6-6.6-4.3-10.4c-0.1-0.3-0.1-0.7-0.4-1.1c-0.1,0.3-0.3,0.6-0.4,1c-1,2.6-2,5.2-3,7.8c-0.5,1.3-1.2,2.5-1.9,3.7
				c-0.6,1.1-1.4,1.9-2.3,2.7c-1.7,1.3-3.6,1.7-5.8,1.1c-1.1-0.3-2.1-0.9-3.1-1.6c-3-2.2-5-5.2-6.1-8.7c-1.9-6-2.1-12.2-0.8-18.3
				c0.4-1.8,1.1-3.5,2-5.1c2.4-3.9,6.5-5.8,11-5.1c3.7,0.5,7,2,10.2,3.9c0.3,0.2,0.5,0.3,0.9,0.5c0.1-0.4,0.2-0.7,0.3-1
				c0.3-1,0.8-2,1.6-2.7c1.5-1.4,3.6-1.5,5.2-0.1c1.1,0.9,1.6,2.1,1.9,3.5c0.2,1.1,0.3,2.3,0.3,3.5c0,2.6-0.2,5.1-0.2,7.7
				c-0.1,4.6,0.2,9.2,1,13.7c0.2,1.5,0.7,3,1.2,4.4c0.7,1.9,1.9,2.2,3.4,0.7c1-1,1.8-2.3,2.3-3.6c0.9-2.4,1.8-4.9,2.6-7.3
				c0.6-1.8,1.1-3.6,1.7-5.4c0.2-0.5,0.2-1.1,0.3-1.7c0.1-3.9,0.1-7.8,0.2-11.7c0-1.1,0.1-2.3,0.4-3.3c0.2-0.8,0.5-1.6,1-2.3
				c1.5-2.3,4.6-2.5,6.5-0.4c0.7,0.8,1.2,1.7,1.3,2.7c0.2,1.6,0.5,3.3,0.5,4.9c0.1,3.7,0,7.4,0,11.2c0,6.3,0.3,12.5,1.2,18.7
				c0.8,5.3,1.8,10.6,3.7,15.7c0.3,0.7,0.6,1.3,0.9,2c0.1,0.3,0.3,0.5,0.6,0.8c0.4-0.4,0.7-0.7,0.9-1.1c0.7-1.3,1.5-2.6,2.1-4
				c1.5-3.5,2.4-7.2,3.4-10.9c0.5-2,1-4.1,1.6-6.1c0.2-0.6,0.2-1.2,0.1-1.8c-0.8-4.2-1.4-8.5-1.5-12.7c-0.1-4.2-0.2-8.4-0.1-12.7
				c0.1-4.2,0.5-8.4,0.8-12.5c0.1-1.4,0.2-2.9,0.4-4.3c-0.1-0.1-0.1-0.1-0.2-0.2c-6.1-2.8-12.2-5.7-18.3-8.5c-3.3-1.5-6.6-2.9-10-4
				c-3.1-1-6.3-1.7-9.6-1.9c-2.4-0.1-4.8,0.2-7,1.2c-4.1,1.8-6.4,5.1-7.1,9.5c-0.1,0.3,0,0.6-0.2,0.9c-0.1,0.2-0.3,0.4-0.5,0.5
				c-0.2,0-0.5-0.1-0.6-0.3c-0.2-0.4-0.4-0.9-0.4-1.3c-0.1-1.2,0-2.4,0.3-3.6c0.9-3.2,2.6-5.8,5.3-7.7c3.9-2.8,8.2-3.8,12.9-3.5
				c4.1,0.3,8.1,1.2,12.1,2.6c6.8,2.4,13.3,5.2,19.9,8c1.1,0.5,2.1,0.9,3.2,1.4c0.3,0.1,0.5,0.2,0.9,0.3c0.1-1.3,0.2-2.6,0.4-3.8
				c0.3-2.2,0.7-4.4,1.2-6.5c0.2-1.1,0.8-2.1,1.4-3.1c0.3-0.5,0.7-0.9,1.2-1.3c1.9-1.5,4.3-1.1,5.4,1c0.4,0.8,0.7,1.7,0.8,2.6
				c0.2,0.9,0.2,1.9,0.1,2.8c-0.2,3.4-0.5,6.9-0.8,10.3c0,0.5-0.1,1.1-0.1,1.5c1.7,0.9,9.1,2.6,10.8,2.3c0.1-0.7,0.2-1.5,0.3-2.3
				c0.6-4.9,1.4-9.8,2.6-14.6c1.2-4.7,3.3-9,6.2-12.9c2.9-3.9,6.7-6.4,11.4-7.3c5.4-1.1,10.6,1.2,13.1,5.9c1,1.8,1.4,3.8,1.6,5.8
				c0.3,3.9-0.4,7.6-2,11.2c-4.1,9.5-11.2,15.8-21.1,19.1c-0.4,0.1-0.9,0.3-1.3,0.4c-0.4,0.1-0.8,0.2-1.3,0.4c0,0.3-0.1,0.6-0.1,0.9
				c-0.4,5.2-0.4,10.3-0.2,15.5c0.3,6.1,1.2,12.2,2.9,18.1c0.1,0.4,0.3,0.9,0.5,1.3c0.1,0.1,0.1,0.3,0.3,0.6
				c0.2-0.5,0.3-0.9,0.4-1.3c1.1-3.8,2.2-7.6,3.4-11.4c1.4-4.3,3.1-8.5,5.2-12.5c1.2-2.2,2.6-4.3,4.3-6.1c1-1.1,2.1-2.1,3.5-2.8
				c3.4-1.9,7.1-1.2,9.5,1.9c1.6,2.1,2.4,4.5,2.7,7.1c0.4,3.2,0.2,6.4-0.3,9.5c-0.9,5.7-1.9,11.3-2.8,17c-1,6.1-1.7,12.3-1.4,18.5
				c0.1,1.1,0.2,2.2,0.3,3.3c1.2-0.3,2.2-0.6,3.3-0.9c4.4-1.2,8.8-1.8,13.4-1.4c4.8,0.4,9.2,2,12.7,5.5c4.4,4.4,5.3,10.2,3,15.6
				c-2.5,5.7-6.9,9.3-12.9,10.8c-6.1,1.6-11.7,0.1-16.7-3.7c-3.8-2.9-6.7-6.8-8.7-11.2c-0.9-1.9-1.6-3.9-2.4-5.9
				c-0.1,0-0.2,0-0.3,0.1c-4,1.9-8.1,3.7-12,5.7c-9.2,4.7-18.4,9.3-27.9,13.4c-2.5,1.1-5,2-7.6,3.1c-0.3,0.1-0.5,0.2-0.9,0.3
				c0.1,0.1,0.2,0.3,0.3,0.3c6.5,3.9,13,7.6,20.1,10.3c3.8,1.5,7.8,2.6,11.9,3c3.4,0.4,6.7,0.3,10-0.6c1.1-0.3,2.2-0.8,3.1-1.5
				c3.4-2.4,4.2-5.7,3.1-9.5c-0.2-0.6-0.4-1.1-0.5-1.7c-0.2-0.9,0.2-1.7,0.9-2.1c0.7-0.3,1.6-0.1,2.2,0.6c0.9,1,1.3,2.3,1.5,3.6
				c0.8,5-0.9,8.9-4.9,11.9c-2.3,1.7-4.9,2.6-7.7,3.1c-5.3,1.1-10.5,0.6-15.6-0.6c-5.7-1.4-11.1-3.7-16.4-6.2
				c-4.9-2.3-9.6-5-14.3-7.7c-0.6-0.3-1.1-0.4-1.7-0.2c-5.8,1.9-11.6,3.4-17.6,4.5c-6.7,1.2-13.4,1.6-20.2,0.8
				c-7.6-0.8-14.5-3.5-20.5-8.4c-2.3-1.9-4.3-4-5.9-6.5c-1.1-1.8-1.9-3.7-2.2-5.8c-0.4-4,1-7.3,4.1-9.9c2.3-2,5.1-3,8-3.6
				c4.5-0.9,8.8-0.4,13.2,0.7c2.9,0.7,5.8,1.7,8.6,2.9c4.1,1.7,8.1,3.6,12,5.8c5.9,3.4,11.8,7,17.7,10.5c1.5,0.9,3,1.8,4.4,2.7
				c0.6,0.4,1,0.4,1.6,0.1c6.4-2.5,12.7-5.3,18.9-8.3c3-1.4,6-2.9,9-4.4c6.4-3.2,12.8-6.3,19.3-9.5c1.3-0.7,2.7-1.2,4.1-1.8
				c0.3-0.1,0.6-0.3,0.8-0.4c-0.2-1.4-0.3-2.7-0.5-4c-0.4-3.3-0.4-6.7-0.2-10c0.4-7.8,1.9-15.5,3.4-23.2c0.8-4.2,1.6-8.4,1.9-12.7
				c0.1-1.6,0.1-3.2,0.1-4.8c0-1.5-0.6-1.8-2-1.1c-1.2,0.7-2.1,1.6-2.9,2.6c-2.1,2.6-3.7,5.5-5,8.6c-2.1,5-3.5,10.2-4.2,15.6
				c-0.4,2.7-0.6,5.5-1,8.2c-0.1,0.8-0.3,1.7-0.5,2.5c-1,3-4,4.5-7,3.5c-1.4-0.5-2.6-1.3-3.5-2.5c-0.6-0.8-1.1-1.7-1.6-2.5
				C247.3,282.4,247.2,282.2,247,281.9z M210.5,329.5c-0.4-0.3-0.6-0.4-0.9-0.6c-1.3-0.8-2.5-1.5-3.8-2.3
				c-7.6-4.6-15.3-9.2-23.3-13.1c-3.5-1.7-7-3.1-10.8-4c-3.4-0.8-6.8-1.2-10.2-0.6c-2.1,0.4-4.2,1-6,2.3c-0.9,0.7-1.7,1.5-2.2,2.5
				c-0.9,2-0.7,4,0,6c0.8,1.9,2,3.5,3.4,5c4.2,4.1,9.1,7,14.8,8.5c6.1,1.6,12.4,1.6,18.6,0.9c5.1-0.6,10.2-1.8,15.1-3.2
				C207,330.6,208.7,330.1,210.5,329.5z M231.1,238.1c-0.1,0.5-0.1,0.8-0.2,1.2c-0.2,2.1-0.3,4.2-0.5,6.3
				c-0.5,5.9-0.6,11.7-0.3,17.6c0.1,2.8,0.5,5.6,0.8,8.4c0.4,3.7,1.4,7.3,2.4,11c0.5,2,1.1,3.9,2,5.7c0.4,0.8,0.8,1.5,1.3,2.1
				c0.4,0.6,1.1,0.7,1.8,0.4c0.5-0.3,1.1-0.7,1.5-1.1c1-1,1.8-2.3,2.5-3.6c1.2-2.4,2.1-4.9,2.9-7.5c0.1-0.3,0.1-0.6,0-0.9
				c-2.5-7.8-3.6-15.8-3.8-24c-0.1-4.1,0.1-8.2,0.2-12.3c0-0.4,0-0.7,0-1.1C238.1,240,234.6,239.2,231.1,238.1z M252.4,233.3
				c3.5-0.7,6.6-1.7,9.5-3.4c5.8-3.5,9.9-8.3,11.9-14.8c0.6-2.1,0.9-4.2,0.7-6.4c-0.1-1.7-0.6-3.3-1.5-4.8c-2.1-3.3-6.5-4.5-9.9-2.5
				c-1,0.6-1.9,1.3-2.7,2.1c-1.8,2-3,4.3-3.7,6.9c-2,6.7-3.1,13.6-3.9,20.6C252.5,231.7,252.5,232.5,252.4,233.3z M281.1,303.9
				c0,0.3,0,0.4,0,0.6c1.3,4.3,3.3,8.3,6.6,11.5c2.7,2.6,5.8,4.4,9.7,4.7c3.8,0.3,6.9-1.1,9.2-4.1c2.2-2.9,2.3-6.5,0.2-9.5
				c-1.2-1.7-2.7-3-4.6-3.9c-2.2-1.1-4.6-1.5-7.1-1.7c-3.1-0.2-6.1,0.3-9,1C284.5,302.9,282.8,303.4,281.1,303.9z M175.5,254.9
				c-1.2-0.5-2.4-1.1-3.6-1.5c-2.1-0.8-4.2-1.1-6.4-0.9c-1.3,0.2-2.3,0.7-2.8,1.9c-0.3,0.8-0.7,1.7-0.9,2.5c-1,4.1-1,8.2-0.3,12.3
				c0.6,3.3,1.9,6.5,3.2,9.6c0.2,0.3,0.4,0.7,0.6,1c0.2,0.4,0.6,0.5,1,0.2c0.3-0.2,0.7-0.4,1-0.7c0.6-0.7,1.2-1.4,1.7-2.3
				c0.8-1.4,1.6-2.9,2.2-4.4c1.3-3,2.6-6,3.8-9.1c0.1-0.3,0.2-0.5,0.2-0.8c0.1-2.3,0.2-4.6,0.4-6.9
				C175.5,255.5,175.5,255.3,175.5,254.9z"/>
			<path class="st30" d="M140.7,237.4c0.9,0.1,1.9,0.1,2.9,0.2c1.7,0.1,3.3,0.2,5,0.3c2.2,0.1,4.4-0.1,6.6-0.9
				c1.4-0.5,2.6-1.4,3.4-2.7c0.2-0.3,0.3-0.5,0.5-0.8c0.1-0.1,0.2-0.3,0.2-0.4c0.6-0.9,1.5-1.2,2.2-0.9c0.7,0.4,1,1.5,0.5,2.4
				c-0.6,1.1-1.2,2.2-2,3.2c-1.8,2.5-4.4,3.8-7.2,4.6c-1.7,0.5-3.5,0.8-5.3,0.8c-2,0-3.9-0.1-5.9-0.1c-0.1,0-0.3,0-0.5,0
				c0.1,1.3,0.2,2.5,0.3,3.7c0.3,2.7,0.5,5.5,0.9,8.2c0.5,4,1,8.1,1.5,12.1c0.4,3.4,0.8,6.8,1.3,10.1c0.6,4,1.3,8.1,2,12.1
				c0.4,2.2-0.1,4.1-1.4,5.8c-1.5,1.9-3.9,2.1-5.7,0.6c-1.4-1.2-2.3-2.6-2.6-4.5c-0.9-5.8-1.9-11.5-2.7-17.3
				c-0.7-4.7-1.2-9.4-1.8-14.1c-0.6-5.3-1.1-10.6-1.7-15.8c0-0.1,0-0.2-0.1-0.4c-4.7,0.2-9.2,4.1-10,8.7c-0.1,0.4-0.1,0.8-0.2,1.1
				c-0.3,0.9-1.3,1.1-1.8,0.3c-0.3-0.5-0.5-1.1-0.6-1.7c-0.2-1.5,0.1-2.9,0.7-4.3c1.7-4.3,5-7.1,9.3-8.7c0.7-0.3,1.5-0.5,2.2-0.7
				c0-1,0-2,0-3c-0.2-4,0-8.1,0.9-12c0.3-1.4,0.8-2.6,1.5-3.8c1-1.6,2.3-2.8,4.1-3.4c2.2-0.8,4.5-1.4,6.8-1.7
				c3.3-0.4,6.5-0.8,9.8-0.8c1.9,0,3.8,0,5.6,0.5c0.7,0.2,1.3,0.4,1.9,0.8c1.4,1,1.2,2.8-0.4,3.3c-1.3,0.4-2.7,0.6-4.1,0.8
				c-3.9,0.3-7.8,0.9-11.5,1.9c-0.9,0.2-1.7,0.6-2.5,0.9c-0.6,0.2-1,0.7-1.2,1.4c-0.2,1-0.6,2.1-0.7,3.1c-0.4,3.7-0.4,7.4-0.1,11
				C140.6,237.2,140.6,237.3,140.7,237.4z"/>
			<path class="st30" d="M195.1,234.1c0-2.8,2.2-4.9,5.1-4.9c2.9,0,5.1,2.2,5.1,5c0,2.8-2.3,5.1-5.1,5.1
				C197.4,239.3,195.1,236.9,195.1,234.1z"/>
		</g>
		<g>
			<g>
				<path class="st31" d="M131.3,80c-0.1-1.9,0-3.7,0-5.4c0.1-1.8,0.2-3.5,0.3-5.3c0-0.4,0.1-0.8,0.1-1.3c0.1-0.4,0.1-0.8,0.2-1.3
					c0.1-0.4,0.2-0.8,0.4-0.9c0.2-0.2,0.5-0.2,1-0.3c0.1,0,0.3,0,0.4,0c0.1,0,0.2,0,0.4,0c1.6,0.3,3.1,0.4,4.7,0.5
					c1.5,0.1,3.1,0.2,4.7,0.3c0.2,0,0.4,0,0.6,0.1c0.2,0,0.4,0,0.5,0.1c0.3,0.1,0.5,0.3,0.5,0.6c0,0.3-0.1,0.5-0.3,0.7
					c-0.2,0.1-0.4,0.2-0.6,0.2s-0.4,0-0.7,0c-0.6,0-1.2,0-1.8-0.1c-0.6,0-1.2,0-1.8-0.1c-0.2,0-0.4,0-0.6-0.1c-0.2,0-0.4,0-0.6,0
					c-0.4,0-0.5,0.2-0.5,0.6c-0.1,0.9-0.1,1.7-0.1,2.6s0,1.7-0.1,2.6c-0.1,1.4-0.2,2.8-0.3,4.2c-0.1,1.4-0.1,2.8-0.1,4.2
					c0,0.6,0,1.1,0,1.5c0,0.3,0.1,0.5,0.2,0.7c0.1,0.1,0.3,0.2,0.7,0.2c0.3,0,0.8,0,1.4,0c0.2,0,0.3,0,0.5,0c0.2,0,0.3,0,0.5,0.1
					c0.2,0,0.3,0.2,0.4,0.4c0,0.3-0.1,0.5-0.3,0.6c-0.1,0.1-0.3,0.2-0.5,0.2c-0.2,0-0.3,0-0.5,0c-0.3,0-0.6,0-0.9,0
					c-0.3,0-0.6,0-0.9,0c-0.4,0-0.5,0.2-0.5,0.6c0,0.1,0,0.3,0,0.4c0,0.1,0,0.3,0,0.4c0.1,1.2,0.2,2.3,0.2,3.5
					c0.1,1.2,0.1,2.3,0.2,3.5c0,0.1,0,0.4,0,0.6c0,0.3-0.1,0.5-0.4,0.6c-0.8,0.1-1.5,0.2-2.3,0.3c-0.8,0.1-1.5,0.1-2.3,0.1
					c-0.5,0.1-0.8-0.2-0.9-0.7c-0.1-0.3-0.1-0.6-0.2-0.9c-0.1-0.3-0.1-0.6-0.2-0.9c-0.2-2.3-0.4-4.5-0.5-6.7
					C131.3,84.4,131.2,82.2,131.3,80z"/>
				<path class="st31" d="M158.5,94.6c0.3,0.1,0.4,0.2,0.3,0.4c0,0.2-0.1,0.4-0.4,0.5c-0.3,0.1-0.5,0.1-0.8,0.1
					c-1.1,0.1-2.1,0.1-3.2,0.2c-1.1,0.1-2.1,0.1-3.2,0.2c-0.4,0-0.8,0-1.2,0c-0.4,0-0.8-0.1-1.2-0.3c-0.2-0.1-0.3-0.2-0.3-0.5
					c0-0.3,0.1-0.4,0.3-0.5c0.1-0.1,0.1-0.1,0.2-0.1c0.1,0,0.2,0,0.2-0.1c0.1,0,0.3,0,0.4-0.1c0.1,0,0.3,0,0.5-0.1
					c0-3.5,0-7,0.1-10.4c0-3.4,0-6.9,0.1-10.3c0-1,0-1.9,0-2.9c0-1-0.1-1.9-0.1-2.9c0-0.3,0-0.5-0.1-0.6c-0.1-0.1-0.3-0.2-0.6-0.2
					c-0.2,0-0.4,0-0.6,0c-0.2,0-0.4,0-0.6-0.1c-0.1,0-0.3-0.1-0.4-0.1c-0.1-0.1-0.2-0.1-0.3-0.2c-0.1-0.1-0.2-0.2-0.2-0.4
					c0-0.1,0-0.1,0.1-0.2c0.1-0.1,0.1-0.1,0.2-0.1c0.3-0.1,0.6-0.2,1-0.2c1.4-0.1,2.7-0.2,4.1-0.3c1.4-0.1,2.7-0.1,4.1,0
					c0.2,0,0.4,0,0.6,0c0.2,0,0.4,0.1,0.6,0.2c0.3,0.1,0.4,0.3,0.4,0.5c0,0.3-0.1,0.4-0.4,0.5c-0.1,0.1-0.2,0.1-0.4,0.1
					c-0.1,0-0.3,0-0.4,0.1c-0.2,0-0.3,0-0.5,0c-0.2,0-0.3,0-0.5,0.1c-0.3,0-0.4,0.2-0.4,0.5c0.1,3,0.1,6.1,0,9.1
					c-0.1,3,0,6.1,0.3,9.1c0.1,1.1,0.1,2.2,0.1,3.3c0,1.1-0.1,2.2-0.1,3.3v1.4c0,0.3,0.1,0.4,0.2,0.5c0.1,0.1,0.3,0.2,0.5,0.2
					c0.3,0,0.6,0,0.9,0C157.9,94.4,158.2,94.4,158.5,94.6z"/>
				<path class="st31" d="M176.1,92.8c0.7-0.7,1.2-1.4,1.7-2.1c0.4-0.7,0.8-1.5,1.1-2.3c0.3-0.9,0.5-1.8,0.7-2.9
					c0.2-1.1,0.3-2.3,0.5-3.7v-0.3c0-0.3-0.2-0.5-0.5-0.5c-0.2,0-0.5,0-0.7,0c-0.3,0-0.5,0-0.7,0c-0.3,0-0.6-0.1-0.8-0.2
					c-0.1-0.1-0.2-0.3-0.2-0.5c0-0.2,0.1-0.4,0.3-0.4c1.2-0.4,2.4-0.4,3.5,0.1c0.1,0.1,0.2,0.2,0.3,0.3c0.1,0.2,0.1,0.3,0,0.5
					c-0.1,1.3-0.3,2.6-0.4,3.9c-0.1,1.3-0.4,2.6-0.7,3.8c-0.3,1.2-0.8,2.4-1.4,3.5c-0.6,1.1-1.5,2-2.6,2.9c-1.1,0.8-2.3,1.3-3.7,1.3
					c-1.9,0-3.5-0.5-4.9-1.6c-1.4-1-2.6-2.3-3.6-3.9c-1-1.6-1.7-3.4-2.1-5.4c-0.5-2-0.7-4-0.6-6.1c0.1-2.1,0.4-4,1-5.9
					c0.6-1.9,1.5-3.5,2.6-4.8c1.2-1.3,2.6-2.3,4.4-2.9c1.8-0.6,3.8-0.6,6.2-0.1c1.7,0.3,3,1.3,3.9,2.8c0.2,0.3,0.3,0.6,0.4,1
					c0,0.4-0.1,0.6-0.4,0.6c-0.2,0-0.4-0.1-0.5-0.3c-0.1-0.2-0.3-0.5-0.5-0.8c-0.5-0.6-1-1.1-1.6-1.4c-0.6-0.3-1.2-0.6-1.8-0.7
					c-0.6-0.1-1.1-0.1-1.6,0c-0.5,0.1-0.9,0.3-1.1,0.6c-0.8,0.9-1.4,2.1-1.9,3.5c-0.5,1.4-0.9,2.9-1.1,4.6c-0.2,1.7-0.3,3.4-0.3,5.1
					c0,1.8,0.1,3.4,0.4,5c0.2,1.6,0.6,3,1,4.4s0.9,2.4,1.5,3.1c0.6,0.8,1.3,1.2,2,1.2S175.2,93.7,176.1,92.8z"/>
				<path class="st31" d="M204.4,79.9c-0.1,2.7-0.2,5.1-0.2,7.3c-0.1,2.2-0.1,4.4-0.2,6.6v0.5c-0.1,0.6-0.2,0.9-0.3,1.1
					c-0.2,0.2-0.5,0.3-1.1,0.4c-0.9,0.2-1.8,0.1-2.7-0.1c-0.3-0.1-0.5-0.3-0.6-0.6c-0.1-0.4-0.2-0.8-0.2-1.2c0-0.4,0-0.9,0-1.3
					c0.1-1.1,0.1-2.2,0.1-3.4c0-1.1,0-2.2,0.1-3.4c0-0.2,0-0.4,0-0.5c-0.1-0.3-0.2-0.4-0.4-0.4c-0.1,0-0.4,0-0.6,0
					c-1.3,0-2.5,0-3.8-0.1c-1.2,0-2.5,0-3.8,0c-0.1,0-0.3,0-0.4,0c-0.1,0-0.3,0-0.4,0c-0.3,0.1-0.4,0.2-0.4,0.4c0,0.2,0,0.4,0,0.5
					c0,0.2,0,0.4,0,0.5c0,1.2,0,2.3,0,3.5s0,2.3-0.1,3.4c0,0.6-0.1,1.1-0.1,1.4c0,0.3-0.1,0.5-0.3,0.7c-0.2,0.1-0.4,0.2-0.7,0.2
					c-0.3,0-0.8,0-1.4,0c-0.3,0-0.5,0-0.8,0c-0.3,0-0.5,0-0.8,0c-0.7,0-1.2-0.4-1.4-1.1c-0.1-0.3-0.1-0.6-0.1-0.9c0-0.3,0-0.6,0-0.9
					c0.1-1.3,0.1-2.6,0.1-3.8c0-1.3,0-2.5,0.1-3.8c0-2.1,0-4.2,0-6.3c0-2.1,0-4.2,0-6.3c0-0.8,0-1.6,0-2.4c0-0.8-0.1-1.6-0.2-2.4
					c0-0.1,0-0.1,0-0.2c0-0.1,0-0.1,0-0.2c-0.1-0.7,0-1.2,0.3-1.5c0.2-0.3,0.7-0.4,1.5-0.3c0.4,0.1,0.8,0.1,1.1,0.1
					c0.4,0,0.7,0,1.1,0c0.8,0,1.3,0.4,1.5,1.2c0.1,0.3,0.1,0.6,0.1,0.8c0,0.3,0,0.6,0,0.9c0,2.3,0,4.5,0.1,6.7s0,4.5,0,6.7
					c0,0.5,0,0.8,0,1.1c0,0.2,0.1,0.4,0.2,0.5c0.1,0.1,0.3,0.2,0.5,0.2c0.3,0,0.6,0,1.1,0c1.1,0,2.1,0,3.1,0c1,0,2.1,0,3.1,0h1.1
					c0.4-0.1,0.6-0.3,0.6-0.6c0-0.2,0-0.4,0-0.7c0-0.2,0-0.4,0-0.7c0-2.3,0-4.5,0-6.8c0-2.2,0-4.5,0-6.8c0-0.3,0-0.6,0-0.9
					c0-0.3,0-0.6,0.1-0.9c0.1-0.8,0.6-1.2,1.4-1.2c0.8,0.1,1.5,0.1,2.2,0.3c0.5,0.1,0.9,0.3,1.1,0.5c0.2,0.3,0.3,0.7,0.4,1.2
					c0,0.2,0,0.5,0,0.7c0,0.3,0,0.5,0,0.7V79.9z"/>
				<path class="st31" d="M217.8,75.9c-0.1,2.2,0,4.3,0.2,6.4c0.2,2.1,0.3,4.1,0.5,6.2c0.1,0.9,0.1,1.9,0.2,2.8
					c0,0.9,0.1,1.9,0.1,2.8c0,0.3,0,0.5,0,0.6c0,0.5-0.3,0.8-0.9,0.9c-0.6,0.1-1.1,0.1-1.7,0.1c-0.5,0-1.1,0.1-1.7,0.1
					c-0.9,0-1.5-0.4-1.7-1.3c0-0.1,0-0.3-0.1-0.4c0-0.1,0-0.3,0-0.4c-0.1-2.2-0.3-4.4-0.4-6.6c-0.1-2.2-0.3-4.4-0.3-6.6
					c-0.1-2-0.1-4-0.2-6c0-2-0.1-4-0.1-6V68c0-0.3-0.1-0.6-0.2-0.7c-0.1-0.1-0.3-0.2-0.7-0.2c-0.5,0-0.9,0-1.4,0c-0.4,0-0.9,0-1.4,0
					c-0.1,0-0.3,0-0.4,0c-0.2,0-0.3-0.1-0.4-0.1c-0.2-0.1-0.3-0.2-0.3-0.4c0-0.2,0.1-0.3,0.2-0.4c0.2-0.1,0.4-0.2,0.8-0.3
					c0.2,0,0.4,0,0.6,0c0.2,0,0.4,0,0.6,0l11.6,0.1c0.1,0,0.3,0,0.5,0c0.2,0,0.3,0,0.5,0.1c0.2,0.1,0.4,0.2,0.4,0.4
					c0.1,0.2-0.1,0.5-0.4,0.7c-0.2,0.1-0.3,0.1-0.5,0.1c-0.2,0-0.4,0-0.5,0h-2.4c-0.3,0-0.5,0.2-0.5,0.5v0.8c0,1.3,0.1,2.5,0.1,3.7
					C217.8,73.6,217.8,74.8,217.8,75.9z"/>
			</g>
			<g>
				<path class="st31" d="M249.8,75.9c-0.1,2.2,0,4.3,0.2,6.4c0.2,2.1,0.3,4.1,0.5,6.2c0.1,0.9,0.1,1.9,0.2,2.8
					c0,0.9,0.1,1.9,0.1,2.8c0,0.3,0,0.5,0,0.6c0,0.5-0.3,0.8-0.9,0.9c-0.6,0.1-1.1,0.1-1.7,0.1c-0.5,0-1.1,0.1-1.7,0.1
					c-0.9,0-1.5-0.4-1.7-1.3c0-0.1,0-0.3-0.1-0.4c0-0.1,0-0.3,0-0.4c-0.1-2.2-0.3-4.4-0.4-6.6c-0.1-2.2-0.3-4.4-0.3-6.6
					c-0.1-2-0.1-4-0.2-6c0-2-0.1-4-0.1-6V68c0-0.3-0.1-0.6-0.2-0.7c-0.1-0.1-0.3-0.2-0.7-0.2c-0.5,0-0.9,0-1.4,0c-0.4,0-0.9,0-1.4,0
					c-0.1,0-0.3,0-0.4,0c-0.2,0-0.3-0.1-0.4-0.1c-0.2-0.1-0.3-0.2-0.3-0.4c0-0.2,0.1-0.3,0.2-0.4c0.2-0.1,0.4-0.2,0.8-0.3
					c0.2,0,0.4,0,0.6,0c0.2,0,0.4,0,0.6,0l11.6,0.1c0.1,0,0.3,0,0.5,0c0.2,0,0.3,0,0.5,0.1c0.2,0.1,0.4,0.2,0.4,0.4
					c0.1,0.2-0.1,0.5-0.4,0.7c-0.2,0.1-0.3,0.1-0.5,0.1c-0.2,0-0.4,0-0.5,0h-2.4c-0.3,0-0.5,0.2-0.5,0.5v0.8c0,1.3,0.1,2.5,0.1,3.7
					C249.7,73.6,249.7,74.8,249.8,75.9z"/>
				<path class="st31" d="M277.1,79.9c-0.1,2.7-0.2,5.1-0.2,7.3c-0.1,2.2-0.1,4.4-0.2,6.6v0.5c-0.1,0.6-0.2,0.9-0.3,1.1
					c-0.2,0.2-0.5,0.3-1.1,0.4c-0.9,0.2-1.8,0.1-2.7-0.1c-0.3-0.1-0.5-0.3-0.6-0.6c-0.1-0.4-0.2-0.8-0.2-1.2c0-0.4,0-0.9,0-1.3
					c0.1-1.1,0.1-2.2,0.1-3.4c0-1.1,0-2.2,0.1-3.4c0-0.2,0-0.4,0-0.5c-0.1-0.3-0.2-0.4-0.4-0.4c-0.1,0-0.4,0-0.6,0
					c-1.3,0-2.5,0-3.8-0.1c-1.2,0-2.5,0-3.8,0c-0.1,0-0.3,0-0.4,0c-0.1,0-0.3,0-0.4,0c-0.3,0.1-0.4,0.2-0.4,0.4c0,0.2,0,0.4,0,0.5
					c0,0.2,0,0.4,0,0.5c0,1.2,0,2.3,0,3.5s0,2.3-0.1,3.4c0,0.6-0.1,1.1-0.1,1.4c0,0.3-0.1,0.5-0.3,0.7c-0.2,0.1-0.4,0.2-0.7,0.2
					c-0.3,0-0.8,0-1.4,0c-0.3,0-0.5,0-0.8,0c-0.3,0-0.5,0-0.8,0c-0.7,0-1.2-0.4-1.4-1.1c-0.1-0.3-0.1-0.6-0.1-0.9c0-0.3,0-0.6,0-0.9
					c0.1-1.3,0.1-2.6,0.1-3.8c0-1.3,0-2.5,0.1-3.8c0-2.1,0-4.2,0-6.3c0-2.1,0-4.2,0-6.3c0-0.8,0-1.6,0-2.4c0-0.8-0.1-1.6-0.2-2.4
					c0-0.1,0-0.1,0-0.2c0-0.1,0-0.1,0-0.2c-0.1-0.7,0-1.2,0.3-1.5c0.2-0.3,0.7-0.4,1.5-0.3c0.4,0.1,0.8,0.1,1.1,0.1
					c0.4,0,0.7,0,1.1,0c0.8,0,1.3,0.4,1.5,1.2c0.1,0.3,0.1,0.6,0.1,0.8c0,0.3,0,0.6,0,0.9c0,2.3,0,4.5,0.1,6.7c0,2.2,0,4.5,0,6.7
					c0,0.5,0,0.8,0,1.1c0,0.2,0.1,0.4,0.2,0.5c0.1,0.1,0.3,0.2,0.5,0.2c0.3,0,0.6,0,1.1,0c1.1,0,2.1,0,3.1,0c1,0,2.1,0,3.1,0h1.1
					c0.4-0.1,0.6-0.3,0.6-0.6c0-0.2,0-0.4,0-0.7c0-0.2,0-0.4,0-0.7c0-2.3,0-4.5,0-6.8c0-2.2,0-4.5,0-6.8c0-0.3,0-0.6,0-0.9
					c0-0.3,0-0.6,0.1-0.9c0.1-0.8,0.6-1.2,1.4-1.2c0.8,0.1,1.5,0.1,2.2,0.3c0.5,0.1,0.9,0.3,1.1,0.5c0.2,0.3,0.3,0.7,0.4,1.2
					c0,0.2,0,0.5,0,0.7c0,0.3,0,0.5,0,0.7V79.9z"/>
				<path class="st31" d="M279.5,79.7c-0.1-1.8,0-3.5,0-5.3c0.1-1.7,0.2-3.5,0.3-5.3c0-0.4,0.1-0.8,0.1-1.3c0.1-0.4,0.1-0.8,0.2-1.3
					c0.1-0.4,0.2-0.8,0.4-0.9c0.2-0.2,0.6-0.2,1-0.2c0.1,0,0.3,0,0.4,0s0.3,0,0.4,0c1.5,0.3,3,0.4,4.5,0.5c1.5,0.1,3,0.2,4.5,0.3
					c0.2,0,0.4,0,0.6,0.1c0.2,0,0.4,0,0.6,0.1c0.4,0.1,0.5,0.3,0.5,0.7c0,0.3-0.2,0.6-0.5,0.7c-0.2,0.1-0.4,0.1-0.6,0.1
					c-0.2,0-0.4,0-0.5,0c-0.7,0-1.3-0.1-2-0.1c-0.7,0-1.3-0.1-2-0.1c-0.1,0-0.3,0-0.5,0c-0.2,0-0.3,0-0.5,0c-0.2,0-0.3,0.1-0.3,0.3
					c0,0.1,0,0.2,0,0.3c0,0.1,0,0.2,0,0.3c0,1.1,0,2.2-0.1,3.4c-0.1,1.1-0.1,2.2-0.2,3.3c-0.2,2.4-0.3,4.9-0.3,7.3
					c0,0.2,0,0.3,0,0.5c0,0.2,0,0.3,0,0.5c0.1,0.4,0.3,0.6,0.6,0.6h1.1h1.1c0.6,0.1,0.9,0.3,0.8,0.6c-0.1,0.4-0.3,0.6-0.8,0.6
					c-0.4,0.1-0.8,0.1-1.1,0.1c-0.4,0-0.7,0-1.1,0c-0.3,0.1-0.5,0.2-0.5,0.5v0.5c0.1,1,0.1,2,0.2,2.9c0.1,1,0.1,1.9,0.2,2.9
					c0.1,0.4,0.1,0.7,0.3,0.8c0.1,0.1,0.4,0.1,0.9,0.1c0.6-0.1,1.3-0.1,1.9-0.1c0.6,0,1.3,0,1.9-0.1c0.4,0,0.9,0.1,1.3,0.3
					c0.2,0.1,0.3,0.3,0.3,0.5c0,0.2-0.1,0.4-0.3,0.5c-0.1,0.1-0.2,0.1-0.2,0.1c-0.1,0-0.1,0.1-0.2,0.1c-0.2,0.1-0.4,0.1-0.6,0.1
					c-1.6,0.1-3.1,0.2-4.6,0.3c-1.5,0.2-3.1,0.3-4.6,0.5c-0.7,0.1-1.1,0-1.4-0.1c-0.2-0.2-0.4-0.6-0.5-1.4c-0.1-0.3-0.1-0.6-0.1-0.8
					c0-0.3,0-0.6-0.1-0.9c-0.2-2.2-0.4-4.3-0.5-6.5C279.4,84.1,279.4,81.9,279.5,79.7z"/>
			</g>
		</g>
		<g>
			<path class="st31" d="M157.8,159.8c1.3-1.3,2.5-2.7,3.3-4.1c0.9-1.4,1.6-3,2.1-4.7c0.6-1.7,1-3.6,1.3-5.8c0.3-2.1,0.7-4.6,1-7.4
				v-0.7c0-0.7-0.3-1-0.9-1c-0.5-0.1-0.9-0.1-1.4-0.1c-0.5,0-1,0-1.4-0.1c-0.6,0-1.1-0.1-1.5-0.4c-0.3-0.2-0.4-0.6-0.4-1.1
				c0-0.5,0.2-0.8,0.5-0.9c2.5-0.8,4.8-0.7,7.1,0.2c0.3,0.1,0.5,0.3,0.6,0.7c0.1,0.3,0.1,0.7,0.1,1c-0.3,2.6-0.6,5.3-0.8,7.9
				c-0.3,2.6-0.7,5.1-1.4,7.6c-0.6,2.4-1.6,4.7-2.8,6.9c-1.2,2.2-2.9,4.1-5.1,5.8c-2.2,1.7-4.7,2.5-7.4,2.5c-3.7-0.1-7-1.1-9.9-3.1
				c-2.9-2-5.3-4.6-7.2-7.9c-1.9-3.2-3.3-6.8-4.3-10.9c-0.9-4-1.3-8.1-1.2-12.2s0.8-8,1.9-11.8c1.2-3.8,2.9-7,5.3-9.6
				c2.3-2.7,5.2-4.6,8.8-5.8c3.5-1.2,7.7-1.2,12.4-0.2c3.4,0.7,6,2.5,7.7,5.6c0.4,0.6,0.6,1.3,0.7,2c0.1,0.7-0.2,1.2-0.8,1.3
				c-0.5,0.1-0.8-0.1-1-0.5c-0.2-0.4-0.6-0.9-1.1-1.6c-0.9-1.2-2-2.2-3.2-2.9c-1.2-0.7-2.4-1.1-3.6-1.3c-1.2-0.2-2.3-0.2-3.2,0
				c-1,0.2-1.7,0.6-2.2,1.1c-1.6,1.9-2.9,4.2-3.9,7c-1,2.8-1.7,5.9-2.2,9.2c-0.5,3.3-0.7,6.7-0.7,10.2s0.2,6.9,0.7,10
				c0.5,3.2,1.1,6.1,2,8.7c0.8,2.6,1.9,4.7,3,6.2c1.2,1.5,2.5,2.3,4,2.5C154.4,162.4,156,161.6,157.8,159.8z"/>
			<path class="st31" d="M205.5,110.2c1.4,2.6,2.4,5.8,3,9.5s0.8,7.5,0.8,11.5c-0.1,4-0.5,8-1.2,11.9c-0.7,4-1.6,7.5-2.7,10.6
				c-1.6,4.4-3.5,7.6-5.7,9.6c-2.2,1.9-4.5,2.9-6.8,2.9c-2.3,0-4.7-0.9-7-2.7c-2.3-1.7-4.4-4.1-6.3-7c-1.9-2.9-3.4-6.3-4.6-10.1
				c-1.2-3.8-1.9-7.8-2.1-12c-0.2-4.2,0.3-8.4,1.4-12.6c1.1-4.3,3-8.3,5.9-12.1c1.5-2,3.2-3.5,5.1-4.5c1.9-1,4.1-1.7,6.4-1.9
				c3-0.3,5.7,0.1,8,1.2C202.1,105.5,204,107.5,205.5,110.2z M204.1,148.4c1.8-6.1,2.7-11.8,2.7-17c0-5.2-0.5-9.7-1.6-13.4
				c-1.1-3.7-2.5-6.6-4.3-8.5c-1.8-2-3.6-2.8-5.5-2.4s-3.5,2-5,5c-1.5,2.9-2.5,7.5-2.9,13.6c-0.3,4.2-0.3,8.3,0,12.4
				c0.3,4,0.9,7.7,1.6,10.9c0.8,3.3,1.7,5.9,2.9,8c1.1,2.1,2.4,3.3,3.7,3.6c1.3,0.3,2.7-0.5,4.2-2.4
				C201.3,156.4,202.7,153.1,204.1,148.4z"/>
			<path class="st31" d="M246.6,110.2c1.4,2.6,2.4,5.8,3,9.5s0.8,7.5,0.8,11.5c-0.1,4-0.5,8-1.2,11.9c-0.7,4-1.6,7.5-2.7,10.6
				c-1.6,4.4-3.5,7.6-5.7,9.6c-2.2,1.9-4.5,2.9-6.8,2.9c-2.3,0-4.7-0.9-7-2.7c-2.3-1.7-4.4-4.1-6.3-7c-1.9-2.9-3.4-6.3-4.6-10.1
				c-1.2-3.8-1.9-7.8-2.1-12c-0.2-4.2,0.3-8.4,1.4-12.6c1.1-4.3,3-8.3,5.9-12.1c1.5-2,3.2-3.5,5.1-4.5c1.9-1,4.1-1.7,6.4-1.9
				c3-0.3,5.7,0.1,8,1.2C243.2,105.5,245.1,107.5,246.6,110.2z M245.2,148.4c1.8-6.1,2.7-11.8,2.7-17c0-5.2-0.5-9.7-1.6-13.4
				s-2.5-6.6-4.3-8.5c-1.8-2-3.6-2.8-5.5-2.4c-1.9,0.4-3.5,2-5,5c-1.5,2.9-2.5,7.5-2.9,13.6c-0.3,4.2-0.3,8.3,0,12.4
				c0.3,4,0.9,7.7,1.6,10.9c0.8,3.3,1.7,5.9,2.9,8c1.1,2.1,2.4,3.3,3.7,3.6c1.3,0.3,2.7-0.5,4.2-2.4
				C242.4,156.4,243.8,153.1,245.2,148.4z"/>
			<path class="st31" d="M273.6,107.9c3.6,1.1,6.8,2.8,9.5,5.1c2.7,2.3,4.9,5,6.6,8c1.7,3,2.8,6.2,3.4,9.7c0.6,3.5,0.5,6.9-0.1,10.4
				c-0.7,3.5-2,6.8-4,9.9c-2,3.2-4.7,6-8.2,8.4c-1.7,1.2-3.4,2.2-5,3.2c-1.7,0.9-3.3,1.7-5.1,2.3c-1.7,0.6-3.5,1-5.3,1.1
				c-1.8,0.2-3.7,0.1-5.7-0.3c-0.7-0.1-1.4-1.1-1.9-2.8c-0.6-1.8-1-4.1-1.4-6.9c-0.4-2.8-0.7-6-0.9-9.6c-0.2-3.6-0.3-7.2-0.3-10.9
				s0.1-7.3,0.3-10.8c0.2-3.5,0.5-6.7,0.9-9.5c0.4-2.8,1-5,1.6-6.7c0.6-1.7,1.4-2.6,2.3-2.7c2.1-0.1,4.2,0,6.2,0.3
				C268.5,106.5,270.9,107,273.6,107.9z M270.1,160.3c3.2-1.5,6-3.4,8.4-5.6c2.4-2.2,4.3-4.6,5.9-7c1.5-2.5,2.6-5,3.2-7.5
				c0.6-2.5,0.9-4.9,0.6-7.2c-0.3-2.4-0.9-4.8-1.9-7.2c-1-2.4-2.3-4.5-3.9-6.5c-1.6-2-3.5-3.7-5.8-5.3c-2.2-1.5-4.8-2.6-7.6-3.4
				c-0.7-0.2-1.2-0.2-1.4,0c-0.2,0.1-0.3,0.6-0.3,1.3c0.2,8.7,0.4,16,0.5,21.8c0.1,5.8,0.2,10.5,0.3,14.2c0.1,3.7,0.2,6.4,0.2,8.2
				c0.1,1.8,0.2,3,0.3,3.7c0.1,0.7,0.3,1,0.5,0.9C269.5,160.6,269.8,160.5,270.1,160.3z"/>
		</g>
		<g>
			<g>
				<path class="st31" d="M130.9,188.9c0-1.5,0-2.9,0-4.3c0.1-1.4,0.1-2.8,0.2-4.2c0-0.3,0.1-0.7,0.1-1c0-0.3,0.1-0.7,0.2-1
					c0.1-0.4,0.2-0.6,0.4-0.7c0.2-0.1,0.4-0.2,0.8-0.2c0.1,0,0.2,0,0.3,0c0.1,0,0.2,0,0.3,0c1.3,0.2,2.5,0.3,3.7,0.4
					c1.2,0.1,2.5,0.2,3.7,0.3c0.2,0,0.3,0,0.5,0.1c0.1,0,0.3,0,0.4,0.1c0.2,0.1,0.4,0.2,0.4,0.5c0,0.2-0.1,0.4-0.3,0.5
					c-0.2,0.1-0.3,0.2-0.5,0.2c-0.2,0-0.3,0-0.5,0c-0.5,0-0.9,0-1.4,0c-0.5,0-1,0-1.5-0.1c-0.2,0-0.3,0-0.5-0.1c-0.1,0-0.3,0-0.5,0
					c-0.3,0-0.4,0.2-0.4,0.5c0,0.7-0.1,1.4-0.1,2.1s0,1.4-0.1,2.1c-0.1,1.1-0.2,2.3-0.2,3.3c-0.1,1.1-0.1,2.2-0.1,3.3
					c0,0.5,0,0.9,0,1.2c0,0.3,0.1,0.4,0.2,0.5c0.1,0.1,0.3,0.1,0.5,0.1c0.2,0,0.6,0,1.1,0c0.1,0,0.3,0,0.4,0c0.1,0,0.3,0,0.4,0.1
					c0.2,0,0.3,0.1,0.3,0.3c0,0.2-0.1,0.4-0.2,0.5c-0.1,0.1-0.2,0.1-0.4,0.2c-0.1,0-0.3,0-0.4,0c-0.2,0-0.5,0-0.7,0
					c-0.2,0-0.5,0-0.7,0c-0.3,0-0.4,0.2-0.4,0.5c0,0.1,0,0.2,0,0.3c0,0.1,0,0.2,0,0.3c0.1,0.9,0.1,1.9,0.2,2.8
					c0.1,0.9,0.1,1.8,0.2,2.8c0,0.1,0,0.3,0,0.5c0,0.2-0.1,0.4-0.3,0.5c-0.6,0.1-1.2,0.2-1.8,0.3c-0.6,0.1-1.2,0.1-1.8,0.1
					c-0.4,0-0.6-0.1-0.7-0.6c0-0.2-0.1-0.5-0.1-0.7c0-0.2-0.1-0.5-0.1-0.7c-0.2-1.8-0.3-3.6-0.4-5.4
					C130.8,192.4,130.8,190.6,130.9,188.9z"/>
				<path class="st31" d="M152.5,200.5c0.2,0,0.3,0.2,0.3,0.3c0,0.2-0.1,0.3-0.3,0.4c-0.2,0.1-0.4,0.1-0.6,0.1
					c-0.9,0-1.7,0.1-2.5,0.1c-0.8,0-1.7,0.1-2.5,0.1c-0.3,0-0.6,0-0.9,0c-0.3,0-0.6-0.1-0.9-0.2c-0.2-0.1-0.3-0.2-0.3-0.4
					c0-0.2,0.1-0.3,0.3-0.4c0,0,0.1-0.1,0.2-0.1c0.1,0,0.1,0,0.2-0.1c0.1,0,0.2,0,0.3-0.1c0.1,0,0.2,0,0.4-0.1c0-2.8,0-5.6,0.1-8.3
					c0-2.7,0-5.5,0.1-8.2c0-0.8,0-1.5,0-2.3c0-0.8,0-1.5-0.1-2.3c0-0.2,0-0.4-0.1-0.5c-0.1-0.1-0.2-0.1-0.5-0.2c-0.2,0-0.3,0-0.5,0
					c-0.2,0-0.3,0-0.5-0.1c-0.1,0-0.2-0.1-0.3-0.1c-0.1,0-0.2-0.1-0.3-0.1c-0.1-0.1-0.1-0.2-0.1-0.3c0,0,0-0.1,0.1-0.2
					c0-0.1,0.1-0.1,0.1-0.1c0.2-0.1,0.5-0.1,0.8-0.1c1.1-0.1,2.1-0.2,3.2-0.2c1.1-0.1,2.1-0.1,3.2,0c0.2,0,0.3,0,0.5,0
					c0.2,0,0.3,0.1,0.5,0.2c0.2,0.1,0.3,0.2,0.3,0.4c0,0.2-0.1,0.3-0.3,0.4c-0.1,0-0.2,0.1-0.3,0.1c-0.1,0-0.2,0-0.3,0
					c-0.1,0-0.3,0-0.4,0c-0.1,0-0.3,0-0.4,0.1c-0.2,0-0.3,0.2-0.3,0.4c0.1,2.4,0.1,4.8,0,7.2c-0.1,2.4,0,4.8,0.2,7.2
					c0.1,0.9,0.1,1.7,0.1,2.6c0,0.9-0.1,1.7-0.1,2.6v1.1c0,0.2,0.1,0.3,0.1,0.4c0.1,0.1,0.2,0.1,0.4,0.2c0.2,0,0.5,0,0.7,0
					C152,200.3,152.3,200.4,152.5,200.5z"/>
				<path class="st31" d="M166.5,199.1c0.5-0.5,1-1.1,1.3-1.6c0.3-0.6,0.6-1.2,0.9-1.9c0.2-0.7,0.4-1.4,0.5-2.3
					c0.1-0.9,0.3-1.8,0.4-3V190c0-0.3-0.1-0.4-0.4-0.4c-0.2,0-0.4,0-0.6,0c-0.2,0-0.4,0-0.6,0c-0.2,0-0.4-0.1-0.6-0.2
					c-0.1-0.1-0.2-0.2-0.2-0.4c0-0.2,0.1-0.3,0.2-0.4c1-0.3,1.9-0.3,2.8,0.1c0.1,0,0.2,0.1,0.2,0.3c0,0.1,0.1,0.3,0,0.4
					c-0.1,1.1-0.2,2.1-0.3,3.1c-0.1,1-0.3,2-0.6,3c-0.3,1-0.6,1.9-1.1,2.8c-0.5,0.9-1.2,1.6-2,2.3c-0.9,0.7-1.9,1-3,1
					c-1.5,0-2.8-0.4-3.9-1.2c-1.1-0.8-2.1-1.9-2.9-3.1c-0.8-1.3-1.3-2.7-1.7-4.3c-0.4-1.6-0.5-3.2-0.5-4.9c0-1.6,0.3-3.2,0.8-4.7
					c0.5-1.5,1.2-2.8,2.1-3.8c0.9-1.1,2.1-1.8,3.5-2.3c1.4-0.5,3-0.5,5-0.1c1.4,0.3,2.4,1,3.1,2.2c0.2,0.2,0.3,0.5,0.3,0.8
					c0,0.3-0.1,0.5-0.3,0.5c-0.2,0-0.3,0-0.4-0.2c-0.1-0.2-0.2-0.4-0.4-0.6c-0.4-0.5-0.8-0.9-1.3-1.1c-0.5-0.3-1-0.4-1.4-0.5
					c-0.5-0.1-0.9-0.1-1.3,0c-0.4,0.1-0.7,0.2-0.9,0.5c-0.6,0.7-1.1,1.7-1.5,2.8c-0.4,1.1-0.7,2.3-0.9,3.7c-0.2,1.3-0.3,2.7-0.3,4.1
					s0.1,2.7,0.3,4c0.2,1.3,0.5,2.4,0.8,3.5s0.7,1.9,1.2,2.5c0.5,0.6,1,0.9,1.6,1C165.1,200.1,165.8,199.8,166.5,199.1z"/>
				<path class="st31" d="M189,188.8c-0.1,2.1-0.1,4.1-0.2,5.8c-0.1,1.8-0.1,3.5-0.2,5.2v0.4c0,0.4-0.1,0.7-0.3,0.9
					c-0.1,0.1-0.4,0.3-0.9,0.3c-0.7,0.1-1.4,0.1-2.1-0.1c-0.3-0.1-0.4-0.2-0.5-0.5c-0.1-0.3-0.2-0.6-0.2-1c0-0.3,0-0.7,0-1
					c0-0.9,0.1-1.8,0.1-2.7c0-0.9,0-1.8,0.1-2.7c0-0.2,0-0.3,0-0.4c0-0.2-0.1-0.3-0.3-0.3c-0.1,0-0.3,0-0.5,0c-1,0-2,0-3,0
					c-1,0-2,0-3,0c-0.1,0-0.2,0-0.3,0c-0.1,0-0.2,0-0.3,0c-0.2,0-0.3,0.2-0.3,0.3c0,0.2,0,0.3,0,0.4c0,0.1,0,0.3,0,0.4
					c0,0.9,0,1.9,0,2.8c0,0.9,0,1.8-0.1,2.7c0,0.5,0,0.9-0.1,1.1c0,0.2-0.1,0.4-0.2,0.5c-0.1,0.1-0.3,0.2-0.6,0.2
					c-0.3,0-0.6,0-1.1,0c-0.2,0-0.4,0-0.6,0c-0.2,0-0.4,0-0.6,0c-0.6,0-0.9-0.3-1.1-0.8c0-0.2-0.1-0.5-0.1-0.7c0-0.2,0-0.4,0-0.7
					c0.1-1,0.1-2,0.1-3.1c0-1,0-2,0.1-3.1c0-1.7,0-3.4,0-5c0-1.7,0-3.3,0-5c0-0.6,0-1.3,0-1.9c0-0.6-0.1-1.3-0.2-1.9
					c0,0,0-0.1,0-0.1c0,0,0-0.1,0-0.1c0-0.6,0-1,0.2-1.2c0.2-0.2,0.6-0.3,1.2-0.3c0.3,0,0.6,0.1,0.9,0c0.3,0,0.6,0,0.9,0
					c0.6,0,1,0.3,1.2,1c0,0.2,0.1,0.4,0.1,0.7c0,0.2,0,0.5,0,0.7c0,1.8,0,3.6,0.1,5.3c0,1.8,0,3.5,0,5.3c0,0.4,0,0.7,0,0.9
					c0,0.2,0.1,0.3,0.1,0.4c0.1,0.1,0.2,0.1,0.4,0.1c0.2,0,0.5,0,0.9,0c0.9,0,1.7,0,2.5,0c0.8,0,1.6,0,2.5,0h0.9
					c0.3,0,0.5-0.2,0.5-0.5c0-0.2,0-0.4,0-0.5c0-0.2,0-0.3,0-0.5c0-1.8,0-3.6,0-5.4c0-1.8,0-3.6,0-5.4c0-0.2,0-0.5,0-0.7
					c0-0.2,0-0.5,0.1-0.7c0.1-0.7,0.5-1,1.1-0.9c0.6,0,1.2,0.1,1.8,0.2c0.4,0.1,0.7,0.2,0.9,0.4c0.2,0.2,0.3,0.5,0.3,1
					c0,0.2,0,0.4,0,0.6s0,0.4,0,0.6V188.8z"/>
				<path class="st31" d="M199.7,185.7c0,1.7,0,3.4,0.1,5.1c0.1,1.6,0.3,3.3,0.4,4.9c0.1,0.7,0.1,1.5,0.1,2.2c0,0.7,0.1,1.5,0.1,2.2
					c0,0.2,0,0.4,0,0.5c0,0.4-0.3,0.7-0.7,0.7c-0.4,0-0.9,0.1-1.3,0.1c-0.4,0-0.9,0-1.3,0.1c-0.7,0-1.2-0.3-1.4-1
					c0-0.1,0-0.2-0.1-0.3c0-0.1,0-0.2,0-0.3c-0.1-1.7-0.2-3.5-0.3-5.2c-0.1-1.7-0.2-3.5-0.3-5.2c-0.1-1.6-0.1-3.2-0.2-4.8
					c0-1.6-0.1-3.2-0.1-4.8v-0.5c0-0.3-0.1-0.4-0.2-0.5c-0.1-0.1-0.3-0.1-0.6-0.1c-0.4,0-0.7,0-1.1,0c-0.3,0-0.7,0-1.1,0
					c-0.1,0-0.2,0-0.4,0c-0.1,0-0.2-0.1-0.4-0.1c-0.1,0-0.2-0.1-0.2-0.3c0-0.2,0.1-0.3,0.2-0.3c0.2-0.1,0.4-0.2,0.6-0.2
					c0.2,0,0.3,0,0.5,0c0.2,0,0.3,0,0.5,0l9.3,0.1c0.1,0,0.2,0,0.4,0c0.1,0,0.3,0,0.4,0.1c0.2,0,0.3,0.1,0.3,0.3
					c0,0.2-0.1,0.4-0.3,0.5c-0.1,0.1-0.3,0.1-0.4,0.1c-0.1,0-0.3,0-0.4,0h-1.9c-0.3,0-0.4,0.1-0.4,0.4v0.6c0,1,0,2,0.1,3
					C199.6,183.8,199.6,184.8,199.7,185.7z"/>
			</g>
			<g>
				<path class="st31" d="M229.3,179.3c0.6,1.1,1,2.3,1.2,3.8c0.2,1.5,0.3,3,0.3,4.6c0,1.6-0.2,3.2-0.5,4.7c-0.3,1.6-0.6,3-1.1,4.2
					c-0.6,1.8-1.4,3-2.3,3.8c-0.9,0.8-1.8,1.2-2.7,1.1c-0.9,0-1.9-0.4-2.8-1.1c-0.9-0.7-1.8-1.6-2.5-2.8c-0.8-1.2-1.4-2.5-1.8-4
					c-0.5-1.5-0.8-3.1-0.8-4.8c-0.1-1.7,0.1-3.3,0.6-5c0.4-1.7,1.2-3.3,2.3-4.8c0.6-0.8,1.3-1.4,2-1.8c0.8-0.4,1.6-0.7,2.6-0.8
					c1.2-0.1,2.3,0,3.2,0.5C227.9,177.4,228.7,178.2,229.3,179.3z M228.7,194.5c0.7-2.4,1.1-4.7,1.1-6.8s-0.2-3.8-0.7-5.3
					c-0.4-1.5-1-2.6-1.7-3.4c-0.7-0.8-1.4-1.1-2.2-1s-1.4,0.8-2,2c-0.6,1.2-1,3-1.2,5.4c-0.1,1.7-0.1,3.3,0,4.9
					c0.1,1.6,0.3,3.1,0.7,4.4c0.3,1.3,0.7,2.4,1.1,3.2c0.4,0.8,0.9,1.3,1.5,1.4c0.5,0.1,1.1-0.2,1.7-0.9
					C227.6,197.7,228.2,196.4,228.7,194.5z"/>
				<path class="st31" d="M232.7,188.9c0-1.5,0-2.9,0-4.3s0.1-2.8,0.2-4.2c0-0.3,0.1-0.7,0.1-1c0-0.3,0.1-0.7,0.2-1
					c0.1-0.4,0.2-0.6,0.4-0.7c0.2-0.1,0.4-0.2,0.8-0.2c0.1,0,0.2,0,0.3,0c0.1,0,0.2,0,0.3,0c1.3,0.2,2.5,0.3,3.7,0.4
					c1.2,0.1,2.5,0.2,3.7,0.3c0.2,0,0.3,0,0.5,0.1c0.1,0,0.3,0,0.4,0.1c0.2,0.1,0.4,0.2,0.4,0.5c0,0.2-0.1,0.4-0.3,0.5
					c-0.2,0.1-0.3,0.2-0.5,0.2c-0.2,0-0.3,0-0.5,0c-0.5,0-0.9,0-1.4,0c-0.5,0-1,0-1.5-0.1c-0.2,0-0.3,0-0.5-0.1c-0.1,0-0.3,0-0.5,0
					c-0.3,0-0.4,0.2-0.4,0.5c0,0.7-0.1,1.4-0.1,2.1s0,1.4-0.1,2.1c-0.1,1.1-0.2,2.3-0.2,3.3c-0.1,1.1-0.1,2.2-0.1,3.3
					c0,0.5,0,0.9,0,1.2c0,0.3,0.1,0.4,0.2,0.5c0.1,0.1,0.3,0.1,0.5,0.1c0.2,0,0.6,0,1.1,0c0.1,0,0.3,0,0.4,0c0.1,0,0.3,0,0.4,0.1
					c0.2,0,0.3,0.1,0.3,0.3c0,0.2-0.1,0.4-0.2,0.5c-0.1,0.1-0.2,0.1-0.4,0.2c-0.1,0-0.3,0-0.4,0c-0.2,0-0.5,0-0.7,0
					c-0.2,0-0.5,0-0.7,0c-0.3,0-0.4,0.2-0.4,0.5c0,0.1,0,0.2,0,0.3c0,0.1,0,0.2,0,0.3c0.1,0.9,0.1,1.9,0.2,2.8
					c0.1,0.9,0.1,1.8,0.2,2.8c0,0.1,0,0.3,0,0.5c0,0.2-0.1,0.4-0.3,0.5c-0.6,0.1-1.2,0.2-1.8,0.3c-0.6,0.1-1.2,0.1-1.8,0.1
					c-0.4,0-0.6-0.1-0.7-0.6c0-0.2-0.1-0.5-0.1-0.7c0-0.2-0.1-0.5-0.1-0.7c-0.2-1.8-0.3-3.6-0.4-5.4
					C232.6,192.4,232.6,190.6,232.7,188.9z"/>
			</g>
		</g>
		<g>
			<path class="st31" d="M166.3,366.1c0,0.1,0.1,0.2,0.2,0.2c0.1,0,0.2,0,0.2,0c0.1,0,0.2,0,0.2,0c0.2,0,0.3,0.1,0.3,0.3
				c0,0.2-0.1,0.3-0.3,0.4c-0.1,0-0.3,0-0.4,0.1c-0.1,0-0.3,0-0.4,0c-0.2,0-0.4,0-0.6,0c-0.2,0-0.3,0-0.5,0c-0.1,0-0.3,0-0.5,0
				c-0.2,0-0.4,0-0.6,0c-0.1,0-0.2,0-0.3,0c-0.1,0-0.2,0-0.3,0c-0.1,0-0.1,0-0.2-0.1c-0.1,0-0.1-0.1-0.1-0.2c0-0.2,0.1-0.3,0.3-0.3
				c0.1,0,0.1,0,0.2,0c0.1,0,0.1,0,0.2,0c0.1,0,0.1-0.2,0.2-0.4c0-0.3,0.1-0.6,0.1-1.1c0-0.4,0.1-0.9,0.1-1.5s0-1.2,0-1.8
				c0-0.6,0-1.2,0-1.8c0-0.6,0-1.1,0-1.6s0-0.9,0-1.2c0-0.3,0-0.5,0-0.6c0-0.1,0-0.1,0-0.2c0,0,0-0.1-0.1-0.1c-0.1,0-0.1,0-0.1,0
				c0,0-0.1,0.1-0.1,0.1c-0.4,0.4-0.6,0.7-0.8,0.9c-0.2,0.2-0.3,0.4-0.4,0.5c-0.1,0.1-0.1,0.2-0.1,0.2c0,0,0,0,0,0c0,0,0,0,0,0
				c0,0,0,0,0,0c-0.1,0.1-0.1,0.1-0.2,0.1c-0.1,0-0.1,0-0.2,0c0,0-0.1-0.1-0.1-0.2c0-0.1,0-0.1,0.1-0.2c0.1-0.1,0.2-0.3,0.3-0.4
				c0.1-0.1,0.2-0.3,0.3-0.4c0.1-0.2,0.3-0.3,0.3-0.4c0.1-0.1,0.2-0.2,0.3-0.3c0.1-0.1,0.2-0.2,0.3-0.3c0.1-0.1,0.2-0.2,0.3-0.4
				c0.2-0.2,0.5-0.4,0.8-0.4c0.2,0,0.4,0,0.5,0c0.1,0,0.3,0,0.5,0.1c0.2,0,0.3,0.1,0.3,0.1c0.1,0.1,0.1,0.2,0.1,0.4
				c0.1,0.3,0.1,0.8,0.1,1.5c0,0.6,0,1.3,0,2.1c0,0.8,0,1.6,0,2.4c0,0.8,0,1.5-0.1,2.2c0,0.7,0,1.2-0.1,1.6
				C166.3,365.9,166.3,366.1,166.3,366.1z"/>
			<path class="st31" d="M177.9,359.5c0,0.8,0,1.7,0.1,2.4c0.1,0.8,0.1,1.6,0.2,2.4c0,0.4,0.1,0.7,0.1,1.1s0,0.7,0,1.1
				c0,0.1,0,0.2,0,0.2c0,0.2-0.1,0.3-0.4,0.4c-0.2,0-0.4,0-0.6,0c-0.2,0-0.4,0-0.6,0c-0.3,0-0.6-0.2-0.7-0.5c0-0.1,0-0.1,0-0.2
				c0,0,0-0.1,0-0.2c-0.1-0.8-0.1-1.7-0.2-2.5c-0.1-0.8-0.1-1.7-0.1-2.5c0-0.8-0.1-1.5-0.1-2.3c0-0.8,0-1.5-0.1-2.3v-0.2
				c0-0.1,0-0.2-0.1-0.3c0,0-0.1-0.1-0.3-0.1c-0.2,0-0.4,0-0.5,0c-0.2,0-0.3,0-0.5,0c-0.1,0-0.1,0-0.2,0c-0.1,0-0.1,0-0.2,0
				c-0.1,0-0.1-0.1-0.1-0.1c0-0.1,0-0.1,0.1-0.1c0.1,0,0.2-0.1,0.3-0.1c0.1,0,0.2,0,0.2,0c0.1,0,0.2,0,0.2,0l4.5,0
				c0.1,0,0.1,0,0.2,0c0.1,0,0.1,0,0.2,0c0.1,0,0.1,0.1,0.2,0.1c0,0.1,0,0.2-0.1,0.3c-0.1,0-0.1,0-0.2,0c-0.1,0-0.1,0-0.2,0H178
				c-0.1,0-0.2,0.1-0.2,0.2v0.3c0,0.5,0,1,0,1.4C177.9,358.6,177.9,359.1,177.9,359.5z"/>
			<path class="st31" d="M184.7,366.7c0.1,0,0.1,0.1,0.1,0.2c0,0.1,0,0.1-0.1,0.2c-0.1,0-0.2,0-0.3,0c-0.4,0-0.8,0-1.2,0.1
				c-0.4,0-0.8,0-1.2,0.1c-0.2,0-0.3,0-0.5,0c-0.2,0-0.3,0-0.5-0.1c-0.1,0-0.1-0.1-0.1-0.2c0-0.1,0-0.2,0.1-0.2c0,0,0,0,0.1,0
				c0,0,0.1,0,0.1,0c0.1,0,0.1,0,0.2,0c0.1,0,0.1,0,0.2,0c0-1.3,0-2.7,0-4c0-1.3,0-2.6,0-4c0-0.4,0-0.7,0-1.1c0-0.4,0-0.7,0-1.1
				c0-0.1,0-0.2,0-0.2c0,0-0.1-0.1-0.2-0.1c-0.1,0-0.2,0-0.2,0c-0.1,0-0.2,0-0.2,0c-0.1,0-0.1,0-0.1,0c0,0-0.1,0-0.1-0.1
				c0,0-0.1-0.1-0.1-0.2c0,0,0,0,0-0.1c0,0,0,0,0.1,0c0.1,0,0.2-0.1,0.4-0.1c0.5,0,1-0.1,1.6-0.1c0.5,0,1,0,1.6,0c0.1,0,0.2,0,0.2,0
				s0.2,0,0.2,0.1c0.1,0,0.1,0.1,0.1,0.2c0,0.1,0,0.2-0.1,0.2c0,0-0.1,0-0.1,0c0,0-0.1,0-0.2,0c-0.1,0-0.1,0-0.2,0
				c-0.1,0-0.1,0-0.2,0c-0.1,0-0.2,0.1-0.2,0.2c0,1.2,0,2.3,0,3.5c0,1.2,0,2.3,0.1,3.5c0,0.4,0,0.8,0,1.2c0,0.4,0,0.8,0,1.3v0.6
				c0,0.1,0,0.2,0.1,0.2c0,0,0.1,0.1,0.2,0.1c0.1,0,0.2,0,0.3,0S184.6,366.6,184.7,366.7z"/>
			<path class="st31" d="M188.1,357.3C188,357.3,188,357.3,188.1,357.3c-0.1,0.1-0.1,0.2-0.1,0.2c0,0.7,0,1.5-0.1,2.2
				c0,0.7,0,1.5,0,2.2c0,0.7,0,1.4,0.1,2.1c0,0.7,0,1.4,0.1,2.1c0,0.2,0,0.4,0,0.6c0,0.2-0.1,0.3-0.3,0.3c-0.2,0-0.4,0-0.6,0.1
				c-0.2,0-0.4,0-0.6,0c-0.2,0-0.3-0.1-0.4-0.1c-0.1-0.1-0.1-0.2-0.1-0.4c0-0.4,0-0.7-0.1-1.1s0-0.7-0.1-1.1c0-0.6-0.1-1.2-0.1-1.9
				c0-0.6-0.1-1.2-0.1-1.9c0-0.6-0.1-1.1-0.1-1.7c0-0.6,0-1.1,0-1.7c0-0.2,0-0.5,0-0.7c0-0.2,0-0.5,0-0.7c0-0.1,0-0.1,0-0.2
				c0-0.1,0-0.1,0-0.2c0-0.2,0.1-0.3,0.3-0.3c0.2,0,0.4,0,0.6,0c0.2,0,0.4,0,0.6,0.1c0.1,0,0.2,0.1,0.3,0.2c0.1,0.1,0.2,0.3,0.3,0.4
				c0.2,0.4,0.5,0.7,0.7,1.1c0.3,0.4,0.5,0.7,0.8,1.1c0.2,0.3,0.5,0.6,0.7,0.9c0.2,0.3,0.4,0.6,0.7,0.9c0.1,0.1,0.2,0.2,0.2,0.2
				s0.1,0,0.2-0.1c0.5-0.6,0.9-1.3,1.4-2c0.5-0.7,0.9-1.3,1.3-2c0-0.1,0.1-0.1,0.1-0.2c0-0.1,0.1-0.1,0.1-0.2
				c0.2-0.3,0.5-0.4,0.8-0.4c0.2,0,0.4,0,0.5,0c0.2,0,0.3,0,0.5,0c0.2,0,0.3,0.1,0.3,0.3c0,0.2,0.1,0.4,0.1,0.6c0,0.2,0,0.4,0,0.6
				c0,0.4,0,0.7,0,1.1s0,0.7,0,1.1c-0.1,1.7-0.1,3.3,0,5c0,0.4,0,0.8,0,1.3c0,0.4,0,0.8,0,1.2c0,0.1,0,0.3-0.1,0.4
				c0,0.1-0.1,0.2-0.3,0.2c-0.4,0-0.7,0-1,0.1c-0.2,0-0.5,0-0.6,0c-0.2,0-0.3-0.1-0.4-0.3c-0.1-0.2-0.2-0.5-0.2-0.9
				c0-0.4-0.1-0.8-0.1-1.2c0-0.4,0-0.8,0-1.2c0-0.7,0-1.4,0-2.1s0-1.4,0-2.1c0-0.4,0-0.7,0-1.1c0-0.4,0.1-0.7,0.1-1.1
				c-0.1,0-0.1,0-0.1,0c0,0-0.1,0.1-0.1,0.1c-0.3,0.6-0.6,1.1-1,1.6c-0.4,0.5-0.7,1-1.1,1.5c-0.2,0.3-0.4,0.4-0.5,0.4
				c-0.1,0-0.3-0.1-0.5-0.4c-0.1-0.1-0.1-0.2-0.2-0.2c-0.1-0.1-0.1-0.2-0.2-0.3L188.1,357.3C188.2,357.3,188.2,357.3,188.1,357.3
				C188.1,357.3,188.1,357.3,188.1,357.3z"/>
			<path class="st31" d="M203.6,356.4c0.3,0.5,0.5,1.1,0.6,1.8c0.1,0.7,0.2,1.4,0.1,2.2c0,0.8-0.1,1.5-0.2,2.3
				c-0.1,0.8-0.3,1.4-0.5,2c-0.3,0.9-0.7,1.5-1.1,1.8c-0.4,0.4-0.9,0.6-1.3,0.6c-0.4,0-0.9-0.2-1.3-0.5c-0.4-0.3-0.9-0.8-1.2-1.3
				c-0.4-0.6-0.7-1.2-0.9-1.9c-0.2-0.7-0.4-1.5-0.4-2.3c0-0.8,0.1-1.6,0.3-2.4c0.2-0.8,0.6-1.6,1.1-2.3c0.3-0.4,0.6-0.7,1-0.9
				c0.4-0.2,0.8-0.3,1.2-0.4c0.6-0.1,1.1,0,1.5,0.2C202.9,355.5,203.3,355.9,203.6,356.4z M203.3,363.8c0.3-1.2,0.5-2.3,0.5-3.3
				s-0.1-1.9-0.3-2.6c-0.2-0.7-0.5-1.3-0.8-1.6c-0.3-0.4-0.7-0.5-1.1-0.5c-0.4,0.1-0.7,0.4-1,1c-0.3,0.6-0.5,1.4-0.6,2.6
				c-0.1,0.8-0.1,1.6,0,2.4s0.2,1.5,0.3,2.1c0.2,0.6,0.3,1.1,0.6,1.5c0.2,0.4,0.5,0.6,0.7,0.7c0.3,0.1,0.5-0.1,0.8-0.5
				S203,364.7,203.3,363.8z"/>
			<path class="st31" d="M209.4,359.5c0,0.8,0,1.7,0.1,2.4c0.1,0.8,0.1,1.6,0.2,2.4c0,0.4,0.1,0.7,0.1,1.1c0,0.4,0,0.7,0,1.1
				c0,0.1,0,0.2,0,0.2c0,0.2-0.1,0.3-0.4,0.4c-0.2,0-0.4,0-0.6,0c-0.2,0-0.4,0-0.6,0c-0.3,0-0.6-0.2-0.7-0.5c0-0.1,0-0.1,0-0.2
				c0,0,0-0.1,0-0.2c-0.1-0.8-0.1-1.7-0.2-2.5c-0.1-0.8-0.1-1.7-0.1-2.5c0-0.8-0.1-1.5-0.1-2.3c0-0.8,0-1.5-0.1-2.3v-0.2
				c0-0.1,0-0.2-0.1-0.3c0,0-0.1-0.1-0.3-0.1c-0.2,0-0.4,0-0.5,0s-0.3,0-0.5,0c-0.1,0-0.1,0-0.2,0s-0.1,0-0.2,0
				c-0.1,0-0.1-0.1-0.1-0.1c0-0.1,0-0.1,0.1-0.1c0.1,0,0.2-0.1,0.3-0.1c0.1,0,0.2,0,0.2,0c0.1,0,0.2,0,0.2,0l4.5,0
				c0.1,0,0.1,0,0.2,0c0.1,0,0.1,0,0.2,0c0.1,0,0.1,0.1,0.2,0.1c0,0.1,0,0.2-0.1,0.3c-0.1,0-0.1,0-0.2,0c-0.1,0-0.1,0-0.2,0h-0.9
				c-0.1,0-0.2,0.1-0.2,0.2v0.3c0,0.5,0,1,0,1.4C209.4,358.6,209.4,359.1,209.4,359.5z"/>
			<path class="st31" d="M219.9,361c0,1-0.1,2-0.1,2.8c0,0.9-0.1,1.7-0.1,2.5v0.2c0,0.2-0.1,0.4-0.1,0.4c-0.1,0.1-0.2,0.1-0.4,0.2
				c-0.3,0.1-0.7,0.1-1,0c-0.1,0-0.2-0.1-0.2-0.2c-0.1-0.2-0.1-0.3-0.1-0.5c0-0.2,0-0.3,0-0.5c0-0.4,0-0.9,0-1.3c0-0.4,0-0.9,0-1.3
				c0-0.1,0-0.1,0-0.2c0-0.1-0.1-0.2-0.1-0.2c-0.1,0-0.1,0-0.2,0c-0.5,0-1,0-1.4,0c-0.5,0-1,0-1.4,0c-0.1,0-0.1,0-0.2,0
				c0,0-0.1,0-0.2,0c-0.1,0-0.2,0.1-0.2,0.2c0,0.1,0,0.1,0,0.2c0,0.1,0,0.1,0,0.2c0,0.5,0,0.9,0,1.3c0,0.4,0,0.9,0,1.3
				c0,0.2,0,0.4,0,0.6c0,0.1,0,0.2-0.1,0.3c-0.1,0.1-0.2,0.1-0.3,0.1c-0.1,0-0.3,0-0.5,0c-0.1,0-0.2,0-0.3,0s-0.2,0-0.3,0
				c-0.3,0-0.5-0.1-0.5-0.4c0-0.1,0-0.2-0.1-0.3c0-0.1,0-0.2,0-0.3c0-0.5,0.1-1,0.1-1.5c0-0.5,0-1,0-1.5c0-0.8,0-1.6,0-2.4
				c0-0.8,0-1.6,0-2.4c0-0.3,0-0.6,0-0.9c0-0.3,0-0.6-0.1-0.9c0,0,0,0,0-0.1c0,0,0,0,0-0.1c0-0.3,0-0.5,0.1-0.6
				c0.1-0.1,0.3-0.2,0.6-0.1c0.2,0,0.3,0,0.4,0c0.1,0,0.3,0,0.4,0c0.3,0,0.5,0.2,0.6,0.5c0,0.1,0,0.2,0,0.3c0,0.1,0,0.2,0,0.3
				c0,0.9,0,1.7,0,2.6c0,0.9,0,1.7,0,2.6c0,0.2,0,0.3,0,0.4c0,0.1,0,0.2,0.1,0.2c0,0,0.1,0.1,0.2,0.1s0.2,0,0.4,0c0.4,0,0.8,0,1.2,0
				c0.4,0,0.8,0,1.2,0h0.4c0.2,0,0.2-0.1,0.2-0.2c0-0.1,0-0.2,0-0.3c0-0.1,0-0.2,0-0.3c0-0.9,0-1.7,0-2.6c0-0.9,0-1.7,0-2.6
				c0-0.1,0-0.2,0-0.3c0-0.1,0-0.2,0-0.3c0.1-0.3,0.2-0.5,0.6-0.5c0.3,0,0.6,0.1,0.9,0.1c0.2,0,0.3,0.1,0.4,0.2
				c0.1,0.1,0.1,0.3,0.1,0.5c0,0.1,0,0.2,0,0.3c0,0.1,0,0.2,0,0.3V361z"/>
			<path class="st31" d="M224.2,360.8c0.1-0.1,0.2-0.1,0.3-0.2c0.1-0.1,0.1-0.2,0.2-0.2c0.2-0.2,0.3-0.4,0.5-0.6
				c0.1-0.2,0.3-0.4,0.4-0.7c0.3-0.5,0.5-0.9,0.8-1.4c0.3-0.5,0.5-1,0.6-1.5c0.1-0.1,0.1-0.2,0.2-0.3c0.1-0.1,0.2-0.1,0.4-0.1
				c0.2,0,0.4,0,0.6,0c0.2,0,0.4,0,0.6,0c0.1,0,0.1,0,0.2,0c0.2,0,0.4,0.1,0.5,0.1c0.1,0.1,0.1,0.2,0.1,0.5c0,1.4-0.1,2.7-0.3,3.8
				c-0.2,1.1-0.5,2.1-0.8,3c-0.3,0.9-0.7,1.6-1.2,2.1c-0.4,0.6-0.9,1-1.4,1.3c-0.5,0.3-0.9,0.5-1.4,0.5c-0.5,0-0.9-0.1-1.2-0.3
				c-0.4-0.2-0.6-0.6-0.9-1.1c-0.2-0.5-0.3-1.1-0.3-1.9c0-0.1,0-0.2,0-0.3c0,0,0.1-0.1,0.1-0.1c0,0,0.1,0,0.1,0c0,0,0.1,0,0.1,0.1
				c0,0,0.1,0.1,0.1,0.1c0,0.1,0,0.2,0,0.2c0,0.1,0,0.2,0,0.2c0.1,1,0.3,1.6,0.6,1.9c0.2,0.3,0.5,0.4,0.8,0.2c0.3-0.2,0.6-0.5,0.9-1
				c0.3-0.5,0.6-1.2,0.8-1.9c0.2-0.7,0.4-1.5,0.6-2.4c0.2-0.8,0.2-1.6,0.2-2.4c-0.1,0-0.2,0.1-0.2,0.1c0,0.1-0.1,0.1-0.1,0.2
				c-0.2,0.3-0.4,0.6-0.6,1c-0.2,0.3-0.4,0.6-0.7,0.9c-0.1,0.1-0.2,0.2-0.2,0.3c-0.1,0.1-0.2,0.2-0.2,0.2c-0.2,0.2-0.5,0.3-0.8,0.4
				c-0.3,0-0.6,0-0.9-0.2c-0.2-0.1-0.5-0.3-0.6-0.5c-0.2-0.2-0.3-0.4-0.5-0.6c-0.1-0.2-0.2-0.4-0.3-0.7c-0.1-0.2-0.2-0.5-0.2-0.7
				c-0.2-0.9-0.4-1.8-0.4-2.6c0-0.4,0-0.6,0.1-0.7c0.1-0.1,0.4-0.2,0.7-0.2c0.2,0,0.5,0,0.7,0c0.2,0,0.5,0,0.7,0
				c0.2,0,0.4,0.1,0.5,0.2c0.1,0.1,0.1,0.2,0.1,0.5c0,0.3,0,0.6,0,0.9c0,0.3,0,0.6,0,0.9c0,0.5,0,0.9,0.1,1.4
				c0.1,0.5,0.2,0.9,0.3,1.4c0,0.1,0,0.1,0.1,0.2C224.2,360.7,224.2,360.8,224.2,360.8z"/>
			<path class="st31" d="M238.8,360.8c0.8-0.1,1.4-0.1,1.9,0.1c0.5,0.2,0.9,0.5,1.1,0.9c0.2,0.4,0.4,0.9,0.4,1.4c0,0.5,0,1-0.2,1.5
				c-0.1,0.5-0.4,1-0.7,1.4c-0.3,0.4-0.6,0.7-1,0.9c-0.4,0.2-0.8,0.2-1.3,0.1c-0.5-0.1-1-0.5-1.5-1.1c-0.3-0.3-0.6-0.8-0.8-1.4
				c-0.2-0.6-0.4-1.2-0.5-1.9c-0.1-0.7-0.1-1.5-0.1-2.2c0.1-0.8,0.2-1.6,0.5-2.3c0.3-0.9,0.8-1.6,1.2-2c0.5-0.5,1-0.8,1.5-0.9
				c0.5-0.1,1-0.1,1.5,0.2c0.5,0.2,0.8,0.5,1.1,1c0.1,0.1,0.1,0.2,0.1,0.3c0,0.1,0,0.2,0,0.3c0,0.1-0.1,0.1-0.1,0.1
				c-0.1,0-0.1,0-0.1,0c-0.4-0.5-0.8-0.8-1.1-0.8c-0.3-0.1-0.6,0-0.8,0.3c-0.2,0.2-0.4,0.5-0.6,1c-0.2,0.4-0.3,0.9-0.4,1.3
				c-0.1,0.5-0.1,0.9-0.2,1.3C238.8,360.3,238.8,360.6,238.8,360.8z M239.3,365.5c0.2,0.4,0.4,0.7,0.6,0.8c0.2,0.1,0.4,0.1,0.6-0.1
				c0.2-0.2,0.4-0.4,0.6-0.7c0.2-0.3,0.3-0.7,0.4-1.1c0.1-0.4,0.1-0.8,0.1-1.2c0-0.4-0.1-0.8-0.3-1.1c-0.2-0.3-0.5-0.5-0.9-0.6
				c-0.4-0.1-0.9-0.1-1.5,0c-0.1,0-0.2,0.1-0.2,0.3c0,0.2-0.1,0.4,0,0.6c0,0.2,0,0.5,0.1,0.8c0,0.3,0.1,0.6,0.2,0.9
				c0.1,0.3,0.1,0.6,0.2,0.8C239.2,365.2,239.3,365.4,239.3,365.5z"/>
			<path class="st31" d="M244.4,360.4c-0.3,0.1-0.6,0-0.8-0.1c-0.2-0.1-0.3-0.3-0.4-0.5c-0.1-0.2-0.1-0.4-0.1-0.7
				c0-0.2,0.1-0.5,0.2-0.6c0.1-0.2,0.3-0.3,0.5-0.3c0.2,0,0.5,0,0.8,0.2c0.2,0.1,0.4,0.3,0.4,0.5c0.1,0.2,0.1,0.4,0.1,0.6
				c0,0.2-0.1,0.4-0.2,0.6C244.8,360.3,244.6,360.4,244.4,360.4z M244.4,364.5c-0.3,0.1-0.6,0-0.8-0.1c-0.2-0.1-0.3-0.3-0.4-0.5
				c-0.1-0.2-0.1-0.4-0.1-0.7c0-0.2,0.1-0.5,0.2-0.6c0.1-0.2,0.3-0.3,0.5-0.3c0.2,0,0.5,0,0.8,0.2c0.2,0.1,0.4,0.3,0.4,0.5
				c0.1,0.2,0.1,0.4,0.1,0.6c0,0.2-0.1,0.4-0.2,0.6C244.8,364.4,244.6,364.5,244.4,364.5z"/>
			<path class="st31" d="M250.1,366.1c0,0.1,0.1,0.2,0.2,0.2c0.1,0,0.2,0,0.2,0c0.1,0,0.2,0,0.2,0c0.2,0,0.3,0.1,0.3,0.3
				c0,0.2-0.1,0.3-0.3,0.4c-0.1,0-0.3,0-0.4,0.1c-0.1,0-0.3,0-0.4,0c-0.2,0-0.4,0-0.6,0c-0.2,0-0.3,0-0.5,0c-0.1,0-0.3,0-0.5,0
				c-0.2,0-0.4,0-0.6,0c-0.1,0-0.2,0-0.3,0c-0.1,0-0.2,0-0.3,0c-0.1,0-0.1,0-0.2-0.1s-0.1-0.1-0.1-0.2c0-0.2,0.1-0.3,0.3-0.3
				c0.1,0,0.1,0,0.2,0c0.1,0,0.1,0,0.2,0c0.1,0,0.1-0.2,0.2-0.4c0-0.3,0.1-0.6,0.1-1.1c0-0.4,0.1-0.9,0.1-1.5s0-1.2,0-1.8
				c0-0.6,0-1.2,0-1.8c0-0.6,0-1.1,0-1.6s0-0.9,0-1.2s0-0.5,0-0.6c0-0.1,0-0.1,0-0.2c0,0,0-0.1-0.1-0.1c-0.1,0-0.1,0-0.1,0
				c0,0-0.1,0.1-0.1,0.1c-0.4,0.4-0.6,0.7-0.8,0.9c-0.2,0.2-0.3,0.4-0.4,0.5c-0.1,0.1-0.1,0.2-0.1,0.2c0,0,0,0,0,0c0,0,0,0,0,0
				c0,0,0,0,0,0c-0.1,0.1-0.1,0.1-0.2,0.1s-0.1,0-0.2,0c0,0-0.1-0.1-0.1-0.2c0-0.1,0-0.1,0.1-0.2c0.1-0.1,0.2-0.3,0.3-0.4
				c0.1-0.1,0.2-0.3,0.3-0.4c0.1-0.2,0.3-0.3,0.3-0.4c0.1-0.1,0.2-0.2,0.3-0.3c0.1-0.1,0.2-0.2,0.3-0.3c0.1-0.1,0.2-0.2,0.3-0.4
				c0.2-0.2,0.5-0.4,0.8-0.4c0.2,0,0.4,0,0.5,0c0.1,0,0.3,0,0.5,0.1c0.2,0,0.3,0.1,0.3,0.1c0.1,0.1,0.1,0.2,0.1,0.4
				c0.1,0.3,0.1,0.8,0.1,1.5c0,0.6,0,1.3,0,2.1c0,0.8,0,1.6,0,2.4c0,0.8,0,1.5-0.1,2.2c0,0.7,0,1.2-0.1,1.6
				C250.2,365.9,250.1,366.1,250.1,366.1z"/>
			<path class="st31" d="M255.7,365.2c-0.2,0.3-0.4,0.4-0.5,0.6c-0.1,0.1,0,0.2,0.2,0.2c0.4,0.1,0.7,0.1,1,0.2
				c0.3,0.1,0.5,0.1,0.7,0.1c0.2,0,0.4,0.1,0.5,0.1s0.3,0,0.5,0c0.1,0,0.3,0,0.4,0c0.1,0,0.1,0.1,0.2,0.2c0,0.1,0,0.2-0.1,0.3
				c-0.1,0.1-0.3,0.2-0.6,0.2c-0.2,0-0.5,0-0.9,0c-0.3,0-0.7-0.1-1-0.1c-0.4-0.1-0.8-0.1-1.1-0.1s-0.8,0-1.2,0
				c-0.4,0-0.7,0.1-1.1,0.3c-0.1,0-0.1,0-0.1,0.1c0,0-0.1,0-0.1,0c-0.2,0.1-0.3,0-0.4-0.1c-0.1-0.1-0.2-0.3-0.1-0.5
				c0-0.1,0-0.1,0.1-0.1c0,0,0.1-0.1,0.1-0.1c0.1-0.1,0.2-0.3,0.3-0.4c0.1-0.1,0.2-0.2,0.3-0.4c1-1.1,1.9-2.1,2.5-3
				c0.6-0.9,1-1.8,1.3-2.5c0.3-0.8,0.4-1.4,0.3-2c0-0.6-0.2-1-0.4-1.3c-0.2-0.3-0.5-0.5-0.8-0.6c-0.3-0.1-0.7,0-1.1,0.2
				c-0.6,0.4-1.1,0.9-1.4,1.6c0,0.1,0,0.1-0.1,0.2c0,0.1-0.1,0.1-0.1,0.2c-0.1,0.1-0.1,0.2-0.2,0.1c-0.1,0-0.1,0-0.2-0.1
				c0,0-0.1-0.1-0.1-0.2c0-0.1,0-0.1,0-0.2c0-0.1,0.1-0.2,0.1-0.3c0-0.1,0.1-0.2,0.1-0.3c0.4-0.6,0.8-1.1,1.3-1.5
				c0.5-0.4,1-0.6,1.5-0.8c0.5-0.1,1-0.1,1.5,0c0.5,0.1,0.9,0.4,1.2,0.7c0.3,0.3,0.6,0.8,0.7,1.4s0.1,1.3,0,2s-0.5,1.7-1,2.7
				C257.4,362.9,256.7,364,255.7,365.2z"/>
		</g>
	</g>
</g>
</svg>
