<?xml version="1.0" encoding="utf-8"?>
<!-- Generator: Adobe Illustrator 21.1.0, SVG Export Plug-In . SVG Version: 6.00 Build 0)  -->
<svg version="1.1" id="Calque_1" xmlns="http://www.w3.org/2000/svg" xmlns:xlink="http://www.w3.org/1999/xlink" x="0px" y="0px"
	 viewBox="0 0 432 432" style="enable-background:new 0 0 432 432;" xml:space="preserve">
<style type="text/css">
	.st0{fill:#CC9967;}
	.st1{fill:#E0809B;}
	.st2{fill:#E0A6B6;}
	.st3{fill:#1B1B1B;}
	.st4{fill:#343434;}
	.st5{fill:#53392D;}
	.st6{fill:#B27D63;}
	.st7{fill:#C285A2;}
	.st8{fill:#423128;}
	.st9{fill:#79594B;}
	.st10{fill:#676F74;}
	.st11{fill:#544842;}
	.st12{fill:#C7B29A;}
	.st13{fill:#E3BE46;}
	.st14{fill:#8B7F7F;}
	.st15{fill:#C2C1BB;}
	.st16{fill:#302926;}
	.st17{fill:#020203;}
</style>
<g>
	<path class="st4" d="M327.8,273.2c0.6-2.5,0.8-4,2.2-6.2c2.1-3.3,6.1-3.2,8.1,0.2c3,5.1-0.6,17.5-6.5,21.3c0.2,0.6,0.7,0.7,1,0.9
		c4.7,2.8,5.8,2.5,6.8,3.6c0.9,1-1.9,1.9-9.2-2.5c-1.8-1.1-3.4,2.7-13.6,1.3c-8.6-1.2-8.6-2.8-8.7-1c-0.8,13.7-1.8,61.4,10.5,67.9
		c3.7,1.9,9.2-31.6,9.8-35.4c0.4-2.5,0.1-3.4,1.8-3.8c0.7-0.2,1.7-0.2,1.8,0.6c0.1,1.2-3.4,27.8-8.1,36.8c-4.2,8-15.3,7-21.9-12
		c-3.2-9.2-3.7-17.5-4.3-23.8c-0.6,0.8-4.8,24.6-4.8,24.6c-1.1,6.2-2.9,10-8.9,10.1c-3.1,0-5.3-2.5-6.9-5.1
		c-7.5-12.5-1.8-41.3-2.5-50.3c-0.1-1.9-0.9-3.4-2.8-4.2c-0.6-0.3-1.2-0.7-1.9-0.8c-0.6,0.9,0.7,15.1-4,47.3
		c-0.6,4.4-1.6,10.2-4.1,13.4c-2.5,3.4-8.1,5.2-11,2.1c-8.1-8.4-5.3-30.6-5.6-31.2c-0.7,0.2-2.8,6.1-6.9,11c-3.1,3.6-9,4.3-12.3,0.9
		c-3.6-3.8-4.2-6.2-5.1-9.2c-0.9,0.5-3.4,11.4-7.9,18.2c-4.1,6.2-12.7,7.5-19,1.9c-6.1-5.5-7.3-9.9-8.7-14.5c-1.1,1-3,17.9-5.8,23.2
		c-1.4,2.7-4.3,4.3-7.3,4c-2.6-0.2-4.6-2.5-6.1-4.6c-4.7-6.4-7.9-13.3-9.5-21.1c-2.9-13.9-1.1-34.5-1.3-34.9
		c-0.5-0.1-3.6,1.8-7.5,3.7c-3.4,1.6,4.6,21.7-8.8,44.5c-13,22.1-42.1,24.2-46-2.5c-2.2-14.7,8.9-25.1,20-22.2
		c2.5,0.6,1.3-2.3,12.9-10.3c3.2-2.2,6.5-4.2,9.9-6c1.5-0.8,1.1-0.2,0.4-18.8c-1.2-35,3.8-47.3,3.6-48.1c-0.7-0.2-2.3,2.4-12.2,5.5
		c-6.4,2-19.4,5.7-19.2,18.9c0,2.3,0.9,4.4,2.7,6c1.3,1.2,2.3,1.3,3.8,0.4c2.4-1.4,5.2-5.3,6.6-7.4c1.1-1.8,1.5-2.3,3.2-1.8
		c6,1.8-1.8,16.3-12.9,11.7c-5.3-2.2-7.4-6-7-10.4c0.8-9.1,6.9-14.3,15.6-17.4c8.4-3,13-3.8,21-10.9c1.6-1.5,1.3-2.1,2.9-2
		c1.3,0.1,2.4,0.6,3.3,1.5c2.8,2.6-0.4,11.9-1.3,33.1c-0.6,13.4,0.5,33.4,0.7,33.7c0.4,0.1,0.7-0.2,1-0.3c7.8-4.2,7.9-3.9,8-5.5
		c0.3-4.2,0.9-8.3,1.5-12.4c1.9-12.3,4.7-29.4,14.6-36.9c4.3-3.2,10.7-1.6,13.2,3.2c4.9,9.2,1.6,28.6-18.1,43.1
		c-0.5,0.4-0.8,0.8-0.9,1.5c-1.9,18.9-1.3,47,5.6,60.9c0.5,1.1,1.1,2.2,2,3.2c0.6,0.7,0.8,0.7,1.4,0c2.3-2.7,2.8-6.8,8.7-34.7
		c0.4-2.1-0.9-23.6,9.9-26.1c9-2,16.6,6.5,14.5,15.3c-1.2,5.1-6.4,6.4-11.7,6.7c-2,0.1-2.5-0.2-2.5,0.9c0,8.7,2.4,21.7,8.7,27.7
		c1.7,1.6,2.3,1.8,4.3,0.2c4.4-3.5,7.3-14.1,13.1-30.1c0.8-2.3,0.3-9.1,5.5-16c5.9-7.8,16.7-5.9,23,1c0.6,0.6,0.7,1.2,1.7,0.9
		c2.7-0.9,6.6,0.1,6.6,3.4c0,8.4-4.8,24.1,0.1,44.5c0.1,0.6,0.3,1.2,0.6,1.8c5.2-2.3,8.3-53.1,8.3-60.3c0-1.7,0.1-1.4-1.4-1.9
		c-7.7-2.9-15.5-6.3-20.3-13.1c-5.2-7.3-5.2-15.6-2.2-21.2c2.4-4.4,6.2-6,11.3-4.4c10.2,3.2,14.2,18.7,15.4,29.5
		c0.9,8.4,0,8.6,1.5,9.1c11.5,3.6,13.7,5.7,13.7,13.9c0,11-2.1,21.7,0.2,35.5c0.2,1.1,1.1,7.7,2.2,9.4c1.7-1.8,2.3-6.9,10.3-46.7
		c0.5-2.4,0.3-8.9,1.1-18.2c0-0.6,0.1-1.1-0.6-1.3c-10.4-3.8-16.3-6.1-20.3-1.3c-0.4,0.5-1,0.4-1.5,0.3c-1.8-0.4-2-1.2-0.8-2.6
		c2-2.1,4.6-2.7,7.4-2.5c5,0.4,10.1,2.2,14.7,3.9c2.7,1,0.4,1.9,3.9-24.1c1.9-14.1,2.5-17.5,5.1-17c2.2,0.4,3.6,1.7,3.9,4
		c1,5.5-1.3,35.1-1.7,40.7c0,0.5,0,0.8,0.6,1c5.5,1.6,11,2.9,16.3,0.7c0.5-0.2,1-0.4,1.3-0.7c-0.1-0.4-0.4-0.5-0.6-0.7
		c-1.3-1.1-2.5-2.4-3.6-3.7c-2.2-2.5-4.4-7.6-2.8-10.6c1.5-2.8,5.1-2.2,7.3-0.6C326.9,272.8,327.2,273.1,327.8,273.2z M136.5,311.4
		c-6.6,3.6-13.6,8.4-19.5,15.2c-0.5,0.5,0.1,0.7,0.6,1.2c7.3,7.1,3.6,17.8-4.8,15.8c-3.9-0.9-4.4-6.8-3-10.8
		c1.4-4.2,3.1-4.7,1.9-5.2c-2.5-1.2-5-0.6-7.2,0.9c-18.7,12.6-1.5,49.1,19.1,32.3c9.3-7.6,11.7-18.5,12.7-30.6
		C136.4,327.6,137.2,312.8,136.5,311.4z M266,291.7c1-17.5-9.3-43-17.9-33.3c-5.7,6.4-6.4,23.7,14.5,32.1
		C263.7,290.9,264.8,291.4,266,291.7z M232.9,337c0.4,0.9,0.5,0.9,1.2,0.2c1.2-1.2,3.2-3,5.7-7.8c1.1-2.1,6.6-13,7.4-16.1
		c0.8-2.8-3.4-7.8-7.1-10c-1.3-0.8-1.4-0.7-2.5,0.2C228.5,311.4,229.3,329.9,232.9,337z M166.7,290.4c0.3,0.1,0.4,0,0.6-0.1
		c5.2-4.7,9.7-9.8,12.6-16.3c3.1-7,4.7-15.6,1.3-22.5c-0.8-1.7-0.8-1.9-2.5-0.4c-7.1,6.4-10.1,26-11.5,35.4
		C167,287.7,166.8,289,166.7,290.4z M194.1,318.4c0,1,0,1,1,1c4.2,0,8-1,9.1-5c0.9-3.5-0.3-8.8-4.1-11.6c-0.9-0.6-0.9-0.6-1.6,0.2
		c-1.1,1.4-1.8,2.9-2.4,4.5C194.9,310.9,194.2,315.1,194.1,318.4z M335.1,267.9c-1.2,0.5-2.4,3.6-2.8,5c-1,4.2-0.6,5-2.5,4.6
		c-2.7-0.6-2.5-1.9-4.2-3.5c-0.6-0.6-0.9-0.6-1.5,0c-1.3,1.4-1.1,3.5-0.6,5.3c0.8,2.5,2.3,4.5,4.2,6.3c0.9,0.8,0.8,0.8,1.7,0
		c3.6-3.4,6-8.7,6.2-15C335.7,269.8,335.6,268.9,335.1,267.9z M114.6,330.4c-2,2.9-2.8,8.3-0.5,11c0.5,0.6,0.6,0.6,1.1,0
		C118,338.6,116.7,333.2,114.6,330.4z"/>
	<g>
		<path class="st4" d="M229.9,196.9c-2-0.6-4.2,0.8-6,1c-1.7,0.2-1.5,0.2-2-4.7c-2.7-26.4-4.3-39.4-1.7-62.5
			c1.1-9.7,2.1-11.7-1.4-13.9c-1-0.6-2-0.9-3.2-1c-1.6-0.1-2.2,0.3-2.8,1.7c-1.1,2.8-0.5,3.3-2,5.5c-4.6,6.9-10.1,13-16.1,18.7
			c-1.3,1.2-0.9,1.2-2.2,0c-8.3-8.1-14.3-7.5-14.9-8.7c1.4-0.6,2.7-1.2,4-1.7c16.5-6.9,26.3-19.3,24.2-37.1
			c-1.2-10.3-6.1-18.6-14.6-24.5c-32.4-22.9-75.9,42.4-69,58.9c1.2,2.8,4.9,2.7,4.4,1.8c-0.9-1.5-0.6-3.2-0.4-4.8
			c2.4-20.3,20.8-44.9,41.6-53.7c27.9-11.8,37.3,22,22.8,41.7c-13.2,17.8-22.1,17.9-18.2,20.4c2,1.3,6.3,1,9.1,4
			c2.5,2.7,4.8,5.5,6.8,8.5c0.7,1,1.1,0.3-5,6.1c-8.1,7.6-16.4,16-19.8,26.2c-3.3,9.7,1.6,20.6,13.1,21.9
			c24,2.8,40.7-26.8,19.9-54.4c-0.8-1.1-0.9-0.8,0.3-1.9c4.4-4.3,8.8-8.6,12.7-13.3c0.2-0.2,0.3-0.5,0.6-0.5
			c0.5,0.8-5.5,33.7,3.7,62.9c0.5,1.6,1.2,3,2.2,4.4c1,1.4,2.3,2.2,4,2.2C225.4,200.3,232.7,197.7,229.9,196.9z M182.7,196.7
			c-7.7,4.4-18.7-4.9-15.9-16.2c1.5-5.9,5.4-11.7,9.4-16.3c4.7-5.4,13.7-13.7,14.4-14.1C199.2,165.4,197.7,188.1,182.7,196.7z"/>
		<path class="st4" d="M321.2,153.2c-2.2-2.5-4.9-4.1-8.1-4.8c-10.1-2.3-18.1,6.3-19,6.6c-0.6-0.3-7.1-10.4-7.4-18.5
			c-0.1-4,0.6-8.2,3.6-10.8c1.4-1.2,2.3-1.3,3.7,0c5.9,5.4,4.8,9.5,6.3,10.2c5.2,2.6,1.4-7.1-4-11.6c-6.4-5.3-15.8-5.1-18.3,4.5
			c-1.1,4.2-0.8,8.3,0.4,12.3c0.2,0.9,0.2,1.5-0.4,2.2c-11.7,13.8-10.4,13.1-11,12.9c-4.3-10.3-10.9-26.6-5.5-36.3
			c0.4-0.7,0.9-1.4,1.6-1.9c0.8-0.6,1.2-0.6,2,0.1c4.5,4.2,2.4,7.9,6,7.8c0.5,0,0.7-0.2,0.7-0.7c0-13.6-30.5-21.4-19.6,17.3
			c0.2,0.7,0.3,1.4,0.1,2.1c-5.7,22.1-6.7,28.8-10.6,32.5c-0.6,0.6-0.7,0.6-1.2-0.1c-3-3.1-6.7-14.2-7-25.1c0-0.8,0.5-0.5,1.5-0.6
			c4.2-0.2,8.1-1.9,8.7-6.2c0.9-7.6-5.4-12.8-12.2-11.2c-10.1,2.4-8.4,23.8-5.5,33.9c3.4,11.8,15.8,16.4,21.2,8.3
			c1.5-2.2,2.4-4.9,3-7.5c4.6-19.4,4.1-18.2,4.5-18.4c0.1,0.1,0.1,0.2,0.2,0.3c6,16,6,15,5.2,16.2c-6.3,9.9-10.6,22.2-4,31.9
			c2.2,3.2,4.9,4.3,8.7,3.4c16.2-3.6,10.7-25.6,4.3-40.9c-0.7-1.6-0.8-1,10.4-14.8c0.1-0.2,0.3-0.4,0.6-0.4c0.3,0.6,0.6,1.3,0.9,2
			c2.1,4.4,4.6,8.5,7.1,12.7c1.2,2.1-2.2,2.6-4.4,12c-2.5,10.5,1.6,19.5,6.1,23c6.2,4.7,15.7,2.2,17.4-6.5
			c2-10.3-4.7-21.3-10.5-30.1c-0.7-1-0.7-1,0.2-1.8c3.6-3.4,8.7-6.5,13.7-7c9-0.8,11.5,12.8,3.2,16.6c-3.1,1.4-7.4-3-4.2-8.5
			c0.2-0.3,0.3-0.6-0.1-0.8c-0.9-0.7-2.6-0.9-3.4,0.3c-2.2,3.4-1.4,7.7,2.5,9.9C318.7,173.4,327.9,160.7,321.2,153.2z M233.3,148.5
			c0.2-3.5,0.8-7,2.4-10.2c0.3-0.6,0.6-1.5,1.3-1.6c0.8-0.1,1.1,0.8,1.5,1.4c3,4.6,1.2,11.1-4.3,11.2
			C233.3,149.4,233.3,149.3,233.3,148.5z M266,195.3c-0.2,1.6-0.9,3-2,4.2c-0.7,0.7-0.9,0.7-1.8,0.3c-1.4-0.7-2.5-1.7-3.4-3
			c-7.2-10.5,2-26.2,2.7-26.4C262.2,170.5,267,188.7,266,195.3z M297.3,194.8c-0.5,0.7-0.6,0.7-1.4,0.5c-6.9-2.4-9.7-10.3-9.4-17.6
			c0.2-5.5,2.8-11.1,3.9-12.4c0.3,0.2,0.4,0.4,0.5,0.6C294.1,172,301.1,189.1,297.3,194.8z"/>
		<path class="st4" d="M163.2,114.9c-1.2-19.1,0-24.1-1.1-28.8c-0.6-2.7-2.5-4.4-5.3-4.6c-1.3-0.1-1.9,0.3-2.3,1.4
			c-1.2,3.1-1.2,15.8-1.1,19.4c0.4,39.4,3.6,44.1,1.6,62.3c-1.1,9.7-4.2,20.2-11.4,26.7c-14.3,12.9-28.9-19.1-16.9-26.5
			c0.7-0.4,1.4-0.6,2.2-0.3c2.6,1.1,5.9,5.2,4.8,8.7c-0.2,0.5-0.2,1.1-0.3,1.6c-0.3,1.6,0,2,1.6,2c0.7,0,1.9-0.1,2.1-0.8
			c0.7-1.7,1.3-3.5,1-5.4c-1.7-8.9-14.9-11.8-18.5-2.2c-2.8,7.3,0.3,17.1,5,22.4c10.3,11.7,32.2,5.3,37.8-24.8
			C165.4,150.5,163.4,117,163.2,114.9z"/>
	</g>
	<g>
		<path class="st4" d="M204.7,207.4c-1,0-2,0-2.8,0c-0.7,0-1.2,0.6-1.2,1.3c0,0.6,0.4,1.1,1,1.2l-7,17l-7.4-16.7
			c0.7,0,1.2-0.5,1.2-1.2c0-0.6-0.4-1.3-1.2-1.3c-2.9-0.1-5.9,0-8.8,0.1c-0.5,0-0.9,0.3-1.1,0.7c-0.2,0.4-0.2,1,0.1,1.3
			c0.2,0.4,0.6,0.5,1.1,0.5c0.5,0,0.9,0,1.4-0.1l8.8,20v14.9c-0.7,0-1.1,0.6-1.1,1.2c0,0.7,0.5,1.3,1.2,1.3c2.3,0,4.6,0.1,6.8,0.1
			c0.1,0,0.2,0,0.3,0c0.7,0,1.2-0.5,1.2-1.3c0-0.7-0.5-1.2-1.1-1.3v-14.9l8.4-20.4c0.1,0,0.2,0,0.3,0c0.7,0,1.2-0.5,1.3-1.2
			C206,208.1,205.5,207.5,204.7,207.4z"/>
		<path class="st4" d="M225.1,208.2c-5.5-2-11.5-0.2-14.4,4.3c-2.4,3.7-2.9,8.3-3.1,12.3c-0.3,6.3,0.3,11.4,1.9,15.4
			c1.9,4.8,6.1,7.6,11.2,7.6c0.8,0,1.6-0.1,2.4-0.2c10.3-1.7,10.5-15.4,10.5-20v0C233.4,220,232.3,210.9,225.1,208.2z M231,227.7
			c-0.1,8.1-1.6,13.3-4.4,15.7c-2.1,1.7-5.2,1.7-7.3-0.2c-3-2.6-4.4-7.7-4.4-15.5c0-7.7,1.4-12.7,4.3-15.4c1.1-1,2.4-1.5,3.8-1.5
			c1.4,0,2.7,0.5,3.8,1.5C230.4,215.7,230.9,222.3,231,227.7z"/>
		<path class="st4" d="M263.4,207.8c-1.2,0-2.5,0-3.8,0c-0.8,0-1.2,0.7-1.2,1.4c0,0.7,0.6,1.2,1.3,1.2c0.1,0,0.3,0,0.4,0
			c0,1.6,0,3.2,0.1,4.8c0.1,4.5,0.1,9.1-0.1,13.7c-0.2,4.5-0.5,10.1-3.5,13.6c-0.2,0.2-0.4,0.4-0.6,0.6c-2.2,2-5.5,2-7.7,0
			c-2.8-2.6-3.6-7-3.9-10.2c-0.6-5.7-0.5-11.7-0.4-17.4c0-1.7,0.1-3.4,0.1-5.1c0.3,0,0.6-0.1,0.9-0.4c0.3-0.4,0.4-1,0.2-1.4
			c-0.2-0.4-0.6-0.7-1.1-0.7c-2.5,0-5.1,0-7.7,0c-0.5,0-0.9,0.3-1,0.7c-0.2,0.4-0.1,1,0.3,1.4c0.3,0.3,0.7,0.5,1.2,0.5
			c0,1.8-0.1,3.7-0.1,5.5c-0.1,5.2-0.2,10.6,0.3,15.9c0.5,5,1.5,10.5,5.6,13.7c2,1.5,4.7,2.3,7.4,2.3c2.2,0,4.4-0.5,6.3-1.6
			c4.4-2.6,5.6-8.1,6.1-11.9c0.9-6.2,0.7-12.6,0.6-18.7c0-1.7-0.1-3.5-0.1-5.2c0.3,0,0.5,0,0.8,0c0.5,0,0.8-0.2,1.1-0.6
			c0.2-0.4,0.3-0.9,0-1.4C264.2,208.1,263.9,207.8,263.4,207.8z"/>
		<path class="st4" d="M289,245.3c-0.3-0.4-0.7-0.5-1.2-0.4c-0.4,0.1-0.8,0.1-1.2,0.2c-2-4.9-4.1-9.8-6.4-14.5
			c1.1-0.4,2-0.8,2.9-1.4c4.2-2.6,5.8-7.8,4.1-13.2c-3-9.2-13.9-8.5-19.7-8.2c-0.8,0-1.2,0.8-1.2,1.4c0,0.7,0.6,1.2,1.3,1.2l0.4,0
			l0.4,34.8c-0.3,0-0.6,0-0.8,0c-0.7,0-1.2,0.5-1.2,1.2c0,0.6,0.4,1.3,1.2,1.3c2.9,0.1,5.9,0,8.8-0.1c0.5,0,0.9-0.3,1.1-0.7
			c0.2-0.4,0.2-1-0.1-1.4c-0.2-0.4-0.6-0.5-1.1-0.5c-0.3,0-0.6,0-0.9,0l-0.2-13.5c0.9-0.1,1.8-0.2,2.7-0.3c2.3,4.6,4.4,9.4,6.3,14.1
			c-0.2,0-0.4,0-0.6,0c-0.5,0-0.8,0.2-1.1,0.6c-0.2,0.4-0.2,1,0,1.4c0.2,0.4,0.6,0.6,1,0.6c0,0,0,0,0,0c1.6,0,3.3-0.2,5-0.5
			c0.4-0.1,0.8-0.3,0.9-0.7C289.4,246.2,289.3,245.7,289,245.3z M281,227.4c-0.8,0.4-1.7,0.8-2.7,1c-0.1,0-0.3,0-0.3,0.1
			c-1,0.3-2,0.4-3,0.5l-0.3-18.7c4.9,0.4,7.9,2.1,9.5,5.3C286.5,220.2,285.1,225.3,281,227.4z"/>
	</g>
	<path class="st7" d="M155.5,213.3c1.1-2.5,4-3.4,6.2-1.7c1.4,1.1,2.4,2.7,3.1,4.5c1.2-2.1,3-3.8,5.1-4.5c3.4-1.2,6.1,2.5,5.9,5.6
		c-0.3,3.9-3.3,7.3-5.8,10c-2.4,2.6-5.2,5.2-8.4,7c-0.6,0.3-1.6,0.2-1.7-0.6c-0.8-3.6-2.4-7-3.6-10.5
		C155.4,220.1,154.3,216.3,155.5,213.3z"/>
	<path class="st7" d="M292.5,215.8c0.1-2.2,1.9-3.6,4-3c1.3,0.4,2.5,1.3,3.5,2.4c0.3-1.8,1.1-3.7,2.4-4.8c2.2-1.8,5.2,0.1,5.9,2.4
		c0.9,2.9-0.3,6.3-1.3,9c-1,2.6-2.3,5.3-4,7.5c-0.3,0.4-1.1,0.6-1.4,0.1c-1.6-2.4-3.8-4.4-5.6-6.6
		C294.3,220.8,292.4,218.4,292.5,215.8z"/>
	<g>
		<path class="st7" d="M210.2,272.2c-0.9-2-3.2-2.7-4.9-1.4c-1.1,0.8-1.9,2.2-2.4,3.6c-0.9-1.7-2.4-3.1-4.1-3.6
			c-2.7-0.9-4.9,2-4.7,4.5c0.2,3.1,2.7,5.8,4.6,8c1.9,2.1,4.2,4.1,6.7,5.6c0.5,0.3,1.2,0.1,1.4-0.4c0.6-2.9,2-5.6,2.8-8.4
			C210.3,277.7,211.3,274.7,210.2,272.2z"/>
		<path class="st7" d="M235.2,273.5c0.3-3.1-2.2-5.6-5.3-5.1c-2,0.3-3.9,1.4-5.6,2.9c0-2.7-0.9-5.5-2.6-7.4c-2.8-3-7.5-0.8-9,2.4
			c-1.8,4-0.7,9.2,0.4,13.3c1,4,2.4,8.1,4.6,11.6c0.4,0.7,1.5,1,2,0.4c2.8-3.2,6.3-5.7,9.3-8.6C231.6,280.4,234.8,277.3,235.2,273.5
			z"/>
	</g>
</g>
</svg>
