<?xml version="1.0" encoding="utf-8"?>
<!-- Generator: Adobe Illustrator 21.1.0, SVG Export Plug-In . SVG Version: 6.00 Build 0)  -->
<svg version="1.1" id="Calque_1" xmlns="http://www.w3.org/2000/svg" xmlns:xlink="http://www.w3.org/1999/xlink" x="0px" y="0px"
	 viewBox="0 0 432 432" style="enable-background:new 0 0 432 432;" xml:space="preserve">
<style type="text/css">
	.st0{fill:#343434;}
	.st1{fill:#ADCA60;}
	.st2{fill:#6EABC7;}
	.st3{fill:#EC6350;}
	.st4{fill:#EF8E81;}
	.st5{fill:#1B1B1B;}
	.st6{fill:#D2CE75;}
	.st7{fill:#F3C559;}
	.st8{fill:#AE5237;}
	.st9{fill:#73543B;}
	.st10{fill:#020203;}
	.st11{fill:#E4E0DF;}
	.st12{fill:#C1BB63;}
	.st13{fill:#F6D9D3;}
	.st14{fill:#EFAA9C;}
	.st15{fill:#F2C559;}
	.st16{fill:#303D46;}
	.st17{fill:#5A676E;}
	.st18{fill:#E46459;}
	.st19{fill:#A1263C;}
	.st20{fill:#483B3E;}
	.st21{fill:#DE9F84;}
	.st22{fill:#8B936E;}
	.st23{fill:#9A8E7C;}
	.st24{fill:#7E8D66;}
	.st25{fill:#D3C0AF;}
	.st26{fill:#6C2C3D;}
	.st27{fill:#A4BED3;}
	.st28{fill:#9FB187;}
	.st29{fill:#FAD5D2;}
	.st30{fill:#D7A2AE;}
	.st31{fill:#4E4D4D;}
	.st32{fill:#B84645;}
	.st33{fill:#756357;}
	.st34{fill:#9FAF88;}
	.st35{fill:#A08155;}
	.st36{fill:#EED0C6;}
	.st37{fill:#D4A77E;}
	.st38{fill:#CDC5BB;}
	.st39{fill:#9F4843;}
	.st40{fill:#D09F99;}
	.st41{fill-rule:evenodd;clip-rule:evenodd;fill:#A08155;}
	.st42{fill:#AE4759;}
	.st43{fill:#C9868F;}
	.st44{fill:#7F8D62;}
	.st45{fill:#D27F8E;}
	.st46{fill:#C69390;}
	.st47{fill:#9A9999;}
	.st48{fill:#B68368;}
	.st49{fill:#6D1F1F;}
	.st50{fill:#D2B6B4;}
	.st51{fill:#A7909E;}
	.st52{fill:#F8BD93;}
	.st53{fill:#397D59;}
	.st54{fill:#C4CEB3;}
	.st55{fill:#93A477;}
	.st56{fill:#D18B2E;}
	.st57{fill:#3C3C3B;}
	.st58{fill:#575756;}
	.st59{fill:#E6007E;}
	.st60{fill:none;}
	.st61{fill:#F9B233;}
	.st62{fill:#85CBCA;}
	.st63{fill:#E99F2B;}
	.st64{fill-rule:evenodd;clip-rule:evenodd;fill:#F9B233;}
	.st65{fill:#D60B52;}
	.st66{fill:#F4DCB5;}
	.st67{fill:#E58096;}
	.st68{fill:#E94865;}
	.st69{fill:#C21F4A;}
	.st70{fill:#C6C6C6;}
	.st71{fill:#DAA8CE;}
	.st72{fill:#F59F61;}
	.st73{fill:#E9E4AC;}
	.st74{fill:#E8375E;}
	.st75{fill:#833B12;}
	.st76{fill:#BB5D1C;}
	.st77{fill:#D17A3F;}
	.st78{fill:#DE184E;}
	.st79{fill:#D98892;}
	.st80{fill:#45553F;}
	.st81{fill:#517861;}
	.st82{fill:#A63070;}
	.st83{fill:#932065;}
	.st84{fill:#598967;}
	.st85{fill:#679275;}
	.st86{fill:#9A9A9A;}
	.st87{fill:#D8A49D;}
	.st88{fill:#D48A57;}
	.st89{fill:#E8BB98;}
	.st90{fill:#BA6F68;}
	.st91{fill:#924642;}
	.st92{fill:#E8C5AF;}
	.st93{fill:#D1906C;}
	.st94{fill:#C47C5C;}
	.st95{fill:#A2AD74;}
	.st96{fill:#F4EBD8;}
	.st97{fill:#C8A464;}
	.st98{fill:#F4A3A3;}
	.st99{fill:#F4CA71;}
	.st100{fill:#18223C;}
	.st101{fill:#E5B642;}
	.st102{fill:#224422;}
	.st103{fill:#245727;}
	.st104{fill:#386C38;}
	.st105{fill:#C54923;}
	.st106{fill:#264239;}
	.st107{fill:#C1292E;}
	.st108{fill:#D39812;}
	.st109{fill:#A67D52;}
	.st110{fill:#715640;}
	.st111{fill:#AB4B58;}
	.st112{fill:#67482E;}
	.st113{fill:#E7E6E6;}
	.st114{fill:#3C5259;}
	.st115{fill:#544842;}
	.st116{fill:#7DAD91;}
	.st117{fill:#5D9373;}
	.st118{fill-rule:evenodd;clip-rule:evenodd;fill:#C57B39;}
	.st119{fill:#C57B39;}
	.st120{fill:#B4DEF0;}
	.st121{fill:#923951;}
</style>
<g>
	<g>
		<path d="M355.9,202.7c-2.6-4.8-6.4-8.4-10.2-12.1c-1.2,1.6-2.4,3.1-3.6,4.7c-3.2,4.1-6.3,8.1-9.6,12.1c-1.5,1.9-3.2,3.6-4.9,5.3
			c-0.7,0.7-1,1.5-1.2,2.4c-1.4,6.4-2.8,12.9-4.4,19.3c-1.2,4.7-2.5,9.4-4.4,14c-1.8,4.3-4.2,8.3-7.8,11.4c-2.8,2.4-5.9,3.8-9.6,4.3
			c-2.6,0.3-4.9-0.3-7.1-1.6c-2.2-1.3-3.4-3.4-4.1-5.7c-0.9-2.8-0.4-5.5,0.6-8.2c1.3-3.4,3.3-6.3,5.6-9c2.9-3.3,6.1-6.3,9.4-9.3
			c1.9-1.8,3.8-3.5,5.8-5.2c0.5-0.5,0.8-1,0.9-1.7c1.7-8,3.4-16,5.1-24.1c0.3-1.4,0.6-2.8,0.7-4.3c-0.2,0.4-0.4,0.7-0.5,1.1
			c-2.2,4.2-4.3,8.5-6.6,12.7c-1.7,3-3.8,5.7-6.4,8c-1.8,1.6-3.8,2.8-6.2,3.3c-1.9,0.4-3.7,0.2-5.5-0.7c-3.3-1.6-5.4-4.3-6.6-7.7
			c-0.2-0.5-0.3-0.9-0.5-1.6c-0.2,0.5-0.3,0.7-0.4,1c-1.2,3.4-2.2,6.7-3.5,10c-0.7,1.8-1.8,3.5-2.7,5.3c-0.4,0.8-1,1.4-1.6,2.1
			c-2.2,2.5-5.4,3-8.3,1.4c-1.5-0.8-2.7-2-3.8-3.3c-2.1-2.6-3.1-5.6-3.9-8.8c-1.1-4.6-1.5-9.2-1.4-13.9c0-0.3,0-0.6-0.2-1
			c-0.1,0.3-0.3,0.7-0.4,1c-1.1,2.6-2.2,5.1-3.7,7.5c-1,1.5-2.1,2.8-3.4,4c-1.4,1.1-3,2-4.8,2.2c-1.3,0.1-2.6-0.1-3.8-0.7
			c-2-0.9-3.5-2.4-4.9-4c-2.5-3-3.8-6.6-4.5-10.4c-1.1-5.8-0.2-11.4,1.5-16.9c0.1-0.5,0.3-0.9,0.4-1.5c-4,0.6-7-1.2-9.8-3.7
			c0,0.5-0.1,0.8-0.1,1.1c0.2,3.8,0.4,7.5,0.7,11.3c0.4,6.3,0.8,12.6,0.6,18.9c-0.1,4.8-0.4,9.6-1.6,14.3c-0.6,2.3-1.5,4.5-2.9,6.4
			c-0.4,0.5-0.8,0.9-1.2,1.4c-2.2,2.1-4.8,2.5-7.6,1.4c-2.3-0.9-4-2.5-5.5-4.4c-2.1-2.5-3.4-5.4-4.4-8.5c-1.6-4.9-2.5-10-2.8-15.2
			c-0.2-4.1-0.3-8.2-0.5-12.2c0-0.2,0-0.3-0.2-0.5c-0.1,0.3-0.3,0.7-0.4,1c-0.8,2.5-1.5,5-2.3,7.4c-0.9,2.7-1.9,5.4-3,8
			c-0.6,1.4-1.4,2.6-2.3,3.8c-1.8,2.2-4.1,2.7-6.7,1.5c-1.5-0.7-2.7-1.8-3.8-3.1c-1.9-2.3-2.9-5.1-3.4-8c-0.3-1.8-0.6-3.6-1.1-5.5
			c-0.2,0.4-0.3,0.8-0.5,1.3c-1.7,4.6-3.4,9.2-5.1,13.7c-1,2.6-2.1,5.1-3.7,7.5c-0.5,0.8-1.1,1.6-1.7,2.3c-1.7,1.8-3.8,2.2-6.1,1.4
			c-1.6-0.6-2.9-1.7-4-3c-1.7-2-2.9-4.2-3.7-6.7c-0.4-1.3-0.8-2.7-1.2-4.1c-0.1-0.3-0.2-0.6-0.3-1c-0.4,0.8-0.7,1.4-1,2.1
			c-1.6,3.6-3.5,7.1-5.6,10.3c-1.5,2.2-3.1,4.4-5.2,6c-1.9,1.5-4,2.7-6.4,3.1c-2.3,0.4-4.5,0.1-6.7-0.4c-4.3-1.2-7.7-3.8-10.5-7.2
			c-3.3-4-5.5-8.6-7.1-13.5c-2.5-7.7-4.4-15.5-5.3-23.6c-0.3-2.5-0.5-4.9-0.7-7.6c-2.2-0.8-4.5-1.7-6.9-2.6
			c-0.2,0.5-0.3,0.8-0.4,1.2c-2.7,8.5-5.6,17-9.2,25.1c-1.9,4.4-4.1,8.6-6.8,12.6c-1.8,2.5-3.8,4.9-6.3,6.8c-1.9,1.5-4,2.5-6.4,2.8
			c-3.5,0.4-6.4-0.8-8.6-3.5c-2.4-3-3.3-6.5-3.2-10.3c0.2-5.9,2.5-11,6.8-15.2c2.3-2.2,5-3.8,8.1-4.6c1.4-0.4,2.9-0.4,4.3,0.1
			c1.2,0.5,2,1.6,1.9,2.8c0,0.6-0.2,1-0.8,1.3c-0.6,0.2-0.9-0.1-1.3-0.4c-1-1.1-1.5-1.1-2.7-0.2c-1,0.7-1.7,1.6-2.3,2.7
			c-1.6,3.1-2.8,6.4-3.2,9.8c-0.2,1.8-0.3,3.6-0.4,5.5c-0.1,1.6,0.6,3,1.6,4.1c1.1,1.2,2.1,1.4,3.6,0.6c2-1.1,3.6-2.7,4.9-4.6
			c2-2.9,3.6-6.1,5.2-9.3c3.9-7.9,7.1-16.1,10.1-24.3c0.5-1.3,0.9-2.6,1.4-4c-0.6-0.2-1.2-0.4-1.7-0.5c-4.1-0.8-8.2-0.7-12.2,0.4
			c-0.8,0.2-1.6,0.6-2.3,0.9c-0.3,0.1-0.6,0.3-0.9,0.4c-0.4,0.1-0.8,0-1.1-0.4c-0.3-0.4-0.3-0.8,0-1.2c0.6-0.7,1.2-1.4,2-1.9
			c1.9-1.3,4-1.8,6.2-2.2c3.6-0.7,7.1-0.6,10.7,0.1c0.3,0.1,0.5,0.1,0.8,0.1c0.1-0.3,0.3-0.6,0.4-0.8c4.5-13.4,8.6-27,12.1-40.8
			c0.2-0.8,0.4-1.7,0.6-2.6c0.1-0.4,0.2-0.9,0.4-1.3c0.6-1.4,2-1.8,3.4-1.1c0.9,0.4,1.4,1.2,1.9,2.1c0.9,1.7,1.2,3.6,1.6,5.5
			c1,5.3,1.3,10.7,1.6,16c0.3,4.8,0.7,9.5,1.1,14.3c0.3,3.8,0.6,7.5,1,11.3c0.1,1.5,0.3,3,0.5,4.6c1.4,0.3,2.8,0.5,4.2,0.8
			c4.5,0.8,9,0.5,13.4-0.3c1-0.2,2.1-0.2,3.2-0.1c0.8,0,1.3,0.5,1.5,1.2c0.1,0.7-0.1,1.4-0.8,1.7c-1.1,0.5-2.2,0.9-3.3,1.1
			c-2.9,0.6-5.8,1.2-8.7,1.3c-2.1,0.1-4.3-0.1-6.4-0.2c-0.7,0-1.4-0.2-2.3-0.3c0.1,0.6,0.1,1.2,0.2,1.8c1,7.1,2.1,14.3,3.7,21.3
			c1,4.3,2.3,8.5,4.1,12.6c0.8,1.7,1.6,3.4,2.9,4.8c2.1,2.3,3.8,2.6,6.6,1.3c1.6-0.8,2.9-1.9,4.1-3.2c2.8-3,4.9-6.4,6.8-10
			c1-2,2-4,3-6c0.3-0.6,0.4-1.2,0.3-2c-0.9-5.7-1.4-11.5-1.6-17.3c-0.3-7-0.2-14,0-21c0.5-11.1,1.6-22.2,4.1-33
			c1.1-4.9,2.5-9.8,4.6-14.4c1.4-3.1,3.2-6,5.5-8.5c1.2-1.3,2.5-2.3,4.1-3c2.9-1.3,5.9-0.7,7.9,1.7c0.9,1,1.6,2.3,2.1,3.5
			c1,2.1,1.5,4.5,1.8,6.8c0.6,4,0.6,8,0.4,12c-0.3,6.8-1.5,13.6-3.3,20.2c-2.8,10.4-6.8,20.3-11.6,29.9c-0.4,0.7-0.5,1.4-0.5,2.2
			c0,5.6,0.1,11.2,0.6,16.7c0.4,5.1,1,10.1,1.6,15.1c0,0.4,0.2,0.9,0.3,1.6c0.4-0.6,0.8-1.1,1.1-1.5c1.6-2.5,2.7-5.2,3.8-7.9
			c1.8-4.6,3.5-9.2,5.2-13.8c0.2-0.4,0.1-1,0-1.4c-0.6-3.2-0.8-6.4-0.3-9.7c0.3-1.9,0.9-3.7,1.8-5.4c0.4-0.7,0.9-1.4,1.5-2
			c1.6-1.6,3.6-1.8,5.5-0.4c1.1,0.8,1.8,1.8,2.4,3c0.9,2,1.4,4,1.6,6.2c0.2,2.8,0.3,5.6,0.5,8.3c0.3,4.3,0.6,8.7,1.5,12.9
			c0.1,0.7,0.4,1.3,0.7,2.2c0.5-0.6,0.9-0.9,1.2-1.3c1.6-2.4,2.7-5.1,3.7-7.9c1.1-3.2,2.3-6.3,3.4-9.5c0.2-0.6,0.3-1.2,0.4-1.9
			c0.2-2,0.3-4.1,0.6-6.2c0.2-1.3,0.7-2.6,1.5-3.7c1-1.4,2.6-1.9,4.3-1.3c1.7,0.6,2.8,1.8,3.5,3.4c0.7,1.6,1,3.3,1.2,5
			c0.6,4.8,1.2,9.5,1.8,14.3c0.4,3.2,0.6,6.4,1,9.6c0.6,5,1.5,10,3.7,14.6c0.5,1,1.2,1.9,1.8,2.9c0.2,0.3,0.6,0.5,1,0.9
			c0.3-0.5,0.5-1,0.7-1.4c0.9-2.2,1.3-4.6,1.7-7c0.8-6.4,0.7-12.8,0.6-19.2c-0.1-4.2-0.3-8.5-0.4-12.7c-0.1-4-0.3-7.9-0.4-11.9
			c0-0.8,0-1.5,0.1-2.3c0-0.7,0.4-1.3,1.1-1.5c0.7-0.2,1.4,0,1.9,0.8c0.6,0.9,1.1,1.9,1.6,2.8c0.8,1.4,1.7,2.6,2.9,3.7
			c2.1,1.8,4.4,2.3,7,1.5c0.5-0.2,0.7-0.5,0.9-0.9c1.3-2.3,2.7-4.5,4.5-6.5c1.9-2,4.1-3.6,6.9-4.4c4.2-1.3,8.5,0.9,10.2,5.2
			c0.2,0.6,0.6,1.3-0.1,1.8c-0.6,0.5-1.2,0.1-1.8-0.2c-0.6-0.3-1.1-0.7-1.7-1c-0.9-0.5-1.8-0.4-2.6,0.1c-0.6,0.4-1.1,0.8-1.5,1.4
			c-0.7,0.9-1.3,1.8-1.8,2.8c-3.3,6.3-4.9,13.1-4.7,20.3c0.1,2.8,0.3,5.6,1.3,8.3c0.4,1.1,0.9,2.3,1.6,3.3c0.9,1.4,1.6,1.5,3,0.5
			c1.2-0.8,2-1.9,2.7-3c1.7-2.9,3.3-5.9,4.4-9c0.6-1.5,0.7-3.1,0.9-4.7c0.5-3.5,0.9-7,1.4-10.5c0.3-2,0.8-4,1.4-5.9
			c0.4-1.6,1.2-3,2.3-4.1c1.7-1.7,4.1-2.2,6.1-1.1c1,0.6,1.8,1.4,2.3,2.5c0.8,1.5,1.2,3.1,1.4,4.7c0.3,2.7,0.3,5.3,0,8
			c-0.3,4-0.7,7.9-1.1,11.9c-0.4,4.3-0.8,8.5-1,12.8c-0.1,2.3-0.1,4.7,0,7c0.1,1.5,0.4,2.9,0.7,4.4c0.1,0.7,0.5,1.4,1.3,1.9
			c0.5-0.4,1-0.9,1.4-1.4c1.8-2.1,3.1-4.6,4.1-7.1c1.6-4.2,3-8.5,4.5-12.7c0.1-0.3,0.2-0.6,0.2-0.9c-0.1-3.1,0.3-6.1,0.7-9.1
			c0.6-4.1,1.3-8.1,2.5-12.1c0.6-1.9,1.3-3.8,2.3-5.5c0.6-1.1,1.5-2.1,2.6-2.9c2.4-1.6,5.1-1.1,6.9,1.2c0.8,1.1,1.3,2.3,1.5,3.7
			c0.4,2.3,0.4,4.6,0.2,7c-0.6,5.4-1.4,10.7-2.1,16.1c-0.4,3.3-0.5,6.5,0.1,9.8c0.1,0.4,0.1,0.8,0.3,1.1c0.4,0.9,1.2,1.3,2.1,1.1
			c0.9-0.2,1.7-0.5,2.5-1.1c1.8-1.5,3.3-3.3,4.6-5.2c4-6,7-12.5,10.1-19c0.3-0.7,0.5-1.6,0.7-2.4c0.6-2.7,1-5.5,1.6-8.2
			c0.4-1.8,1-3.6,2-5.2c0.5-0.7,1-1.5,1.6-2.1c1.3-1.4,3.2-1.6,4.8-0.6c1.1,0.7,1.8,1.7,2.3,2.9c0.7,1.7,0.9,3.5,1,5.4
			c0.1,3.6-0.3,7.2-0.8,10.8c-0.8,5.1-1.6,10.2-2.5,15.4c-0.1,0.7-0.3,1.4-0.3,2.2c5.4-5.6,10.3-11.7,15.2-17.8
			c-0.4-0.4-0.8-0.8-1.2-1.2c-2.5-2.8-4.7-5.8-6.1-9.4c-2.9-7.7,0.9-15,4.9-18.3c2.6-2.1,5.5-3.1,8.8-2.8c3.4,0.3,5.6,2.2,6.8,5.3
			c0.9,2.3,0.9,4.7,0.6,7.1c-0.6,4.7-2.3,9.1-5,13c-0.1,0.2-0.2,0.3-0.4,0.6c0.4,0.3,0.8,0.7,1.2,1c3,2.6,6.2,5.1,8.9,8.1
			c1,1.1,1.9,2.2,2.8,3.4c0.5-0.5,1-0.9,1.5-1.4c2.2-2.2,4.3-4.4,6.5-6.7c0.4-0.4,0.8-0.8,1.3-1.2c0.4-0.3,0.8-0.6,1.3-0.8
			c1.3-0.5,2.5,0.3,2.5,1.7c0,1.1-0.5,2-1.2,2.8c-0.9,1.1-1.8,2.1-2.8,3c-2,2.1-4.1,4.1-6.4,5.9c-0.1,0.1-0.3,0.2-0.5,0.4
			c0.1,0.3,0.2,0.7,0.4,1c1.9,4.5,2.9,9.2,2.6,14.2c-0.3,4-0.9,8-3.1,11.6c-2.9,4.5-6.8,7.6-12,9c-4.5,1.2-8.8,0.7-12.7-1.9
			c-3.2-2.1-4.7-5.1-4.9-8.9c-0.1-4.1,1.4-7.7,4.1-10.7c1.2-1.3,2.5-2.5,4-3.6c2.4-1.9,5-3.7,7.7-5.2
			C354.1,204.1,355,203.4,355.9,202.7z M163.1,177.2c0.1,0,0.1,0,0.2,0c0.1-0.1,0.2-0.3,0.2-0.4c4.4-9.7,8-19.6,10-30.1
			c0.9-4.8,1.5-9.6,1.6-14.4c0-2.1,0-4.2-0.2-6.3c-0.2-3-0.6-6-1.6-8.9c-0.3-0.8-0.6-1.5-1-2.2c-0.4-0.7-0.7-0.8-1.3-0.3
			c-0.4,0.3-0.9,0.8-1.1,1.3c-0.5,1.1-0.9,2.3-1.3,3.5c-1.7,5.9-2.8,11.9-3.4,18c-0.7,6.8-1.1,13.5-1.6,20.3
			c-0.3,5.6-0.5,11.3-0.7,16.9C163.1,175.5,163.1,176.4,163.1,177.2z M357.4,205.9c-1.1,0.8-2.1,1.4-3,2.1c-2,1.5-3.9,2.9-5.8,4.4
			c-1.7,1.4-3.3,3.1-4.4,5.1c-0.6,1.1-1.1,2.2-1.2,3.4c-0.6,4.9,3.9,7.1,7.2,5.9c3.4-1.2,5.9-3.3,7.4-6.6
			C359.6,215.5,359.1,210.8,357.4,205.9z M309.5,230.8c-0.1,0-0.2-0.1-0.3-0.1c-0.3,0.4-0.7,0.7-1,1.1c-1.7,1.7-3.3,3.5-5,5.2
			c-2.9,2.9-5.8,5.9-8.3,9.1c-1.4,1.9-2.4,4-3,6.3c-0.4,1.8,0,3.5,1.2,4.9c1,1.2,2.4,1.5,3.8,1c0.8-0.3,1.6-0.7,2.3-1.2
			c0.8-0.6,1.4-1.4,2-2.2c1.9-2.4,3-5.2,4-8.1c1.5-4.2,2.4-8.6,3.5-12.9C309,232.9,309.2,231.9,309.5,230.8z M350.1,180.9
			c0.2-0.1,0.3-0.2,0.3-0.2c3.1-4.3,4.5-9,4.4-14.3c0-1.2-0.3-2.3-0.9-3.4c-0.8-1.6-2.3-2.4-4-2.3c-1.9,0.1-3.6,0.9-4.7,2.5
			c-1.9,2.8-2.6,5.8-1.3,9.1C345.4,175.6,347.7,178.3,350.1,180.9z M101.6,174.9c-0.1-6.6,0.2-13-0.4-19.5
			c-1.7,5.9-3.4,11.8-5.1,17.8C98,173.8,99.7,174.3,101.6,174.9z"/>
	</g>
	<g>
		<g>
			<g>
				<g>
					<g>
						<g>
							<path class="st62" d="M170.5,291.3c-2.2-4.8-3-15.5-5-15.1c-1.9,0.4-3.9,0.9-5.8,1.4c-15.4,4-31,7-46.8,8.6
								c-6.6,0.7-13.3,0.9-19.9,1.1c-6.9,0.2-13.9-0.1-20.9-1.1c0.3,0.3,0.3,0.5,0.5,0.7c5.4,4.2,10.9,8.1,17.4,10.4
								c2,0.7,4,1.5,5.8,2.5c2.6,1.4,2.9,3.9,0.9,5.9c-0.9,0.9-2,1.7-3.1,2.4c-6.4,4.4-12.8,8.7-19.2,13.1c-1.2,0.8-2.4,1.8-3.5,2.7
								c0.1,0.2,0.1,0.4,0.2,0.6c0.9,0,1.8,0,2.6,0c4.1-0.2,8.2-0.2,12.3-0.6c4.5-0.4,9-0.9,13.5-1.5c5.4-0.7,10.9-1.4,16.3-2.2
								c5.7-0.8,11.4-1.5,17-2.8c6.5-1.4,13-3.3,19.4-5.2c8.1-2.3,16.1-4.9,23.8-8.3c0.8-0.3,2.1-1.1,3-1.5
								C174.8,299.1,172.7,296.1,170.5,291.3z"/>
							<path class="st62" d="M355.6,301.8c-6.6,0.1-13.2,0.3-19.7,0.5c-1.2,0-2.5,0.1-3.7-0.1c-2.4-0.3-3.6-3.1-2-4.9
								c0.4-0.4,0.8-0.7,1.2-1.1c2.5-2.2,5-4.4,7.5-6.7c0.9-0.8,1.7-1.8,2.5-2.7c-0.5-0.2-0.8-0.1-1.1,0c-9,3.3-18.5,4.2-28,4.2
								c-6.1,0-12.2-0.4-18.2-1.4c-2.7-0.5-5.4-1-8-1.6c-6.3-1.5-8.6-2.3-10-2.6c-0.7-0.1-1.4,0.3-1.5,1c-1.4,7.6-4,14.7-9.6,20.6
								c-0.4,0.4-0.2,1.1,0.3,1.2c3.7,1.3,7.2,2.4,10.7,3.6c8.9,3,18,4.8,27.3,5.2c2.1,0.1,4.2,0,6.3,0c5.1,0.2,10.3,0.2,15.3-0.6
								c12.1-1.7,23.6-5,34.2-10.8c1.9-1,3.7-2.1,5.5-3.2c-0.1-0.3-0.1-0.2-0.1-0.5C361.5,302,358.5,301.7,355.6,301.8z"/>
						</g>
					</g>
				</g>
				<path class="st62" d="M261.6,280.9c0.6,0.2,1,0.9,0.9,1.5c-0.6,3.3-1.5,8.8-7.5,16.8c-0.2,0.3-0.5,0.6-0.8,0.9
					c-2.6,2.9-2.7,2.9-6.5,1.7c-5-1.5-11.4-3.7-18.7-5.4c-1.9-0.4-3.9-0.8-6-1.2c-2.7-0.5-5.5-0.8-8.4-0.9c-1.9-0.1-3.9-0.2-5.9-0.1
					c-4.8,0.1-9.6,1.2-14.6,2.3c-7.7,1.8-15.8-12.9-15.8-21.3c0-2.1,15.2-6.7,29.4-6c1.8,0.1,3.6,0.2,5.4,0.4c3.8,0.4,7.8,1,11.5,2
					c2.3,0.6,4.5,1.1,6.8,1.7c1.8,0.4,3.5,0.9,5.2,1.3c8.1,2,16.2,4,24.2,6.1C261.2,280.8,261.4,280.8,261.6,280.9z"/>
			</g>
			<g>
				<path class="st63" d="M239,247.4c-14.3,0-26.6,9.1-31.2,21.9c1.8,0.1,3.6,0.2,5.4,0.4c4.3-10,14.2-17.1,25.8-17.1
					c15.4,0,28,12.5,28,28c0,15.4-12.5,28-28,28c-10.4,0-19.5-5.7-24.3-14.1c-1.9-0.1-3.9-0.2-5.9-0.1c5.2,11.5,16.8,19.4,30.2,19.4
					c18.3,0,33.1-14.9,33.1-33.1C272.1,262.3,257.3,247.4,239,247.4z"/>
				<g>
					<path class="st61" d="M203.6,247.4c14.8,0,26.9,11.5,27.9,26c1.8,0.4,3.5,0.9,5.2,1.3c-0.3-18-15.1-32.5-33.1-32.5
						c-18.3,0-33.1,14.9-33.1,33.1c0,18.3,14.9,33.1,33.1,33.1c10.2,0,19.4-4.7,25.5-12c-1.9-0.4-3.9-0.8-6-1.2
						c-5,4.9-11.9,8-19.5,8c-15.4,0-28-12.5-28-28C175.6,259.9,188.2,247.4,203.6,247.4z"/>
				</g>
			</g>
		</g>
		<g>
			<path class="st64" d="M97.7,266.4c1.3-3.8,3.3-7.5,6.5-10c1.5-1.3,3.3-2.2,5.1-3c1.7-0.7,4.5-0.4,4.7-2.7c0-0.1,0-0.1,0-0.2
				c0,0,0-0.1,0-0.2c-0.2-2.3-3-2-4.7-2.7c-1.9-0.7-3.6-1.7-5.1-3c-3.2-2.6-5.2-6.2-6.5-10c-1.2-3.5-4.1-1-4.5,1.2
				c-1.3,6.5-5,10.3-11.4,11.7c-1.5,0.3-3.5,0.8-3.5,2.8c0,0,0,0,0,0c0,0,0,0,0,0c0,2,2,2.5,3.5,2.8c6.4,1.4,10.1,5.2,11.4,11.7
				C93.6,267.4,96.5,270,97.7,266.4z"/>
			<path class="st64" d="M356,281.4c1-2.9,2.6-5.7,5-7.7c1.2-1,2.5-1.7,3.9-2.3c1.3-0.5,3.4-0.3,3.6-2c0,0,0-0.1,0-0.1
				c0,0,0-0.1,0-0.1c-0.2-1.7-2.3-1.5-3.6-2c-1.4-0.5-2.8-1.3-3.9-2.3c-2.4-2-4-4.8-5-7.7c-0.9-2.7-3.1-0.8-3.5,1
				c-1,5-3.9,7.9-8.8,9c-1.2,0.3-2.7,0.6-2.7,2.2c0,0,0,0,0,0c0,0,0,0,0,0c0,1.6,1.5,1.9,2.7,2.2c4.9,1.1,7.8,4,8.8,9
				C352.9,282.2,355.1,284.1,356,281.4z"/>
			<path class="st64" d="M202.1,159.3c1-2.9,2.6-5.7,5-7.7c1.2-1,2.5-1.7,3.9-2.3c1.3-0.5,3.4-0.3,3.6-2c0,0,0-0.1,0-0.1
				c0,0,0-0.1,0-0.1c-0.2-1.7-2.3-1.5-3.6-2c-1.4-0.5-2.8-1.3-3.9-2.3c-2.4-2-4-4.8-5-7.7c-0.9-2.7-3.1-0.8-3.5,1
				c-1,5-3.9,7.9-8.8,9c-1.2,0.3-2.7,0.6-2.7,2.2c0,0,0,0,0,0c0,0,0,0,0,0c0,1.6,1.5,1.9,2.7,2.2c4.9,1.1,7.8,4,8.8,9
				C199,160.1,201.2,162,202.1,159.3z"/>
		</g>
	</g>
</g>
</svg>
