<?xml version="1.0" encoding="utf-8"?>
<!-- Generator: Adobe Illustrator 21.1.0, SVG Export Plug-In . SVG Version: 6.00 Build 0)  -->
<svg version="1.1" id="Calque_1" xmlns="http://www.w3.org/2000/svg" xmlns:xlink="http://www.w3.org/1999/xlink" x="0px" y="0px"
	 viewBox="0 0 432 432" style="enable-background:new 0 0 432 432;" xml:space="preserve">
<style type="text/css">
	.st0{fill:#343434;}
	.st1{fill:#ADCA60;}
	.st2{fill:#6EABC7;}
	.st3{fill:#EC6350;}
	.st4{fill:#EF8E81;}
	.st5{fill:#1B1B1B;}
	.st6{fill:#D2CE75;}
	.st7{fill:#F3C559;}
	.st8{fill:#AE5237;}
	.st9{fill:#73543B;}
	.st10{fill:#020203;}
	.st11{fill:#E4E0DF;}
	.st12{fill:#C1BB63;}
	.st13{fill:#F6D9D3;}
	.st14{fill:#EFAA9C;}
	.st15{fill:#F2C559;}
	.st16{fill:#303D46;}
	.st17{fill:#5A676E;}
	.st18{fill:#E46459;}
	.st19{fill:#A1263C;}
	.st20{fill:#483B3E;}
	.st21{fill:#DE9F84;}
	.st22{fill:#8B936E;}
	.st23{fill:#9A8E7C;}
	.st24{fill:#7E8D66;}
	.st25{fill:#D3C0AF;}
	.st26{fill:#6C2C3D;}
	.st27{fill:#A4BED3;}
	.st28{fill:#9FB187;}
	.st29{fill:#FAD5D2;}
	.st30{fill:#D7A2AE;}
	.st31{fill:#4E4D4D;}
	.st32{fill:#B84645;}
	.st33{fill:#756357;}
	.st34{fill:#9FAF88;}
	.st35{fill:#A08155;}
	.st36{fill:#EED0C6;}
	.st37{fill:#D4A77E;}
	.st38{fill:#CDC5BB;}
	.st39{fill:#9F4843;}
	.st40{fill:#D09F99;}
	.st41{fill-rule:evenodd;clip-rule:evenodd;fill:#A08155;}
	.st42{fill:#AE4759;}
	.st43{fill:#C9868F;}
	.st44{fill:#7F8D62;}
	.st45{fill:#D27F8E;}
	.st46{fill:#C69390;}
	.st47{fill:#9A9999;}
	.st48{fill:#B68368;}
	.st49{fill:#6D1F1F;}
	.st50{fill:#D2B6B4;}
	.st51{fill:#A7909E;}
	.st52{fill:#F8BD93;}
	.st53{fill:#397D59;}
	.st54{fill:#C4CEB3;}
	.st55{fill:#93A477;}
	.st56{fill:#D18B2E;}
	.st57{fill:#3C3C3B;}
	.st58{fill:#575756;}
	.st59{fill:#E6007E;}
	.st60{fill:none;}
	.st61{fill:#F9B233;}
	.st62{fill:#85CBCA;}
	.st63{fill:#E99F2B;}
	.st64{fill-rule:evenodd;clip-rule:evenodd;fill:#F9B233;}
	.st65{fill:#D60B52;}
	.st66{fill:#F4DCB5;}
	.st67{fill:#E58096;}
	.st68{fill:#E94865;}
	.st69{fill:#C21F4A;}
	.st70{fill:#C6C6C6;}
	.st71{fill:#DAA8CE;}
	.st72{fill:#F59F61;}
	.st73{fill:#E9E4AC;}
	.st74{fill:#E8375E;}
	.st75{fill:#833B12;}
	.st76{fill:#BB5D1C;}
	.st77{fill:#D17A3F;}
	.st78{fill:#DE184E;}
	.st79{fill:#D98892;}
	.st80{fill:#45553F;}
	.st81{fill:#517861;}
	.st82{fill:#A63070;}
	.st83{fill:#932065;}
	.st84{fill:#598967;}
	.st85{fill:#679275;}
	.st86{fill:#9A9A9A;}
	.st87{fill:#D8A49D;}
	.st88{fill:#D48A57;}
	.st89{fill:#E8BB98;}
	.st90{fill:#BA6F68;}
	.st91{fill:#924642;}
	.st92{fill:#E8C5AF;}
	.st93{fill:#D1906C;}
	.st94{fill:#C47C5C;}
	.st95{fill:#A2AD74;}
	.st96{fill:#F4EBD8;}
	.st97{fill:#C8A464;}
	.st98{fill:#F4A3A3;}
	.st99{fill:#F4CA71;}
	.st100{fill:#18223C;}
	.st101{fill:#E5B642;}
	.st102{fill:#224422;}
	.st103{fill:#245727;}
	.st104{fill:#386C38;}
	.st105{fill:#C54923;}
	.st106{fill:#264239;}
	.st107{fill:#C1292E;}
	.st108{fill:#D39812;}
	.st109{fill:#A67D52;}
	.st110{fill:#715640;}
	.st111{fill:#AB4B58;}
	.st112{fill:#67482E;}
	.st113{fill:#E7E6E6;}
	.st114{fill:#3C5259;}
	.st115{fill:#544842;}
	.st116{fill:#7DAD91;}
	.st117{fill:#5D9373;}
	.st118{fill-rule:evenodd;clip-rule:evenodd;fill:#C57B39;}
	.st119{fill:#C57B39;}
	.st120{fill:#B4DEF0;}
	.st121{fill:#923951;}
</style>
<g>
	<g>
		<path class="st44" d="M77.9,236c-0.3-1.9-0.6-3.7-0.9-5.5c-0.5-3.8-0.8-7.6-0.7-11.5c0.1-3.6,0.1-7.3,0.4-10.9
			c0.1-2.3,0.6-4.6,0.9-6.9c0.1-0.7,0.1-1.4-0.1-2.1c-1-4.2-2.5-8.1-4.3-12c-0.4-0.9-0.9-1.9-1.4-2.8c-3-5.5-5.1-11.3-7-17.2
			c-0.3-0.9-0.6-1.8-0.9-2.8c-0.1-0.4-0.2-0.8-0.3-1.2c-0.2-1.3,0.3-2.2,1.6-2.5c1.2-0.3,2.3-0.3,3.5-0.1c4.4,0.7,7.7,3.1,10.1,6.7
			c1.8,2.7,2.6,5.7,2.8,8.9c0.2,2.5,0.1,5.1,0.2,7.7c0,0.1,0,0.3,0.1,0.4c0.1-0.3,0.2-0.6,0.4-1c5.2-14.7,11.9-28.7,21-41.4
			c1.8-2.5,3.8-4.8,5.6-7.2c0.4-0.5,0.7-1.1,1-1.6c1.4-3.7,2.2-7.5,2.5-11.4c0.3-3.5,0.5-6.9,0.6-10.4c0.3-6.8,1.4-13.4,3.7-19.7
			c0.3-0.9,0.6-1.8,0.9-2.7c0.5-1.4,1.5-1.7,2.6-0.7c2.3,2.3,4.7,4.5,6.9,6.9c2.1,2.3,3.4,5.1,3.8,8.2c0.4,2.7,0,5.3-1,7.8
			c-0.8,2.1-1.8,4.2-2.8,6.2c0,0,0.2-0.1,0.3-0.1c5.7-4.2,11.8-7.8,18.1-11.1c5.6-2.9,11.3-5.5,17.2-7.7c1-0.4,1.9-1.1,2.7-1.7
			c5.5-4.3,9.7-9.6,12-16.3c0.3-1,0.7-1.9,1-2.8c0.3-0.7,0.7-1.2,1.5-1.2c1.1-0.1,2,0.7,1.9,1.9c-0.1,0.7-0.2,1.3-0.5,1.9
			c-1.8,4.9-4.5,9.4-8.1,13.3c-0.3,0.3-0.6,0.6-0.9,1c0,0,0,0.1-0.1,0.3c0.4-0.1,0.8-0.2,1.1-0.4c7.1-2.6,14.3-4.7,21.7-6.3
			c5.7-1.2,11.4-1.7,17.2-1.8c4.5-0.1,9,0.2,13.5,0.8c3.7,0.5,7.3,1.2,10.9,1.8c3.9,0.6,7.7,0.7,11.4-0.9c1.6-0.7,3.3-1.4,4.8-2.3
			c2.2-1.3,4.4-2.5,6.5-4c5.4-3.8,11.3-6.5,17.7-8.3c5.2-1.4,10.3-2.7,15.5-4c0.9-0.2,1.8-0.5,2.7-0.7c0.4-0.1,0.9-0.2,1.3-0.2
			c1.6-0.1,2.6,0.6,3,2.2c0.3,1.3,0.2,2.6-0.1,3.9c-1.7,6.5-4.8,12-10.2,16.2c-3.7,2.8-7.9,4.1-12.5,4.3c-2.7,0.1-5.4-0.3-8-0.7
			c-2.5-0.4-5.1-0.7-7.6-1.1c-3-0.4-5.9-0.9-8.9-1.3c-1.1-0.1-2.2-0.2-3.3-0.1c0.2,0.1,0.4,0.2,0.6,0.3c8.3,2.6,16.3,6.1,24.1,10
			c0.9,0.5,1.8,0.7,2.8,0.5c1.2-0.3,2.5-0.5,3.7-0.9c4.1-1.5,8.2-3.1,12.3-4.7c0.6-0.2,1.1-0.5,1.7-0.6c1.2-0.3,2.1,0.4,2.2,1.7
			c0,0.8-0.1,1.7-0.2,2.5c-1.1,4.9-4.7,7.8-9.8,7.7c-0.4,0-0.7,0-1.3,0c0.4,0.3,0.7,0.5,0.9,0.6c3.8,2.2,7.5,4.6,11.1,7.2
			c0.5,0.4,1.1,0.6,1.7,1c0.6,0.3,1.2,0.6,1.7,1c2.8,2.2,6.1,3.4,9.4,4.4c4.7,1.5,9.5,1.6,14.3,0.8c1.4-0.2,2.8-0.8,4.2-1.2
			c0.4-0.1,0.8-0.3,1.1-0.4c0.7-0.1,1.4,0.2,1.7,0.8c0.3,0.6,0.2,1.3-0.3,1.9c-0.2,0.2-0.5,0.4-0.8,0.6c-3.9,1.6-7.8,3.1-12.1,3
			c-2.3-0.1-4.6-0.5-6.9-1c-0.3-0.1-0.6-0.1-1-0.1c0.2,0.2,0.4,0.5,0.7,0.7c4.7,4.4,9.2,9,13.2,14c2.7,3.4,5.1,7,7.7,10.5
			c0.4,0.5,0.8,0.9,1.5,1.1c1.7,0.5,3.4,0.3,5.1,0c2.2-0.4,4.4-0.8,6.5-1.3c0.1,0,0.3-0.1,0.4-0.1c2-0.5,3.3,0.7,2.9,2.8
			c-0.3,1.6-1.1,3-2.4,4c-2.5,1.8-5.2,2.5-8.3,1.5c-0.1,0-0.2-0.1-0.5-0.2c0.1,0.3,0.1,0.5,0.3,0.7c0.7,0.9,1.4,1.9,2.2,2.7
			c2.8,2.6,6,4.5,9.8,5.4c2.4,0.6,4.9,0.7,7.4,0.6c5.7-0.2,11.3-1.2,16.9-2.5c0.6-0.1,1.1-0.3,1.7-0.3c1.4-0.2,2.3,0.7,2.1,2.1
			c-0.1,0.8-0.3,1.6-0.6,2.3c-1.5,3.8-3.7,7.2-6.5,10.2c-1.1,1.1-2.3,2.1-3.7,2.8c-4.1,2.3-8.1,2.1-11.9-0.4c-1.5-1-2.9-2.2-4.2-3.5
			c-2.1-2.1-4.1-4.3-6.1-6.4c-0.4-0.5-0.9-0.9-1.3-1.3c-0.1,0-0.1,0.1-0.2,0.1c0.5,1.4,1,2.9,1.6,4.3c3,6.9,5.7,13.8,7.6,21
			c1.1,4.1,2.6,8.1,4.2,12.1c2,4.7,5.2,8.4,9.4,11.3c0.6,0.4,1.2,0.7,1.7,1c0.3,0.2,0.7,0.5,0.9,0.8c0.6,0.9,0.1,1.9-1,1.9
			c-0.4,0-0.9-0.2-1.3-0.4c-4.5-1.9-8-4.9-10.6-9.1c-0.1-0.1-0.1-0.2-0.2-0.2c0,0-0.1,0-0.2,0c0.1,1.1,0.2,2.1,0.2,3.2
			c0.3,3.8,0.6,7.6,0.4,11.4c-0.1,2.1,0.5,3.9,1.7,5.5c1.5,1.9,3.1,3.8,4.8,5.6c1.5,1.6,3.2,3.1,4.6,4.8c1.2,1.4,2.3,2.8,3.3,4.3
			c1.9,2.9,2.6,6.1,2.6,9.5c0,4.7-1.4,8.9-3.8,12.9c-0.4,0.7-0.9,1.3-1.5,1.9c-1.2,1.1-2.4,0.8-3-0.7c-0.3-0.9-0.6-1.8-0.9-2.7
			c-0.9-2.7-2.1-5.3-3.6-7.7c-1.6-2.5-3-5-3.9-7.8c-0.5-1.5-0.9-3-1.4-4.5c-0.1-0.2-0.1-0.4-0.3-0.7c-0.1,0.4-0.1,0.8-0.2,1.2
			c-0.1,0.4-0.2,0.9-0.2,1.3c-1.2,8.8-3.5,17.3-7.6,25.3c-2,3.9-4.6,7.5-7.9,10.5c-2.2,2-4.8,3-7.8,2.7c-1.8-0.2-3.5-1-5-1.9
			c-1.7-1.1-3.2-2.4-4.5-3.9c-2.7-3-4.8-6.3-6.6-9.9c-1-2-1.9-3.9-2.9-5.9c-0.4-0.9-1-1.7-1.5-2.5c-0.3-0.4-0.6-0.7-1-1
			c-1.2-0.9-2.1-0.9-3.3,0c-0.7,0.5-1.3,1.1-1.8,1.7c-2.1,2.8-4.2,5.6-6.2,8.4c-0.1,0.1-0.1,0.2-0.2,0.4c0.3,0.3,0.5,0.6,0.8,0.9
			c1.8,2,3.4,4.2,4.8,6.5c4.6,7.7,7.4,16.1,8.5,25c0.6,4.3,0.7,8.6,0,12.9c-0.6,3.9-1.7,7.7-4.1,10.9c-1.8,2.5-4.1,4.4-6.8,5.9
			c-3.4,1.8-6.9,1.9-10.5,0.9c-7.6-2.1-13.1-6.9-17-13.7c-1.4-2.3-2.3-4.9-3-7.4c-0.1-0.4-0.2-0.7-0.3-1.1c-5.7-0.7-10.2-3.5-14-7.7
			c0.2,0.8,0.3,1.7,0.5,2.5c1.6,6.7,3,13.4,4,20.2c0.9,5.9,1.6,11.8,1.8,17.7c0.1,2-0.1,4-0.2,5.9c-0.1,0.9-0.3,1.7-0.7,2.5
			c-0.8,1.8-2.6,2.3-4.2,1.2c-0.9-0.6-1.7-1.3-2.4-2.1c-3-3.1-5.5-6.5-7.8-10.1c-4.2-6.6-8.3-13.2-11.9-20.1
			c-0.1-0.1-0.1-0.2-0.4-0.3c0,0.3,0,0.6,0,0.9c0.2,2.9,0.4,5.8,0.5,8.8c0.2,5.1,0,10.2-1.1,15.1c-0.7,3.3-2,6.3-3.9,9
			c-2.4,3.3-5.5,5.3-9.6,5.4c-2.7,0-5.3-0.7-7.7-1.9c-3.3-1.7-5.8-4.2-7.6-7.3c-0.9-1.5-1.6-3.2-2.3-4.8c-0.1-0.3-0.2-0.6-0.4-0.9
			c-0.3,0.3-0.5,0.5-0.6,0.7c-3,3.5-6.1,7-9.1,10.5c-1.3,1.5-2.9,2.8-4.7,3.8c-3.3,1.8-6.5,1.5-9.5-0.8c-2.6-2-3.9-4.7-4.5-7.8
			c-0.8-4.3-0.4-8.6,0.9-12.7c1.5-4.9,3.7-9.4,6.4-13.8c2.7-4.3,5.5-8.6,8.3-12.9c1.1-1.8,2.1-3.6,3.1-5.4c0.3-0.5,0.4-1,0.6-1.5
			c0.4-1.2,0-2.3-1.1-2.9c-1.4-0.7-3-1.2-4.6-1.6c-2.8,4.8-6.7,8.4-11.9,10.3c-5.3,2-10.5,1.6-15.6-0.9c-0.2,0.4-0.4,0.7-0.6,1
			c-2.5,4.5-5.7,8.6-9.5,12c-2.5,2.3-5.4,4.2-8.5,5.5c-2.1,0.9-4.2,1.4-6.4,1.4c-2.8,0-5.3-0.9-7.5-2.5c-4.1-3.1-6.4-7.2-7.1-12.3
			c-0.6-4.4,0.3-8.5,2.3-12.4c1-1.9,2.1-3.7,3.3-5.5c1.9-2.8,4.2-5.2,6.8-7.4c0.2-0.2,0.5-0.5,0.9-0.8c-1.2-0.3-2.3-0.5-3.3-0.7
			c-3.6-0.6-7.3-1.1-10.9-1.9c-3.6-0.8-7.2-1.9-10.8-3c-0.8-0.2-1.5-0.7-2.3-1c-0.2-0.1-0.5-0.2-0.9-0.4c0.3,0.9,0.5,1.6,0.8,2.3
			c2.4,5.7,3,11.5,2.1,17.6c-0.6,4.2-1.8,8.2-4,11.9c-1.5,2.6-3.5,4.8-5.9,6.5c-3.4,2.4-7.2,3.8-11.4,3.6c-3.2-0.1-5.9-1.5-8.1-3.9
			c-2.3-2.4-3.3-5.4-3.7-8.5c-0.7-4.9,0.3-9.6,2-14.1c2.8-7,7-13,12.4-18.2c4.5-4.4,9.4-8.2,14.6-11.8c0.2-0.2,0.5-0.3,0.7-0.5
			c0.1,0,0.1-0.1,0.2-0.2c-0.3-0.2-0.6-0.4-0.8-0.5c-4.8-3-9.2-6.4-13-10.7c-3.7-4.2-6.8-8.8-9.3-13.9c-0.4-0.7-0.9-1.1-1.6-1.4
			c-1.3-0.5-2.7-0.5-4.1-0.3c-2.3,0.3-4.6,0.7-7,1.1c-2.8,0.4-5.5,0.4-8.2-0.5c-6.2-2-9.3-6.1-10-12.4c-0.3-2.2-0.2-4.4,0.5-6.6
			c0.2-0.6,0.4-1.1,0.8-1.6c0.6-0.9,1.5-1.2,2.5-1c0.1,0,0.3,0.1,0.4,0.1c4.6,1.8,9.2,3.6,13.8,5.5c3,1.3,5.8,3,8.3,5.2
			C77.6,235.8,77.7,235.8,77.9,236z M203.7,90.7c0.7,0.2,1.3,0.3,2,0.5c5.8,1.5,10.1,4.9,13,10.2c1.7,3.1,2.3,6.5,1.7,10
			c-0.2,1.2-0.6,2.3-1.3,3.3c-1.1,1.5-2.4,1.7-3.9,0.7c-0.7-0.5-1.4-1.1-2.1-1.7c-5.1-3.9-10.2-7.8-15.1-12c-0.9-0.8-2-1.5-3-2.3
			c-2.6-1.9-5.5-3.4-8.6-4.3c-0.5-0.2-1-0.2-1.6,0c-3,0.8-6.1,1.6-9.1,2.5c-7.5,2.2-14.9,4.7-21.9,8.3
			c-10.1,5.1-19.5,11.1-28.1,18.3c-0.3,0.2-0.5,0.4-0.7,0.7c0.4,0,0.8-0.2,1.1-0.3c5-2.3,10.3-3.7,15.8-4.1
			c3.9-0.3,7.7-0.1,11.6,0.1c2.7,0.1,5.4,0.1,8.2-0.2c2.4-0.3,4.7-0.6,7.1-0.9c1.9-0.2,2.9,0.5,3.2,2.4c0.1,0.3,0.1,0.6,0.1,0.9
			c0,2-0.5,3.9-1.4,5.7c-1.8,3.7-4.7,6.3-8.4,8.1c-4.9,2.4-10,3-15.2,1.1c-2.6-0.9-5-2.2-7.4-3.5c-2.3-1.3-4.7-2.4-7.3-3.2
			c-1.8-0.6-3.7-1-5.5-0.9c-2.9,0.2-5.6,1-8.2,2.3c-2.7,1.4-4.9,3.4-7,5.5c-6,5.9-10.8,12.8-14.8,20.2c-0.1,0.1-0.1,0.3-0.2,0.6
			c0.4-0.3,0.6-0.5,0.8-0.7c1.8-1.7,3.9-3.1,6.3-4c1.3-0.5,2.6-1,4-1.4c1.2-0.4,2.3-0.6,3.6-0.5c2.7,0.1,5.3,0.7,7.7,1.7
			c0.7,0.3,1.4,0.8,2.1,1.2c0.7,0.5,0.8,1.1,0.5,1.7c-0.3,0.6-0.9,0.9-1.7,0.7c-0.6-0.2-1.2-0.5-1.8-0.7c-0.7-0.3-1.4-0.7-2.2-0.8
			c-1.5-0.3-3.1-0.3-4.6-0.1c-4.4,0.5-8.3,2.3-11.7,5.1c-3.2,2.7-5.9,5.8-8.1,9.4c-2.8,4.7-4.7,9.8-6.3,15
			c-1.2,4.1-1.9,8.4-2.5,12.6c-0.9,6.3-1.7,12.7-1.7,19.1c0,5.5,0.3,11,1.4,16.4c1.6,7.9,4.4,15.2,8.9,21.9c0.2,0.3,0.4,0.6,0.7,1
			c0-0.5,0.1-0.7,0.1-0.9c0.2-1.7,0.3-3.4,0.6-5c0.8-4.5,0.6-8.9-1-13.2c-0.7-1.8-1.3-3.5-1.9-5.3c-1.5-4.1-2-8.3-1.4-12.7
			c0.6-4.1,2.2-7.7,4.7-11c1.5-1.9,3.3-3.3,5.4-4.2c2.5-1.1,5.1-1.6,7.8-2.1c0.1,0,0.3,0,0.4,0c1.2,0,1.8,0.4,1.8,1.7
			c0,3.7,0.1,7.4-0.1,11.1c-0.4,7.4-2.3,14.4-5.9,21c-1.1,2.1-2.3,4.1-3.4,6.2c-1.3,2.3-2.4,4.7-3.2,7.3c-1.2,3.6-1.4,7.3-0.4,11
			c0.1,0.5,0.4,1,0.7,1.3c3.6,3.6,7.6,6.5,12.1,8.8c0.5,0.2,0.8,0.2,1.2-0.1c0.2-0.2,0.4-0.3,0.7-0.4c8.4-5.3,17.2-9.9,26.4-13.7
			c4.2-1.7,8.4-3.3,12.9-4.2c3.1-0.6,6.2-0.9,9.3-0.2c3.1,0.8,5.3,2.5,6,5.8c0.3,1.5,0.1,2.9-0.3,4.3c-0.9,2.8-2.6,5.1-4.6,7.2
			c-4.7,4.9-10.6,7.7-17.2,9c-6.9,1.3-13.7,0.8-20.5-0.6c-0.9-0.2-1.6-0.1-2.3,0.4c-3.5,2.5-7,4.9-10.5,7.4c-0.1,0-0.1,0.2-0.2,0.3
			c1.6,0.9,3.3,1.8,5,2.3c4.1,1.3,8.3,2.2,12.6,2.7c2.7,0.3,5.5,0.5,8.2,0.7c3.3,0.2,5.8,1.9,7.8,4.5c1.5,2,2.1,4.2,1.9,6.7
			c-0.2,2.5-1,4.9-2.3,7c-1.1,1.8-2.3,3.5-3.5,5.2c-1.3,1.8-2.6,3.5-3.9,5.3c-1,1.5-1.9,3.1-2.6,4.8c-0.7,1.8-1.2,3.7-1,5.7
			c0.1,1.3,0.7,2.1,1.9,2.4c0.8,0.2,1.7,0.3,2.6,0.3c2.7-0.1,5.1-1.3,7.5-2.6c2-1,3.6-2.5,5.2-4c2.6-2.4,4.7-5.2,6.8-8.1
			c0.8-1.1,1.5-2.4,2.2-3.6c-1.3-1-2.4-1.9-3.6-2.9c-4.5-3.9-7.6-8.8-9.1-14.6c-0.7-2.5-0.8-5.1-0.1-7.7c1-3.4,3.9-6.3,8.8-5.6
			c2.9,0.4,5.1,1.9,6.9,4.2c1.5,2,2.6,4.2,3.1,6.6c1,4.4,0.7,8.8-0.4,13.2c-0.4,1.6-0.9,3.1-1.3,4.6c0.1,0.1,0.1,0.2,0.2,0.2
			c2.7,2.2,5.8,3.5,9.4,3c6-0.9,10.5-4.1,13.7-9.3c0.1-0.1,0.1-0.2,0.1-0.3c-0.3-0.1-0.6-0.2-0.8-0.3c-1.9-0.5-3.7-1.4-5.4-2.4
			c-3-1.7-5-4.2-6.1-7.5c-0.5-1.6-0.6-3.2-0.1-4.8c1-3.5,4.4-6.2,8.7-4.8c5.9,1.9,9,8.5,8.3,14.1c-0.1,1.1-0.4,2.2-0.7,3.4
			c0.4,0.2,0.8,0.4,1.2,0.5c1.9,0.8,3.8,1.7,5.7,2.5c2.3,1,4.3,2.3,6,4.2c1.4,1.6,2.3,3.5,2.2,5.7c0,1.2-0.2,2.4-0.5,3.6
			c-0.7,2.5-1.8,4.9-3.2,7.2c-1.6,2.7-3.3,5.4-4.9,8.1c-3.1,5.1-5.9,10.4-8.5,15.8c-1.2,2.4-2.3,4.9-2.9,7.5
			c-0.3,1.3-0.3,2.5,0.2,3.8c0.4,1.1,0.8,1.4,1.9,1.1c0.8-0.2,1.6-0.6,2.4-1c1.5-0.8,2.7-1.9,3.7-3.2c3-3.5,6-7.1,9-10.6
			c0.4-0.4,0.4-0.8,0.3-1.3c-0.8-4.4-1-8.9,0-13.3c0.7-3.1,1.6-6.1,3.2-8.9c0.9-1.7,2.1-3.2,3.6-4.4c2-1.6,4.2-2.4,6.7-2.3
			c4.4,0.2,7.7,3.2,8.3,7.5c0.3,1.9,0,3.8-0.6,5.7c-0.8,2.5-2.4,4.5-4.2,6.3c-1.6,1.6-3.3,2.8-5.5,3.5c-0.2,0-0.3,0.1-0.5,0.2
			c0,1.8,0.2,3.5,0.6,5.2c0.6,3.1,1.7,6,3.7,8.5c1.4,1.7,3.1,2.7,5.2,3.1c1.8,0.3,3.3-0.1,4.6-1.4c1.3-1.3,2.3-2.9,2.9-4.6
			c0.7-2.1,1.1-4.4,1.3-6.6c0.2-2.5,0.4-5.1,0.5-7.6c0.1-1.6,0.2-3.2,0.1-4.7c-0.2-5.2-0.4-10.3-1-15.5c-0.2-1.4-0.1-2.8,0.4-4.2
			c0.6-1.7,1.9-2.8,3.6-3.2c2-0.5,3.8,0,5.3,1.4c0.5,0.5,1,1.1,1.5,1.7c1.6,2.2,3,4.5,4.1,7c1.2,2.6,2.3,5.2,3.4,7.9
			c2.6,6.3,5.8,12.3,9.3,18.1c0.1,0.1,0.2,0.3,0.4,0.5c0-0.3,0.1-0.5,0-0.6c-0.2-1.7-0.3-3.5-0.5-5.2c-0.6-4.6-1.4-9.2-2-13.9
			c-1-7.4-2.3-14.8-3.7-22.2c-0.1-0.4-0.1-0.9-0.1-1.3c0.1-1.3,1.3-1.9,2.4-1.1c0.4,0.3,0.8,0.7,1.1,1.2c2,2.6,4.3,5,7,6.9
			c1.7,1.2,3.5,2.1,5.5,2.7c0.3,0.1,0.6,0.1,1,0.2c-0.1-0.5-0.1-0.9-0.1-1.3c-0.4-3.5-0.5-6.9,0.1-10.3c0.4-2.3,1.2-4.4,2.7-6.2
			c4-4.9,11.6-4,14.2,1.8c1,2.2,1.2,4.5,0.8,6.9c-0.5,3-1.9,5.4-3.9,7.6c-0.7,0.7-1.4,1.4-2.1,2c0.9,2.3,2.1,4.4,3.4,6.4
			c1.4,2.1,3.2,3.9,5.2,5.4c2.1,1.6,4.4,2.6,7.1,2.9c3.2,0.4,5.8-0.6,7.8-3.2c0.9-1.2,1.6-2.4,2-3.8c1.7-5.2,2-10.5,1.1-15.8
			c-0.4-2.8-1.4-5.5-2.4-8.2c-1.8-4.7-3.7-9.4-6.4-13.7c-1.1-1.8-2.4-3.5-3.8-5.1c-0.1,0.1-0.3,0.2-0.3,0.3
			c-1.1,1.1-2.2,2.2-3.3,3.3c-1.8,1.7-3.9,2.8-6.1,3.8c-0.8,0.3-1.6,0.6-2.4,0.7c-3.4,0.7-6.4-0.2-8.8-2.8c-2.3-2.5-3.1-5.5-2.6-8.8
			c0.4-3,2.1-5.3,4.9-6.6c2.1-1,4.4-1.3,6.7-0.9c3.8,0.6,7.1,2.2,10.2,4.3c0.3,0.2,0.6,0.4,0.9,0.6c0.3-0.4,0.5-0.6,0.7-0.9
			c1.9-2.6,3.8-5.2,5.7-7.8c1.6-2.2,3.5-4.3,5.7-6c1.5-1.2,3.2-2.1,5.1-2.6c2.4-0.7,4.6-0.2,6.3,1.6c0.9,0.9,1.8,1.9,2.5,3
			c1.1,1.8,2,3.6,2.9,5.5c1.2,2.5,2.4,5,3.6,7.5c1.2,2.4,2.6,4.7,4.5,6.7c0.8,0.9,1.9,1.6,2.8,2.4c0.4,0.3,0.9,0.4,1.4,0.3
			c1.6-0.3,3-1,4-2.3c0.8-1.1,1.5-2.2,2.1-3.4c1.5-3,2.7-6.2,3.6-9.4c2.2-7.5,4-15.1,5.4-22.8c0.6-3.7,0.9-7.3,0.9-11
			c0-3.6-0.1-7.3-0.2-10.9c-0.1-3.9-0.5-7.8-1.2-11.6c-1.2-5.9-3-11.6-4.8-17.3c0-0.1-0.1-0.2-0.2-0.3c-0.1,0.1-0.1,0.1-0.2,0.2
			c0,0.2-0.1,0.3-0.1,0.5c-0.3,1.8-0.4,3.6-0.2,5.4c0.4,3.6,0.8,7.2,1.1,10.8c0.5,5.1,0.1,10.2-1.5,15.1c-1.1,3.4-2.1,6.7-3.2,10.1
			c-0.5,1.6-0.9,3.2-1.3,4.8c-0.5,1.8-1.7,2.4-3.5,1.8c-1.1-0.3-2-0.9-2.9-1.6c-6.4-5.5-8.7-12.5-7-20.7c0.6-2.9,1.8-5.5,3.3-8.1
			c2-3.5,4.4-6.7,6.8-10c1.1-1.5,2.2-3,3.2-4.5c1.3-2,2.4-4.2,3-6.6c0.5-1.9,0.5-3.7,0.1-5.7c-1.1-4.7-2.6-9.2-4.7-13.6
			c-4.7-10-10.1-19.6-16.9-28.3c-0.3-0.4-0.6-0.7-0.9-1.1c-0.1,0.4-0.1,0.7,0,1c0.9,3.8,1.8,7.6,2.7,11.4c0.8,3.4,1.8,6.8,2.2,10.3
			c0.5,4.4,0.4,8.7-0.9,12.9c-2.2,6.7-6.6,11.1-13.7,12.5c-0.9,0.2-1.8,0.2-2.7,0.1c-1.4-0.1-2.2-1.2-2-2.6c0.1-0.7,0.4-1.4,0.7-2
			c0.5-1.2,1.1-2.4,1.7-3.5c3.3-6.7,6.1-13.7,7.5-21.1c0.9-4.9,1.6-9.8,1.3-14.8c-0.2-3-0.7-6-1.9-8.8c-0.4-1.1-1-2.1-1.9-2.9
			c-0.5-0.4-0.9-0.9-1.4-1.4c-5.8-5.9-12.1-11.3-18.9-16c-0.3-0.2-0.6-0.4-0.8-0.6c0,0.3,0.1,0.5,0.2,0.6c3.3,4.8,3.8,10,2.1,15.4
			c-1.8,5.9-6,9.5-11.8,11.3c-0.8,0.2-1.7,0.3-2.5,0.3c-1.1,0-1.8-0.8-1.7-2c0-0.6,0.1-1.1,0.2-1.7c0.5-2.4,1-4.9,1.4-7.3
			c0.8-4.1,1.2-8.3,1-12.5c-0.2-3.8-1.3-7.2-3.6-10.2c-1.4-1.8-3-3.3-4.7-4.8c-0.9-0.8-1.9-1.4-3-1.9c-6.3-2.9-12.7-5.7-19.3-7.8
			c-0.4-0.1-0.8-0.2-1.2-0.4c0.8,1.2,1.5,2.3,2.1,3.5c2.7,5,3.7,10.4,4,16c0,0.9-0.4,1.6-1.2,1.6c-0.7,0.1-1.2-0.4-1.4-1.3
			c-0.2-1-0.3-1.9-0.4-2.9c-0.5-4.6-2-9-4.2-13.1c-0.8-1.4-1.8-2.6-3.1-3.5c-2.1-1.5-4.5-2.5-7-3.1c-2.4-0.5-4.9-0.9-7.3-1.3
			c-6.1-1-12.3-1.6-18.5-1.8C209.2,90,206.5,90.1,203.7,90.7z M102.7,290.4c-0.2,0-0.3,0-0.3,0.1c-0.4,0.3-0.7,0.6-1,0.9
			c-3.6,3.4-6.9,7.2-9.9,11.1c-1.5,2-2.8,4-4.1,6.1c-1.7,2.8-3,5.9-3.6,9.1c-0.3,1.7-0.4,3.4,0.3,5c0.9,2.1,2.2,2.9,4.1,2.6
			c0.4-0.1,0.9-0.1,1.3-0.2c2.4-0.5,4.6-1.7,6.6-3.1c2.4-1.7,4.3-3.7,5.5-6.5c1.3-3,2.1-6.1,2.4-9.3c0.4-4.1,0.2-8.1-0.5-12.1
			C103.2,292.9,102.9,291.6,102.7,290.4z M126.8,273.6c0,0.1,0,0.1,0,0.2c0.8,0,1.6,0,2.4,0c0.9,0,1.9,0,2.8,0
			c4.6-0.1,9.1-0.5,13.5-1.7c2.4-0.7,4.7-1.5,6.9-2.7c2.3-1.2,4.2-2.9,5.5-5.1c0.4-0.6,0.8-1.2,0.6-2.1c-0.4,0-0.7,0-1,0.1
			c-1.9,0.4-3.8,0.7-5.6,1.2c-8.6,2.5-16.8,5.9-24.8,9.9C127.1,273.5,127,273.6,126.8,273.6z M159.3,309.8c0.1,0,0.1-0.1,0.1-0.1
			c0.1-0.3,0.2-0.5,0.2-0.8c0.6-3.1,0.9-6.3,0.9-9.5c0-2.2-0.5-4.3-1.6-6.2c-0.9-1.6-2.7-1.8-4-0.5c-0.6,0.6-1,1.3-1.1,2.1
			c-0.1,0.9-0.2,1.9-0.1,2.8c0.4,4.6,2.6,8.5,5.3,12.1C159.2,309.7,159.3,309.7,159.3,309.8z M212.5,338.6c0.3-0.2,0.5-0.2,0.6-0.3
			c2.3-1.4,4.1-3.4,5.5-5.7c0.9-1.6,1.5-3.2,1.5-5.1c0-1-0.1-1.9-0.7-2.8c-0.6-0.9-1.5-1.2-2.4-0.5c-0.3,0.2-0.6,0.5-0.8,0.8
			c-0.4,0.6-0.8,1.2-1.2,1.9c-1.8,3.3-2.3,6.8-2.6,10.5C212.5,337.7,212.5,338.1,212.5,338.6z M280.1,311.8c0.7-0.7,1.2-1.3,1.7-1.9
			c0.4-0.5,0.8-1.1,1.1-1.6c1.4-2.7,1.6-5.4,0.3-8.1c-0.3-0.6-0.8-1.2-1.3-1.6c-0.5-0.5-1.2-0.4-1.6,0.2c-0.3,0.5-0.6,1.1-0.7,1.6
			C278.6,304.1,279,307.8,280.1,311.8z M291.3,275.8c-1.9-1.2-3.7-2.3-5.8-2.7c-1-0.2-2.1-0.3-3.1-0.3c-1.2,0-2.1,0.7-2.7,1.7
			c-0.5,0.9-0.5,1.7,0.2,2.5c0.7,0.8,1.6,1.3,2.6,1.5c1,0.2,2.1,0.1,3.1-0.2C287.7,277.8,289.5,277.1,291.3,275.8z M186.4,301.9
			c0.1-2-0.3-3.7-1.1-5.3c-0.6-1.1-1.5-1.9-2.6-2.4c-0.9-0.4-1.8-0.3-2.7,0.2c-0.7,0.4-1,1-0.6,1.8c0.3,0.7,0.7,1.3,1.2,1.9
			C182.1,299.7,184.1,300.8,186.4,301.9z"/>
		<g>
			<path class="st28" d="M133.9,340.7c3.7,0.5,7.3,1,11,1.3c4.9,0.4,9.7-0.4,14.4-1.6c1.2-0.3,2.2-0.9,3-1.8
				c1.6-1.7,3.2-3.4,4.3-5.5c0.9-1.7,1.3-3.4,1.6-5.3c0-0.3,0.1-0.6,0.1-0.9c0.2-0.8,0.8-1.2,1.4-1.2c0.7,0,1.3,0.5,1.3,1.3
				c0.1,0.9,0,1.7-0.1,2.6c-0.4,2.8-1.6,5.2-3,7.6c-1.8,3-3.4,6-4.9,9.1c-1.5,2.8-3,5.5-5.2,7.9c-1.9,2.1-4.1,3.7-6.8,4.4
				c-2.8,0.7-5.6,0.3-8.3-0.9c-3.1-1.4-5.5-3.6-7.4-6.3c-1.5-2.2-2.8-4.5-3.8-6.9c-0.2-0.6-0.4-1.1-0.6-1.7
				c-0.3-1.6,0.6-2.5,2.1-2.4C133.4,340.6,133.6,340.6,133.9,340.7C133.9,340.7,133.9,340.7,133.9,340.7z"/>
			<path class="st28" d="M334.3,312.1c-0.1,1.4-1,3.7-2.5,5.7c-0.9,1.2-1.9,2.5-3.1,3.4c-3.9,3.2-6.4,7.4-8.7,11.7
				c-0.4,0.7-0.7,1.4-1,2.1c-0.2,0.3-0.4,0.6-0.6,0.9c-0.4,0.4-0.9,0.5-1.4,0.3c-0.5-0.2-0.8-0.6-0.8-1.1c0-0.5,0-0.9,0.2-1.4
				c0.3-0.9,0.7-1.8,1-2.7c0.6-1.7,1.1-3.3,1.6-5c0.4-1.3,0.5-2.6,0.1-4c-0.8-3.2-0.8-6.5-0.5-9.8c0.2-2.5,0.5-5.1,0.6-7.6
				c0.1-3.2-0.1-6.5-1.3-9.5c-0.1-0.3-0.2-0.7-0.2-1c0-0.8,0.8-1.4,1.6-1.3c0.5,0.1,1,0.3,1.5,0.6c3.4,2.3,6.5,4.8,9.5,7.7
				c0.8,0.8,1.5,1.7,2.2,2.6C334,306,334.6,308.3,334.3,312.1z"/>
			<path class="st28" d="M283.1,358.6c-4.3-0.3-7.3-2.4-9.1-6.2c-0.7-1.3-1.3-2.7-1.9-4c-0.7-1.6-0.9-3.3-0.7-5
				c0.1-0.9-0.2-1.6-0.5-2.3c-0.4-0.7-0.7-1.4-1-2.2c-0.6-1.7-1.1-3.5-1.6-5.2c0-0.2-0.1-0.3-0.1-0.5c-0.2-0.9,0.4-1.5,1.3-1.5
				c0.6,0,1.1,0.3,1.5,0.8c0.4,0.6,0.7,1.2,1,1.8c0.8,1.7,1.5,3.4,2.2,5.1c0.5,1.3,1.4,2.2,2.5,3c2.4,1.7,5.1,2.5,8,2.9
				c2.5,0.4,5,0.1,7.5-0.6c1.4-0.4,2.7-0.7,4.1-1c1.4-0.3,2.5,0.5,2.5,2c0,0.5-0.1,0.9-0.2,1.4c-1.3,4.3-4,7.5-7.7,9.8
				c-1.2,0.7-2.5,1.1-3.9,1.3C285.6,358.5,284.4,358.8,283.1,358.6z"/>
			<path class="st28" d="M90.6,279c-2.4-0.4-4.2-1.5-5.5-3.4c-0.4-0.6-0.8-1.3-1.1-2c-1.3-3.2-2.4-6.5-2.9-10c-0.1-1-0.4-2-0.7-3
				c-0.1-0.7-0.3-1.3-0.3-2c-0.1-0.7,0.3-1.1,0.8-1.3c0.5-0.2,1,0.1,1.3,0.6c0.2,0.4,0.4,0.9,0.6,1.3c0.7,1.4,1.4,2.9,2.2,4.3
				c0.7,1.3,1.8,2.4,3,3.3c1,0.7,1.9,1.4,2.9,2.2c2.1,1.6,3.7,3.6,4.9,5.9c0.7,1.4,0.4,2.4-0.9,3.3C93.5,278.9,92.1,279,90.6,279z"
				/>
		</g>
		<g>
			<circle class="st45" cx="124.2" cy="159.5" r="10.3"/>
			<circle class="st45" cx="179.2" cy="75.1" r="10.3"/>
			<circle class="st45" cx="252.6" cy="116.3" r="10.3"/>
			<circle class="st45" cx="330.6" cy="121.7" r="10.3"/>
			<circle class="st45" cx="370.7" cy="223.5" r="10.3"/>
		</g>
	</g>
	<g>
		<g>
			<path class="st45" d="M201.4,178.4c0.5-1.2,0.8-2.4,1.1-3.5c0.7-2.6,1.3-5.1,1.8-7.7c0.1-0.3,0.1-0.7,0.1-1c0.2-1,1-1.4,1.8-0.9
				c0.5,0.3,0.8,0.7,1.1,1.1c0.8,1.2,1.4,2.6,2,4c1,2.6,1.6,5.3,2.3,8c0.1,0.3,0.2,0.6,0.2,0.9c0.3-0.1,0.2-0.3,0.3-0.5
				c0.4-2.5,0.6-4.9,0.8-7.4c0.4-3.8,0.6-7.7,1.1-11.5c0.3-2.3,0.5-4.6,0.8-6.9c0.1-0.4,0.2-0.7,0.3-1.1c0.2-0.4,0.4-0.6,0.8-0.6
				c0.4,0,0.6,0.4,0.7,0.9c0,0.3,0,0.6-0.1,0.9c-0.7,3.1-1.1,6.3-1.4,9.5c-0.4,3.7-0.7,7.4-1.1,11.1c-0.2,2.1-0.4,4.2-0.7,6.3
				c-0.1,0.5-0.2,1-0.4,1.5c-0.4,0.9-1.1,1.2-2,0.8c-0.6-0.3-1.1-0.8-1.5-1.3c-0.7-0.9-1.2-1.9-1.6-2.9c-1-2.3-1.8-4.6-2.5-7.1
				c-0.1-0.2-0.1-0.4-0.2-0.7c0,0-0.1-0.1-0.1-0.1c-0.2,0.1-0.2,0.3-0.2,0.5c-0.7,3.1-1.4,6.2-2.3,9.3c-0.2,0.6-0.3,1.1-0.6,1.6
				c-0.5,0.9-1.3,1.1-2.1,0.6c-0.5-0.3-0.9-0.7-1.3-1.2c-1.3-1.7-2-3.7-2.7-5.8c-0.8-2.6-1.1-5.3-1.4-8c-0.3-2.8-0.5-5.6-0.4-8.5
				c0-1.6,0.1-3.2,0.4-4.8c0.1-0.6,0.3-1.2,0.5-1.7c0.1-0.2,0.2-0.5,0.4-0.7c0.5-0.7,1-1.3,1.9-1.2c0.9,0.1,1.3,0.8,1.6,1.6
				c0.4,1.2,0.6,2.5,0.7,3.7c0.1,2.7,0.1,5.4,0.3,8.1c0.2,2.2,0.4,4.4,0.7,6.6c0.2,2.3,0.4,4.5,0.6,6.8
				C201.2,177.6,201.2,178,201.4,178.4z"/>
			<path class="st45" d="M221.8,180.7c0.6,0.2,1.1,0,1.5-0.2c0.8-0.4,1.7-0.8,2.5-1.1c0.6-0.3,1-0.2,1.2,0.1
				c0.2,0.3,0.1,0.7-0.4,1.2c-1,1-2.3,1.4-3.5,1.8c-0.1,0-0.1,0-0.2,0c-2.2,0.5-3.6-0.4-4.3-2.6c-0.4-1.3-0.5-2.7-0.7-4.1
				c-0.5-4.3-0.3-8.7-0.1-13c0.1-1.9,0.2-3.8,0.4-5.7c0.2-1.6,0.5-3.2,1-4.7c0.5-1.7,1.8-2.5,3.3-2.7c1.8-0.2,3.5,0.3,5.2,0.9
				c0.3,0.1,0.5,0.3,0.6,0.5c0.2,0.2,0.3,0.5,0.1,0.8c-0.1,0.3-0.4,0.4-0.7,0.5c-0.3,0-0.6-0.1-0.9-0.2c-1.1-0.6-2.2-0.7-3.3-0.9
				c-0.2,0-0.4,0-0.6,0c-0.2,0-0.3,0.1-0.2,0.4c1,2.7,0.9,5.6,0.8,8.4c-0.1,3.3-0.3,6.5-0.5,9.8c0,0.5-0.1,1-0.1,1.5
				c-0.1,0.4,0.1,0.5,0.4,0.5c0.4,0,0.8,0,1.1,0.1c0.3,0.1,0.5,0.3,0.5,0.7c0,0.3-0.2,0.5-0.5,0.6c-0.4,0.3-0.9,0.3-1.4,0.3
				c-0.3,0-0.5,0.2-0.5,0.5c-0.3,2.2-0.6,4.3-1,6.5C221.8,180.6,221.8,180.6,221.8,180.7z"/>
		</g>
		<g>
			<path class="st45" d="M161.5,227.2c-2.6-9-2.3-18.1-1.1-27.3c-0.6-0.2-1.2,0.1-1.8,0.2c-0.3,0.1-0.6,0.1-1,0.1
				c-0.2,0-0.4-0.1-0.5-0.4c-0.1-0.3,0-0.5,0.1-0.7c0.2-0.2,0.5-0.4,0.7-0.5c1.8-0.8,3.7-1.1,5.6-0.9c1.4,0.1,2.7,0.3,4,0.9
				c2.2,0.9,4.1,2.5,5.6,4.5c2.4,3.2,3.7,6.9,3.6,11.1c-0.2,13.2-13,17.6-17,14.5c-0.4-0.3-0.6-0.7-0.5-1c0.1-0.3,0.4-0.5,1-0.4
				c0.3,0,0.5,0.1,0.8,0.1C161.3,227.3,161.3,227.2,161.5,227.2z M163.8,200.1c0.5,2.6,0.5,5.2,0.6,7.7c0.1,3.9,0.2,7.7,0.4,11.6
				c0.1,2.3,0.3,4.6,0.7,6.9c0.1,0.6,0.1,0.6,0.6,0.4c1.2-0.4,2.3-1,3.2-2c1.1-1.3,1.9-2.9,2.2-4.6c0.8-4,0.5-8-0.8-11.9
				c-0.7-2.1-1.5-4.1-2.8-5.8C166.8,201.2,165.5,200.3,163.8,200.1z"/>
			<path class="st45" d="M182.1,227.7c0.6,0.2,1.1,0,1.5-0.2c0.8-0.4,1.7-0.8,2.5-1.1c0.6-0.3,1-0.2,1.2,0.1
				c0.2,0.3,0.1,0.7-0.4,1.2c-1,1-2.3,1.4-3.5,1.8c-0.1,0-0.1,0-0.2,0c-2.2,0.5-3.6-0.4-4.3-2.6c-0.4-1.3-0.5-2.7-0.7-4.1
				c-0.5-4.3-0.3-8.7-0.1-13c0.1-1.9,0.2-3.8,0.4-5.7c0.2-1.6,0.5-3.2,1-4.7c0.5-1.7,1.8-2.5,3.3-2.7c1.8-0.2,3.5,0.3,5.2,0.9
				c0.3,0.1,0.5,0.3,0.6,0.5c0.2,0.2,0.3,0.5,0.1,0.8c-0.1,0.3-0.4,0.4-0.7,0.5c-0.3,0-0.6-0.1-0.9-0.2c-1.1-0.6-2.2-0.7-3.3-0.9
				c-0.2,0-0.4,0-0.6,0c-0.2,0-0.3,0.1-0.2,0.4c1,2.7,0.9,5.6,0.8,8.4c-0.1,3.3-0.3,6.5-0.5,9.8c0,0.5-0.1,1-0.1,1.5
				c-0.1,0.4,0.1,0.5,0.4,0.5c0.4,0,0.8,0,1.1,0.1c0.3,0.1,0.5,0.3,0.5,0.7c0,0.3-0.2,0.5-0.5,0.6c-0.4,0.3-0.9,0.3-1.4,0.3
				c-0.3,0-0.5,0.2-0.5,0.5c-0.3,2.2-0.6,4.3-1,6.5C182.1,227.5,182.1,227.6,182.1,227.7z"/>
			<path class="st45" d="M190.2,213.8c0.1-3.4,0.5-6.8,1.4-10.1c0.5-1.9,1.4-3.6,2.8-4.9c1-1,2.2-1.6,3.6-1.8c0.7-0.1,1.4,0,2,0.2
				c3,1.1,4.8,3.2,5.4,6.5c0.1,0.4,0.1,0.7-0.1,1.1c-0.1,0.3-0.3,0.5-0.6,0.6c-0.3,0.1-0.6-0.1-0.7-0.4c-0.2-0.4-0.4-0.9-0.6-1.3
				c-0.4-1.1-1-2-2-2.7c-0.1-0.1-0.3-0.2-0.4-0.3c-1.3-0.8-2.1-0.5-2.8,0.8c-0.8,1.6-1.3,3.2-1.6,4.9c-0.7,3.4-1,6.9-0.7,10.4
				c0.2,1.9,0.7,3.8,1,5.6c0.2,0.9,0.4,1.9,0.7,2.8c0.2,0.6,0.4,1.1,0.8,1.6c0.4,0.5,0.7,0.5,1.2,0.2c0.4-0.2,0.7-0.5,1-0.9
				c1.4-1.8,2.2-3.8,2.7-6.1c0.1-0.7,0.3-1.4,0.5-2.1c0.1-0.4,0.3-0.6,0.7-0.6c0.3,0,0.6,0.3,0.6,0.8c0,0.5-0.1,1.1-0.2,1.6
				c-0.6,3-1.8,5.7-3.6,8c-1.2,1.5-2.9,2-4.8,1.1c-2.9-1.3-4.4-3.7-5.3-6.7C190.4,219.6,190.2,216.7,190.2,213.8z"/>
			<path class="st45" d="M211.7,204.4c-0.1,3.4-0.5,6.9-0.5,10.4c-0.1,3.6,0.1,7.1,0.3,10.7c0,0.6,0,1.2,0.1,1.8c0,0.3,0,0.7-0.2,1
				c-0.3,0.7-0.8,1.2-1.5,1.2c-0.7,0-1.2-0.4-1.6-1.1c-0.2-0.4-0.3-0.9-0.3-1.4c-0.2-2.1-0.5-4.1-0.7-6.2c-0.5-5.3-0.8-10.7-0.4-16
				c0.1-1.1,0.2-2.2,0.5-3.3c0.2-0.8,0.4-1.5,0.9-2.1c1.1-1.5,2.7-1.2,3.3,0.6c0.2,0.7,0.3,1.5,0.3,2.2
				C211.7,202.9,211.7,203.6,211.7,204.4z"/>
			<path class="st45" d="M217.4,227.2c-2.6-9-2.3-18.1-1.1-27.3c-0.6-0.2-1.2,0.1-1.8,0.2c-0.3,0.1-0.6,0.1-1,0.1
				c-0.2,0-0.4-0.1-0.5-0.4c-0.1-0.3,0-0.5,0.1-0.7c0.2-0.2,0.5-0.4,0.7-0.5c1.8-0.8,3.7-1.1,5.6-0.9c1.4,0.1,2.7,0.3,4,0.9
				c2.2,0.9,4.1,2.5,5.6,4.5c2.4,3.2,3.7,6.9,3.6,11.1c-0.2,13.2-13,17.6-17,14.5c-0.4-0.3-0.6-0.7-0.5-1c0.1-0.3,0.4-0.5,1-0.4
				c0.3,0,0.5,0.1,0.8,0.1C217.1,227.3,217.2,227.2,217.4,227.2z M219.6,200.1c0.5,2.6,0.5,5.2,0.6,7.7c0.1,3.9,0.2,7.7,0.4,11.6
				c0.1,2.3,0.3,4.6,0.7,6.9c0.1,0.6,0.1,0.6,0.6,0.4c1.2-0.4,2.3-1,3.2-2c1.1-1.3,1.9-2.9,2.2-4.6c0.8-4,0.5-8-0.8-11.9
				c-0.7-2.1-1.5-4.1-2.8-5.8C222.6,201.2,221.3,200.3,219.6,200.1z"/>
			<path class="st45" d="M237.9,227.7c0.6,0.2,1.1,0,1.5-0.2c0.8-0.4,1.7-0.8,2.5-1.1c0.6-0.3,1-0.2,1.2,0.1
				c0.2,0.3,0.1,0.7-0.4,1.2c-1,1-2.3,1.4-3.5,1.8c-0.1,0-0.1,0-0.2,0c-2.2,0.5-3.6-0.4-4.3-2.6c-0.4-1.3-0.5-2.7-0.7-4.1
				c-0.5-4.3-0.3-8.7-0.1-13c0.1-1.9,0.2-3.8,0.4-5.7c0.2-1.6,0.5-3.2,1-4.7c0.5-1.7,1.8-2.5,3.3-2.7c1.8-0.2,3.5,0.3,5.2,0.9
				c0.3,0.1,0.5,0.3,0.6,0.5c0.2,0.2,0.3,0.5,0.1,0.8c-0.1,0.3-0.4,0.4-0.7,0.5c-0.3,0-0.6-0.1-0.9-0.2c-1.1-0.6-2.2-0.7-3.3-0.9
				c-0.2,0-0.4,0-0.6,0c-0.2,0-0.3,0.1-0.2,0.4c1,2.7,0.9,5.6,0.8,8.4c-0.1,3.3-0.3,6.5-0.5,9.8c0,0.5-0.1,1-0.1,1.5
				c-0.1,0.4,0.1,0.5,0.4,0.5c0.4,0,0.8,0,1.1,0.1c0.3,0.1,0.5,0.3,0.5,0.7c0,0.3-0.2,0.5-0.5,0.6c-0.4,0.3-0.9,0.3-1.4,0.3
				c-0.3,0-0.5,0.2-0.5,0.5c-0.3,2.2-0.6,4.3-1,6.5C237.9,227.5,237.9,227.6,237.9,227.7z"/>
			<path class="st45" d="M250.5,227.2c-2.6-9-2.3-18.1-1.1-27.3c-0.6-0.2-1.2,0.1-1.8,0.2c-0.3,0.1-0.6,0.1-1,0.1
				c-0.2,0-0.4-0.1-0.5-0.4c-0.1-0.3,0-0.5,0.1-0.7c0.2-0.2,0.5-0.4,0.7-0.5c1.8-0.8,3.7-1.1,5.6-0.9c1.4,0.1,2.7,0.3,4,0.9
				c2.2,0.9,4.1,2.5,5.6,4.5c2.4,3.2,3.7,6.9,3.6,11.1c-0.2,13.2-13,17.6-17,14.5c-0.4-0.3-0.6-0.7-0.5-1c0.1-0.3,0.4-0.5,1-0.4
				c0.3,0,0.5,0.1,0.8,0.1C250.2,227.3,250.3,227.2,250.5,227.2z M252.7,200.1c0.5,2.6,0.5,5.2,0.6,7.7c0.1,3.9,0.2,7.7,0.4,11.6
				c0.1,2.3,0.3,4.6,0.7,6.9c0.1,0.6,0.1,0.6,0.6,0.4c1.2-0.4,2.3-1,3.2-2c1.1-1.3,1.9-2.9,2.2-4.6c0.8-4,0.5-8-0.8-11.9
				c-0.7-2.1-1.5-4.1-2.8-5.8C255.7,201.2,254.4,200.3,252.7,200.1z"/>
		</g>
		<g>
			<path class="st45" d="M198.7,260.7c0.1-3.8,0.5-7.6,1.9-11.2c0.5-1.4,1.2-2.6,2.2-3.8c0.8-0.9,1.7-1.6,2.8-2.1
				c3.7-1.5,6.5,4.1,7.6,8.1c0.6,2.2,0.9,4.4,1.1,6.6c0.3,3.7-0.1,7.3-1.2,10.8c-0.6,2-1.6,3.8-3,5.4c-1.8,2.1-3.9,2.3-6.3,0.9
				c-0.9-0.5-1.5-1.3-2.1-2.2c-1.4-2-2.1-4.2-2.5-6.6C198.9,264.8,198.7,262.8,198.7,260.7z M205.7,252c-2.1,6.7-1.7,13.4,0.8,19.9
				c0.1,0.2,0.2,0.5,0.3,0.7c0.4,0.6,0.7,0.7,1.3,0.3c0.5-0.4,0.9-0.8,1.2-1.3c0.8-1.2,1.3-2.4,1.6-3.7c0.9-3.2,1.2-6.4,1-9.7
				c-0.1-2.5-0.6-4.9-1.4-7.3C209.3,246.6,207.8,244.9,205.7,252z"/>
			<path class="st45" d="M218.1,251.2c0,1.3,0,2.7,0,4c0.1,5.2,0.3,10.5,0.3,15.7c0,1.1,0,2.2-0.2,3.2c-0.1,0.4-0.1,0.7-0.2,1.1
				c-0.2,0.7-0.6,1-1,1c-0.5,0-0.9-0.3-1.1-1.1c-0.1-0.5-0.2-1-0.2-1.5c-0.1-1.9,0-3.9,0.1-5.8c0.1-1.1,0-2.1,0.1-3.2
				c0.2-4.8,0.2-9.6,0.5-14.4c0.1-0.9,0.2-1.8,0.2-2.7c0-0.4,0.1-0.8,0-1.3c-0.3-1.7,1.1-3.3,3.1-2.7c1,0.3,1.6,1,2.2,1.8
				c0.8,1.3,1.4,2.7,1.9,4.1c1.1,2.9,2,5.9,3,8.9c1.2,3.6,2.5,7.1,3.8,10.7c0.5,1.3,0.8,2.6,1.1,4c0.2-1.4,0.2-2.9,0.2-4.3
				c0-4.1-0.1-8.2,0-12.3c0.1-2.6,0.2-5.2,0.5-7.9c0.1-0.7,0.2-1.3,0.4-2c0-0.2,0.1-0.4,0.2-0.6c0.2-0.5,0.6-0.7,1-0.6
				c0.4,0.1,0.7,0.4,0.8,0.9c0.1,0.9,0.1,1.9,0,2.8c-0.7,5.9-0.8,11.8-1,17.8c-0.1,2.1,0,4.1-0.2,6.2c-0.1,0.7-0.1,1.4-0.3,2.1
				c-0.1,0.4-0.2,0.8-0.5,1.1c-0.4,0.6-1,0.8-1.7,0.6c-0.3-0.1-0.6-0.2-0.8-0.4c-1.5-0.9-2.7-2.1-3.6-3.6c-1-1.5-1.7-3.1-2.3-4.8
				c-1.8-4.7-3.2-9.6-4.8-14.4c-0.3-0.8-0.5-1.7-0.9-2.5C218.2,251.2,218.1,251.2,218.1,251.2z"/>
		</g>
	</g>
</g>
</svg>
