<?xml version="1.0" encoding="utf-8"?>
<!-- Generator: Adobe Illustrator 21.1.0, SVG Export Plug-In . SVG Version: 6.00 Build 0)  -->
<svg version="1.1" id="Calque_1" xmlns="http://www.w3.org/2000/svg" xmlns:xlink="http://www.w3.org/1999/xlink" x="0px" y="0px"
	 viewBox="0 0 432 432" style="enable-background:new 0 0 432 432;" xml:space="preserve">
<style type="text/css">
	.st0{fill:#343434;}
	.st1{fill:#ADCA60;}
	.st2{fill:#6EABC7;}
	.st3{fill:#EC6350;}
	.st4{fill:#EF8E81;}
	.st5{fill:#1B1B1B;}
	.st6{fill:#D2CE75;}
	.st7{fill:#F3C559;}
	.st8{fill:#AE5237;}
	.st9{fill:#73543B;}
	.st10{fill:#020203;}
	.st11{fill:#E4E0DF;}
	.st12{fill:#C1BB63;}
	.st13{fill:#F6D9D3;}
	.st14{fill:#EFAA9C;}
	.st15{fill:#F2C559;}
	.st16{fill:#303D46;}
	.st17{fill:#5A676E;}
	.st18{fill:#E46459;}
	.st19{fill:#A1263C;}
	.st20{fill:#483B3E;}
	.st21{fill:#DE9F84;}
	.st22{fill:#8B936E;}
	.st23{fill:#9A8E7C;}
	.st24{fill:#7E8D66;}
	.st25{fill:#D3C0AF;}
	.st26{fill:#6C2C3D;}
	.st27{fill:#A4BED3;}
	.st28{fill:#9FB187;}
	.st29{fill:#FAD5D2;}
	.st30{fill:#D7A2AE;}
	.st31{fill:#4E4D4D;}
	.st32{fill:#B84645;}
	.st33{fill:#756357;}
	.st34{fill:#9FAF88;}
	.st35{fill:#A08155;}
	.st36{fill:#EED0C6;}
	.st37{fill:#D4A77E;}
	.st38{fill:#CDC5BB;}
	.st39{fill:#9F4843;}
	.st40{fill:#D09F99;}
	.st41{fill-rule:evenodd;clip-rule:evenodd;fill:#A08155;}
	.st42{fill:#AE4759;}
	.st43{fill:#C9868F;}
	.st44{fill:#7F8D62;}
	.st45{fill:#D27F8E;}
	.st46{fill:#C69390;}
	.st47{fill:#9A9999;}
	.st48{fill:#B68368;}
	.st49{fill:#6D1F1F;}
	.st50{fill:#D2B6B4;}
	.st51{fill:#A7909E;}
	.st52{fill:#F8BD93;}
	.st53{fill:#397D59;}
	.st54{fill:#C4CEB3;}
	.st55{fill:#93A477;}
	.st56{fill:#D18B2E;}
	.st57{fill:#3C3C3B;}
	.st58{fill:#575756;}
	.st59{fill:#E6007E;}
	.st60{fill:none;}
	.st61{fill:#F9B233;}
	.st62{fill:#85CBCA;}
	.st63{fill:#E99F2B;}
	.st64{fill-rule:evenodd;clip-rule:evenodd;fill:#F9B233;}
	.st65{fill:#D60B52;}
	.st66{fill:#F4DCB5;}
	.st67{fill:#E58096;}
	.st68{fill:#E94865;}
	.st69{fill:#C21F4A;}
	.st70{fill:#C6C6C6;}
	.st71{fill:#DAA8CE;}
	.st72{fill:#F59F61;}
	.st73{fill:#E9E4AC;}
	.st74{fill:#E8375E;}
	.st75{fill:#833B12;}
	.st76{fill:#BB5D1C;}
	.st77{fill:#D17A3F;}
	.st78{fill:#DE184E;}
	.st79{fill:#D98892;}
	.st80{fill:#45553F;}
	.st81{fill:#517861;}
	.st82{fill:#A63070;}
	.st83{fill:#932065;}
	.st84{fill:#598967;}
	.st85{fill:#679275;}
	.st86{fill:#9A9A9A;}
	.st87{fill:#D8A49D;}
	.st88{fill:#D48A57;}
	.st89{fill:#E8BB98;}
	.st90{fill:#BA6F68;}
	.st91{fill:#924642;}
	.st92{fill:#E8C5AF;}
	.st93{fill:#D1906C;}
	.st94{fill:#C47C5C;}
	.st95{fill:#A2AD74;}
	.st96{fill:#F4EBD8;}
	.st97{fill:#C8A464;}
	.st98{fill:#F4A3A3;}
	.st99{fill:#F4CA71;}
	.st100{fill:#18223C;}
	.st101{fill:#E5B642;}
	.st102{fill:#224422;}
	.st103{fill:#245727;}
	.st104{fill:#386C38;}
	.st105{fill:#C54923;}
	.st106{fill:#264239;}
	.st107{fill:#C1292E;}
	.st108{fill:#D39812;}
	.st109{fill:#A67D52;}
	.st110{fill:#715640;}
	.st111{fill:#AB4B58;}
	.st112{fill:#67482E;}
	.st113{fill:#E7E6E6;}
	.st114{fill:#3C5259;}
	.st115{fill:#544842;}
	.st116{fill:#7DAD91;}
	.st117{fill:#5D9373;}
	.st118{fill-rule:evenodd;clip-rule:evenodd;fill:#C57B39;}
	.st119{fill:#C57B39;}
	.st120{fill:#B4DEF0;}
	.st121{fill:#923951;}
</style>
<g>
	<g>
		<g>
			<path class="st35" d="M206.3,347.5c0.7-0.2,1.1-0.8,1.4-1.3c0.8-1.4,1.1-2.9,1.4-4.5c0.6-3.4,1-6.7,1.3-10.1
				c0.3-4.5,0.2-9,0.1-13.5c-0.1-3.1-0.3-6.3-0.5-9.4c-0.2-2.2-0.5-4.4-0.6-6.6c-0.2-1.8-0.2-3.6-0.3-5.4c0-0.8,0.1-1.7,0.6-2.4
				c0.6-1,1.6-1.3,2.6-0.7c0.6,0.4,1.1,0.9,1.5,1.5c0.7,1,1.3,2.1,1.9,3.2c0.9,1.6,2,3,3.5,4.1c1.5,1.1,3.1,1.7,4.9,1.6
				c0.3,0,0.7-0.1,1-0.2c0.6-0.1,1-0.4,1.3-1c1.2-2.2,2.7-4.1,4.8-5.6c2.1-1.5,4.5-2.6,7.2-2.5c3.3,0.2,5.9,1.8,7.9,4.4
				c0.4,0.5,0.5,1.1,0.7,1.6c0.1,0.4,0.1,0.8-0.3,1c-0.4,0.2-0.6-0.1-0.9-0.3c-0.8-0.9-1.7-1.5-2.7-2.1c-0.9-0.6-1.8-0.4-2.6,0.2
				c-0.7,0.6-1.3,1.3-1.7,2.1c-0.8,1.6-1.6,3.3-2.2,5.1c-1.6,5.2-2.8,10.5-3.2,15.9c-0.2,2.4-0.3,4.8,0.4,7.2c0.3,1,0.6,1.9,1.2,2.7
				c0.7,1.1,1.6,1.2,2.6,0.4c0.5-0.4,0.9-0.8,1.2-1.3c1.2-1.5,2.1-3.2,2.8-5c2.1-5.4,4.1-10.8,5.2-16.5c0.5-3,0.9-6.1,1.3-9.1
				c0.2-1.3,0.3-2.7,0.6-4c0.3-1.3,0.9-2.4,1.9-3.2c1.5-1.2,3-1.2,4.5-0.1c1,0.8,1.7,1.8,2.1,3c0.7,1.8,1,3.7,1,5.6
				c0,6.5,0,13.1,0,19.6c0,3.8,0.1,7.6,0.2,11.4c0.1,2.4,0.5,4.9,1.2,7.2c0.2,0.7,0.5,1.4,0.8,2c0.9-0.2,1.3-0.8,1.6-1.4
				c0.6-1.2,1.2-2.5,1.6-3.8c1.5-4.8,2.6-9.6,3.6-14.5c1.1-5.3,2.1-10.7,3.1-16.1c0.3-1.5,0.2-3,0.3-4.5c0.2-3.2,0.5-6.3,1.1-9.5
				c0.3-1.5,0.9-2.9,1.9-4.2c0.7-0.8,1.4-1.5,2.4-1.9c1.4-0.6,2.9-0.3,4,0.7c0.7,0.7,1.1,1.6,1.4,2.5c0.5,1.7,0.8,3.5,0.8,5.2
				c0.1,3.3,0.2,6.6,0.4,9.8c0.1,2.6,0.5,5.3,1.4,7.8c0.3,0.9,0.8,1.9,1.4,2.7c1.1,1.6,2.5,1.7,4,0.5c0.4-0.3,0.8-0.7,1.1-1.1
				c1.3-1.7,2.4-3.4,3.2-5.4c2.1-5.1,3.4-10.4,4.6-15.8c0.4-2.1,1-4.1,1.6-6.1c0.4-1.2,0.9-2.4,1.8-3.3c0.5-0.5,1-1,1.6-1.4
				c1.4-0.8,3.1-0.6,4.1,0.5c0.6,0.6,1,1.4,1.3,2.2c0.7,1.7,1,3.5,1.2,5.3c0.3,3.6,0.5,7.2,0.7,10.8c0.2,4.8,0.3,9.7,0.4,14.6
				c0,0.1,0,0.3,0.1,0.5c0.3-0.1,0.5-0.2,0.7-0.3c1.4-1.1,2.9-2,4.2-3.2c2-1.9,3.8-3.9,5.7-5.9c0.1-0.1,0.2-0.3,0.4-0.5
				c-0.2-0.3-0.4-0.6-0.6-0.9c-2.6-3.6-4.8-7.5-6-11.9c-0.8-2.9-1.3-5.8-1.1-8.8c0.4-6.3,3.3-11.2,8.7-14.6c3-1.8,6.3-2.2,9.7-1.6
				c2.4,0.4,4.1,1.8,5.3,4c1.7,3.2,1.9,6.5,1,9.9c-0.7,2.4-1.7,4.7-2.8,7c-1.1,2.1-2.2,4.1-3.4,6.2c-0.3,0.6-0.3,1,0.1,1.5
				c3.7,5,7,10.2,9.9,15.7c0.9,1.7,1.8,3.4,2.7,5.2c0.1,0,0.2-0.1,0.3-0.1c3.6-3,6.9-6.2,9.7-10c2.5-3.4,4.2-7.2,5-11.3
				c0.5-2.6,0.4-5.1,0-7.7c-0.4-2.4-1-4.8-1.6-7.1c-0.3-1.1-0.6-2.3-0.5-3.5c0.1-0.6,0.3-1.3,0.6-1.8c0.8-1.3,2.3-1.6,3.6-0.7
				c1,0.7,1.7,1.7,2.2,2.8c0.9,1.8,1.3,3.7,1.5,5.7c0.6,5.8-0.4,11.2-2.8,16.5c-2.9,6.5-7,12.3-12.5,16.9c-1.4,1.2-2.9,2.2-4.5,3.4
				c0,0.2,0.1,0.5,0.1,0.8c1.3,4.8,1,9.5-0.7,14.2c-0.8,2.3-1.9,4.6-3.2,6.7c-2.6,4-6.4,6.3-11.1,7c-1,0.2-2.1,0.2-3.1,0.1
				c-3.4-0.5-6.2-3.4-6.7-7c-0.4-2.7,0.1-5.2,1.3-7.6c1.7-3.4,4.3-6.1,7.4-8.3c1.4-1,2.8-1.8,4.2-2.7c0.3-0.2,0.6-0.4,0.9-0.6
				c-0.6-1-1.2-2-1.9-3c-2.3-3.4-5.1-6.5-7.9-9.6c-0.7-0.8-1.3-1.6-2.1-2.4c-0.3,0.3-0.5,0.6-0.8,0.9c-2.9,3.4-6,6.6-9.7,9.2
				c-0.6,0.4-1.3,0.9-1.9,1.3c-0.3,0.2-0.4,0.4-0.4,0.7c0,0.1,0,0.2,0,0.3c-0.1,3.5-0.1,7.1-0.2,10.6c-0.3,5.9-0.8,11.7-2.1,17.4
				c-0.8,3.5-2.3,6.8-4.2,9.8c-1.1,1.7-2.5,3.1-4.1,4.2c-1.9,1.3-3.7,2.5-5.9,3.1c-1.6,0.4-3.3,0.7-5,0.7c-3.3,0-6.1-1.2-8.3-3.6
				c-2.4-2.6-4-5.7-4.4-9.3c-0.9-7.3,1.1-13.8,5.9-19.4c2.2-2.6,4.8-4.9,7.7-6.7c3.1-1.9,6.3-3.6,9.5-5.4c0.3-0.2,0.6-0.3,1.1-0.6
				c-0.4-5.9-0.7-11.7-1.1-17.6c-0.1,0-0.1,0-0.2,0c-0.1,0.2-0.3,0.5-0.4,0.8c-1.1,2.8-2.4,5.5-3.9,8.2c-1.2,2.1-2.6,4.1-4.4,5.8
				c-1.6,1.6-3.5,2.7-5.7,3.2c-3.1,0.6-5.7-0.5-7.9-2.5c-2.4-2.1-3.9-4.9-5-7.9c-0.1-0.3-0.2-0.6-0.4-1.1c-0.1,0.5-0.2,0.7-0.2,0.9
				c-1.4,7.2-2.8,14.4-4.2,21.6c-0.6,2.8-1.3,5.6-2.4,8.2c-0.5,1.1-1,2.1-1.8,3c-1.7,2.1-4.2,2.6-6.7,1.3c-1.1-0.6-2-1.4-2.7-2.3
				c-1.8-2.1-2.8-4.5-3.7-7.1c-1.1-3.3-1.7-6.6-2-10c-0.3-2.9-0.4-5.7-0.6-8.6c0-0.2,0-0.4-0.2-0.6c-0.1,0.3-0.2,0.6-0.3,0.9
				c-0.9,2.8-1.7,5.6-2.6,8.4c-0.9,2.6-2.1,5-3.7,7.2c-1,1.4-2.2,2.6-3.8,3.4c-2.4,1.2-4.8,1.1-7.1-0.4c-1.5-0.9-2.6-2.2-3.6-3.6
				c-2-2.9-3.2-6.2-3.7-9.6c-0.8-5.6-0.2-11,1.6-16.3c0.1-0.2,0.1-0.3,0.2-0.5c0,0,0-0.1,0-0.2c-0.3,0.1-0.5,0.1-0.7,0.2
				c-1.2,0.4-2.4,0.7-3.7,0.7c-1.9,0-3.6-0.6-5-1.9c-0.8-0.8-1.5-1.8-2.3-2.7c-0.2-0.2-0.3-0.5-0.6-0.7c0,0.2,0,0.4,0,0.6
				c0.3,4.2,0.5,8.5,0.8,12.7c0.3,5.1,0.4,10.2,0.1,15.3c-0.3,5.3-0.8,10.5-2.2,15.7c-0.3,1-0.6,2-1,2.9c-0.3,0.7-0.8,1.5-1.4,2.1
				c-1.5,1.7-3.5,2.1-5.6,1.3c-1.3-0.5-2.4-1.3-3.4-2.3c-2-2-3.5-4.4-4.5-7.1c-1.5-3.7-2.4-7.6-3-11.5c-0.9-5.5-1.1-11.1-1.2-16.8
				c-0.1,0.2-0.2,0.4-0.2,0.5c-1.1,4.5-2.1,9-3.2,13.5c-0.7,2.8-1.6,5.6-2.8,8.2c-0.4,0.9-0.9,1.8-1.5,2.6c-1.6,2.2-3.9,2.7-6.3,1.5
				c-1.9-0.9-3.3-2.4-4.4-4.2c-1.5-2.3-2.4-4.8-3.2-7.5c-1-3.3-1.6-6.8-1.9-10.3c-0.2-2.2-0.2-4.5-0.4-6.7c0-0.2,0-0.3-0.2-0.5
				c-0.3,1.2-0.5,2.5-0.9,3.7c-1.2,4.7-2.3,9.3-3.6,14c-0.4,1.5-1.1,3-1.8,4.4c-0.7,1.5-1.8,2.8-3.2,3.8c-2.2,1.7-4.5,1.7-6.8,0.1
				c-1.6-1.2-2.7-2.7-3.7-4.5c-0.2-0.4-0.4-0.8-0.8-1.5c-0.1,0.5-0.2,0.8-0.2,1.1c-0.7,3.7-1.3,7.4-2,11.2c-0.3,1.6-0.9,3.2-1.8,4.7
				c-0.4,0.7-0.8,1.3-1.4,1.8c-1.9,1.9-4.6,2.2-6.8,0.7c-1.3-0.9-2.4-2-3.3-3.2c-2.1-3-3.4-6.4-4.2-9.9c-0.9-3.6-1.3-7.2-1.6-10.9
				c0-0.2,0-0.4-0.2-0.6c-0.2,1-0.4,2.1-0.7,3.1c-0.7,3.1-1.5,6.2-2.8,9.1c-1.2,2.7-2.8,5.2-5.1,7.2c-1.9,1.7-4.2,2.9-6.8,3.2
				c-3.1,0.4-5.8-0.5-8.1-2.4c-1.4-1.1-2.4-2.4-3.4-3.8c-2.2-3.3-3.4-7-4-10.9c-0.3-2.6-0.3-5.3-0.1-7.9c0-0.4,0.1-0.9,0.1-1.3
				c-0.5,0-0.7,0.4-1,0.6c-2.3,1.9-4.7,3.6-7.5,4.7c-0.9,0.3-1.8,0.7-2.7,0.9c-4.2,0.7-7.8-0.4-10.7-3.7c-2.2-2.5-3.4-5.6-3.9-8.9
				c-0.6-3.9-0.2-7.7,0.7-11.5c1-4.3,2.5-8.5,4.5-12.4c1.1-2.2,2.3-4.2,4-6c0.8-0.8,1.7-1.6,2.7-2.2c1.6-1,3.2-0.9,4.8,0.2
				c1.5,1.1,2,2.6,1.7,4.4c-0.2,1.3-0.7,2.5-1.2,3.7c-0.5,1.2-1.1,2.4-1.8,3.6c-2.4,4.3-3.7,8.9-4.6,13.7c-0.5,2.6-0.8,5.3-0.6,8
				c0.1,1.2,0.3,2.4,0.6,3.5c0.5,1.7,1.4,2.1,3.1,1.9c2.3-0.3,4.4-1.3,6.3-2.4c2.4-1.4,4.5-3.1,6.4-5c0.3-0.3,0.6-0.7,0.8-1.1
				c0.7-1.8,1.3-3.7,1.9-5.5c1.1-3.2,2.5-6.2,4.6-8.9c1.4-1.8,3.1-3.4,5.1-4.5c2.4-1.4,5-1.9,7.7-1.1c1.1,0.3,2,0.8,2.9,1.6
				c1.4,1.4,1.8,3.2,0.9,5c-0.4,0.8-0.9,1.6-1.6,2.2c-1.3,1.3-2.7,2.7-4.2,3.9c-1.8,1.4-3.6,2.8-5.4,4.1c-0.4,0.3-0.7,0.7-0.8,1.2
				c-0.7,4.6-1,9.3-0.8,14c0.1,2.3,0.5,4.5,1.2,6.7c0.4,1.1,0.8,2.2,1.6,3.1c0.5,0.5,1.1,1,1.7,1.4c1.2,0.6,2.4,0.5,3.4-0.5
				c1-0.9,1.7-2,2.3-3.2c1.4-2.8,2.4-5.8,3.2-8.8c1.2-4.6,2-9.3,2.3-14.1c0.2-3.1,0.6-6.2,1.6-9.2c0.3-0.9,0.7-1.8,1.3-2.6
				c1.4-1.6,3.2-1.9,5.1-1c1.2,0.7,2.1,1.7,2.7,2.9c0.7,1.5,1.2,3.1,1.4,4.7c0.3,2.7,0.6,5.3,0.6,8c0.2,5.8,0.2,11.5,0.4,17.3
				c0.2,4.2,0.5,8.4,1.7,12.5c0.2,0.8,0.6,1.6,0.9,2.3c0.1,0.3,0.4,0.6,0.6,0.9c0.9,0.9,1.5,0.8,2.2-0.2c0.8-1.1,1.3-2.3,1.7-3.6
				c1-3,1.5-6,2-9.1c0.3-1.8,0.5-3.6,0.8-5.4c0.1-0.5,0-0.9-0.1-1.4c-0.8-2.9-1.3-6-1.7-9c-0.8-5.7-0.9-11.5-0.8-17.2
				c0.2-8,0.8-16,2-23.9c0.9-6.4,2.8-12.4,5.7-18.2c0.9-1.8,1.9-3.5,3.4-4.9c1.1-1.1,2.4-1.9,3.9-2.4c1.9-0.5,3.6-0.1,5.2,1.2
				c1.1,0.9,1.9,2.1,2.5,3.4c0.9,1.9,1.3,4,1.7,6.1c0.6,3.5,0.3,7-0.2,10.5c-0.7,5.1-1.7,10.2-3.4,15.2c-2.1,6.2-5.1,11.9-8.7,17.4
				c-0.4,0.5-0.5,1-0.5,1.7c0.1,3.3,0.1,6.6,0.2,9.9c0.2,3.6,0.4,7.2,1.4,10.6c0.3,1.2,0.8,2.4,1.3,3.6c0.3,0.7,0.8,1.3,1.5,1.5
				c0.6-0.2,0.8-0.6,1-1.1c0.8-1.7,1.6-3.4,2.2-5.2c1.7-4.9,2.7-9.9,3.5-15c0.5-3.1,1-6.1,1.6-9.2c0.3-1.7,1-3.2,2.2-4.6
				c2.9-3.3,6.7-2.8,8.5,1.2c0.9,1.9,1.2,4,1.4,6c0.5,4.5,0.6,9.1,0.6,13.6c0,3.4,0.1,6.9,0.2,10.3c0.1,1.8,0.4,3.5,0.6,5.3
				c0,0.2,0.1,0.5,0.2,0.7c0.1,0.4,0.4,0.8,0.8,0.9c0.5,0.1,0.9-0.2,1.1-0.6c0.5-0.9,1-1.8,1.3-2.7c0.7-2.7,1.4-5.4,2-8.2
				c1.2-5.6,2.3-11.2,3.4-16.8c0.3-1.4,0.7-2.7,1.2-4c0.5-1.3,1.3-2.5,2.5-3.3c2.3-1.7,5-1.1,6.5,1.3c0.7,1.1,1,2.3,1.2,3.5
				c0.4,2.2,0.8,4.5,1.1,6.7c0.3,2.9,0.5,5.9,0.8,8.8c0.3,3.7,0.6,7.4,0.9,11.1c0.2,2.5,0.5,5,0.9,7.5c0.3,2,0.8,3.9,1.6,5.7
				C205.3,346.3,205.6,347,206.3,347.5z M300.9,327.1c-0.2,0-0.2-0.1-0.3-0.1c-0.2,0.1-0.5,0.1-0.7,0.2c-2.4,0.9-4.7,2.1-6.6,3.9
				c-3.7,3.4-6.9,7.2-9.5,11.5c-0.6,1-1.1,2-1.4,3.1c-1.1,3.3-1.6,6.6-0.7,10c0.9,3.8,3.5,5.7,7.1,6.5c1,0.2,2,0.1,3-0.2
				c1.5-0.5,2.7-1.2,3.8-2.4c2.7-2.9,4-6.5,4.7-10.3c0.5-2.4,0.6-4.8,0.6-7.3c0.1-4.6,0.1-9.3,0.2-13.9
				C300.9,327.8,300.9,327.4,300.9,327.1z M153.5,301.6c0.1,0,0.1,0,0.2,0.1c0.1-0.2,0.3-0.4,0.4-0.6c0.8-1.4,1.5-2.7,2.3-4.1
				c1.2-2,2.1-4.2,2.9-6.4c1.1-3.5,2.3-6.9,2.8-10.5c0.4-2.7,0.7-5.4,0.8-8.2c0.2-3.4,0.3-6.8-0.2-10.1c-0.2-1.1-0.4-2.2-1.2-3
				c-0.9-1-1.4-0.9-1.9,0.3c-0.9,2.2-1.5,4.6-1.9,6.9c-0.6,3.5-1.2,6.9-1.7,10.4c-0.6,3.7-1.1,7.5-1.5,11.2
				c-0.3,2.8-0.5,5.5-0.7,8.3C153.6,297.8,153.6,299.7,153.5,301.6z M336.9,327.3c-0.2,0.1-0.4,0.2-0.6,0.3c-1.5,1-2.9,2-4.4,3
				c-1.9,1.4-3.6,3-4.9,5c-0.8,1.1-1.4,2.2-1.8,3.5c-0.5,1.8-0.6,3.5,0.3,5.2c1,2,2.6,2.8,4.8,2.5c1.6-0.2,3.1-0.9,4.3-2
				c2-1.7,3.3-3.9,3.8-6.5c0.7-3.7,0.1-7.3-1.2-10.7C337.1,327.5,337,327.5,336.9,327.3z M330.5,294.3c1.4-2,4.1-7.6,5-10.7
				c0.4-1.3,0.7-2.7,0.9-4c0.4-2.5-1-5-3.2-6.1c-1.1-0.5-2.2-0.8-3.3-0.4c-2,0.7-3.6,1.9-4.4,4.1c-0.6,1.7-0.7,3.5-0.5,5.2
				C325.5,286.9,327.8,290.6,330.5,294.3z M107.7,307.9c0.1,0,0.2,0,0.3,0c2.5-1.9,4.9-3.8,7-6.2c0.3-0.3,0.5-0.6,0.7-1
				c0.3-0.6,0.2-1.1-0.4-1.4c-0.3-0.2-0.8-0.3-1.1-0.3c-0.5,0.1-1.1,0.3-1.5,0.7c-1.3,0.9-2.3,2.1-3,3.6
				C108.8,304.7,108.1,306.2,107.7,307.9z"/>
			<path class="st35" d="M285.1,150.7c0.2,1.4,0.5,2.7,0.7,4c0.2,1.9,0.4,3.9,0.6,5.8c0.1,1.4,0.2,2.9,0.1,4.3
				c-0.2,8.4-1.3,16.7-3.8,24.7c-0.9,3-2.1,5.9-3.8,8.5c-1.4,2.2-3.1,4.2-5.3,5.7c-2,1.4-4.3,2.2-6.8,2.1c-1.7-0.1-3.2-0.6-4.7-1.3
				c-3.6-1.9-6.1-4.8-7.9-8.3c-1.4-2.6-2.1-5.4-2.4-8.3c-0.2-2.1-0.3-4.2-0.5-6.4c-3.6-1.1-6.7-3-8.9-6.4c-0.1,0.4-0.3,0.6-0.3,0.9
				c-1.8,7.3-3.6,14.5-5.4,21.8c-1.4,5.8-2.8,11.6-4.1,17.4c-0.5,2.3-1,4.6-1.5,7c-0.1,0.5-0.3,1-0.5,1.5c-0.7,1.4-2.3,1.6-3.3,0.4
				c-0.5-0.6-0.9-1.4-1.2-2.2c-3.4-8.4-6.5-16.9-8.4-25.8c-0.9-4.3-1.7-8.7-2.5-13c-0.1-0.3-0.1-0.6-0.2-1.1c-0.2,0.4-0.3,0.7-0.4,1
				c-1.2,3.3-2.3,6.7-3.6,10c-0.8,2-1.7,4-3,5.8c-0.6,0.9-1.4,1.8-2.2,2.6c-3,2.9-6.9,3.3-10.5,1.1c-2.4-1.5-4.2-3.6-5.5-6.1
				c-0.2-0.3-0.3-0.6-0.7-1c-0.2,1-0.3,2.1-0.5,3.1c-0.5,3.3-1,6.7-2,9.9c-0.4,1.4-1,2.7-1.6,4c-0.5,1.1-1.4,2.1-2.4,2.8
				c-1.6,1.2-3.6,1.2-5.3,0.2c-1-0.6-1.7-1.4-2.3-2.3c-1.1-1.7-1.9-3.5-2.4-5.4c-1.6-5.2-2.2-10.5-2-15.9
				c0.4-10.4,1.9-20.7,4.9-30.7c0.6-2.1,1-4.2,1.4-6.4c0.2-1.1,0.2-2.3-0.1-3.4c-0.3-1.2-1-2.1-2.2-2.4c-0.9-0.2-1.8-0.4-2.7-0.4
				c-2,0-4.1,0.4-6.2,0.8c0.7,4.5,0,8.7-1.9,12.8c-1.9,4.1-4.6,7.5-8.7,9.6c0,0.7,0,1.3,0,2c0.1,6.5-1.6,12.6-4.8,18.2
				c-1.4,2.4-3.1,4.5-5.2,6.3c-0.8,0.7-1.7,1.3-2.6,1.8c-3.6,2-7.3,1.9-10.8-0.1c-4.1-2.4-6.5-6-7.6-10.6c-0.4-1.8-0.5-3.7-0.4-5.7
				c-5.6,4.2-10.9,8.7-17.2,12.2c0.9,0.1,1.5,0.1,2.2,0.2c7.1,0.6,13.4,3.1,18.4,8.3c3.6,3.7,5.9,8.3,7.1,13.3
				c1.8,7.7,1.2,15.2-2.1,22.4c-0.9,2-2,3.8-3.5,5.4c-3.1,3.4-7,4.8-11.6,4.4c-6-0.5-10.3-3.8-14-8.2c-3.7-4.4-6-9.6-7.4-15.2
				c-1.5-5.6-2.4-11.4-2.7-17.2c-0.2-5,0-9.9,0.4-14.8c0.1-0.8,0.1-1.5,0.2-2.4c-0.4,0.2-0.6,0.4-0.9,0.6c-2.3,1.5-4.7,3-7.4,3.8
				c-2.3,0.8-4.6,1.1-6.9,0.6c-2.7-0.5-4.9-2-6.7-4c-2.2-2.4-3.4-5.2-3.9-8.3c-0.8-5.1-0.6-10.1,1.2-15c1-2.9,2.4-5.5,4.7-7.6
				c0.6-0.6,1.4-1.1,2.1-1.4c2.1-0.8,3.8,0.2,4.2,2.4c0.3,1.5,0,3-0.4,4.5c-0.7,2.7-1.5,5.3-2.3,7.9c-0.7,2.2-1.2,4.4-1.5,6.7
				c-0.3,3.2,0.2,6.1,2.6,8.4c1,1,2.2,1.5,3.6,1.5c1.2-0.1,2.4-0.2,3.6-0.6c2.8-0.9,5.4-2.1,7.8-3.8c0.5-0.3,0.7-0.7,0.8-1.3
				c1.4-11.8,4.9-22.9,10.6-33.4c2.2-4,5-7.5,8.3-10.7c1.2-1.2,2.5-2.2,4-3c1.5-0.8,3.1-1.2,4.7-0.9c1.8,0.3,3.2,1.3,4.3,2.7
				c1.8,2.4,2.4,5.2,1.9,8.2c-0.3,1.9-0.9,3.6-1.6,5.4c-3,7.4-7.5,13.9-13.1,19.5c-1.7,1.7-3.5,3.3-5.3,5c-1.8,1.6-1.8,1.6-2.1,4
				c-0.3,3.5-0.6,6.9-0.9,10.4c0,0.1,0,0.3,0,0.6c0.4-0.2,0.8-0.4,1.1-0.6c5-3.1,9.8-6.6,14.4-10.2c0.8-0.6,1.6-1.3,2.5-1.9
				c0.5-0.4,0.7-0.8,0.8-1.4c0.4-1.9,1-3.8,2-5.6c0.7-1.2,1.5-2.3,2.5-3.2c0.4-0.3,0.8-0.6,1.2-0.9c1.6-0.9,3.1-0.6,4.3,0.8
				c0.8,0.9,1.2,1.9,1.5,3c0.5,1.9,0.6,3.8,0.6,5.7c0,2.4,0,4.8,0,7.2c0.1,1.9,0.3,3.9,1,5.7c0.4,1,0.9,2,1.5,2.8
				c1.3,1.8,3.1,2,4.8,0.7c0.7-0.6,1.4-1.2,2-1.9c1.5-1.8,2.7-3.8,3.6-6c1.4-3.4,2.2-7,2.8-10.6c0.3-1.5,0.4-3,0.7-4.6
				c-1,0.2-1.8,0.4-2.7,0.6c-6.7,1.3-14.4-2.8-17.1-8.9c-1.3-2.8-1.5-5.5-0.1-8.3c1.9-3.8,5.6-5.4,9.6-4.2c2.4,0.7,4.4,2,6.2,3.8
				c3.1,3.1,4.9,6.9,5.9,11.1c0.1,0.6,0.3,1.2,0.4,1.8c3.2-1.9,5.5-4.5,7-7.8c1.5-3.5,2.4-7.2,1.9-11.1c-1.4,0.1-2.8,0.3-4.1,0.4
				c-2.1,0.1-4.1-0.2-6.1-1.1c-2.5-1.1-4.1-2.9-4.8-5.6c-1-4.3,2.2-6.5,5-6.6c2.6-0.1,4.8,0.9,6.7,2.6c1.8,1.6,3.1,3.6,4.1,5.8
				c0.1,0.3,0.2,0.5,0.4,0.9c0.7-0.1,1.3-0.2,2-0.4c2.4-0.4,4.8-0.9,7.2-1.2c2-0.3,3.9-0.3,5.9,0.1c4.8,0.9,7.7,4,8,8.9
				c0.2,2.8-0.2,5.6-0.9,8.4c-1.2,4.8-2.5,9.6-3.7,14.4c-1.9,7.3-3.4,14.7-4.3,22.2c-0.4,3.5-0.5,7.1,0.1,10.6
				c0.2,0.9,0.5,1.7,0.9,2.5c0.6,1.1,1.5,1.2,2.4,0.4c0.5-0.4,0.8-1,1.1-1.5c1-1.9,1.6-4,2-6.1c0.7-3.6,1.2-7.1,1.8-10.7
				c0.3-1.7,0.2-3.3-0.1-5c-1-6.1-0.8-12.1,1.5-18c0.8-2.2,2-4.2,3.5-6c1.1-1.3,2.4-2.4,4-3.2c3-1.4,6.2-0.6,8,2.3
				c1.7,2.8,2.1,5.8,1.1,8.9c-0.6,2.1-1.5,4.1-2.7,5.9c-1.4,2.2-3.1,4-5.5,5.1c-0.1,0.1-0.2,0.1-0.4,0.3c0.2,1.4,0.4,2.8,0.7,4.2
				c0.3,1.7,0.8,3.5,1.6,5c0.4,0.7,0.8,1.3,1.3,1.9c1.2,1.4,2.2,1.5,3.6,0.3c0.5-0.4,0.9-0.9,1.3-1.4c1.8-2.4,3.1-5,4.4-7.7
				c1.7-3.6,2.8-7.4,4-11.1c0.1-0.3,0.1-0.6,0.1-0.9c-0.5-4.1-1.1-8.3-1.6-12.4c-0.4-3.4-0.7-6.7-0.9-10.1c-0.1-1.6,0.1-3.1,0.2-4.7
				c0.1-1.1,0.6-2,1.3-2.9c1.2-1.5,3-1.8,4.7-0.8c0.9,0.6,1.5,1.4,2.1,2.3c0.9,1.6,1.5,3.3,2,5.1c0.9,3.3,1.5,6.7,2,10.1
				c0.9,6.7,1.7,13.3,2.6,20c0.8,5.9,1.7,11.7,2.6,17.6c0.4,2.8,1,5.6,1.5,8.4c0.1,0.3,0.2,0.6,0.3,1.2c0.2-0.5,0.3-0.7,0.4-1
				c1.1-4.6,2.3-9.3,3.4-14c1.3-5.7,2.5-11.4,3.8-17.1c0.5-2.2,1.3-4.3,2.1-6.4c0.6-1.6,1.9-1.9,3.1-0.6c0.6,0.6,1,1.3,1.5,2
				c1.2,1.9,2.5,3.7,4.1,5.3c0.8,0.8,1.6,1.5,2.7,2.1c0.1-1,0.3-1.9,0.4-2.8c0.5-3.1,1.3-6.1,2.7-9c1.1-2.4,2.6-4.4,4.8-6
				c1.1-0.8,2.4-1.5,3.8-1.8c4.1-0.9,6.6,2,7.1,4.9c0.4,2.7-0.2,5.3-1.3,7.7c-1.1,2.5-2.7,4.6-4.7,6.4c-0.3,0.3-0.6,0.5-0.6,1.1
				c0.2,3.7,0.4,7.4,1.4,11c0.4,1.4,0.8,2.8,1.4,4.1c0.6,1.6,1.6,2.9,3,3.9c1.6,1.1,2.9,1.1,4.4,0c1.2-0.9,2.1-2,2.8-3.2
				c2-3.3,3.5-6.8,4.3-10.5c1-4.4,1.7-8.9,2.1-13.5c0.3-3.2,0.4-6.5,0.3-9.7c-0.1-3-0.4-5.9-1.1-8.9c0-0.2-0.1-0.4-0.2-0.8
				c-0.4,0.1-0.7,0.1-1,0.2c-2.4,0.6-4.9,1-7.5,0.9c-1.4-0.1-2.7-0.3-3.9-0.9c-1.5-0.7-2.7-1.7-3.5-3.2c-1.8-3.2-1.4-7.4,1-10.2
				c2.1-2.5,5-3.2,8.1-2c1.8,0.7,3.3,1.9,4.6,3.3c1.7,2,2.8,4.2,3.7,6.6c0.1,0.3,0.3,0.7,0.4,1c0,0.1,0.1,0.1,0.2,0.2
				c1.7-0.4,3.5-0.8,5.3-1.3c2.8-0.7,5.6-1.5,8.4-1.8c1.7-0.2,3.3-0.3,5-0.2c2.9,0.3,5.2,1.6,7.1,3.8c2.4,2.7,3.7,5.9,4.2,9.5
				c0.5,4.3,0.2,8.6-0.5,12.8c-1.3,6.7-2.7,13.4-4,20.2c-1,5.3-2,10.5-2.8,15.8c-0.4,2.3-0.6,4.6-0.5,6.9c0.1,1,0.2,1.9,0.5,2.9
				c0.2,0.9,0.5,1,1.4,0.9c1.2-0.1,2.3-0.6,3.1-1.4c0.6-0.6,1.2-1.3,1.7-2c2-2.5,3.5-5.4,5.1-8.2c1-1.8,2.1-3.5,3.2-5.2
				c0.7-1,1.5-2,2.3-2.9c0.6-0.6,1.3-1.1,2-1.4c1.7-0.8,3.5-0.2,4.5,1.4c0.5,0.8,0.8,1.7,0.8,2.7c0.2,2.6-0.4,5.1-1.5,7.4
				c-2.2,4.5-5.4,8.3-9.3,11.4c-1.9,1.5-3.9,2.8-6.1,3.9c-3.5,1.6-7,1.7-10.7,0.6c-2.6-0.8-4.6-2.6-6.2-4.7c-2-2.7-3.1-5.7-3.5-9.1
				c-0.4-3.8-0.2-7.6,0.3-11.4c0.9-6.7,2.6-13.2,4.2-19.7c1.3-5.2,2.5-10.4,3.6-15.6c0.5-2.1,0.7-4.3,0.8-6.5
				c0.1-1.6-0.1-3.3-0.7-4.8c-0.6-1.4-1.5-2.3-3-2.7c-1.6-0.4-3.2-0.5-4.8-0.3C291.1,148.9,288.2,149.8,285.1,150.7z M105,198.1
				c0,0.3-0.1,0.4-0.1,0.6c-0.1,5.4,0,10.7,0.5,16c0.5,4.8,1.4,9.5,2.9,14.1c1.1,3.4,2.4,6.7,4.2,9.7c1.3,2.1,2.9,3.9,5,5.2
				c1.7,1,3.5,1.2,5.4,0.7c2.4-0.6,4.1-2.1,5.3-4.2c1.7-2.9,2.7-6.1,3.3-9.4c0.6-3.3,0.4-6.5-0.2-9.8c-0.7-3.8-1.9-7.4-3.9-10.7
				c-2.9-4.8-7.1-8.3-12.1-10.7C112.2,198.1,108.7,197.8,105,198.1z M107.4,174.9c0.1,0,0.1,0.1,0.2,0.1c0.2-0.2,0.3-0.3,0.5-0.5
				c1.9-2.1,3.8-4.1,5.6-6.2c2.9-3.3,5.7-6.7,8-10.4c1.6-2.5,2.8-5.2,3.6-8.1c0.5-1.9,0.5-3.8-0.5-5.6c-1.2-2.4-2-2.8-4.5-1
				c-0.9,0.6-1.6,1.6-2.2,2.6c-0.9,1.4-1.8,2.9-2.5,4.5c-3.1,6.4-5.3,13.1-7,20C108.1,171.8,107.8,173.4,107.4,174.9z M152.2,169.9
				c0-0.1,0.1-0.2,0.1-0.3c-0.3-3.3-1.7-6-4.1-8.2c-1.1-1-2.5-1.5-4-1.5c-1.7,0-2.8,0.8-3.1,2.5c-0.6,2.5,0.5,4.4,2.4,6
				c1.3,1,2.8,1.6,4.4,2C149.4,170.7,150.8,170.5,152.2,169.9z M196.7,180.4c1-0.4,1.7-1,2.3-1.6c1.1-1.3,2.1-2.7,2.8-4.3
				c1-2.1,1.4-4.4,1.2-6.7c-0.1-1-0.3-2-1-2.8c-1.2-1.3-1.8-1-2.5,0.1c-0.5,0.9-1,1.8-1.3,2.8c-0.9,3.1-1.4,6.3-1.5,9.5
				C196.6,178.3,196.7,179.3,196.7,180.4z M281.2,147.7c-0.6-1.3-1-2.4-1.6-3.5c-0.6-1.1-1.5-1.8-2.7-2.1c-0.8-0.2-1.5-0.1-2.1,0.4
				c-1,0.9-1.4,2-1.1,3.3c0.3,1.2,1.2,1.9,2.4,2c1.5,0.1,3.1,0.1,4.6,0.1C280.8,147.9,280.9,147.8,281.2,147.7z M263.8,175.3
				c2.4-2.7,3.8-5.7,3.9-9.1c0.1-1.1-0.2-2.3-1-3.2c-0.4-0.5-0.8-0.5-1.2,0c-0.3,0.4-0.5,0.8-0.6,1.3c-0.7,2.8-1,5.7-1.2,8.5
				C263.8,173.6,263.8,174.3,263.8,175.3z M162.3,146.6c0-0.2,0-0.3-0.1-0.4c-1-1.6-2.3-3-4-3.9c-0.8-0.5-1.8-0.8-2.8-0.7
				c-1.5,0.1-2.2,1.4-1.5,2.7c0.5,0.9,1.2,1.6,2.2,1.8c1.4,0.2,2.9,0.4,4.4,0.6C161.1,146.6,161.7,146.6,162.3,146.6z"/>
		</g>
		<g>
			<g>
				<g>
					<path class="st0" d="M194.8,252.9c0.9,0.3,1.7,0.6,2.5,1c1,0.5,2,1.1,2.9,1.8c2.7,2.5,4.7,5.6,5.7,9.2c1,3.4,0.2,6.6-1.4,9.7
						c-2.1,4-5.5,6.1-9.9,6.9c-2.6,0.5-5.3,0.8-8,0.8c-1.1,0-2.2,0.3-3.4,0c-2.1-0.5-3.3-1.7-3.6-3.9c-0.1-0.5-0.1-0.9-0.1-1.4
						c-0.2-5.8-0.2-11.6-0.5-17.5c-0.3-6.5-0.4-13-0.3-19.5c0.1-3.1,0.2-6.2,0.4-9.2c0.1-1.2,0.4-2.4,0.7-3.6
						c0.2-0.9,0.9-1.5,1.7-1.9c0.9-0.4,1.9-0.7,2.9-0.8c1.8-0.3,3.6-0.4,5.4-0.2c2.6,0.4,4.7,1.5,6.6,3.4c2.6,2.6,4.1,5.8,4.9,9.3
						c1.4,6.4-0.6,11.5-5.7,15.5C195.2,252.6,195.1,252.7,194.8,252.9z M189.6,278.6c0.2,0,0.3,0,0.4-0.1c1.7-0.8,3.4-1.5,5-2.3
						c0.5-0.3,1-0.6,1.5-1c2.3-1.9,3.8-4.2,3.7-7.3c-0.1-4-1.8-7.4-4.9-10c-1-0.8-2.2-1.3-3.4-1.6c-0.7-0.1-1.5-0.4-2.3-0.2
						C189.6,263.7,189.8,271.1,189.6,278.6z M189.5,250.4c1.3-0.5,2.3-1.3,3.1-2.2c3.2-3.7,4.3-7.9,2.9-12.6
						c-0.9-2.9-2.4-5.2-5.4-6.3c-0.2-0.1-0.4-0.1-0.6-0.1C189.5,236.3,189.5,243.3,189.5,250.4z"/>
					<path class="st0" d="M215.2,254.7c0.1,1.4,0.1,2.6,0.2,3.9c0.2,2.1,0.4,4.2,1,6.2c0.5,1.9,1.2,3.6,2.5,5.1
						c0.7,0.8,1.4,1.4,2.4,1.8c1.9,0.9,3.9,0.5,5.4-0.9c0.9-0.8,1.5-1.9,2-3c1.5-3.3,2.6-6.7,3.2-10.3c0.4-2.1,2.4-3.2,4.3-2.1
						c1,0.5,1.3,1.4,1.3,2.4c0.1,1.8,0,3.5-0.4,5.3c-0.4,2-0.9,3.9-1.9,5.7c-2.6,4.6-6.1,8.2-11.3,9.8c-4.3,1.4-8.8-0.1-11.5-3.7
						c-1.7-2.3-2.9-4.8-3.8-7.5c-1.9-5.9-2.5-12-2.2-18.2c0.2-4.1,1-8.1,2.6-11.9c0.9-2.1,2-4.1,3.7-5.7c2.1-2,4.5-3.2,7.4-3
						c0.7,0,1.5,0.1,2.2,0.4c4.6,1.8,7.7,5.1,8.5,10.1c0.6,3.9-0.5,7.5-3,10.5c-3.1,3.7-7,5.6-11.9,5.2
						C215.7,254.6,215.5,254.7,215.2,254.7z M215.4,251.1c1.7,0,3.2-0.4,4.7-0.9c3.4-1.3,5.5-3.8,6.1-7.3c0.4-2.5-0.1-4.8-1.8-6.7
						c-0.8-0.9-1.3-1-2.4-0.5c-0.7,0.3-1.3,0.7-1.8,1.2c-1.1,1-1.9,2.1-2.5,3.5c-0.5,1.3-1,2.6-1.3,4
						C215.7,246.4,215.4,248.7,215.4,251.1z"/>
				</g>
				<g>
					<path class="st0" d="M258,229.1c0.3-0.7,0.5-1.5,0.8-2.2c0.8-2,1.7-4,3-5.8c0.7-0.9,1.5-1.8,2.4-2.5c1.8-1.4,3.9-1.1,5.5,0.5
						c0.8,0.9,1.4,1.9,1.9,3.1c1.1,2.5,1.7,5.1,2.2,7.7c0.5,2.6,0.9,5.2,1.4,8c0.1-0.4,0.2-0.7,0.3-0.9c0.6-2.7,1.2-5.5,2.2-8.1
						c0.6-1.6,1.4-3.1,2.4-4.5c0.8-1.1,1.7-1.9,2.9-2.6c2.5-1.4,5.2-1,6.9,1.2c0.8,1.1,1.5,2.3,2.1,3.5c1.2,2.6,1.7,5.5,2,8.4
						c0.8,6.5,0.9,12.9,0.8,19.4c0,1.1-0.1,2.3-0.3,3.4c-0.3,1.8-1.2,2.5-3,2.4c-0.7,0-1.5-0.1-2.2-0.2c-1.9-0.3-3.1-1.7-3.3-3.7
						c-0.1-1.2-0.1-2.3-0.1-3.5c0-3,0-6-0.1-8.9c-0.1-3.8-0.2-7.6-0.8-11.3c-0.2-1.2-0.4-2.4-1-3.6c-0.3,0.4-0.5,0.6-0.7,0.9
						c-0.6,1.4-1.3,2.7-1.8,4.1c-1,3.1-1.5,6.3-2,9.5c-0.7,4.4-1.1,8.9-1.4,13.4c0,0.6-0.2,1.3-0.4,1.9c-0.3,0.8-0.9,1.3-1.8,1.4
						c-1.1,0.1-2.3,0.2-3.4,0.2c-0.3,0-0.7-0.1-1-0.1c-1.3-0.2-2.1-1-2.3-2.3c-0.2-1.3-0.4-2.6-0.6-3.9c-0.2-2.3-0.3-4.6-0.5-6.9
						c-0.3-5.7-0.9-11.3-2-16.9c-0.1-0.8-0.5-1.4-1-1.9c-0.7-0.6-1.3-0.6-2,0c-0.8,0.6-1.3,1.4-1.6,2.3c-0.7,1.9-1.4,3.8-2,5.8
						c-1.1,4-1.5,8.2-1.6,12.3c-0.1,3.2-0.3,6.4-0.4,9.5c-0.1,2.3-0.1,4.6-0.1,6.8c-0.1,2.9-0.1,5.9-0.2,8.8
						c-0.1,2.9-1.1,3.2-3.2,3.4c-1.3,0.1-2.6,0.1-3.9-0.2c-1.5-0.4-2.4-1.2-2.6-2.8c-0.2-1.4-0.4-2.9-0.5-4.3
						c-0.1-3.1-0.2-6.2-0.3-9.3c-0.1-3.9-0.2-7.9-0.4-11.8c-0.3-5.6-0.1-11.2,0.1-16.8c0.1-2.4,0.3-4.9,0.5-7.3
						c0-0.4,0.1-0.9,0.3-1.3c0.4-1,1.1-1.6,2.2-1.6c1.5-0.1,3-0.2,4.5-0.3c2.7-0.1,3.6,0.8,3.6,3.4c0,1.4,0,2.8,0,4.2
						C257.8,229.1,257.9,229.1,258,229.1z"/>
					<path class="st0" d="M314.7,250.1c-0.9,1.4-1.6,2.8-2.5,4c-0.6,0.9-1.4,1.7-2.3,2.4c-1.8,1.5-3.8,1.6-5.9,0.4
						c-1.9-1.1-3.1-2.7-4-4.6c-0.9-1.8-1.2-3.7-1.4-5.6c-0.4-3.2-0.5-6.5-0.4-9.7c0-1.4,0.2-2.9,0.2-4.3c0.1-1.6,1-2.6,2.5-3.1
						c1.2-0.4,2.5-0.5,3.8-0.5c0.5,0,0.9,0,1.4,0.1c1,0,1.6,0.5,1.9,1.5c0.1,0.5,0.2,1.1,0.2,1.7c0,2.5,0,5-0.1,7.5
						c-0.1,3,0,6,0.5,8.9c0.1,0.5,0.2,0.9,0.4,1.5c0.3-0.3,0.5-0.4,0.7-0.6c1.3-1.3,1.9-2.9,2.3-4.6c0.9-4,1.5-8,1.7-12.1
						c0-0.5,0.1-1,0.1-1.5c0.1-1.5,0.9-2.4,2.2-3c0.9-0.4,1.8-0.4,2.8-0.3c1,0.1,1.5,0.7,1.7,1.6c0.3,1,0.4,2.1,0.5,3.2
						c0.4,4.8,0.2,9.6-0.3,14.4c-0.3,3.5-0.8,7-1.7,10.5c-0.8,3.5-2,6.9-3.7,10c-2.2,4.1-5.5,7.1-9.9,8.6c-3.6,1.2-6.9,0.2-9.6-2.3
						c-2-1.8-3.2-4.1-4.1-6.6c-0.5-1.4-0.2-2.3,1.1-3.1c1.9-1.2,2.7-1.1,4,0.8c0.4,0.5,0.6,1.1,0.9,1.7c1,2.6,4,4,6.7,3.1
						c2.7-0.9,4.8-2.6,6.4-4.9c2-2.8,3.1-6,3.6-9.4C314.5,253.9,314.7,252,314.7,250.1z"/>
				</g>
			</g>
			<g>
				<g>
					<path class="st0" d="M123.1,87.9c-0.3,1-0.5,1.8-0.7,2.5c-0.7,1.8-1.4,3.6-2.2,5.4c-0.9,1.8-2.2,3.4-3.9,4.5
						c-1.9,1.3-3.9,1.9-6.2,1.2c-0.9-0.2-1.8-0.4-2.7-0.7c-1.2-0.4-2.1-1.2-2.9-2.2c-1.3-1.5-2.2-3.3-2.8-5.2
						c-1.2-3.4-1.8-7-2.2-10.6c-0.5-3.6-0.5-7.1-0.4-10.7c0-0.6,0.1-1.2,0.2-1.8c0.2-1.2,0.9-2,2-2.6c1.7-0.8,3.6-0.8,5.4-0.6
						c0.8,0.1,1.5,0.6,1.8,1.4c0.4,0.9,0.7,1.8,0.8,2.8c0.2,2.1,0.3,4.2,0.5,6.3c0.3,5,0.6,10.1,1.6,15.1c0.2,1.1,0.6,2.1,1,3.2
						c0.1,0.4,0.4,0.7,0.6,1.1c0.5-0.3,1-0.5,1.4-0.9c2.4-1.8,3.9-4.2,4.4-7.2c0.5-3,0.8-6.1,0.8-9.2c0.1-3.1,0.1-6.2,0.2-9.3
						c0-0.7,0.1-1.4,0.2-2.1c0.2-1.4,1-2.4,2.3-2.9c1.8-0.7,3.7-0.6,5.5-0.2c1.1,0.3,1.7,1.1,2,2.1c0.4,1.4,0.7,2.7,0.8,4.1
						c0.4,4,0.7,8,1.1,12c0.6,7.1,0.9,14.3,0.9,21.5c0,5-0.5,10-1.9,14.8c-1.3,4.4-3.5,8.1-7,11.2c-1.7,1.5-3.6,2.6-5.9,3
						c-1.9,0.4-3.7,0.1-5.5-0.8c-2.2-1.1-3.9-2.7-5.1-4.8c-1.1-1.8-1.8-3.8-2.4-5.8c-0.4-1.3-0.1-2.5,0.7-3.6
						c0.9-1.1,2.3-0.9,2.9,0.4c0.2,0.4,0.3,0.8,0.4,1.2c0.4,1.8,1.1,3.5,2.2,5c0.4,0.6,1,1.2,1.5,1.8c1.1,1.2,2.5,1.4,4,1
						c2.3-0.6,3.9-2.1,5-4.2c0.9-1.9,1.4-3.9,1.8-5.9c0.6-3.6,0.9-7.3,1-11c0.1-4.5-0.1-9-0.4-13.5c-0.1-1.5-0.3-3-0.4-4.5
						C123.3,88.7,123.2,88.4,123.1,87.9z"/>
					<path class="st0" d="M178.8,97.1c0.1,3.7,0.1,7.4,0.3,11c0.2,4.1,0.8,8.1,1.8,12.1c0.3,1.1,0.8,2.2,1.2,3.3
						c0.3,0.6,0.7,1.1,1.1,1.5c0.4,0.4,0.7,0.4,1.1-0.1c0.3-0.4,0.5-0.9,0.7-1.3c0.8-1.7,1.1-3.6,1.4-5.4c0.8-4.4,1.1-8.8,1.5-13.2
						c0.5-7.1,0.6-14.2,0.8-21.3c0-1.7,0.2-3.4,0.4-5.1c0.1-0.6,0.3-1.2,0.6-1.8c0.5-0.9,1.3-1.4,2.3-1.4c1,0,1.7,0.7,2,1.6
						c0.3,1,0.5,2,0.5,2.9c0.3,3.9,0.2,7.9,0,11.8c-0.2,3.8-0.4,7.6-0.6,11.4c-0.4,6-1,11.9-2.2,17.8c-0.5,2.7-1.5,5.4-3,7.7
						c-0.6,0.9-1.3,1.8-2,2.6c-1.9,1.9-4.3,2.3-6.8,1.3c-0.7-0.3-1.3-0.6-1.9-1.1c-3.1-2.4-5.5-5.4-6.8-9.2c-1.2-3.5-2-7.1-2.4-10.8
						c-0.4-3-0.7-6-0.9-9c-0.2-2-0.2-4.1-0.3-6.1c-0.1-4.4-0.1-8.7-0.2-13.1c0-1.1,0.1-2.1,0.2-3.2c0.3-2.3,1.7-3.6,3.9-3.8
						c1.1-0.1,2.3-0.1,3.4,0c1.1,0,1.8,0.6,2.3,1.6c0.9,1.8,1.3,3.7,1.3,5.6c0.2,4.5,0.3,9,0.4,13.4
						C178.9,97.1,178.9,97.1,178.8,97.1z"/>
					<path class="st0" d="M164,105c0,5.1-0.6,10.2-2.2,15.1c-0.5,1.4-1,2.7-1.8,3.9c-1.8,2.9-4.4,4.6-7.8,5.2
						c-2.1,0.3-4.1-0.2-6-1.2c-2.1-1.2-3.8-2.8-5.1-4.9c-1.8-2.7-3.1-5.6-3.8-8.8c-1.1-5.1-2-10.2-1.9-15.4c0.1-5,0.6-9.9,2.2-14.7
						c0.6-1.8,1.4-3.5,2.5-5c1.4-1.9,3.1-3.4,5.5-3.9c3.3-0.7,6.3,0.2,9,2.2c1.6,1.2,2.7,2.7,3.7,4.3c1.9,3.1,3.2,6.4,4,9.9
						C163.5,96,163.9,100.5,164,105z M145.1,95.6c0.1,5.4,0.5,10.6,1.4,15.7c0.6,3.1,1.4,6.1,3,8.8c0.5,0.8,1.1,1.6,1.8,2.3
						c0.4,0.4,1.1,0.6,1.7,0.9c0.5,0.2,1,0,1.4-0.3c1.7-1.5,3-3.3,3.6-5.5c0.7-2.8,1.1-5.6,1.3-8.4c0.4-5.4,0.1-10.8-1.2-16
						c-0.9-3.6-2.4-7-4.6-9.9c-0.7-0.9-1.5-1.7-2.5-2.3c-1.2-0.6-2.2-0.4-3.1,0.4c-0.9,0.8-1.5,1.8-1.8,3.1
						C145.3,88,145.2,91.9,145.1,95.6z"/>
				</g>
				<g>
					<path class="st0" d="M228.4,117.6c-0.2,1.1-0.4,2.3-0.6,3.4c-0.5,2.8-1.1,5.6-2.2,8.2c-0.5,1.2-1.1,2.3-1.8,3.4
						c-0.5,0.7-1.1,1.4-1.8,2c-2,1.5-4.4,1.4-6.3-0.1c-1.1-0.9-1.9-2.1-2.5-3.3c-1.5-2.8-2.4-5.8-3-8.9c-0.5-2.9-0.8-5.8-0.8-8.7
						c-0.1-4.1-0.1-8.3-0.1-12.4c0-1.6,0.2-3.3,0.3-4.9c0-0.7,0.1-1.3,0.1-2c0-1.1,0.4-1.8,1.4-2.2c1.7-0.7,3.4-0.5,5,0.2
						c0.8,0.3,1.2,1,1.4,1.8c0.2,1,0.4,2,0.5,3c0.2,2.7,0.4,5.4,0.5,8.1c0.3,6.7,0.6,13.4,1.8,20c0.2,1.1,0.4,2.3,1.1,3.3
						c0.6-0.2,0.8-0.8,1-1.2c0.8-1.5,1.2-3.2,1.5-4.9c0.6-3.6,1-7.2,1.3-10.9c0.3-3.5,0.5-7.1,0.8-10.6c0.1-1.2,0.1-2.4,0.2-3.6
						c0-0.5,0.1-0.9,0.2-1.4c0.4-2,1.6-3.3,3.7-3.7c1.2-0.2,2.5-0.2,3.7-0.1c1.7,0.2,2.7,1.2,3.1,2.8c0.3,1.2,0.5,2.4,0.6,3.7
						c0.3,4.4,0.5,8.8,0.7,13.1c0.2,4.8,0.5,9.6,1.6,14.2c0.3,1.1,0.8,2.1,1.2,3.2c0.1,0.3,0.4,0.5,0.6,0.7c0.8-0.7,1.3-1.5,1.6-2.5
						c0.4-1.4,0.8-2.9,1-4.4c0.2-2,0.4-4.1,0.4-6.1c0.1-4.7,0.2-9.3,0.3-14c0.1-4.8,0.4-9.6,0.5-14.4c0.1-2.9,0.2-5.8,0.2-8.7
						c0-0.6,0.1-1.2,0.2-1.8c0.2-1.2,1-1.7,2.2-1.8c1.2,0,1.9,0.5,2.1,1.7c0.2,1,0.2,2,0.2,3c0.1,4.7,0.2,9.3,0.2,14
						c0,4.4-0.3,8.8-0.5,13.1c-0.1,1.6,0,3.1-0.1,4.7c-0.1,3.8-0.2,7.7-0.8,11.5c-0.4,3-1.2,5.9-2.8,8.5c-2.2,3.5-4.9,4.4-8.7,2.9
						c-2.1-0.8-3.7-2.2-4.9-4.2c-1.4-2.3-2.2-4.9-2.8-7.5C229.2,121.8,228.9,119.7,228.4,117.6C228.5,117.6,228.5,117.6,228.4,117.6
						z"/>
					<path class="st0" d="M302.6,128.7c1.5-0.1,2.8-0.2,4.1-0.2c1.4,0,2.8,0,4.2,0.1c1.1,0.1,1.7,0.8,1.7,1.7c0,1.1-0.6,1.8-1.7,1.9
						c-0.9,0.1-1.8,0.1-2.7,0.2c-1.7,0.1-3.3,0.2-5,0.3c-2,0.2-4,0.3-6-0.1c-0.5-0.1-1.1-0.3-1.6-0.6c-1-0.5-1.7-1.3-1.8-2.5
						c-0.2-1-0.3-1.9-0.4-2.9c-0.3-3.6-0.6-7.3-0.8-10.9c-0.1-2.3-0.2-4.5-0.2-6.8c-0.1-4.8-0.2-9.6-0.2-14.4c0-6.9,0-13.7,0.1-20.6
						c0-1.3,0.2-2.7,0.4-4c0.2-1.6,1-2.7,2.7-3.1c0.8-0.2,1.6-0.5,2.4-0.7c0.6-0.1,1.2-0.2,1.8-0.1c1.5,0.1,2.5,1,2.5,2.5
						c0.2,2.7,0.3,5.3,0.3,8c0,6.7-0.1,13.3-0.1,20c0,5.2,0.1,10.4,0.2,15.7c0.1,5.3,0.1,10.6,0.2,15.9
						C302.6,128.2,302.6,128.3,302.6,128.7z"/>
					<path class="st0" d="M264.6,105.1c0,6.7,0,13.5,0,20.2c0,0.5,0,0.9-0.1,1.4c-0.2,1.5-1.1,2.4-2.4,2.7c-1.2,0.3-2.4,0.4-3.7,0.4
						c-1.1,0-1.8-0.7-2.1-1.7c-0.3-1.1-0.6-2.2-0.7-3.3c-0.3-3.5-0.5-7.1-0.7-10.6c-0.2-4.5-0.4-9-0.5-13.4c-0.1-2-0.1-4.1-0.1-6.1
						c0-4.9,0-9.7,0-14.6c0-1.5,0.1-2.9,0.2-4.4c0-0.6,0.2-1.2,0.4-1.8c0.4-1.3,1.4-2.1,2.7-2.4c0.8-0.1,1.5-0.2,2.3-0.2
						c1.5,0,2.3,0.6,2.7,2c0.3,1.2,0.6,2.5,0.7,3.7c0.3,3.5,0.5,7.1,0.6,10.6C264.2,93.5,264.3,99.3,264.6,105.1
						C264.5,105.1,264.5,105.1,264.6,105.1z"/>
					<path class="st0" d="M280.6,118.7c0.3,0,0.7,0,1.1,0c1,0.1,2.1,0.1,3.1,0.2c0.4,0,0.7,0.2,1,0.3c1.2,0.7,1.3,2.3,0.1,3.1
						c-0.2,0.2-0.5,0.3-0.8,0.4c-2.4,0.5-4.8,1-7.2,0.8c-0.9-0.1-1.8-0.3-2.6-0.6c-1.8-0.6-2.9-2-3.2-3.8c-0.3-1.5-0.5-3-0.6-4.5
						c-0.3-5-0.7-9.9-0.9-14.9c-0.3-5.9-0.4-11.8-0.5-17.7c-0.1-3,0-6,0.2-9c0.1-2.2,1.1-3.3,3.3-3.7c1-0.2,2.1-0.1,3.1,0.2
						c1.1,0.3,1.8,1.1,2,2.3c0,0.3,0,0.6,0.1,0.9c0.1,2,0.2,3.9,0.3,5.9c0.1,2.3,0.3,4.5,0.4,6.8c0.2,3.9,0.3,7.8,0.5,11.7
						c0.1,2.2,0.2,4.4,0.3,6.6c0.1,2.7,0.3,5.5,0.4,8.2c0.1,2.1,0.1,4.2,0.1,6.3C280.5,118.4,280.6,118.4,280.6,118.7z"/>
				</g>
			</g>
		</g>
	</g>
	<g>
		<path class="st19" d="M151.8,214.6c0.2-1,0.3-1.8,0.5-2.7c0.4-1.9,1.2-3.5,2.6-4.9c2.6-2.6,6.1-2.7,8.8-0.1
			c1.1,1.1,1.9,2.4,2.5,3.8c1.1,2.4,1.6,5,1.9,7.6c0.7,6.1-0.2,11.9-2.3,17.6c-0.6,1.7-1.8,3-3.2,4.2c-0.9,0.8-2,1-3.1,0.6
			c-0.7-0.3-1.4-0.5-2-0.9c-2.1-1.2-4.1-2.7-5.8-4.4c-3.4-3.3-6.3-6.8-8.5-11c-1.1-2-1.9-4-2.2-6.3c-0.2-1.6,0-3.2,0.7-4.7
			c0.7-1.4,1.8-2.2,3.3-2.6c0.8-0.2,1.5,0,2.3,0.2c1.5,0.5,2.7,1.5,3.8,2.7C151.3,214,151.5,214.2,151.8,214.6z"/>
		<path class="st19" d="M77.4,241.9c0-0.1,0.1-0.3,0.2-0.5c0.6-2.5,2-4.3,4.1-5.8c1.9-1.4,4.1-1.8,6.3-0.7c1.3,0.6,2.2,1.7,2.8,2.9
			c0.7,1.6,1.1,3.3,1.2,5c0.2,3.5-0.4,6.9-1.2,10.2c-0.7,2.6-1.6,5.2-3,7.5c-0.3,0.5-0.7,1.1-1.1,1.5c-0.7,0.8-1.7,1.1-2.7,0.8
			c-4.3-1.3-8.5-3-12-6c-1.3-1.1-2.6-2.3-3.7-3.7c-1.9-2.4-2.8-5.1-2.2-8.2c0.5-2.4,1.9-4.1,4.4-4.7c1.2-0.3,2.5-0.2,3.7,0.2
			C75.1,240.9,76.2,241.4,77.4,241.9z"/>
		<path class="st19" d="M121.1,265.1c0.3-0.4,0.6-0.8,0.9-1.1c1-1.2,2.2-2.2,3.8-2.5c2.2-0.4,4.1,0.2,5.6,1.9
			c1.9,2.1,2.5,4.5,1.8,7.3c-0.1,0.3-0.2,0.6-0.3,0.9c-2.1,5.6-5.5,10.2-10.6,13.5c-0.7,0.4-1.4,0.8-2.2,1c-1.2,0.4-2.3,0.2-3.2-0.6
			c-0.5-0.4-1-0.9-1.3-1.5c-2.1-3.6-4.2-7.2-5.2-11.2c-0.7-2.7-1-5.5-0.5-8.3c0.2-1,0.5-2,1-2.8c1.7-2.9,5.2-3.3,7.5-0.9
			c0.9,0.9,1.6,2.1,2.1,3.3C120.7,264.3,120.9,264.6,121.1,265.1z"/>
	</g>
</g>
</svg>
