<?xml version="1.0" encoding="utf-8"?>
<!-- Generator: Adobe Illustrator 21.1.0, SVG Export Plug-In . SVG Version: 6.00 Build 0)  -->
<svg version="1.1" id="Calque_1" xmlns="http://www.w3.org/2000/svg" xmlns:xlink="http://www.w3.org/1999/xlink" x="0px" y="0px"
	 viewBox="0 0 432 432" style="enable-background:new 0 0 432 432;" xml:space="preserve">
<style type="text/css">
	.st0{fill:#343434;}
	.st1{fill:#ADCA60;}
	.st2{fill:#6EABC7;}
	.st3{fill:#EC6350;}
	.st4{fill:#EF8E81;}
	.st5{fill:#1B1B1B;}
	.st6{fill:#D2CE75;}
	.st7{fill:#F3C559;}
	.st8{fill:#AE5237;}
	.st9{fill:#73543B;}
	.st10{fill:#020203;}
	.st11{fill:#E4E0DF;}
	.st12{fill:#C1BB63;}
	.st13{fill:#F6D9D3;}
	.st14{fill:#EFAA9C;}
	.st15{fill:#F2C559;}
	.st16{fill:#303D46;}
	.st17{fill:#5A676E;}
	.st18{fill:#E46459;}
	.st19{fill:#A1263C;}
	.st20{fill:#483B3E;}
	.st21{fill:#DE9F84;}
	.st22{fill:#8B936E;}
	.st23{fill:#9A8E7C;}
	.st24{fill:#7E8D66;}
	.st25{fill:#D3C0AF;}
	.st26{fill:#6C2C3D;}
	.st27{fill:#A4BED3;}
	.st28{fill:#9FB187;}
	.st29{fill:#FAD5D2;}
	.st30{fill:#D7A2AE;}
	.st31{fill:#4E4D4D;}
	.st32{fill:#B84645;}
	.st33{fill:#756357;}
	.st34{fill:#9FAF88;}
	.st35{fill:#A08155;}
	.st36{fill:#EED0C6;}
	.st37{fill:#D4A77E;}
	.st38{fill:#CDC5BB;}
	.st39{fill:#9F4843;}
	.st40{fill:#D09F99;}
	.st41{fill-rule:evenodd;clip-rule:evenodd;fill:#A08155;}
	.st42{fill:#AE4759;}
	.st43{fill:#C9868F;}
	.st44{fill:#7F8D62;}
	.st45{fill:#D27F8E;}
	.st46{fill:#C69390;}
	.st47{fill:#9A9999;}
	.st48{fill:#B68368;}
	.st49{fill:#6D1F1F;}
	.st50{fill:#D2B6B4;}
	.st51{fill:#A7909E;}
	.st52{fill:#F8BD93;}
	.st53{fill:#397D59;}
	.st54{fill:#C4CEB3;}
	.st55{fill:#93A477;}
	.st56{fill:#D18B2E;}
	.st57{fill:#3C3C3B;}
	.st58{fill:#575756;}
	.st59{fill:#E6007E;}
	.st60{fill:none;}
	.st61{fill:#F9B233;}
	.st62{fill:#85CBCA;}
	.st63{fill:#E99F2B;}
	.st64{fill-rule:evenodd;clip-rule:evenodd;fill:#F9B233;}
	.st65{fill:#D60B52;}
	.st66{fill:#F4DCB5;}
	.st67{fill:#E58096;}
	.st68{fill:#E94865;}
	.st69{fill:#C21F4A;}
	.st70{fill:#C6C6C6;}
	.st71{fill:#DAA8CE;}
	.st72{fill:#F59F61;}
	.st73{fill:#E9E4AC;}
	.st74{fill:#E8375E;}
	.st75{fill:#833B12;}
	.st76{fill:#BB5D1C;}
	.st77{fill:#D17A3F;}
	.st78{fill:#DE184E;}
	.st79{fill:#D98892;}
	.st80{fill:#45553F;}
	.st81{fill:#517861;}
	.st82{fill:#A63070;}
	.st83{fill:#932065;}
	.st84{fill:#598967;}
	.st85{fill:#679275;}
	.st86{fill:#9A9A9A;}
	.st87{fill:#D8A49D;}
	.st88{fill:#D48A57;}
	.st89{fill:#E8BB98;}
	.st90{fill:#BA6F68;}
	.st91{fill:#924642;}
	.st92{fill:#E8C5AF;}
	.st93{fill:#D1906C;}
	.st94{fill:#C47C5C;}
	.st95{fill:#A2AD74;}
	.st96{fill:#F4EBD8;}
	.st97{fill:#C8A464;}
	.st98{fill:#F4A3A3;}
	.st99{fill:#F4CA71;}
	.st100{fill:#18223C;}
	.st101{fill:#E5B642;}
	.st102{fill:#224422;}
	.st103{fill:#245727;}
	.st104{fill:#386C38;}
	.st105{fill:#C54923;}
	.st106{fill:#264239;}
	.st107{fill:#C1292E;}
	.st108{fill:#D39812;}
	.st109{fill:#A67D52;}
	.st110{fill:#715640;}
	.st111{fill:#AB4B58;}
	.st112{fill:#67482E;}
	.st113{fill:#E7E6E6;}
	.st114{fill:#3C5259;}
	.st115{fill:#544842;}
	.st116{fill:#7DAD91;}
	.st117{fill:#5D9373;}
	.st118{fill-rule:evenodd;clip-rule:evenodd;fill:#C57B39;}
	.st119{fill:#C57B39;}
	.st120{fill:#B4DEF0;}
	.st121{fill:#923951;}
</style>
<g>
	<g>
		<path class="st42" d="M225.1,172.4c-0.2,0.4-0.4,0.7-0.7,1.1c-1.1,1.6-2.2,3.2-3.5,4.7c-0.7,0.9-1.8,1.6-2.8,2.2
			c-1.6,1-3.4,1.1-5.3,0.6c-0.2,1.9-0.4,3.6-0.6,5.4c-0.6,5.9-2,11.6-3.3,17.3c-3.2,13.4-8.4,26.1-15.3,38.2
			c-3.1,5.4-6.7,10.5-11.5,14.8c-3.6,3.2-7.6,6-12.4,7.7c-2.4,0.8-4.9,1.2-7.5,0.6c-1.7-0.4-3.1-1.2-4.5-2.1c-2.8-1.9-5.2-4.3-7-7
			c-3.7-5.7-6.4-11.7-8.4-18.1c-2.3-7.3-3.8-14.7-4.6-22.2c-0.1-1.1-0.3-2.1-0.4-3.2c0-0.2-0.1-0.4-0.3-0.6c-0.3,2-0.6,3.9-0.9,5.9
			c-1.6,9.6-3.2,19.2-6.2,28.6c-1.7,5.1-3.8,10.1-6.5,14.9c-1.6,2.7-3.4,5.3-5.7,7.5c-2.1,2.1-4.5,3.6-7.3,4.7c-5,2-9.6,1.3-14-1.4
			c-2.1-1.3-3.7-2.9-5.2-4.7c-3.1-3.6-5.3-7.6-7.2-11.8c-4.1-9.2-7-18.8-8.8-28.6c-0.3-1.5-0.6-3.1-0.8-4.6c0-0.1-0.1-0.1-0.1-0.2
			c-1.4,0.3-2.9,0.7-4.4,0.9c-3.5,0.5-7,0.3-10.5-0.2c-0.7-0.1-1.4-0.4-2.1-0.7c-0.9-0.5-1.3-1.4-1-2.2c0.3-0.9,1-1.4,2.1-1.4
			c1.1,0,2.2,0.1,3.2,0.1c4.1,0,8-0.8,12-1.9c-0.1-0.6-0.1-1.1-0.2-1.6c-0.3-4.2-0.7-8.4-1-12.7c-0.2-3-0.3-6-0.2-9.1
			c0.2-8.4,1-16.6,3-24.8c2-8.2,5.3-16,9.9-23.3c2.4-3.9,5.4-7.4,9-10.4c3.4-2.9,7.4-4.3,12-4.3c2.6,0,4.9,0.8,7,2.1
			c2.7,1.5,4.6,3.6,6,6.2c1.9,3.4,2.8,7.1,3.1,11c0.4,4.9-0.1,9.8-0.7,14.7c-0.9,7.3-3,14.4-6.1,21.2c-3,6.5-7,12.4-12.3,17.6
			c-2,2-4.1,4-6.2,5.9c-0.5,0.5-0.6,0.9-0.5,1.5c0.2,2.5,0.4,4.9,0.7,7.4c0.7,4.8,1.4,9.7,2.2,14.5c0.9,5.3,2.2,10.5,4.2,15.6
			c0.7,1.7,1.5,3.3,2.8,4.8c0.9,1,2,1.8,3.3,2.4c2.4,1.1,4.7,0.7,6.7-0.8c1-0.8,1.9-1.8,2.7-2.8c2.2-2.9,3.7-6.1,4.8-9.5
			c2.7-8.2,4.8-16.5,6.4-24.9c1.3-6.4,2.5-12.7,3.8-19.1c0.4-2.3,1-4.5,1.2-6.8c0.2-1.7,0-3.4-0.1-5c-0.5-9.1-0.2-18.2,2.7-27
			c0.6-1.8,1.3-3.5,2.3-5.1c1.9-3.3,4.9-5.5,8.9-6.4c2.3-0.5,4.6-0.3,6.8,0.4c3.4,1.1,6.1,3,8.3,5.5c2,2.2,3.4,4.8,4.6,7.4
			c2.5,5.7,4,11.6,4.8,17.7c0,0.2,0.1,0.4,0.1,0.7c0.6-0.3,0.6-0.8,0.7-1.3c1.8-4.6,4-9,7.1-13.1c2.5-3.3,5.6-6,9.6-7.8
			c1.9-0.8,3.8-1.3,5.9-1.5c4.5-0.3,7.9,1.5,10.6,4.6c2,2.4,3.2,5.1,4,7.9c0.7,2.8,0.9,5.6,1.1,8.5c0.1,1.3,0.8,1.9,2.2,1.4
			c0.7-0.2,1.4-0.7,2-1.2c1.4-1.1,2.3-2.6,3.2-4.1c1.7-3,3-6.1,4.3-9.3c0.6-1.6,1.3-3.2,2-4.7c1.2-2.4,2.9-4.4,5.5-5.7
			c3.7-1.9,7.5-1.3,10.1,1.9c1.5,1.8,2.3,3.9,3,6.1c1.2,4.1,2,8.4,2.5,12.6c0.8,7.6,1.4,15.2,2.1,22.9c0.6,7.4,1.1,14.8,1.7,22.2
			c0.5,5.8,1,11.5,1.7,17.3c0.9,7.3,2.2,14.5,3.7,21.6c0.2,1.1,0.5,2.3,0.9,3.5c0.1-0.4,0.3-0.7,0.4-1.1c2.5-8.3,4.3-16.8,6.1-25.3
			c2-9.5,4.1-19.1,6.1-28.6c1.4-6.9,2.7-13.9,4.1-20.8c1.7-7.9,2.5-16,3.7-24c0.6-3.6,1.2-7.3,1.9-10.9c0.2-0.9,0.5-1.9,1-2.7
			c1.2-2.2,3.8-2.5,5.5-0.7c0.7,0.8,1.3,1.7,1.6,2.7c0.7,2.1,1.2,4.3,1.7,6.5c1.4,6.4,2.6,12.8,4,19.2c0.4,2,1.3,4,1.9,6
			c0.1,0.4,0.3,0.8,0.6,1.4c0.2-0.6,0.4-1,0.5-1.4c2.5-7.4,5.6-14.5,10-21.1c3.3-5,7.3-9.4,12.2-13.2c4.9-3.8,10.4-6.3,16.8-7.1
			c8.4-0.9,14.7,0.9,20,9.1c2.3,3.6,3.4,7.7,3.7,11.9c0.6,9.8-2.8,18.5-9,26.4c-1.7,2.2-3.9,4-6.2,5.6c-6.9,4.6-14.5,7.6-22.9,8.9
			c-0.3,0-0.5,0.1-0.9,0.2c-0.1,0.6-0.1,1.3-0.2,1.9c-0.6,3.2-1.2,6.5-1.7,9.7c-0.7,5.1-1.4,10.1-1.8,15.2
			c-0.3,3.7-0.3,7.5-0.2,11.3c0.1,3.5,0.6,7.1,1.6,10.5c0.1,0.5,0.3,1,0.5,1.5c2,5.5,6.3,8.5,12.4,9.3c7.7,1.1,13.6-1.8,18.1-7.3
			c3.3-4,5.6-8.5,7.4-13.2c2.1-5.5,4.1-11.1,6.2-16.7c0.6-1.5,1.2-2.9,2-4.3c0.6-1,1.4-1.9,2.3-2.7c1.7-1.4,3.9-1.4,5.7-0.1
			c2.3,1.6,3.1,3.8,3.1,6.2c0.1,2.5-0.5,4.9-1.2,7.3c-1.5,5.2-4.2,10-7.2,14.6c-4.9,7.5-10.9,14.2-18.6,19.5
			c-3.6,2.5-7.3,4.5-11.6,5.7c-3.2,0.9-6.5,1.1-9.9,0.8c-3.5-0.3-6.9-0.9-10.1-2.3c-2.3-0.9-4.4-2.1-6.3-3.6
			c-0.3-0.2-0.5-0.4-0.8-0.6c-5.5-3.6-9-8.5-11.3-14.2c-3.2-7.6-5.5-15.3-6.1-23.5c-0.5-7.5-0.5-14.9-0.2-22.4
			c0.2-3.8,0.8-7.7,1.2-11.5c0.1-1,0-1.9-0.6-2.8c-4.9-7.5-7.8-15.6-9.5-24.1c-0.1-0.5-0.2-1-0.5-1.5c-0.3,1.4-0.6,2.9-0.9,4.3
			c-2.1,9.9-3.3,20-4.8,30c-1.5,10-3.4,20-5.7,29.8c-1.7,7.1-3.4,14.3-5.2,21.4c-0.5,2.1-1.2,4.2-2,6.2c-1.8,5.2-3.7,10.4-5.6,15.6
			c-0.7,1.8-1.6,3.6-2.6,5.3c-0.5,0.8-1.1,1.6-1.9,2.2c-1.8,1.5-4.1,1.4-5.6-0.2c-1-1.1-1.9-2.3-2.6-3.5c-2.4-4.3-4.2-8.9-6-13.4
			c-4.8-12.1-7.9-24.7-10.2-37.4c-1.4-7.5-2.4-15-3.1-22.6c-0.4-4.8-1.1-9.6-1.3-14.5c-0.3-4.8-0.2-9.6-0.3-14.4c0-0.4,0-0.8,0-1.2
			C225.3,172.4,225.2,172.4,225.1,172.4z M204,176.7c-0.1-1.3-0.2-3.7-0.6-6c-0.4-2.5-1.3-4.9-3.1-6.8c-2-2.1-4-2.6-6.8-1.3
			c-3.8,1.8-6.8,4.4-8.7,8c-2.5,4.6-4.1,9.5-5.6,14.5c-0.9,3.1-1.8,6.2-2.8,9.2c-0.5,1.5-1.3,3-2.6,4.1c-1.5,1.3-3.5,1.1-4.5-0.6
			c-0.5-0.9-0.9-1.9-1.1-2.9c-0.5-2.9-1-5.8-1.4-8.7c-0.4-2.7-0.5-5.5-1-8.2c-0.7-4.1-1.7-8.1-3.1-12.1c-1-2.9-2.5-5.7-4.5-8.2
			c-1.1-1.3-2.3-2.5-3.9-3.2c-2.4-1.1-4.3-0.6-5.5,1.7c-0.6,1.2-1.1,2.4-1.5,3.6c-1.4,4.6-1.8,9.3-2.2,14c-0.4,6.5-0.3,13,0.3,19.6
			c0.6,6.4,1.4,12.8,2.1,19.2c0.7,6.2,1.7,12.3,3.1,18.4c1.6,6.6,3.3,13.1,6.2,19.4c0.7,1.6,1.5,3.2,2.6,4.6
			c1.7,2.3,4.2,3.3,7.3,2.9c1.9-0.3,3.5-1.1,5.1-2.1c3.2-2.2,5.7-5.1,8-8.1c6.8-9.3,11.8-19.4,16.1-29.9
			C201.3,204.7,203.6,191.4,204,176.7z M96,202.3c0.3-0.2,0.5-0.3,0.6-0.4c4.8-4.6,9.1-9.7,12.1-15.5c4.2-8.2,6.2-16.8,6.4-25.8
			c0.1-5.2-0.6-10.3-2.1-15.2c-0.6-1.9-1.3-3.8-2.5-5.5c-0.8-1.1-1.6-2-2.8-2.7c-2.2-1.2-4-0.7-5.6,0.9c-0.3,0.3-0.6,0.8-0.9,1.2
			c-1.4,2.2-2.3,4.6-3.1,7.1c-2.3,7.2-2.9,14.6-3,22c-0.1,5.1,0,10.2,0.2,15.3c0.1,5,0.4,10.1,0.6,15.1C95.9,199.9,96,201,96,202.3z
			 M321.4,195.5c2.5-0.4,4.6-1,6.6-1.7c10.4-3.8,18.1-9.9,21.6-20c1.3-3.7,2-7.4,1.5-11.3c-0.3-2.3-1-4.6-2.6-6.5
			c-1.4-1.7-3.2-2.3-5.5-1.7c-1.5,0.4-2.9,0.9-4,1.8c-1.3,1.1-2.7,2.3-3.8,3.6c-2.4,2.8-4.2,5.9-5.8,9.1c-3.2,6.5-5.3,13.4-6.8,20.4
			C322.2,191.2,321.8,193.2,321.4,195.5z"/>
		<g>
			<path class="st20" d="M129.1,87.8c0-3.1-0.1-6.1,0-9.2c0.1-3,0.3-6.1,0.5-9.1c0-0.6,0.2-1.3,0.5-1.9c0.5-1.3,1.5-2.2,2.9-2.4
				c3.7-0.4,7.5-0.7,11.2,0c3.7,0.7,5.6,2.9,5.8,6.7c0.3,6.2,0.7,12.5,0.9,18.7c0.2,8.8,0.4,17.5,0.5,26.3c0,1.3-0.2,2.7-0.5,4
				c-0.4,1.7-1.6,2.7-3.3,2.7c-3.5,0.1-7,0.1-10.5,0c-1.1,0-2.3-0.4-3.4-0.9c-1.8-0.7-3-2.1-3.3-4.1c-0.2-1.3-0.4-2.7-0.5-4
				c-0.2-4.5-0.5-9-0.6-13.5C129,96.8,129.1,92.3,129.1,87.8C129.1,87.8,129.1,87.8,129.1,87.8z"/>
			<g>
				<path class="st20" d="M297.9,311.1c0.1,4.3,0.1,8.8,0.3,13.3c0.1,3.2,0.6,6.4,1.6,9.4c0.6,1.8,1.5,3.5,3,4.9
					c0.9,0.8,2,1.2,3.2,1c1.4-0.2,2.4-0.8,2.9-2.1c0.7-1.9,1.4-3.9,1.9-5.9c1.1-4.9,1.8-9.9,2.1-14.9c0.3-5.6,0.5-11.2,0.7-16.9
					c0.1-2.4,0.1-4.9,0.1-7.3c0-1.7,1-2.8,2.5-3.1c1.5-0.2,2.9,0.6,3.2,2.3c0.4,2.1,0.7,4.3,0.7,6.4c0.1,4.9,0.1,9.8-0.1,14.6
					c-0.3,6.9-0.8,13.8-2.5,20.5c-1,3.9-2.3,7.6-4.6,11c-2.4,3.5-5.4,6.1-9.6,7.2c-5.9,1.6-15.3-0.1-20.1-7.2
					c-2.8-4.1-4.6-8.6-5.4-13.5c-0.7-3.6-1-7.3-1.4-11c-0.3-2.1-0.5-4.3-0.7-6.4c-0.6-5.7-0.4-11.4,0-17.1c0.1-0.7,0.1-1.5,0.1-2.2
					c0.2-2.3,1.5-3.8,3.8-4c2-0.2,4-0.2,6-0.1c2.2,0.1,4.4,0.2,6.6,0.4c3.2,0.3,4.7,1.7,5.2,4.9c0.2,1.4,0.3,2.8,0.3,4.2
					C298,303.3,297.9,307.1,297.9,311.1z"/>
				<path class="st20" d="M340.4,288c1.8-0.1,3.4,0.4,5,1.2c2.9,1.5,5.4,3.5,7.3,6.1c0.5,0.6,0.9,1.4,1.1,2.1c0.3,0.9,0,1.8-0.7,2.4
					c-0.7,0.7-1.6,0.9-2.5,0.4c-0.9-0.5-1.8-1.2-2.6-1.9c-1.1-1-2.2-2.1-3.3-3c-0.6-0.5-1.4-1-2.1-1.4c-2.3-1.1-4.6-0.1-5.3,2.4
					c-0.4,1.3-0.2,2.5,0.2,3.7c0.8,2.1,1.9,3.9,3.3,5.5c1.5,1.7,3.1,3.4,4.6,5.1c2.7,2.9,5.4,5.7,7.7,9c2.4,3.5,4.3,7.3,5.1,11.5
					c0.8,3.7,0.8,7.4-0.1,11.2c-1.5,6-5.3,9.6-11.2,11.1c-7.2,1.9-13.6-1.1-17.9-6.8c-1-1.4-1.8-3-2.6-4.6c-0.3-0.7-0.4-1.5-0.5-2.3
					c0-1,0.5-1.8,1.5-2.2c0.9-0.4,2-0.1,2.7,0.6c0.2,0.2,0.4,0.4,0.5,0.7c2.2,3.6,5.3,6.2,8.9,8.2c1.3,0.7,2.7,0.8,4.1,0.4
					c1.3-0.3,2.1-1.1,2.5-2.4c0.8-2.5,0.5-4.8-0.6-7.1c-1-1.9-2.3-3.6-3.8-5c-1.2-1.1-2.3-2.2-3.5-3.2c-6.7-6.1-10.8-13.5-11.9-22.5
					c-0.3-2.5-0.4-5,0.1-7.6c1.2-6.1,4.8-9.8,10.9-11.2c0.5-0.1,0.9-0.2,1.4-0.3C339.3,288.1,339.9,288,340.4,288z"/>
			</g>
		</g>
	</g>
	<g>
		<path class="st20" d="M325.1,97.5c0,0.2,0,0.3-0.2,0.5c-3.1,3.2-5.7,4.6-5.5,9.1c0.1,2.8,2.2,3.8,2.3,6.1c0.1,1.7-0.4,2.5-2.1,3
			c-4.5,1.3-7.5-5.2-9.1-8.9c-0.9,0-1.7,0-2.6,0c2.2,3.2,6.3,8.7,1,9.6c-4.5,0.7-7.2-6-9-9.6c-1.9,0-3.8,0-5.7,0
			c2.4,2.7,5.7,5.9,5.9,9.1c0,0.4-0.1,0.6-0.4,0.8c-2.1,1.2-3.8,1.2-5.9-0.2c-2.5-1.7-6.1-6.4-7.9-9.7c-26.7,0.1-68.2,0.4-94.8-0.2
			c0.1,4.9,2.1,14.4-5.6,11c-3.3-1.4-6-5.1-8.7-7.5c-2-1.8-6.9-4.1-7.1-7.3c-0.2-3.1,6.5-5.9,8.4-7.5c2.3-2,5.1-5.5,8.2-6.2
			c7-1.5,5.7,7.1,5.2,12c20.7,0.5,56.3,0.3,77,0.2c2.7,0,5.4,0.3,8.1,0.4c2.8,0.1,5.6-0.1,8.4-0.1c0.1,0,0.3,0,0.4,0
			c1.3-0.2,2.1-2,2.6-3c0.6-1.2,1.2-2.5,1.9-3.6c2.6-4,4.3-6.1,8.7-3.6c0.5,0.3,1,0.6,0.9,1.2c-0.1,2.9-2.6,6-4.6,8.7
			c2.3,0,4.6-0.2,6.4-1.7c1.8-1.4,3.2-4,4.8-5.7c1.7-1.7,2.7-3,5.2-2.6c5.8,0.9,2.6,5.4-0.5,8.7c2-0.9,3.6-2.4,5.8-4.5
			c1.5-1.4,2.4-2.8,4.5-2.8C323.5,93.4,326,95.1,325.1,97.5z"/>
		<g>
			<path class="st20" d="M85.6,332.6c0-0.2,0.1-0.3,0.2-0.5c3.3-3.3,5.9-4.8,5.7-9.5c-0.1-2.9-2.2-4-2.4-6.4
				c-0.1-1.7,0.4-2.6,2.2-3.1c4.7-1.3,7.8,5.4,9.5,9.3c0.9,0,1.8,0,2.7,0c-2.3-3.3-6.5-9.1-1-10c4.7-0.8,7.5,6.3,9.4,10
				c2,0,3.9,0,5.9,0c-2.5-2.8-5.9-6.2-6.1-9.5c0-0.4,0.1-0.6,0.5-0.9c2.1-1.2,4-1.2,6.2,0.2c2.6,1.7,6.4,6.6,8.2,10.1
				c27.7-0.1,70.9-0.4,98.6,0.2c-0.1-5.1-2.1-14.9,5.8-11.5c3.4,1.5,6.3,5.3,9.1,7.8c2.1,1.8,7.2,4.2,7.4,7.6
				c0.2,3.3-6.8,6.2-8.7,7.8c-2.4,2.1-5.3,5.7-8.5,6.4c-7.3,1.5-6-7.4-5.4-12.4c-21.5-0.5-58.5-0.3-80.1-0.2c-2.8,0-5.6-0.3-8.4-0.4
				c-2.9-0.1-5.8,0.1-8.8,0.1c-0.1,0-0.3,0-0.4,0c-1.3,0.2-2.2,2.1-2.7,3.1c-0.7,1.2-1.2,2.6-2,3.8c-2.7,4.2-4.5,6.3-9,3.7
				c-0.5-0.3-1-0.7-1-1.3c0.1-3,2.8-6.3,4.8-9.1c-2.4,0-4.7,0.2-6.6,1.7c-1.9,1.5-3.3,4.2-5,5.9c-1.8,1.8-2.8,3.1-5.4,2.7
				c-6.1-1-2.7-5.6,0.5-9c-2,0.9-3.7,2.5-6.1,4.6c-1.5,1.4-2.5,2.9-4.7,2.9C87.3,336.9,84.7,335.1,85.6,332.6z"/>
			<path class="st42" d="M212.2,285.9c-12.3-7-34.4,10.7-39.8,22.5c-5.2-11.9-27-30-39.4-23.1c-13.8,7.6-6.2,26-0.5,37.4
				c6.4,12.9,16.1,25.6,27.4,35.5c3.9,3.4,7.9,6.4,12.1,9.1c4.2-2.6,8.3-5.6,12.3-8.9c11.5-9.7,21.3-22.2,28-35
				C218,312,225.9,293.8,212.2,285.9z"/>
		</g>
	</g>
</g>
</svg>
