<?xml version="1.0" encoding="utf-8"?>
<!-- Generator: Adobe Illustrator 22.0.1, SVG Export Plug-In . SVG Version: 6.00 Build 0)  -->
<svg version="1.1" id="Calque_1" xmlns="http://www.w3.org/2000/svg" xmlns:xlink="http://www.w3.org/1999/xlink" x="0px" y="0px"
	 viewBox="0 0 432 432" style="enable-background:new 0 0 432 432;" xml:space="preserve">
<style type="text/css">
	.st0{fill:#B3A6AD;}
	.st1{fill:#B6B155;}
	.st2{fill:#990033;}
	.st3{fill:#660A1E;}
	.st4{fill:#A7A6AA;}
	.st5{fill:#EF798A;}
	.st6{fill:#FFB2B2;}
	.st7{fill:#A70808;}
	.st8{fill:#DF4646;}
	.st9{fill:#FF7878;}
	.st10{fill:#F2A297;}
	.st11{fill:#BA1717;}
	.st12{fill:#543A3C;}
	.st13{fill:#CA1542;}
	.st14{fill:#E74C6E;}
	.st15{fill:#006837;}
	.st16{fill:#004924;}
	.st17{fill:#D33757;}
	.st18{fill:#E06581;}
	.st19{fill:#014724;}
	.st20{fill:#E14666;}
	.st21{fill:#ABDFD3;}
	.st22{fill:#C5EFE4;}
	.st23{fill:#DC4160;}
	.st24{fill:#A888AD;}
	.st25{fill:#B99BBF;}
	.st26{fill:#F8A362;}
	.st27{fill:#F9B587;}
	.st28{fill:#F2F2F2;}
	.st29{fill:#FDFFFE;}
	.st30{fill:#F2D668;}
	.st31{fill:#F9E4A5;}
	.st32{fill:#F5A6DF;}
	.st33{fill:#F4CEEB;}
	.st34{fill:#CCCCCC;}
	.st35{fill:#FBB03B;}
	.st36{fill:#FFFFFF;}
	.st37{fill:#ECCDD2;}
	.st38{fill:#8AD7AB;}
	.st39{fill:#8FC8E2;}
	.st40{fill:#D3CE94;}
	.st41{fill:#F9CFCF;}
	.st42{fill:#EDE9C3;}
	.st43{fill:#9BD6EA;}
	.st44{fill:#F8D9C4;}
	.st45{fill:#EB678B;}
	.st46{fill:#A5394C;}
	.st47{fill:#DD726C;}
	.st48{fill:#E5847A;}
	.st49{fill:#EF8A7F;}
	.st50{fill:#3CBC91;}
	.st51{fill:#8CC63F;}
	.st52{fill:#B78D5C;}
	.st53{fill:#2A2A2B;}
	.st54{fill:#EBCEC6;}
	.st55{fill:#F49090;}
	.st56{fill:#B3D8E8;}
	.st57{fill:#EFE6E4;}
	.st58{fill:#FBD8E3;}
	.st59{fill:#E48397;}
	.st60{fill:#B2E6F9;}
	.st61{fill:#42210B;}
	.st62{fill:#E0E0E0;}
	.st63{fill:#9D6D47;}
	.st64{fill:#EFD1B4;}
	.st65{fill:#0071BC;}
	.st66{fill:#679CBA;}
	.st67{fill:#DBDCDD;}
	.st68{fill:#DDB28E;}
	.st69{fill:#C69C6D;}
	.st70{fill:#603813;}
	.st71{fill:#8C6239;}
	.st72{fill:#E9EAE4;}
	.st73{fill:#F7931E;}
	.st74{fill:#754C24;}
	.st75{fill:#A67C52;}
	.st76{fill:#9E1E28;}
	.st77{fill:#F15A24;}
	.st78{fill:#E04819;}
	.st79{fill:#009245;}
	.st80{fill:#00552B;}
	.st81{fill:#84821B;}
	.st82{fill:#CD271F;}
	.st83{fill:#BB8130;}
	.st84{fill:#BBBABF;}
	.st85{fill:#E0E0E2;}
	.st86{fill:#C79359;}
	.st87{fill:#BA844F;}
	.st88{fill:#29ABE2;}
	.st89{fill:#EEB752;}
	.st90{fill:#A8B0B2;}
	.st91{fill:#035684;}
	.st92{fill:#EFBF73;}
	.st93{fill:#D3A272;}
	.st94{fill:#C3C8C9;}
	.st95{fill:#EBDCC9;}
	.st96{fill:#EAD696;}
	.st97{fill:#E57ACC;}
	.st98{fill:#8D5F96;}
	.st99{fill:#FFD9E4;}
	.st100{fill:#60BA84;}
	.st101{fill:#CCEDE5;}
	.st102{fill:#E8E8E8;}
	.st103{fill:#F9D2D2;}
	.st104{fill:#B9B9BA;}
	.st105{fill:#939393;}
	.st106{fill:#62612A;}
	.st107{fill:#79484E;}
	.st108{fill:#C2BE5C;}
	.st109{fill:#F1C3A2;}
	.st110{fill:#B2625C;}
	.st111{fill:#E1AE9D;}
	.st112{fill:#7597A0;}
	.st113{fill:#F2DBD5;}
	.st114{fill:#B27C62;}
	.st115{fill:#E6E6E6;}
	.st116{fill:#AF8864;}
	.st117{fill:#F1E9DF;}
	.st118{fill:#9E6A56;}
	.st119{fill:#2E3192;}
	.st120{fill:#EAEAEA;}
	.st121{fill:#1B1464;}
	.st122{fill:#EAE5E6;}
	.st123{fill:#7F9BEA;}
	.st124{fill:#EEBCC5;}
	.st125{fill:#DB8E98;}
	.st126{fill:#B58187;}
	.st127{fill:#80424C;}
	.st128{fill:#F3EED0;}
	.st129{fill:#CCD8B0;}
	.st130{fill:#46653B;}
	.st131{fill:#345129;}
	.st132{fill:#C9A6AC;}
	.st133{fill:#D6B6BA;}
	.st134{fill:#DE7139;}
	.st135{fill:#F2CB56;}
	.st136{fill:#DE3A55;}
	.st137{fill:#CD9586;}
	.st138{fill:#B47468;}
	.st139{fill:#F5DCD8;}
	.st140{fill:#C4BCBF;}
	.st141{fill:#E0B182;}
	.st142{fill:#9B6B61;}
	.st143{fill:#DBB89B;}
	.st144{fill:#DED2D3;}
	.st145{fill:#7D6364;}
	.st146{fill:#F1A3A1;}
	.st147{fill:#B3B3B3;}
	.st148{fill:#F9CEBE;}
	.st149{fill:#142738;}
	.st150{fill:#911928;}
	.st151{fill:#A32F4E;}
	.st152{fill:#7A0118;}
	.st153{fill:#DAE576;}
	.st154{fill:#E87F38;}
	.st155{fill:#F47621;}
	.st156{fill:#BC5B1B;}
	.st157{fill:#E6EF6A;}
	.st158{fill:#7C0101;}
	.st159{fill:#6DA84A;}
	.st160{fill:#83AF6E;}
	.st161{fill:#39B54A;}
	.st162{fill:#812791;}
	.st163{fill:#FC540D;}
	.st164{fill:#DD4410;}
	.st165{fill:#D3CE6A;}
	.st166{fill:#F2C8AD;}
	.st167{fill:#EFB58E;}
	.st168{fill:#F27622;}
	.st169{fill:#8DA34F;}
	.st170{fill:#ACBF77;}
	.st171{fill:#D6C188;}
	.st172{fill:#E5CED4;}
	.st173{fill:#15104F;}
	.st174{fill:#E5E3E3;}
</style>
<g>
	<g>
		<g>
			<g>
				<path class="st134" d="M134.4,358.1c0.6-0.2,1.1-0.5,1.6-0.6c2-0.4,3.8,0.1,5.4,1.2c0.3,0.2,0.5,0.4,0.6,0.7
					c0.3,0.5,0.3,1.1-0.1,1.5c-0.3,0.4-0.9,0.5-1.4,0.2c-0.3-0.2-0.6-0.4-0.9-0.6c-1.1-0.7-2.2-0.7-3.4-0.2c0.2,0.1,0.3,0.1,0.5,0.2
					c1.2,0.3,2.2,1,2.8,2c0.3,0.5,0.3,1-0.1,1.4c-0.4,0.4-0.9,0.4-1.4,0.2c-0.2-0.1-0.4-0.3-0.6-0.4c-0.6-0.4-1.2-0.8-2.1-0.7
					c0.1,0.2,0.2,0.4,0.2,0.6c0.2,0.7,0.5,1.4,0.7,2.1c0.1,0.3,0,0.6-0.1,0.9c-0.1,0.4-0.5,0.7-0.9,0.7c-0.4,0-0.8-0.2-1-0.6
					c-0.1-0.3-0.2-0.7-0.3-1.1c-0.2-0.9-0.6-1.6-1.5-2c-0.5-0.2-0.8-0.7-1-1.2c-0.1-0.5-0.3-1.1-0.3-1.6c-0.1-2.5-0.2-5.1-0.2-7.6
					c0-2.7,0.1-5.5,0.1-8.2c0-0.2,0-0.4,0.1-0.5c0.2-0.6,0.6-1,1.1-1c0.6,0,1.1,0.3,1.2,1c0.2,1,0.3,2.1,0.3,3.1
					c0.1,3.4,0.2,6.9,0.3,10.3C134.4,357.8,134.4,357.9,134.4,358.1z"/>
				<path class="st134" d="M151.8,358.1c0.6-0.2,1.1-0.5,1.6-0.6c2-0.4,3.8,0.1,5.4,1.2c0.3,0.2,0.5,0.4,0.6,0.7
					c0.3,0.5,0.3,1.1-0.1,1.5c-0.3,0.4-0.9,0.5-1.4,0.2c-0.3-0.2-0.6-0.4-0.9-0.6c-1.1-0.7-2.2-0.7-3.4-0.2c0.2,0.1,0.3,0.1,0.5,0.2
					c1.2,0.3,2.2,1,2.8,2c0.3,0.5,0.3,1-0.1,1.4c-0.4,0.4-0.9,0.4-1.4,0.2c-0.2-0.1-0.4-0.3-0.6-0.4c-0.6-0.4-1.2-0.8-2.1-0.7
					c0.1,0.2,0.2,0.4,0.2,0.6c0.2,0.7,0.5,1.4,0.7,2.1c0.1,0.3,0,0.6-0.1,0.9c-0.1,0.4-0.5,0.7-0.9,0.7c-0.4,0-0.8-0.2-1-0.6
					c-0.1-0.3-0.2-0.7-0.3-1.1c-0.2-0.9-0.6-1.6-1.5-2c-0.5-0.2-0.8-0.7-1-1.2c-0.1-0.5-0.3-1.1-0.3-1.6c-0.1-2.5-0.2-5.1-0.2-7.6
					c0-2.7,0.1-5.5,0.1-8.2c0-0.2,0-0.4,0.1-0.5c0.2-0.6,0.6-1,1.1-1c0.6,0,1.1,0.3,1.2,1c0.2,1,0.3,2.1,0.3,3.1
					c0.1,3.4,0.2,6.9,0.3,10.3C151.7,357.8,151.8,357.9,151.8,358.1z"/>
			</g>
			<path class="st135" d="M142.8,349.2c-7.4-0.2-15.4-1.2-23-4c-6.7-2.5-12.5-6.4-17.2-11.9c-0.1-0.2-0.3-0.3-0.4-0.5
				c-2.6-3.5-5.2-6.9-6.8-11c-1.2-3.1-2-6.3-2.1-9.6c0-1.1,0.2-2.1,0.3-3.2c0-0.3,0.2-0.6,0.3-0.9c0.3-0.6,0.8-0.9,1.5-0.7
				c0.6,0.2,1.2,0.4,1.7,0.7c1.3,0.7,2.5,1.6,3.7,2.3c2.5,1.5,5.2,2.7,8.1,3.1c2.6,0.4,5.3,0.2,7.8-0.5c1.3-0.4,2.5-1.1,3.6-2
				c3.8-3.3,6.7-7.3,8.7-11.9c1.6-3.7,2.7-7.6,3.7-11.6c2-8.3,4.2-16.6,6.7-24.8c1.1-3.6,2.3-7.1,4.1-10.4c3.6-7,8.8-12.4,16-15.8
				c2.8-1.3,5.8-2,8.8-2.7c3.6-0.8,7.3-1.1,11-0.7c5.2,0.6,9.8,2.5,13.7,6.1c4.2,3.8,6.7,8.6,8.1,14c0.7,2.8,1.2,5.7,1.4,8.5
				c0.1,1.5,0.3,3,0.3,4.5c0,5.1-0.6,10.1-1.8,15c-1.2,5.4-3.3,10.6-5.4,15.7c-2.4,5.7-5.4,11.1-8,16.6c-2.2,4.6-4.8,9-7.2,13.4
				c-0.5,0.9-1,1.9-1.5,2.8c-2.7,5.2-6.6,9.3-11.2,12.7c-4.2,3.1-9.1,4.8-14.1,5.8C150.1,349,146.8,349.1,142.8,349.2z"/>
			<path class="st136" d="M209.7,256.3c0.7,0.6,1.3,1.1,1.9,1.6c0.9,0.8,1.8,1.6,2.4,2.7c0.4,0.8,0.7,1.6,0.7,2.5
				c-0.2,2.1-2,3.4-4,2.6c-0.8-0.3-1.5-0.8-2.2-1.3c-1.9-1.5-3.4-3.3-4.7-5.4c-0.4-0.6-0.6-1.3-0.4-2.1c0.1-0.6,0.3-1.1,0.5-1.7
				c0.9-2.4,2.3-4.6,4.1-6.5c0.7-0.8,1.5-1.5,2.5-1.8c0.6-0.2,1.2-0.3,1.8-0.3c1,0,1.5,0.6,1.7,1.6c0.1,0.7,0,1.5-0.3,2.2
				c-0.4,1.3-1.1,2.4-1.9,3.4C211.1,254.6,210.5,255.4,209.7,256.3z"/>
			<path class="st24" d="M137.9,295.9c-0.4,0.3-0.8,0.7-1.2,0.9c-1.9,1.3-3.7,2.7-5.7,4c-2.3,1.5-4.8,2.5-7.5,3.2
				c-1.6,0.4-3.2,0.3-4.8-0.2c-1.4-0.5-2.3-1.4-2.8-2.7c-0.6-1.5-0.6-2.9-0.2-4.5c0.4-1.7,1.1-3.2,2.2-4.7c2-2.7,4.4-4.9,7.2-6.7
				c1.1-0.7,2.2-1.4,3.3-2c8.9-4.8,18.3-8.3,28.2-10.4c0.6-0.1,1.2-0.2,1.8-0.2c1.8,0,3,1.1,3,2.9c0,1.1-0.1,2.2-0.3,3.2
				c-0.9,4.7-2.3,9.2-3.6,13.8c-1.8,6.3-3.8,12.6-6.3,18.7c-1.3,3.1-2.7,6.2-4.6,9c-1,1.4-2,2.7-3.2,4c-0.8,0.8-1.8,1.5-2.7,2.2
				c-0.7,0.5-1.5,0.8-2.4,1c-1.9,0.3-3.4-0.3-4.7-1.7c-1.5-1.6-2.4-3.5-2.8-5.7c-0.5-2.6-0.3-5.2,0.3-7.8c0.7-3.6,2.2-7,3.9-10.2
				c0.9-1.7,1.8-3.4,2.7-5.1c0.1-0.2,0.2-0.5,0.4-0.8C138,295.9,138,295.9,137.9,295.9z"/>
			<path class="st21" d="M89.1,293.5c0.1-0.5,0.2-0.9,0.3-1.2c0.3-1.1,0.7-2.1,1.3-2.9c0.3-0.3,0.6-0.7,0.9-1c1.2-1,2.6-0.8,3.7,0.3
				c0.8,0.8,1.3,1.8,1.6,2.9c0.3,1.2,0.6,2.5,0.7,3.8c0.4,3.5,0.3,7.1,0.2,10.6c0,0.8-0.2,1.6-0.3,2.4c-0.4,2.1-2.1,2.9-4.1,2
				c-0.4-0.2-0.8-0.4-1.1-0.7c-4.2-3.4-7.5-7.4-9.9-12.2c-0.6-1.3-1.1-2.6-1.4-4c-0.5-2,1.5-4.5,4.3-3.7c1,0.3,1.8,0.9,2.5,1.7
				C88.2,292.1,88.6,292.7,89.1,293.5z"/>
			<path class="st12" d="M181.4,258.3c-0.6-0.1-1.3-0.1-1.9-0.3c-0.4-0.1-0.8-0.3-1.2-0.6c-0.7-0.6-0.6-1.7,0.2-2.2
				c0.3-0.2,0.8-0.3,1.1-0.4c0.7-0.1,1.5-0.1,2.2-0.1c0.8,0,1.6-0.2,2.3-0.6c2.1-1.2,3.4-2.9,4.1-5.1c0.1-0.4,0.2-0.9,0.4-1.3
				c0.2-0.6,0.6-0.9,1.1-0.9c0.5,0,0.9,0.3,1.1,0.8c0.3,0.9,0.3,1.8,0.2,2.8c-0.2,1.2-0.7,2.3-1.5,3.2c-1,1-2,2-3.1,2.8
				C185,257.7,183.3,258.3,181.4,258.3z"/>
		</g>
		<g>
			<g>
				<path class="st135" d="M297.6,358.1c-0.6-0.2-1.1-0.5-1.6-0.6c-2-0.4-3.8,0.1-5.4,1.2c-0.3,0.2-0.5,0.4-0.6,0.7
					c-0.3,0.5-0.3,1.1,0.1,1.5c0.3,0.4,0.9,0.5,1.4,0.2c0.3-0.2,0.6-0.4,0.9-0.6c1.1-0.7,2.2-0.7,3.4-0.2c-0.2,0.1-0.3,0.1-0.5,0.2
					c-1.2,0.3-2.2,1-2.8,2c-0.3,0.5-0.3,1,0.1,1.4c0.4,0.4,0.9,0.4,1.4,0.2c0.2-0.1,0.4-0.3,0.6-0.4c0.6-0.4,1.2-0.8,2.1-0.7
					c-0.1,0.2-0.2,0.4-0.2,0.6c-0.2,0.7-0.5,1.4-0.7,2.1c-0.1,0.3,0,0.6,0.1,0.9c0.1,0.4,0.5,0.7,0.9,0.7c0.4,0,0.8-0.2,1-0.6
					c0.1-0.3,0.2-0.7,0.3-1.1c0.2-0.9,0.6-1.6,1.5-2c0.5-0.2,0.8-0.7,1-1.2c0.1-0.5,0.3-1.1,0.3-1.6c0.1-2.5,0.2-5.1,0.2-7.6
					c0-2.7-0.1-5.5-0.1-8.2c0-0.2,0-0.4-0.1-0.5c-0.2-0.6-0.6-1-1.1-1c-0.6,0-1.1,0.3-1.2,1c-0.2,1-0.3,2.1-0.3,3.1
					c-0.1,3.4-0.2,6.9-0.3,10.3C297.6,357.8,297.6,357.9,297.6,358.1z"/>
				<path class="st135" d="M280.2,358.1c-0.6-0.2-1.1-0.5-1.6-0.6c-2-0.4-3.8,0.1-5.4,1.2c-0.3,0.2-0.5,0.4-0.6,0.7
					c-0.3,0.5-0.3,1.1,0.1,1.5c0.3,0.4,0.9,0.5,1.4,0.2c0.3-0.2,0.6-0.4,0.9-0.6c1.1-0.7,2.2-0.7,3.4-0.2c-0.2,0.1-0.3,0.1-0.5,0.2
					c-1.2,0.3-2.2,1-2.8,2c-0.3,0.5-0.3,1,0.1,1.4c0.4,0.4,0.9,0.4,1.4,0.2c0.2-0.1,0.4-0.3,0.6-0.4c0.6-0.4,1.2-0.8,2.1-0.7
					c-0.1,0.2-0.2,0.4-0.2,0.6c-0.2,0.7-0.5,1.4-0.7,2.1c-0.1,0.3,0,0.6,0.1,0.9c0.1,0.4,0.5,0.7,0.9,0.7c0.4,0,0.8-0.2,1-0.6
					c0.1-0.3,0.2-0.7,0.3-1.1c0.2-0.9,0.6-1.6,1.5-2c0.5-0.2,0.8-0.7,1-1.2c0.1-0.5,0.3-1.1,0.3-1.6c0.1-2.5,0.2-5.1,0.2-7.6
					c0-2.7-0.1-5.5-0.1-8.2c0-0.2,0-0.4-0.1-0.5c-0.2-0.6-0.6-1-1.1-1c-0.6,0-1.1,0.3-1.2,1c-0.2,1-0.3,2.1-0.3,3.1
					c-0.1,3.4-0.2,6.9-0.3,10.3C280.3,357.8,280.2,357.9,280.2,358.1z"/>
			</g>
			<path class="st134" d="M289.2,349.2c7.4-0.2,15.4-1.2,23-4c6.7-2.5,12.5-6.4,17.2-11.9c0.1-0.2,0.3-0.3,0.4-0.5
				c2.6-3.5,5.2-6.9,6.8-11c1.2-3.1,2-6.3,2.1-9.6c0-1.1-0.2-2.1-0.3-3.2c0-0.3-0.2-0.6-0.3-0.9c-0.3-0.6-0.8-0.9-1.5-0.7
				c-0.6,0.2-1.2,0.4-1.7,0.7c-1.3,0.7-2.5,1.6-3.7,2.3c-2.5,1.5-5.2,2.7-8.1,3.1c-2.6,0.4-5.3,0.2-7.8-0.5c-1.3-0.4-2.5-1.1-3.6-2
				c-3.8-3.3-6.7-7.3-8.7-11.9c-1.6-3.7-2.7-7.6-3.7-11.6c-2-8.3-4.2-16.6-6.7-24.8c-1.1-3.6-2.3-7.1-4.1-10.4
				c-3.6-7-8.8-12.4-16-15.8c-2.8-1.3-5.8-2-8.8-2.7c-3.6-0.8-7.3-1.1-11-0.7c-5.2,0.6-9.8,2.5-13.7,6.1c-4.2,3.8-6.7,8.6-8.1,14
				c-0.7,2.8-1.2,5.7-1.4,8.5c-0.1,1.5-0.3,3-0.3,4.5c0,5.1,0.6,10.1,1.8,15c1.2,5.4,3.3,10.6,5.4,15.7c2.4,5.7,5.4,11.1,8,16.6
				c2.2,4.6,4.8,9,7.2,13.4c0.5,0.9,1,1.9,1.5,2.8c2.7,5.2,6.6,9.3,11.2,12.7c4.2,3.1,9.1,4.8,14.1,5.8
				C281.9,349,285.2,349.1,289.2,349.2z"/>
			<path class="st136" d="M222.3,256.3c-0.7,0.6-1.3,1.1-1.9,1.6c-0.9,0.8-1.8,1.6-2.4,2.7c-0.4,0.8-0.7,1.6-0.7,2.5
				c0.2,2.1,2,3.4,4,2.6c0.8-0.3,1.5-0.8,2.2-1.3c1.9-1.5,3.4-3.3,4.7-5.4c0.4-0.6,0.6-1.3,0.4-2.1c-0.1-0.6-0.3-1.1-0.5-1.7
				c-0.9-2.4-2.3-4.6-4.1-6.5c-0.7-0.8-1.5-1.5-2.5-1.8c-0.6-0.2-1.2-0.3-1.8-0.3c-1,0-1.5,0.6-1.7,1.6c-0.1,0.7,0,1.5,0.3,2.2
				c0.4,1.3,1.1,2.4,1.9,3.4C220.9,254.6,221.5,255.4,222.3,256.3z"/>
			<path class="st32" d="M294.1,295.9c0.4,0.3,0.8,0.7,1.2,0.9c1.9,1.3,3.7,2.7,5.7,4c2.3,1.5,4.8,2.5,7.5,3.2
				c1.6,0.4,3.2,0.3,4.8-0.2c1.4-0.5,2.3-1.4,2.8-2.7c0.6-1.5,0.6-2.9,0.2-4.5c-0.4-1.7-1.1-3.2-2.2-4.7c-2-2.7-4.4-4.9-7.2-6.7
				c-1.1-0.7-2.2-1.4-3.3-2c-8.9-4.8-18.3-8.3-28.2-10.4c-0.6-0.1-1.2-0.2-1.8-0.2c-1.8,0-3,1.1-3,2.9c0,1.1,0.1,2.2,0.3,3.2
				c0.9,4.7,2.3,9.2,3.6,13.8c1.8,6.3,3.8,12.6,6.3,18.7c1.3,3.1,2.7,6.2,4.6,9c1,1.4,2,2.7,3.2,4c0.8,0.8,1.8,1.5,2.7,2.2
				c0.7,0.5,1.5,0.8,2.4,1c1.9,0.3,3.4-0.3,4.7-1.7c1.5-1.6,2.4-3.5,2.8-5.7c0.5-2.6,0.3-5.2-0.3-7.8c-0.7-3.6-2.2-7-3.9-10.2
				c-0.9-1.7-1.8-3.4-2.7-5.1c-0.1-0.2-0.2-0.5-0.4-0.8C294,295.9,294,295.9,294.1,295.9z"/>
			<path class="st30" d="M342.9,293.5c-0.1-0.5-0.2-0.9-0.3-1.2c-0.3-1.1-0.7-2.1-1.3-2.9c-0.3-0.3-0.6-0.7-0.9-1
				c-1.2-1-2.6-0.8-3.7,0.3c-0.8,0.8-1.3,1.8-1.6,2.9c-0.3,1.2-0.6,2.5-0.7,3.8c-0.4,3.5-0.3,7.1-0.2,10.6c0,0.8,0.2,1.6,0.3,2.4
				c0.4,2.1,2.1,2.9,4.1,2c0.4-0.2,0.8-0.4,1.1-0.7c4.2-3.4,7.5-7.4,9.9-12.2c0.6-1.3,1.1-2.6,1.4-4c0.5-2-1.5-4.5-4.3-3.7
				c-1,0.3-1.8,0.9-2.5,1.7C343.8,292.1,343.4,292.7,342.9,293.5z"/>
			<path class="st12" d="M250.6,258.3c0.6-0.1,1.3-0.1,1.9-0.3c0.4-0.1,0.8-0.3,1.2-0.6c0.7-0.6,0.6-1.7-0.2-2.2
				c-0.3-0.2-0.8-0.3-1.1-0.4c-0.7-0.1-1.5-0.1-2.2-0.1c-0.8,0-1.6-0.2-2.3-0.6c-2.1-1.2-3.4-2.9-4.1-5.1c-0.1-0.4-0.2-0.9-0.4-1.3
				c-0.2-0.6-0.6-0.9-1.1-0.9c-0.5,0-0.9,0.3-1.1,0.8c-0.3,0.9-0.3,1.8-0.2,2.8c0.2,1.2,0.7,2.3,1.5,3.2c1,1,2,2,3.1,2.8
				C247,257.7,248.7,258.3,250.6,258.3z"/>
		</g>
	</g>
	<g>
		<path class="st136" d="M294.7,94.2c-0.5-4.7-1.8-9.2-3.8-13.4c-2-4.3-4.8-7.8-8.6-10.6c-3.8-2.7-7.9-4.6-12.5-5.1
			c-4.3-0.5-8.5-0.1-12.6,1c-5.6,1.5-10.7,4.1-15.5,7.3c-5.7,3.8-10.5,8.5-14.8,13.8c-7.9,9.6-13.2,20.4-15.6,32.6
			c-0.1,0.6-0.2,1.2-0.4,1.8c-0.1,0-0.1,0-0.2,0c-0.1-0.2-0.2-0.5-0.2-0.7c-0.3-1.2-0.6-2.3-0.9-3.5c-2.2-8.7-5.6-16.9-10.2-24.5
			c-3.1-5.2-6.7-9.9-11.2-14c-6-5.5-13-8.9-21.3-9.4c-4.2-0.3-8.4,0.2-12.4,1.6c-8.2,2.9-14.3,8.2-18.7,15.6
			c-3.7,6.3-5.2,13.2-5.4,20.5c-0.1,3,0.1,6,0.5,8.9c0.8,6.2,2.3,12.2,4.5,18c3.6,9.5,8.4,18.4,14.9,26.3
			c6.1,7.3,12.5,14.2,19.7,20.5c5.4,4.8,10.8,9.5,16.2,14.3c5.3,4.7,10.3,9.5,15,14.7c4.6,5,8.2,10.7,10.4,17.1
			c0.5,1.4,0.9,2.8,1,4.2c0.1,1.2,0.4,2.4,0.6,3.5c0.2,0.9,0.7,1.7,1.5,2.3c1,0.8,2.3,0.6,2.8-0.6c0.3-0.6,0.5-1.3,0.6-2
			c0.2-2.4,0.8-4.7,1.7-7c2.4-6.2,5.7-11.8,9.6-17.1c4.3-5.8,9.1-11.3,14-16.6c6.1-6.7,12.3-13.4,17.9-20.6
			c6.9-8.6,13.4-17.6,18.9-27.2c3.7-6.4,7.1-13,9.7-20c2.6-7.2,4.3-14.7,4.8-22.4C295.2,100.4,295.1,97.3,294.7,94.2z M234.9,91.3
			c0.4-0.3,0.7-0.6,1.1-0.8c2.1-1.2,4.3-1.9,6.6-2.4c2.8-0.5,5.6-0.7,8.3-0.1c2.7,0.6,5,1.9,7.2,3.5c2.2,1.6,4.1,3.5,5.9,5.6
			c1.3,1.5,2.6,3.1,3.9,4.6c1.4,1.7,2.9,3.2,4.7,4.4c0.2,0.1,0.4,0.3,0.5,0.4c0.5,0.4,0.6,0.9,0.3,1.2c-0.3,0.3-0.7,0.4-1.3,0.1
			c-0.1,0-0.2-0.1-0.2-0.1c-2-1.2-3.8-2.7-5.3-4.5c-1.6-1.9-3.1-3.8-4.8-5.6c-2-2.4-4.3-4.4-7.1-6c-3.4-2-7.1-2.6-11-2
			c-2.9,0.4-5.7,1.2-8.3,2.3c-0.6,0.3-0.6,0.2-1.2,0.2C234.4,91.7,234.6,91.5,234.9,91.3z M144.5,91.9c0.3-0.5,0.6-0.9,1-1.3
			c1.9-2,4.2-3.5,6.7-4.5c5.6-2.4,11.4-3,17.4-1.8c5.9,1.1,10.5,4.3,14.1,9c2.1,2.7,3.7,5.7,4.9,8.9c0.5,1.1,0.9,2.3,1.4,3.4
			c0.1,0.2,0.1,0.4,0.2,0.6c0,0.4-0.1,0.8-0.6,0.9c-0.4,0.1-0.8,0-1-0.4c-0.2-0.4-0.4-0.8-0.6-1.2c-0.6-1.3-1.1-2.5-1.6-3.8
			c-1.2-2.6-2.6-5.2-4.4-7.5c-3.9-5-9-7.8-15.3-8.5c-5.4-0.6-10.7,0.3-15.6,2.7c-2,0.9-3.7,2.2-5.4,3.5c-0.4,0.3-0.7,0.7-1.4,0.8
			C144.4,92.4,144.4,92.1,144.5,91.9z M171.5,103.2c-0.1,2.7-0.4,5.4-1.2,8.1c-0.2,0.8-0.6,1.5-1,2.2c-0.8,1.3-2.2,1.8-3.7,1.4
			c-1.7-0.5-2.8-1.6-3.4-3.2c-0.4-1.1-0.7-2.4-0.8-3.6c-0.4-3.4,0-6.7,1-9.9c0.3-1,0.7-1.8,1.4-2.6c1.7-2.2,4.6-2,6,0.3
			c0.8,1.2,1.2,2.6,1.3,4C171.3,100.9,171.4,102.1,171.5,103.2z M156.8,97.8c0.1,3.7,0.3,7.5,0.4,11.2c0,1.4,0.1,2.9,0.1,4.3
			c0,0.4-0.1,0.8-0.2,1.1c-0.1,0.2-0.4,0.4-0.7,0.4c-0.2,0-0.6-0.2-0.7-0.4c-0.2-0.3-0.2-0.7-0.3-1.1c-0.1-1.2-0.1-2.3-0.1-3.5
			c-0.1-3.7-0.1-7.5-0.1-11.2c0-0.6,0-1.2,0-1.8c-0.6-0.1-1.2-0.2-1.8-0.3c-0.7-0.2-1-0.5-1-0.9c0-0.4,0.4-0.6,1.1-0.7
			c0.6,0,1.3,0,1.9,0c1.4,0.1,2.8,0.2,4.2,0.3c0.1,0,0.3,0,0.4,0c0.6,0.1,0.9,0.4,0.8,0.9c0,0.4-0.3,0.7-0.9,0.7
			c-0.8,0.1-1.7,0.1-2.5,0.1c-0.2,0-0.4,0-0.7,0C156.8,97.2,156.8,97.5,156.8,97.8z M156.1,155.9c-1.5,0-3.1-0.2-4.6-0.3
			c-0.3,0-0.6-0.1-0.8-0.2c-0.2-0.1-0.3-0.3-0.4-0.4c0-0.1,0.2-0.4,0.3-0.4c0.3-0.1,0.6-0.2,0.9-0.2c1.3-0.1,2.5-0.2,3.8-0.2
			c3.7,0,7.5,0,11.9,0c3.9,0.1,8.4,0.1,13,0.2c0.3,0,0.7,0,0.9,0.2c0.2,0.1,0.4,0.5,0.5,0.8c0.1,0.4-0.2,0.7-0.5,0.8
			c-0.4,0.1-0.8,0.1-1.2,0.1c-3.7,0-7.4-0.1-11.1-0.1C164.6,156,160.3,156,156.1,155.9z M153.1,137.9c0.1,2,0.2,4.1,0.3,6.1
			c0.1,2.1,0.2,4.2,0.3,6.3c0,0.5,0,0.9-0.4,1.1c-0.5,0.3-1,0.2-1.2-0.4c-0.1-0.4-0.2-0.8-0.2-1.2c-0.1-1-0.1-2-0.2-3.1
			c-0.3-4.3-0.6-8.7-0.9-13c-0.1-0.9-0.2-1.9-0.2-2.8c-0.1-0.9,0.2-1.4,1.2-1.5c1.1-0.1,2.3-0.2,3.4-0.1c0.7,0,1.2,0.6,1.6,1.1
			c0.9,1.1,1.7,2.3,2.6,3.4c0.4,0.5,0.7,1,1.2,1.6c0.5-1.2,0.8-2.2,1.3-3.2c0.5-1.2,1-2.4,1.6-3.5c0.2-0.4,0.4-0.8,0.7-1.1
			c0.7-0.9,1.7-0.8,2.3,0.2c0.3,0.4,0.5,1,0.5,1.5c0.2,1.8,0.3,3.6,0.4,5.4c0.1,4.5,0.2,9.1,0.4,13.6c0,0.7,0,1.3,0,2
			c-0.1,1.1-0.6,1.7-1.7,1.6c-0.1,0-0.2,0-0.4,0c-1,0-1.6-0.5-1.7-1.5c-0.2-1.1-0.3-2.1-0.4-3.2c-0.2-2.2-0.3-4.4-0.4-6.6
			c-0.1-1.3-0.2-2.7-0.3-4c0-0.3-0.1-0.7-0.2-1.2c-0.2,0.4-0.3,0.5-0.4,0.7c-0.7,1.3-1.3,2.7-2,4c-0.2,0.4-0.5,0.8-0.7,1.1
			c-0.6,0.6-1.3,0.6-1.9-0.1c-0.3-0.4-0.6-0.9-0.9-1.4c-0.7-1.4-1.4-2.8-2.2-4.2c-0.4-0.7-0.9-1.3-1.3-1.9c-0.1,0-0.1,0-0.2,0.1
			c0,0.2-0.1,0.4-0.1,0.5C153,135.3,153,136.6,153.1,137.9z M179.5,149.5c0.2,1.6-1.3,2.7-2.8,2.2c-0.5-0.2-0.8-0.5-0.9-1
			c-0.2-0.8-0.4-1.5-0.5-2.3c-0.2-1.9-0.3-3.7-0.4-5.6c-0.1-1.4-0.2-2.8-0.3-4.2c0-0.4-0.2-0.7-0.4-1c-1.3-1.6-2.3-3.4-3.3-5.3
			c-0.2-0.4-0.4-0.9-0.5-1.4c-0.1-0.3,0-0.6,0.3-0.8c0.3-0.2,0.6-0.3,1-0.1c0.3,0.2,0.5,0.4,0.7,0.6c0.7,1.1,1.5,2.2,2.2,3.3
			c0.4,0.6,0.7,1.2,1.1,1.9c0.2-0.3,0.3-0.5,0.5-0.8c1-1.7,2-3.5,3.1-5.2c0.7-1.1,2.4-1.6,3.6-1.1c0.4,0.2,0.7,0.6,0.6,1.1
			c-0.1,0.3-0.2,0.6-0.4,0.9c-1.2,1.9-2.4,3.8-3.6,5.7c-0.4,0.7-0.7,1.3-0.7,2.1C178.8,142.1,179.2,145.8,179.5,149.5z M190.4,190.7
			c-0.2,1.5-1.3,2.1-2.6,1.3c-0.7-0.4-1.3-0.9-1.9-1.4c-2.4-2.1-4.6-4.3-6.6-6.7c-3.3-3.9-6.5-7.7-9.5-11.8c-0.5-0.7-1-1.5-1.3-2.3
			c-0.3-0.7,0.3-1.5,1.1-1.3c0.5,0.1,0.9,0.4,1.3,0.7c0.7,0.6,1.3,1.2,1.8,1.9c1.2,1.3,2.3,2.7,3.5,4c3.5,4,7,8,10.7,11.7
			c0.2,0.2,0.5,0.4,0.7,0.7c0.1,0,0.1-0.1,0.2-0.1c-0.5-1.8-1-3.7-1.5-5.5c-1.6-5.3-3.3-10.7-5-16c-0.2-0.8-0.5-1.6-0.7-2.4
			c-0.1-0.4-0.1-0.8,0-1.2c0.1-0.4,0.4-0.7,0.8-0.7c0.4,0,0.6,0.2,0.8,0.6c0.3,0.8,0.5,1.5,0.8,2.3c2,6.2,4,12.3,5.9,18.5
			c0.6,1.9,1,3.8,1.4,5.8C190.5,189.4,190.5,190.1,190.4,190.7z M190.4,124.7c-0.5-0.2-1-0.4-1.5-0.6c-0.1,0.1-0.2,0.1-0.3,0.2
			c-2.4,2-5.3,2.8-8.4,2.8c-2.4,0-4.8-0.3-7.2-0.6c-4.5-0.5-8.9-1.8-13.3-2.8c-1.4-0.3-2.8-0.6-4.1-0.9c-0.9,1.2-1.7,2.3-2.6,3.3
			c-0.3,0.4-0.6,0.7-1,0.9c-0.2,0.1-0.6,0.1-0.8,0c-0.2-0.1-0.3-0.5-0.2-0.8c0.1-0.4,0.3-0.8,0.6-1.2c0.5-0.7,1-1.5,1.6-2.3
			c-0.9-0.2-1.7,0-2.5,0.1c-0.1,0-0.3,0.3-0.4,0.4c-0.9,1.1-1.8,2.2-2.7,3.3c-0.2,0.3-0.6,0.5-0.9,0.7c-0.4,0.3-0.8,0.2-1.1,0
			c-0.3-0.3-0.4-0.7-0.1-1.1c0.3-0.4,0.6-0.9,0.9-1.3c0.4-0.5,0.8-1,1.4-1.6c-1.6,0.3-2.9,0.7-4.2,1.4c-0.1,0.1-0.2,0.2-0.4,0.2
			c-0.1,0-0.3,0-0.4,0c-0.1-0.1-0.1-0.3-0.1-0.5c0.1-0.2,0.3-0.4,0.5-0.5c0.8-0.5,1.7-0.9,2.5-1.3c0.4-0.2,0.8-0.3,1.4-0.5
			c-0.5-0.2-0.7-0.3-1-0.5c-0.3-0.2-0.6-0.3-0.9-0.5c-0.3-0.2-0.6-0.5-0.5-0.9c0.1-0.3,0.5-0.5,1.1-0.3c1,0.3,2,0.6,2.9,1.1
			c0.9,0.5,1.8,0.5,2.9,0.2c-0.3-0.3-0.5-0.5-0.6-0.7c-0.4-0.5-0.7-0.9-1-1.4c-0.2-0.3-0.2-0.7,0.2-1c0.3-0.2,0.6-0.2,0.9,0
			c0.3,0.2,0.7,0.4,0.9,0.6c0.7,0.6,1.4,1.2,2,1.8c0.4,0.4,0.9,0.6,1.4,0.7c3.1,0.3,6.2,1.3,9.2,2c4.1,1,8.3,1.8,12.5,2.2
			c2.3,0.2,4.6,0.2,6.9-0.4c1.4-0.4,2.6-1,3.6-1.9c-0.3-0.2-0.5-0.4-0.7-0.7c-0.6-0.7-0.6-1.3,0.1-1.8c1.4-0.9,2.8-1.8,4.3-2.6
			c0.8-0.4,1.6,0,1.8,0.9c0.1,0.6,0.1,1.2,0,1.8c-0.1,0.9-0.4,1.8-0.6,2.7C192.2,124.7,191.6,125,190.4,124.7z M193.5,188.7
			c-1.8-2.6-2.2-5.4-0.9-8.4c0.5-1.1,1.2-1.9,2.3-2.2c0.3-0.1,0.4-0.2,0.5-0.5c0-0.2,0.1-0.3,0.2-0.5c0.5-0.7,1.3-0.8,1.9-0.1
			c0.5,0.6,0.8,1.2,1.1,1.9c0.5,1.3,0.9,2.7,1.3,4.1c0.3,1.1,0.7,2.2,1,3.2c0.2,0.4,0.3,0.9,1,0.8c0.3,0,0.5,0.4,0.5,0.8
			c-0.1,0.8-0.7,1.3-1.5,1.2c-0.9-0.1-1.6-0.5-2.1-1.2c-0.2-0.2-0.3-0.5-0.5-0.7c-0.2,0.8-0.3,1.4-0.6,2c-0.5,1.1-1.5,1.5-2.6,1
			C194.5,189.8,193.9,189.4,193.5,188.7z M201.2,164.1c0.1-0.5,0.2-1.3,0.4-2c0.1-0.3,0.3-0.6,0.6-0.6c0.4,0,0.6,0.3,0.7,0.6
			c0.2,0.8,0.5,1.6,0.6,2.4c0.4,3,0.8,6,1.1,9c0.3,3.4,0.6,6.8,0.9,10.2c0,0.5,0.1,1,0.2,1.6c0.1,0.6,0.2,1.1,0.9,1.4
			c0.4,0.2,0.5,0.8,0.3,1.2c-0.2,0.5-0.7,0.8-1.2,0.7c-0.4-0.1-0.8-0.3-1-0.6c-0.6-0.6-1-1.4-1.2-2.2c-0.3-2-0.7-4-1-6
			c-0.5-3.7-0.7-7.5-0.9-11.3C201.4,167.1,201.3,165.7,201.2,164.1z M224.8,203.9c-0.1,0.2-0.5,0.4-0.6,0.5
			c-0.4-0.1-0.6-0.1-0.8-0.2c-0.5-0.2-1.1-0.4-1.6-0.6c-4.1-1.8-8.4-2.7-12.9-2.4c-2.1,0.2-4.2,0.6-6.3,0.9
			c-0.4,0.1-0.9,0.2-1.3,0.2c-0.2,0-0.6-0.2-0.7-0.4c-0.2-0.3,0-0.6,0.2-0.8c0.3-0.2,0.6-0.4,1-0.6c1.3-0.6,2.6-0.8,4-1
			c5.6-1,10.9-0.3,16.1,2c0.8,0.4,1.6,0.8,2.3,1.2c0.1,0.1,0.3,0.1,0.4,0.2C224.8,203.2,225,203.6,224.8,203.9z M229.8,198.5
			c-0.2,0.4-0.5,0.5-0.9,0.4c-0.2,0-0.5-0.1-0.7-0.2c-1.5-0.6-3.1-1.1-4.6-1.7c-3.7-1.3-7.5-2.3-11.4-2.5c-1.6-0.1-3.2,0-4.7,0.1
			c-3.1,0.3-6.1,0.7-9.2,1.5c-0.5,0.1-1,0.3-1.5,0.4c-0.3,0.1-0.5,0.2-0.8,0.2c-0.6,0-0.9-0.5-0.6-1c0.2-0.3,0.5-0.5,0.8-0.7
			c0.8-0.4,1.6-0.8,2.4-1c4-1,8-1.5,11.8-1.6c3.5,0,6.7,0.6,9.8,1.5c2.9,0.8,5.7,1.8,8.4,3.1c0.2,0.1,0.5,0.2,0.7,0.4
			C229.8,197.8,229.9,198.2,229.8,198.5z M210.8,184.8c0.4,0.5,0.9,0.8,1.6,0.5c0.4-0.2,0.9-0.2,1.2,0.3c0.3,0.4,0.2,0.8-0.1,1.3
			c-0.9,1.3-3.2,1.6-4.3,0.5c-0.4-0.4-0.8-0.9-1.1-1.5c-1.3-2.6-1.5-5.4-0.6-8.2c0.2-0.5,0.4-1,0.7-1.4c0.2-0.3,0.5-0.7,0.8-0.9
			c0.7-0.5,1.4-0.8,2.3-0.3c0.9,0.5,1.1,1.3,1,2.2c-0.3,1.8-1,3.3-2.7,4.4C209.8,182.8,210.1,183.8,210.8,184.8z M221.7,187.1
			c0,0.1,0,0.1,0,0.2c0,0.5-0.3,0.9-0.7,1c-0.4,0.1-0.8-0.1-1-0.6c-0.2-0.7-0.5-1.3-0.5-2c0-1,0.1-2,0.1-3.1
			c0.1-1.6,0.4-3.1,0.1-4.7c0-0.1,0-0.2-0.1-0.2c-0.1,0-0.1,0-0.2,0c-0.3,0.5-0.6,1.1-0.8,1.6c-0.8,1.7-1,3.6-1.4,5.4
			c-0.2,0.7-0.3,1.4-0.4,2.1c-0.1,0.3-0.2,0.6-0.3,0.8c-0.3,0.4-0.7,0.5-1.1,0.1c-0.4-0.4-0.5-0.8-0.6-1.3c-0.1-0.6-0.2-1.1-0.2-1.7
			c-0.1-2.5-0.1-5-0.2-7.5c0-0.4,0.1-0.8,0.2-1.1c0.1-0.4,0.4-0.7,0.9-0.7c0.5,0,0.8,0.2,1,0.6c0.2,0.6,0.3,1.2,0.4,1.9
			c0,0.2,0.1,0.4,0.2,0.7c0.1-0.2,0.2-0.5,0.4-0.7c0.5-0.7,0.8-1.4,1.4-2c0.9-0.9,2.1-0.7,2.8,0.5c0.4,0.7,0.5,1.4,0.5,2.2
			c-0.1,1.5-0.2,3-0.4,4.5C221.7,184.3,221.4,185.7,221.7,187.1z M227.7,171.9c0.3,0.1,0.6,0.3,0.9,0.4c0.4,0.2,0.6,0.5,0.5,0.9
			c-0.1,0.4-0.4,0.5-0.8,0.5c-0.3,0-0.5,0-0.8-0.1c-0.1,0.2-0.1,0.4-0.1,0.6c-0.4,3-0.9,5.9-1.3,8.9c-0.1,0.6-0.1,1.3-0.1,1.9
			c0,0.9,0.1,1.7,0.4,2.5c0.3,0.7,0.2,1.3-0.3,1.5c-0.5,0.3-1.3,0.2-1.7-0.4c-0.3-0.3-0.4-0.8-0.5-1.2c-0.4-1.6-0.3-3.1-0.1-4.7
			c0.4-3,0.9-6,1.3-9c0-0.2,0.1-0.4,0.1-0.7c-0.3-0.1-0.6-0.2-0.9-0.3c-0.4-0.1-0.7-0.3-1.1-0.4c-0.3-0.1-0.5-0.4-0.4-0.7
			c0.1-0.3,0.4-0.5,0.6-0.5c0.3,0,0.6,0,1,0c0.3,0,0.6,0,1,0c0.2-1.8,0.5-3.5,0.7-5.2c0.1-0.5,0.2-1.1,0.4-1.6
			c0.1-0.4,0.4-0.7,0.8-0.7c0.4,0,0.7,0.4,0.7,0.8c0.1,0.7,0.2,1.4,0.1,2.1c-0.1,1.5-0.3,3-0.4,4.5
			C227.7,171.4,227.7,171.7,227.7,171.9z M231.1,183.6c-0.1,0.9-0.2,1.7-0.3,2.6c-0.1,0.7-0.1,1.3,0.2,2c0.2,0.6,0,1.2-0.4,1.5
			c-0.5,0.3-1.1,0.3-1.6-0.1c-0.6-0.5-0.9-1.1-0.9-1.8c0-0.9,0.1-1.7,0.2-2.6c0.4-2,0.8-4.1,1.2-6.1c0.1-0.5,0.3-1.1,0.5-1.6
			c0.2-0.4,0.5-0.6,0.9-0.6c0.5,0,0.7,0.4,0.8,0.8c0.1,0.4,0.1,0.8,0.1,1.2C231.6,180.5,231.3,182.1,231.1,183.6z M230.1,174.3
			c0-0.2,0.1-0.4,0.2-0.6c0.5-0.9,1.3-1.2,2-0.7c0.7,0.5,0.8,1.5,0.2,2.2c-0.3,0.4-0.8,0.6-1.2,0.6
			C230.5,175.9,229.9,175.1,230.1,174.3z M238.8,190.3c-0.1,0.4-0.4,0.6-0.8,0.6c-0.4,0-0.7-0.2-0.8-0.6c-0.1-0.4-0.2-0.8-0.2-1.2
			c0.1-1,0.2-1.9,0.4-2.8c0.3-1.3,0.7-2.7,1-4c0.1-0.4,0.1-0.7,0.1-1.1c-0.7-0.1-1.1,0.2-1.4,0.6c-0.4,0.5-0.8,1-1,1.5
			c-0.7,1.4-1.3,2.9-2,4.4c-0.2,0.4-0.3,0.9-0.5,1.3c-0.3,0.6-0.7,0.8-1.2,0.6c-0.4-0.1-0.6-0.5-0.6-1.1c0-0.2,0-0.4,0.1-0.5
			c0.6-2.4,1.2-4.8,1.9-7.2c0.1-0.4,0.2-0.7,0.4-1c0.1-0.2,0.5-0.4,0.7-0.4c0.2,0,0.5,0.3,0.6,0.6c0.1,0.3,0.1,0.7,0.1,1.1
			c0.5-0.5,0.9-0.9,1.3-1.3c0.3-0.2,0.5-0.5,0.8-0.6c1.1-0.7,2.3-0.4,2.8,0.9c0.4,0.8,0.3,1.7,0.1,2.6c-0.2,1-0.5,2-0.8,3
			c-0.4,1.4-0.7,2.8-1,4.3C238.9,189.9,238.9,190.1,238.8,190.3z M247.7,185.2c-0.9,1.1-2.1,1.7-3.5,1.8c-0.3,0-0.6,0-1,0
			c-0.4,1.8-1,3.5-0.2,5.3c0.3,0.7,0.1,1.3-0.4,1.6c-0.5,0.4-1.2,0.3-1.8-0.2c-0.3-0.3-0.5-0.7-0.7-1.1c-0.3-0.9-0.4-1.9-0.2-2.9
			c0.5-2.2,1.5-4.2,2.9-6c0.5-0.6,1.1-1.1,1.8-1.5c0.5-0.4,1.1-0.4,1.8-0.3C248.1,182.2,248.8,183.9,247.7,185.2z M290.8,119.6
			c-2,2-4.1,3.8-7.1,4.2c-1.5,0.2-3,0.5-4.6,0.7c-0.1,0.3-0.2,0.6-0.2,0.9c-0.7,3.5-1.4,6.9-2,10.4c-0.9,4.9-1.8,9.9-2.3,14.9
			c-0.1,0.6-0.1,1.1-0.2,1.7c-0.2,1.1-1.4,1.8-2.4,1.5c-0.3-0.1-0.6-0.4-0.9-0.7c-0.2-0.2-0.3-0.6-0.3-0.9c-0.2-1.4-0.4-2.9-0.2-4.4
			c0-0.2,0-0.3,0-0.7c-0.2,0.3-0.3,0.6-0.5,0.8c-0.7,1.1-1.3,2.1-2.1,3.1c-0.6,0.8-1.4,1.4-2.2,1.8c-1.4,0.7-2.7,0.5-3.9-0.4
			c-1-0.8-1.5-1.8-1.8-2.9c-0.1-0.3-0.2-0.7-0.3-1.2c-0.2,0.3-0.3,0.5-0.4,0.7c-0.7,1.4-1.6,2.7-2.7,3.7c-0.6,0.5-1.3,1-2,1.4
			c-1.7,0.8-3.2,0.5-4.7-0.6c-0.5-0.4-1-0.8-1.5-1.2c-1.4,0.5-3.1,1.2-4.8,1.9c0.2,0.2,0.5,0.4,0.7,0.6c2.9,2.5,4.6,5.7,4.7,9.5
			c0.1,2.6-0.6,5-2.2,7.1c-0.5,0.7-1.2,1.3-1.9,1.8c-1.5,1-3.3,0.8-4.5-0.5c-0.5-0.6-1-1.3-1.3-2c-0.6-1.4-0.9-2.9-1-4.4
			c-0.2-2.5-0.1-5,0.1-7.5c0.1-1.7,0.3-3.4,0.4-5.2c0-0.1,0-0.2-0.1-0.3c-0.3,0.1-0.6,0.1-0.9,0.2c-2.2,0.5-4-0.6-4.6-2.7
			c-0.1-0.6-0.2-1.2-0.2-1.7c0.1-3.3,0.1-6.7,0.5-10c0.1-1.2,0.1-2.5,0-3.7c-0.1-1.6-0.4-1.9-2.2-1.6c0,0.1,0,0.3,0,0.4
			c1,6.6-0.3,12.7-3.6,18.4c-0.7,1.2-1.6,2.2-2.6,3c-0.8,0.6-1.7,1.1-2.7,1.3c-2.1,0.5-3.9-0.2-5.2-1.9c-0.9-1.3-1.3-2.8-1.4-4.4
			c0-0.7,0-1.5,0-2.2c-1-0.1-2-0.1-3.1-0.2c-0.2,0.3-0.4,0.5-0.5,0.8c-1.3,2.2-3,3.9-5,5.4c-1.1,0.8-2.3,1.5-3.6,1.7
			c-1.4,0.3-2.7-0.3-3.3-1.6c-0.2-0.4-0.3-0.8-0.4-1.2c-0.5-3.2,1.8-6.2,5.2-6.6c0.4-0.1,0.8-0.1,1.2-0.2c0.5-1.6,0.7-3.2,1-4.9
			c0.2-1.8,0.4-3.7,0.7-5.5c0.1-1.2,0-2.5-0.5-3.4c-0.4,0.3-0.9,0.5-1.3,0.9c-0.9,1-1.9,2-2.6,3.1c-2.8,4.5-4.7,9.3-5.6,14.6
			c-0.4,2.5-0.3,5-0.1,7.4c0.1,1.3,0.1,2.6,0.3,3.9c0.2,2.5,0.5,5.1,0.7,7.6c0,0.5,0.1,1,0.1,1.5c0,0.4,0,0.8-0.1,1.2
			c-0.1,0.5-0.5,0.8-1,1c-1.3,0.3-2.6-0.3-3-1.6c-0.2-0.7-0.4-1.5-0.5-2.3c-0.3-3.1-0.7-6.2-0.9-9.2c-0.4-4.7-0.3-9.3-0.1-14
			c0.1-2.5,0.2-5,0.4-7.5c0.2-3.1,0.4-6.2,1.2-9.2c0.2-0.8,0.5-1.6,0.8-2.3c0.6-1.4,2.1-1.5,3.1-1.1c0.7,0.3,1.2,0.9,1.1,1.6
			c-0.6,3.7-0.7,7.4-0.8,11.2c0.1-0.2,0.2-0.5,0.3-0.7c1.1-2.6,2.5-5.1,4.4-7.3c1-1.1,2-2.2,3.3-3c1-0.6,2-1,3.2-1.1
			c1.6-0.1,2.9,0.6,3.9,1.8c1.1,1.4,1.6,3,1.9,4.7c0.5,3.5-0.1,6.8-1.3,10.1c-0.3,0.7-0.6,1.4-0.9,2.2c-0.1,0.2-0.2,0.5-0.3,0.8
			c0.9,0,1.8,0,2.7,0c0.1-0.6,0.3-1.1,0.4-1.7c0.5-1.7,1.1-3.3,2.1-4.8c0.7-1.1,1.6-2.1,2.8-2.7c0.7-0.4,1.4-0.6,2.2-0.5
			c2,0.3,3,2.1,2.4,4.1c-0.5,1.7-1.6,3.1-3,4.1c-0.9,0.6-1.1,1.3-0.9,2.2c0.2,1.1,0.4,2.1,0.7,3.2c0.4,1.1,1.4,1.4,2.4,0.8
			c0.8-0.5,1.4-1.1,1.8-1.9c1.5-3,2.5-6.1,2.8-9.4c0.2-1.8,0.3-3.6,0-5.3c0-0.3-0.1-0.6-0.2-0.9c-0.3,0-0.6,0.1-0.9,0.1
			c-1.5,0.2-3,0-4.3-0.8c-0.3-0.2-0.6-0.4-0.9-0.7c-1.6-1.5-1.5-3.8,0.3-5c1.5-1.1,3.5-1,4.8,0.4c0.6,0.7,1.1,1.5,1.5,2.3
			c0.2,0.4,0.4,0.8,0.6,1.2c0.8-0.1,1.5-0.2,2.3-0.2c0.4,0,0.9-0.1,1.3,0c2.5,0.1,4.2,1.6,4.5,4.2c0.3,2-0.1,4-0.5,5.9
			c-0.4,1.9-0.8,3.9-1.2,5.8c-0.1,0.6-0.2,1.2-0.2,1.8c0,0.5,0.1,1,0.1,1.6c0.3,0,0.4,0,0.5-0.1c1.4-0.3,1.7-0.6,1.9-2
			c0.4-3.3,0.8-6.7,1.2-10c0.5-4.6,1.5-9.1,2.5-13.5c0.9-3.6,1.8-7.3,2.8-10.9c0.3-1.1,0.7-2.2,1.2-3.3c0.3-0.7,0.8-1.3,1.3-1.8
			c1.2-1.2,2.7-0.9,3.5,0.5c0.7,1.1,1,2.4,1.1,3.7c0.4,3.3,0,6.5-0.6,9.7c-1.2,6.3-2.9,12.5-5.4,18.4c-0.9,2.2-2,4.3-3.3,6.4
			c-0.2,0.4-0.4,0.8-0.4,1.2c-0.1,1.1-0.2,2.1-0.3,3.3c1.6-0.2,3.7-1,5.1-2c0-0.3-0.1-0.7-0.1-1.1c-0.3-2.8,0.2-5.4,1.2-8
			c0.5-1.2,1.1-2.3,1.7-3.4c0.5-0.9,1.3-1.5,2.2-2c1.8-0.9,3.6-0.1,4.1,1.8c0.4,1.3,0.3,2.5,0,3.8c-0.5,2.1-1.5,3.9-2.7,5.7
			c-0.2,0.3-0.4,0.5-0.6,0.8c0.3,0.8,0.6,1.6,1.3,2.2c0.6,0.5,0.8,0.5,1.2-0.1c0.6-1,1.2-2,1.7-3c0.9-1.8,1.7-3.7,2.5-5.5
			c0.9-2,2.1-3.9,3.4-5.6c0.6-0.8,1.3-1.5,2.2-2c1.1-0.6,2.2-0.5,3,0.2c0.9,0.8,1.2,2.1,0.8,3.2c-0.3,1-1,1.1-1.8,0.6
			c-0.5-0.4-0.7-0.3-1.1,0.2c-0.8,1.1-1.1,2.4-1.3,3.8c-0.4,2.6-0.1,5.2,0.4,7.9c0.2-0.1,0.4-0.2,0.5-0.4c0.6-0.9,1.2-1.8,1.7-2.8
			c1.5-2.9,2.6-6,3.5-9.2c1.2-4.4,2.3-8.8,3.5-13.2c0-0.2,0-0.3,0.1-0.5c-0.6-0.3-1.2-0.6-1.8-0.9c-2.1-1.1-3.8-2.5-5.6-4
			c-3.8-3.2-7.3-6.6-10.7-10.3c-3.4-3.7-7.7-6.3-12.8-7.2c-1.7-0.3-3.3-0.1-5,0c-3.5,0.2-6.2,2.1-8.8,4.2c-0.2,0.2-0.4,0.4-0.7,0.6
			c-0.1,0.1-0.4,0.1-0.5,0c-0.1-0.1-0.2-0.4-0.1-0.5c0.3-0.5,0.5-0.9,0.9-1.3c1.4-1.6,3-2.8,4.8-3.7c3.6-1.9,7.5-2.9,11.6-2.5
			c2.4,0.2,4.7,1,6.9,2.2c1.7,1,3.4,2.2,4.8,3.7c1.8,1.8,3.5,3.8,5.3,5.6c1.9,2.1,3.8,4.2,5.7,6.2c1.5,1.5,3.1,2.8,5,3.8
			c0.2,0.1,0.5,0.2,0.7,0.3c0.1,0,0.2,0,0.3,0.1c0.1-0.6,0.2-1.2,0.3-1.8c0.5-3,1.1-6,1.6-9.1c0.2-1,0.5-2,1.1-2.9
			c0.7-1.2,1.8-1.6,3.1-1.7c0.9,0,1.6,0.6,1.6,1.6c0,1-0.1,1.9-0.3,2.9c-0.8,3.7-1.6,7.4-2.4,11.1c-0.1,0.3-0.2,0.7-0.2,1.1
			c0.9,0.2,1.8,0.1,2.7,0.1c2.1-0.2,4-1,5.5-2.4c0.4-0.3,0.8-0.6,1.2-0.9c0.6-0.4,1.1-0.4,1.5,0
			C291.3,118.5,291.3,119.1,290.8,119.6z"/>
		<path class="st136" d="M245.2,140.7c2.4-5.7,4.1-11.7,5.3-17.8c0.6-2.8,0.8-5.7,0.7-8.6c0-0.9-0.1-1.8-0.5-2.7
			c-0.9,2-6.9,30.4-6.7,31.8C244.4,142.4,244.8,141.6,245.2,140.7z"/>
		<path class="st136" d="M244.4,170.9c1.5-0.8,2.8-5.2,2.2-8.1c-0.6-2.6-2.6-5.9-4-6.3C242.4,160.2,243.4,167.7,244.4,170.9z"/>
		<path class="st136" d="M201.5,150.2c-0.6,1.2-0.9,2.5-0.1,3.8c1.4-0.4,3.6-3.8,3.9-6.1C203.6,147.9,202.3,148.6,201.5,150.2z"/>
		<path class="st136" d="M227.1,129.4c-0.3-0.3-0.7-0.5-1-0.6c-0.8-0.2-1.6,0.3-1.9,1c-0.2,0.6,0,1,0.7,1.6c1.1,0.8,2.4,0.9,3.7,0.6
			C228.2,131,227.6,129.9,227.1,129.4z"/>
		<path class="st136" d="M255.2,139.4c0-0.5,0-1-0.4-1.4c-1,0.9-2,5.4-1.4,6.9c0.5-1,0.9-1.8,1.3-2.7
			C255,141.3,255.2,140.3,255.2,139.4z"/>
		<path class="st136" d="M224.3,140.9c0.1-0.3,0.1-0.8,0-1.1c-0.1-0.6-0.6-0.7-1-0.3c-0.3,0.3-0.6,0.7-0.7,1.2
			c-0.4,1.1-0.6,2.4-0.7,3.6c0.1,0,0.1,0.1,0.1,0C223.1,143.4,223.9,142.3,224.3,140.9z"/>
		<path class="st136" d="M168.9,98.3c-0.2-0.5-0.4-1.1-0.7-1.6c-0.4-0.7-1.1-0.9-1.8-0.8c-0.7,0-1,0.6-1.2,1.2
			c-0.1,0.3-0.3,0.7-0.3,1.1c-0.2,1-0.4,2.1-0.4,3.1c-0.2,2.3-0.3,4.6,0.1,6.9c0.1,0.9,0.3,1.7,0.6,2.6c0.2,0.6,0.6,1.1,1,1.6
			c0.7,0.7,1.4,0.6,1.9-0.2c0.4-0.6,0.7-1.4,0.9-2.1c0.6-1.9,0.8-3.8,0.8-5.7c0-0.6,0-1,0-1.5C169.6,101.3,169.5,99.8,168.9,98.3z"
			/>
		<path class="st136" d="M195.4,179.4c-1.6,1.1-1.7,2.6-1.7,4.2c0.1,2,0.7,3.7,2.3,5C197,187.1,196.8,183.6,195.4,179.4z"/>
		<path class="st136" d="M210.6,176.5c-0.8,0.6-1.2,2.1-1.2,3.5C210.5,179.2,211.1,177.4,210.6,176.5z"/>
		<path class="st136" d="M244.2,185.4c1.2-0.2,2.1-0.8,2.2-1.6C245.6,183.5,244.8,184.1,244.2,185.4z"/>
	</g>
</g>
</svg>
