<?xml version="1.0" encoding="utf-8"?>
<!-- Generator: Adobe Illustrator 21.0.0, SVG Export Plug-In . SVG Version: 6.00 Build 0)  -->
<svg version="1.1" id="Calque_1" xmlns="http://www.w3.org/2000/svg" xmlns:xlink="http://www.w3.org/1999/xlink" x="0px" y="0px"
	 viewBox="0 0 432 432" style="enable-background:new 0 0 432 432;" xml:space="preserve">
<style type="text/css">
	.st0{fill:#C77C30;}
	.st1{fill:#D6678E;}
	.st2{fill:#662483;}
	.st3{fill:#A071AF;}
	.st4{fill:#CB7B26;}
	.st5{fill:#936037;}
	.st6{fill:#4EBBB9;}
	.st7{fill:#00A19A;}
	.st8{fill:#2FAC66;}
</style>
<g>
	<g>
		<g>
			<path d="M255.9,175.8c-1.7,1.9-3.2,3.7-4.7,5.3c-1.9,2.1-3.9,4.2-5.9,6.2c-2,1.9-4.3,2.1-6.8,0.3c-1.8-1.3-3.6-2.7-5.3-4.1
				c-3.1-2.7-6.2-5.5-9.3-8.2c-0.2-0.2-0.3-0.3-0.6-0.5c0.3,2.3,0.6,4.5,0.7,6.6c0.2,4.1,0.4,8.3,0.4,12.4c0.1,4.9,0.1,9.9,0,14.8
				c0,2.2-0.3,4.5-0.6,6.7c-0.1,1.1-0.8,1.7-1.8,1.8c-1,0.1-1.9-0.4-2.2-1.5c-0.7-2.7-1.4-5.4-1.9-8.1c-0.5-3-0.9-6-1-9
				c-0.4-7.5-1-15,0.1-22.4c0.2-1.6,0.5-3.3,1-4.8c0.3-1,1-1.8,1.7-2.7c0.6-0.7,1.4-0.6,2.2-0.2c3,1.4,5.5,3.5,7.9,5.6
				c3.8,3.4,7.5,6.9,11.3,10.3c0.1,0.1,0.3,0.2,0.4,0.4c1.3,1.4,1.4,1.5,2.8,0.1c2.9-2.9,5.7-5.9,8.6-8.8c0.4-0.4,0.7-0.8,1-1.2
				c1.4-1.6,2.6-3.1,3.2-5.3c0.8-3,3.5-4.1,5.7-2.6c0.9,0.6,1.6,1.8,2.1,2.9c1.1,2.7,1.2,5.7,1,8.6c-0.3,4.2-0.9,8.4-1.2,12.6
				c-0.4,5.4-0.7,10.7-1,16.1c-0.1,1.2,0.1,2.5,0.1,3.7c-0.1,2.1-0.2,4.1-0.4,6.2c-0.1,0.8-0.5,1.4-1.4,1.6c-0.9,0.2-1.7-0.2-2-1
				c-0.7-1.8-1.7-3.7-1.9-5.6c-0.8-6.3-1.5-12.6-2-18.9c-0.3-3.7-0.2-7.5-0.3-11.3C255.8,179.8,255.9,178,255.9,175.8z"/>
			<path d="M164.2,180.5c-1.6,2.2-3.2,4.5-4.9,6.7c-1.2,1.6-2.4,3.2-3.7,4.7c-1.6,1.8-3.4,2.2-5.3,0.7c-2.2-1.7-4.3-3.7-6.3-5.8
				c-2.4-2.4-4.6-5-7-7.5c-0.1-0.1-0.2-0.2-0.6-0.5c0.1,0.8,0.2,1.5,0.2,2.1c0.2,3,0.4,6,0.4,9c0.1,4.9,0.3,9.9,0.3,14.8
				c0,2.6-0.4,5.3-0.7,7.9c-0.1,1.1-1,2-2,2.1c-1,0.1-2-0.7-2.4-1.9c-1.3-4.1-1.7-8.3-2-12.5c-0.2-2.8-0.5-5.5-0.6-8.3
				c-0.2-5.7-0.4-11.4-0.5-17.2c0-1.8,0.3-3.5,1.4-5c0.8-1,1.6-1.3,2.6-0.5c1.6,1.3,3.3,2.5,4.8,3.9c3,2.8,6.1,5.6,8.9,8.7
				c2.2,2.4,4,5.2,6,7.8c0.1,0.2,0.3,0.3,0.5,0.6c1.1-1.2,2.2-2.3,3.2-3.6c2.6-3.1,5.1-6.3,7.6-9.5c0.8-1,1.2-2.2,1.8-3.3
				c0.4-0.7,0.7-1.5,1.1-2.2c1.1-1.6,2.9-1.8,4.4-0.5c1.4,1.2,2.1,2.8,2.3,4.4c0.4,3,0.8,6,0.6,8.9c-0.3,5.7-1.1,11.3-1.6,17
				c-0.2,2.5-0.3,5.1-0.5,7.6c-0.1,1.2-0.3,2.5-0.6,3.7c-0.2,0.9-0.7,1.4-1.6,1.5c-1,0.1-1.5-0.4-1.9-1.2c-1.2-2.7-1.7-5.5-2.1-8.4
				c-0.7-4.6-1.4-9.1-1.8-13.7c-0.3-2.8,0-5.7,0-8.6c0-0.6,0-1.2,0-1.8C164.3,180.5,164.2,180.5,164.2,180.5z"/>
			<path d="M301.8,204.7c-0.4-6.3-0.6-12.5-2.3-18.6c-1.2-4.3-2.4-8.5-4.9-12.2c-1.1-1.8-2.2-3.5-4-4.8c-2.7-2.1-6.1-2.2-9-0.4
				c-2.3,1.5-3.9,3.7-5.3,6c-3.9,6.4-5.7,13.5-6.9,20.8c-0.8,4.7-0.8,9.6-1.2,14.4c0,1.2,0.1,2.5,0.2,3.7c0,1.1,0.1,2.1,0.2,3.2
				c0.1,1,0.9,1.6,1.8,1.5c0.9,0,1.4-0.6,1.5-1.6c0-0.3,0.1-0.6,0.1-0.9c-0.1-0.8,0.3-1,1-1.1c7.1-1.5,14.3-2.8,21.6-3.6
				c0.6-0.1,0.8,0.1,1,0.7c0.7,1.8,1.4,3.7,2.1,5.5c0.4,1,1.5,1.5,2.5,1.3c1-0.2,1.8-1,1.8-2c0.1-2.5,0.2-5,0.1-7.4
				C302.1,207.5,301.8,206.1,301.8,204.7z M271.7,211.4c0-2.2,0-4.3,0-6.4c0.1-4.8,0.6-9.6,1.7-14.3c1.2-5.4,2.5-10.7,5.6-15.4
				c0.9-1.3,2.1-2.4,3.4-3.4c1.3-0.9,2.5-0.6,3.1,0.9c0.7,1.7,1.2,3.4,1.7,5.2c0.6,2.1,1,4.2,1.5,6.3c1.1,4.6,2.2,9.2,3.4,13.7
				c0.6,2.5,1.3,4.9,2,7.4c0.2,0.8,0.4,1.5,0.6,2.3C287,209.1,279.4,210.2,271.7,211.4z"/>
			<path d="M176.5,211.2c0.4-12.5,3.6-24.2,11.1-34.4c1.3-1.8,3-3.4,4.8-4.8c2.5-2,5.9-1.8,8.4,0.3c2.6,2.2,4.4,5.1,5.7,8.3
				c1.7,4.3,3.1,8.8,3.7,13.4c0.5,3.9,0.7,7.8,1,11.7c0.2,2,0.3,4.1,0.4,6.1c0,1-0.1,2-0.2,3c-0.1,1-0.9,1.8-1.9,2
				c-1.1,0.2-2.1-0.2-2.6-1.3c-0.6-1.3-1.2-2.7-1.8-4.1c-0.2-0.6-0.4-0.8-1.2-0.7c-5.3,0.5-10.7,1-16.1,1.5c-2.3,0.2-4.7,0.3-7,0.5
				c-0.7,0-1,0.3-0.9,1c0,0.2,0,0.4,0,0.6c-0.1,1.1-0.7,1.7-1.6,1.7c-0.9,0-1.6-0.6-1.7-1.7c-0.1-0.5-0.1-1-0.1-1.6
				C176.5,212.2,176.5,211.7,176.5,211.2z M180,210c8.1-0.6,16-0.7,23.9-2.2c-0.1-0.4-0.3-0.7-0.3-1.1c-0.6-2-1.2-3.9-1.6-5.9
				c-1-4.8-1.8-9.7-2.8-14.6c-0.6-2.9-1.3-5.7-2.1-8.5c-1-3.2-2.3-3.6-5-1.1c-2.9,2.6-4.8,6-6.4,9.5c-2.7,5.8-4.4,12-5.2,18.3
				C180.1,206.3,180.1,208.1,180,210z"/>
		</g>
		<g>
			<path d="M212.8,312c-0.6-0.1-1.2-0.2-1.7-0.3c-0.9-0.2-1.5-0.7-1.5-1.7c0-1,0.6-1.6,1.5-1.7c1.2-0.1,2.3-0.1,3.5-0.1
				c1.2,0,2.3,0.1,3.5,0.1c0.8,0,1.4,0.3,1.6,1.1c0.2,0.8-0.1,1.5-0.8,1.8c-0.8,0.3-1.6,0.4-2.4,0.6c-0.3,0.1-0.7,0.4-0.7,0.7
				c-0.5,2.1-1,4.2-1.5,6.3c-0.6,2.2-1.8,4.1-3.4,5.7c-2.5,2.5-6.3,2.8-9.5,0.7c-2.9-1.8-5-4.3-6.5-7.4c-1.7-3.4-2.4-7-2.8-10.7
				c-0.5-4.5-0.3-9.1,1.3-13.5c1.2-3.4,2.6-6.6,5.2-9.2c2.5-2.3,5.3-3,8.6-2c4.5,1.4,8.3,6,8.6,10.5c0,0.3,0,0.6,0,0.9
				c-0.2,1-0.9,1.7-1.8,1.7c-1,0-1.5-0.7-1.8-1.6c-0.4-1.1-0.7-2.3-1.1-3.3c-0.7-1.5-1.6-2.9-3.3-3.5c-2.3-0.8-2.8-0.2-3.2,2
				c-0.9,5.5-0.4,10.9,0.3,16.4c0.4,2.9,0.6,5.8,1,8.7c0.3,1.9,0.6,3.9,1,5.8c0.1,0.5,0.6,1,0.8,1.5c0.5-0.3,1.1-0.5,1.4-0.9
				C210.9,318.3,212,315.3,212.8,312z"/>
			<path d="M243.8,307.8c0.1,4.9-0.9,9.7-2.9,14.1c-0.9,2.1-2.3,3.9-4.4,5c-2.1,1.1-4.2,0.8-6.2-0.2c-4.3-2.3-6.6-6.2-8-10.8
				c-1.5-4.7-1.7-9.5-1.1-14.3c0.4-3.7,1.4-7.3,3.3-10.6c1.6-2.8,4.1-4.6,7.2-5.1c2.8-0.4,5.2,0.6,6.9,2.8c3.2,4.3,4.6,9.3,5.2,14.5
				C243.9,304.8,243.8,306.3,243.8,307.8z M231.3,309.2c0.1,1.8,0.2,4.2,0.6,6.5c0.3,1.8,0.9,3.7,1.7,5.4c1,2.1,2,2,3.3,0.1
				c1.7-2.5,2.4-5.3,2.9-8.2c1.3-7.6,0.3-14.7-4-21.2c-0.4-0.6-0.8-0.7-1.2-0.1c-0.5,0.7-1.1,1.5-1.4,2.3
				C231.4,298.7,231.3,303.7,231.3,309.2z"/>
			<path d="M248.6,299.8c-1-0.1-1.9-0.1-2.9-0.2c-1.2-0.1-1.9-0.7-1.9-1.6c0-0.9,0.7-1.4,1.9-1.5c1,0,2,0,3.1,0
				c0-0.5,0.1-0.9,0.1-1.3c0-3.4,0.4-6.7,1.7-9.8c0.6-1.4,1.5-2.4,3.1-2.4c1.5-0.1,2.5,0.8,3.3,2.1c1.7,3.1,2,6.5,2.2,9.9
				c0.1,1.6,0,1.6,1.6,1.5c1.4-0.1,2.9-0.1,4.3-0.2c0.8,0,1.4,0.2,1.5,1.1c0.1,0.8-0.2,1.5-1.1,1.6c-1.5,0.2-2.9,0.3-4.4,0.5
				c-0.5,0-1,0.1-1.6,0.1c0,1.7,0,3.3,0,4.8c0.1,4.3,0.1,8.6,0.5,12.8c0.1,1.8,0.8,3.6,1.4,5.4c0.5,1.4,1.6,1.6,2.5,0.4
				c1.4-1.8,2.8-3.7,3.8-5.7c1.4-2.6,2.4-5.4,3.6-8.1c0.1-0.2,0.2-0.4,0.3-0.6c0.4-0.6,1-0.9,1.6-0.5c0.4,0.3,0.6,1,0.5,1.5
				c-0.3,1.1-0.7,2.2-1.2,3.3c-1.3,2.9-2.5,5.7-3.9,8.6c-1,2.1-2.4,4-4.6,5.2c-2,1.1-3.9,0.7-5.8-0.4c-2.2-1.2-3.5-3.3-4.7-5.4
				c-2.9-4.8-3.9-10.2-4.4-15.7C248.9,303.4,248.7,301.6,248.6,299.8z"/>
			<path d="M163.1,291c-1.2,0.1-2.3,0.1-3.4,0.1c-1.4,0-2.8-0.1-4.2-0.2c-1-0.1-1.8-0.9-1.8-1.7c0.1-0.9,0.7-1.3,1.9-1.4
				c3.3-0.3,6.6-0.7,9.9-0.9c2.4-0.1,4.7,0,7.1,0.1c1.1,0,1.9,0.8,1.9,1.7c0,0.9-0.7,1.5-1.8,1.7c-1,0.1-2,0.2-3,0.4
				c1.7,9.4,0.8,18.8,1.1,28.4c1.4-0.1,2.8-0.2,4.2-0.2c1.2,0,2,0.8,1.7,1.8c-0.2,0.5-0.8,1.1-1.3,1.2c-4.6,0.9-9.1,1.8-13.8,1.6
				c-0.7,0-1.4-0.1-2.1-0.2c-1-0.2-1.7-1.1-1.6-1.9c0.1-0.9,0.9-1.6,2-1.6c1.4,0,2.8,0,4.4,0c-0.2-3-0.5-5.9-0.7-8.8
				c-0.2-2.6-0.5-5.1-0.6-7.7c-0.1-3.1-0.1-6.1-0.1-9.2C162.8,293.1,163,292.1,163.1,291z"/>
		</g>
		<g>
			<g>
				<path d="M87.2,257c-0.7,1.4-1.2,2.6-1.8,3.8c-0.9,1.9-1.9,3.7-3.7,4.8c-2.4,1.5-5,1.1-7-0.9c-3.1-3.1-5.4-6.7-7-10.7
					c-0.9-2.2-1.7-4.5-2.5-6.8c-0.3,0.3-0.7,0.6-1,0.8c-0.7,0.5-1.4,0.6-2.1,0c-0.7-0.7-0.5-1.4,0-2.1c0.5-0.6,1-1.2,1.5-1.7
					c0.7-0.6,0.9-1.3,0.7-2.1c-0.7-4.2-0.9-8.5-0.4-12.7c0.6-5.1,1.8-10,4.9-14.2c0.6-0.9,1.4-1.7,2.2-2.4c3.2-2.9,7.7-1.9,9.6,2
					c1.2,2.6,1.3,5.3,0.7,8.1c-0.9,4.5-3.1,8.4-5.7,12.1c-0.7,1.1-1,2.1-0.9,3.4c0.6,5.8,1.2,11.6,1.9,17.4c0.3,2.1,0.7,4.3,2.1,6.1
					c0.8,1,1.1,1.1,2.1,0.2c0.5-0.5,1-1.1,1.4-1.8c1.5-2.4,2.9-4.9,4.3-7.3c0.3-0.5,0.3-1.1,0.3-1.7c-0.1-3.7,0-7.3,1.9-10.6
					c0.3-0.5,0.6-0.9,1-1.3c1.6-1.6,3.6-1.4,4.8,0.5c1.3,2,1.8,4.4,2.2,6.7c0.4,3.1,0.7,6.3,0.9,9.5c0.2,3.1,0.3,6.1,0.4,9.2
					c0,0.5,0.2,0.9,0.3,1.5c1.6-0.5,2.6-1.5,3.6-2.6c3.1-3.5,5.5-7.5,7.6-11.7c0.4-0.8,0-1.9-0.1-2.9c-0.5-4.6-1.1-9.2-1.4-13.8
					c-0.3-5.1,0.7-10.1,3.1-14.7c0.9-1.7,1.7-3.5,3.4-4.7c2.3-1.7,5-1.2,6.5,1.2c1.5,2.2,1.7,4.7,1.4,7.3c-0.4,4-1.7,7.8-3,11.6
					c-0.4,1.3-0.8,2.5-0.5,3.8c0.4,1.9,0.6,3.9,1.1,5.9c0.7-1.7,1.3-3.4,2.1-5.1c1.6-3.3,3.8-6.2,7-8.1c3.6-2.1,7.4-0.6,8.3,3.5
					c1.1,4.8-0.2,9.1-3.2,12.9c-2.8,3.4-6.2,5.9-10.2,7.8c-0.1,0.1-0.3,0.2-0.3,0.2c2,1.8,4.1,3.6,6,5.4c1.5,1.4,2.8,2.8,4.2,4.3
					c0.2,0.2,0.5,0.4,0.8,0.6c1.8,1.1,3.2,0.9,4.1-1c1-2,1.6-4.2,2.5-6.2c0.6-1.4,0-2.7-0.3-3.9c-1.2-5.3-1.5-10.7-0.1-16
					c0.9-3.2,2.4-5.9,5.3-7.8c2.2-1.4,5.8-1.8,8.1,0c2.3,1.7,4.2,3.7,5,6.5c1.4,4.6-0.6,8.5-5.2,10.4c-1,0.4-1.9,0.7-3,1.1
					c0.4,1.9,0.8,3.9,1.1,5.8c0.3,1.9,0.6,3.8,1,5.6c0.2,0.9,0.6,1.8,1,2.7c0.8,1.5,2,1.9,3.6,1.3c2.1-0.8,3.6-2.4,4.8-4.2
					c1.7-2.6,3.2-5.3,4.8-8c0.3-0.5,0.6-1,1-1.3c0.2-0.2,0.9-0.1,1.1,0c0.2,0.2,0.4,0.8,0.3,1.1c-2.4,4.1-4.3,8.6-7.6,12.2
					c-4,4.3-9.9,4.8-14.4,1.1c-1.7-1.4-3.1-3-4.7-4.5c-0.3,0.9-0.5,2-1,3c-0.5,1.2-0.9,2.4-1.7,3.4c-2.1,2.8-6,3.2-9.2,0.9
					c-2.9-2.2-5.5-4.6-8.2-6.9c-0.3-0.3-0.6-0.6-1-1c-0.1,1-0.1,1.8-0.2,2.6c-0.1,0.6-0.2,1.2-0.4,1.7c-0.6,2-2.7,2.7-4.4,1.5
					c-1.9-1.3-3-3.3-4-5.2c-1-1.9-1.7-4-2.6-6c-1.3,2-2.5,4.2-4,6.2c-1.6,2.1-3.2,4.2-5.1,6.1c-2.7,2.6-6,2.4-8.5-0.4
					c-2.3-2.6-3.7-5.7-4.8-9C87.7,258.7,87.5,258,87.2,257z M121.2,254c0.8-0.5,1.5-0.9,2.1-1.3c4.8-2.6,8.2-6.5,9.7-11.8
					c0.5-1.6,0.7-3.2-0.1-4.8c-0.5-0.9-1.2-1.3-2-0.9c-1.1,0.5-2.3,1.1-3.2,1.8c-2.3,1.9-3.5,4.5-4.5,7.3
					C122,247.4,121.5,250.6,121.2,254z M74.2,230.9c0.1,0,0.1,0,0.2,0c0.6-1,1.1-2,1.7-3c1.3-2.4,2.3-4.8,2.6-7.5
					c0.2-1.9,0.1-3.7-1-5.3c-0.4-0.5-1.2-1-1.9-1c-0.4,0-0.9,0.8-1.3,1.3c-0.2,0.4-0.3,0.8-0.3,1.3c-0.1,3.7-0.2,7.4-0.2,11
					C74,228.8,74.1,229.9,74.2,230.9z M150.5,247.4c2.8,0,5.1-1.4,6-3.7c0.9-2.3-0.3-5.5-2.5-6.5c-1.1-0.5-1.5-0.3-1.9,0.8
					c-0.3,1.1-0.6,2.3-0.8,3.4C151.1,243.3,150.8,245.3,150.5,247.4z M117.3,218.7c-1.4,4.3,0.2,8.5,0.5,12.8
					c1.2-2.4,1.9-8.4,1.2-10.8C118.8,219.9,118.5,219.1,117.3,218.7z"/>
				<path d="M230.8,246.4c-1.2,0.6-2.3,1-3.1,1.7c-4,2.9-7.2,6.5-8.8,11.2c-0.5,1.5-0.5,3.2-0.7,4.8c-0.1,0.9-0.3,1.8-0.6,2.7
					c-0.8,2.3-3.5,2.9-5.1,1c-1.1-1.3-1.8-2.8-2.6-4.3c-0.5-0.9-0.8-1.8-1.1-2.8c-0.3-0.9-0.5-1.8-0.8-2.9c-0.7,1.1-1.3,2-2,2.9
					c-1.8,2.4-3.6,4.8-5.5,7.1c-0.7,0.8-1.8,1.3-2.9,1.5c-1.7,0.4-3.2-0.4-4.1-1.9c-1.2-2.1-2.3-4.2-3-6.4
					c-2.1-5.9-2.8-12.1-2.8-18.4c0-0.3,0-0.6-0.1-1c-3.4,0.4-6.6,0.9-9.2,3c-0.3,0.2-0.4,0.5-0.6,0.8c-0.4,0.6-0.9,0.9-1.7,0.6
					c-0.7-0.3-0.9-1.1-0.6-1.7c0.6-0.9,1.3-1.9,2.2-2.5c2.5-1.7,5.4-2.4,8.4-2.8c0.5-0.1,1-0.1,1.5-0.2c0.1-1.2,0.2-2.4,0.3-3.6
					c0.3-3.2,0.7-6.4,2.1-9.4c0.8-1.8,2.4-2.7,3.9-2c0.8,0.4,1.5,1.1,2,1.8c1.4,2.1,1.7,4.5,1.9,6.9c0.2,1.8,0.2,3.7,0.2,5.5
					c0,0.6,0.3,0.8,0.9,0.8c2.5-0.1,5-0.1,7.6-0.1c0.7,0,0.9-0.3,0.9-1c0.5-4.2,1.6-8.2,4.8-11.3c2-1.9,4.2-3.3,7.1-3.1
					c2.9,0.2,5,1.7,6.2,4.4c1.1,2.6,0.1,4.9-1.6,6.9c-1.4,1.6-3.2,2.8-5.2,3.7c-0.3,0.2-0.7,0.6-0.7,0.9c-0.2,4.9-0.1,9.8,0.5,14.6
					c0,0.1,0.1,0.2,0.2,0.3c1.2-1.5,2.2-3.1,3.5-4.5c2.1-2.2,4.3-4.4,6.7-6.3c3-2.4,5.7-2.9,8.7-0.8c2.1,1.5,3.2,3.7,3.4,6.1
					c0.5,4.5,0.3,8.9-0.8,13.3c-0.4,1.6-0.8,3.2-1.1,4.8c-0.1,0.4,0,0.9,0,1.7c0.8-0.5,1.5-0.8,2-1.3c2.2-2.1,3.4-4.7,4.8-7.3
					c1-1.9,1.9-3.9,2.8-5.9c0.2-0.5,0.3-1.2,0.3-1.8c-0.4-5-0.6-9.9,0-14.9c0.3-2.2,0.8-4.5,1.4-6.7c0.3-1.2,1.1-2.2,1.8-3.2
					c0.2-0.4,0.9-0.6,1.3-0.6c3.6-0.3,7.2-0.6,10.8-0.8c0.6,0,1.2-0.1,1.8-0.2c0.8-0.1,1.5,0.1,1.6,1c0.1,0.9-0.5,1.4-1.4,1.5
					c-1.8,0.3-3.7,0.5-5.5,0.7c-1.3,0.1-2.5,0.2-3.7,0.3c0.4,2,1,3.9,1.2,5.8c0.2,2.4,0.3,4.9,0.2,7.3c-0.1,2.8-0.3,5.6-0.5,8.5
					c-0.2,2.4-0.4,4.9-0.5,7.4c1.1-0.1,2.1-0.1,3.1-0.2c0.8,0,1.5,0.1,1.6,1.1c0.1,1-0.6,1.2-1.4,1.3c-0.9,0.1-1.9,0.1-2.8,0.3
					c-0.3,0-0.7,0.4-0.8,0.7c-0.4,2-0.6,4-1,6c-0.1,0.8,0,1.2,0.9,1.2c2.4,0,4.9-0.1,7.3-0.1c1,0,1.9-0.1,2.9-0.2
					c0.6,0,1.2,0.2,1.3,0.9c0.1,0.7-0.3,1.2-1,1.3c-3.3,0.3-6.5,0.6-9.8,0.8c-0.3,0-0.7-0.1-1-0.1c-2.7-0.2-4-1-4.7-3.6
					c-0.9-3-1.5-6.1-2.2-9.1c-0.1-0.3-0.2-0.6-0.4-1.2c-0.7,1.4-1.2,2.5-1.8,3.6c-1.3,2.2-2.4,4.5-3.9,6.6c-0.8,1.2-2.1,2.2-3.4,3
					c-2.1,1.3-4.4,0.9-6-1c-1.5-1.7-2.4-3.7-3.1-5.8c-1.4-3.7-1.1-7.5-0.7-11.3C230.7,250.7,230.7,248.7,230.8,246.4z M198,241.3
					c-0.1,1.5-0.1,2.7-0.2,4c-0.5,5.4-1,10.8-1.4,16.2c-0.1,1.4,0,2.8,0.2,4.1c0.2,1.3,1,1.5,2,0.7c0.7-0.5,1.4-1.2,1.9-1.9
					c1.9-2.7,3.8-5.4,5.7-8.1c0.6-0.9,1.3-1.7,1.3-3.1c-0.2-3.4-0.3-6.7-0.4-10.1c0-0.7,0-1.3,0-1.9C204,241.3,201,241.3,198,241.3z
					 M218.1,236.3c2-1,3.6-2,4.7-3.5c1.2-1.7,1-3.9-0.5-5.1c-1.4-1.1-3.1-0.6-3.4,1C218.5,231.2,218.3,233.6,218.1,236.3z"/>
				<path d="M339.1,277c0.7-0.8,1.3-1.6,2-2.3c0.2-0.3,0.4-0.7,0.6-0.8c0.4-0.2,1.1-0.4,1.4-0.2c0.3,0.1,0.5,1,0.3,1.3
					c-1.1,2.2-2.7,4.1-4.5,5.7c-0.8,0.7-2.2,0.6-2.9-0.4c-0.8-1.2-1.6-2.5-1.9-3.8c-0.8-3.8-1.5-7.7-1.8-11.5
					c-0.3-4.6-0.2-9.2-0.2-13.8c0-3,0.4-5.9,0.5-8.9c0.1-1.4-0.1-2.8-0.1-4.2c-0.1-0.1-0.2-0.1-0.3-0.2c-0.6,0.4-1.3,0.7-1.8,1.2
					c-1.9,1.6-3,3.8-3.8,6.1c-0.7,2.2-1.4,4.4-1.8,6.6c-0.3,1.8,0,3.8,0.1,5.7c0.3,4.8,0.7,9.6,0.1,14.4c-0.1,0.4-0.2,0.9-0.4,1.3
					c-0.7,1.6-2.6,1.8-3.6,0.4c-0.6-0.8-1-1.7-1.4-2.7c-1.5-4.2-2.7-8.6-3.3-13c-0.5-3.2-0.9-6.5-1.4-9.7c0-0.2-0.1-0.4-0.2-0.6
					c-1.2,0.7-2.4,1.3-3.6,2c-0.3,0.2-0.5,0.6-0.5,0.9c-0.7,3.3-1.1,6.7-2.1,10c-1.3,4.4-3.3,8.6-6.5,12c-2.8,2.9-5.7,3.5-9.6,1.9
					c-2.9-1.2-5.5-2.9-7.3-5.6c-2.3-3.5-3.7-7.3-3.5-11.7c0.2-3.3,0.8-6.4,1.8-9.4c0.5-1.3,1.4-2.5,2-3.9c0.4-0.9,0.6-1.9,0.7-2.8
					c1.2-7.7,8.8-11.8,15.9-8.7c3.7,1.6,5.9,4.5,7.2,8.1c0.7,2,1.1,4.1,1.6,6.3c1.1-0.6,2.3-1.2,3.5-2c0.2-0.1,0.2-0.7,0.3-1
					c0.3-2.1,0.6-4.3,0.9-6.4c0.1-0.4,0.2-0.8,0.4-1.2c0.5-1.2,1.4-2,2.7-2c1.4-0.1,2.3,0.7,3,1.9c1.2,2.2,1.7,4.6,2,7
					c0,0.4,0.1,0.8,0.2,1.4c0.8-1.6,1.4-3.2,2.2-4.6c1.2-2.2,2.6-4.2,4.8-5.5c2.7-1.6,5.1-0.7,6.9,1.4c1.8,2,2.5,4.5,3.1,7
					c1.2,5.4,0.8,10.8,0.1,16.2c-0.6,4.6-1.4,9.2-2.1,13.8c-0.2,1.4-0.3,2.8-0.4,4.2C338.9,276.9,339,277,339.1,277z M307.7,251
					c-4.8,1.5-9.5,2-14.3,0.2c-0.1,0.6-0.3,1-0.3,1.5c-0.2,2.2-0.4,4.4-0.4,6.7c0,2.1,0.2,4.2,0.5,6.2c0.3,1.8,1.2,3.4,2.7,4.6
					c1.3,1.1,2.5,1.1,3.8,0.1c0.6-0.5,1.2-1,1.7-1.7C305.3,263.5,306.7,257.4,307.7,251z M290.7,239.1c0.3-0.2,0.6-0.3,0.9-0.4
					c1.6-0.7,3.2-0.9,4.8,0c1,0.6,1.1,1.5,0.4,2.4c-1.5,2-2.2,4.3-2.7,6.6c-0.1,0.6,0.1,0.8,0.6,1c4.3,1.7,8.5,1.1,12.6-0.5
					c0.3-0.1,0.6-0.7,0.6-1c0-2.8-0.7-5.5-2.1-8c-1.7-3.2-4.3-5-8-5.1C294.8,234.2,291.6,236.4,290.7,239.1z"/>
				<path d="M363.1,242.9c-0.1,4.6-1.7,6.9-5.5,8.1c-0.5,0.2-1,0.3-1.5,0.4c-1.5,0.4-1.5,0.4-1.4,1.9c0.2,3.2,0.4,6.5,0.8,9.7
					c0.2,1.9,0.7,3.8,2.1,5.3c0.6,0.7,1.3,0.8,2,0.4c0.9-0.6,1.8-1.3,2.3-2.1c1.7-2.5,3.3-5.2,4.9-7.8c0.3-0.5,0.6-1,1-1.3
					c0.4-0.2,1.1-0.3,1.5,0c0.3,0.2,0.6,1,0.4,1.3c-2.1,3.5-3.6,7.3-6.3,10.4c-1.3,1.4-2.7,2.5-4.6,3c-2.4,0.6-4.4-0.4-6.3-1.5
					c-3.1-2-5.3-4.8-6.7-8.2c-2.7-6.1-2.4-12.3-0.7-18.5c0.9-3.2,2.3-6.1,4.7-8.5c1.9-2,4.1-3.5,7.2-2.7c0.6,0.2,1.3,0.5,1.8,1
					C361.3,236.4,362.9,239.7,363.1,242.9z M354.8,248.1c0.1,0.1,0.2,0.1,0.3,0.2c0.6-0.2,1.2-0.3,1.8-0.5c1.8-0.6,3.1-1.7,3.1-3.8
					c0-2.3-0.6-4.4-2.9-6C356.3,241.5,355.6,244.8,354.8,248.1z"/>
			</g>
			<path d="M91.3,229c1.4,0,2.5,1.2,2.5,2.6c0,1.4-1.3,2.6-2.7,2.6c-1.4,0-2.5-1.2-2.5-2.6C88.8,230.1,89.9,229,91.3,229z"/>
		</g>
		<g>
			<path d="M152.6,151.5c0.6-0.9,1.4-1.8,1.9-2.8c1.6-3.1,3-6.2,4.5-9.3c0.2-0.3,0.2-0.7,0.2-1.1c0-2.8-0.2-5.7,0-8.5
				c0.1-1.3,0.8-2.7,1.5-3.9c0.9-1.5,3.1-1.4,4.1,0.1c1.4,2,2.2,4.4,2.7,6.8c0.4,1.9,0.7,3.8,1,6c0.3-0.4,0.5-0.6,0.7-0.9
				c2.3-3.1,5-5.8,8.4-7.7c3.9-2.2,7.2-1,9.4,2.7c1.2,2,1.4,4.3,1.6,6.6c0.2,3.3-0.2,6.5-0.9,9.7c-0.7,3.5-1.4,7-2,10.6
				c1.1-1.6,2.2-3.2,3.3-4.8c0.7-1,1.3-2,2-3c0.1-0.2,0.3-0.5,0.5-0.5c0.5-0.1,1-0.3,1.4-0.1c0.6,0.3,0.5,0.9,0.2,1.4
				c-2.1,3.3-4.1,6.6-6.2,9.8c-1.4,2-3.2,2.1-5,0.4c-1.7-1.6-2.4-3.7-3-5.8c-1.6-5.9-1.2-12-0.3-18c0.3-1.9,0.4-3.8,0.7-6.1
				c-1,0.3-1.7,0.4-2.4,0.7c-3.1,1.6-5,4.2-6.7,7.1c-1.3,2.3-1.7,4.8-1.9,7.4c0,0.2,0,0.4-0.1,0.6c-0.2,1.1-0.6,2-1.8,2.3
				c-1.2,0.3-2.2-0.3-2.7-1.2c-1.1-2-2.1-4.1-3.1-6.2c-0.2-0.5-0.3-1-0.6-1.7c-1.1,2.2-2,4.2-3,6.1c-0.8,1.4-1.7,2.9-2.7,4.2
				c-1.5,1.9-3.6,1.9-5.2,0.1c-2.3-2.6-4.1-5.6-5.4-8.9c-0.1-0.3-0.2-0.6-0.4-0.9c0-0.1-0.1-0.1-0.3-0.3c-0.6,1.7-1.2,3.4-1.8,5
				c-1.5,4-3,8-4.7,11.9c-0.6,1.3-1.6,2.4-2.7,3.5c-1,1-2.5,1-3.6,0.2c-0.9-0.6-1.6-1.4-2.3-2.2c-2.2-2.7-3.6-5.7-3.8-9.2
				c-0.1-1.7-0.3-3.4-0.5-5.1c-1.1,1.1-2.2,2.4-3.4,3.5c-0.9,0.9-1.9,1.8-3,2.6c-2.4,1.7-5.7,0.9-7.8-1.9c-2.3-3.2-3.8-6.8-4-10.7
				c-0.2-4.4,0.7-8.6,2.7-12.6c1-2,2.4-3.7,4.2-4.9c4-2.8,7.6-1.9,11,1.8c1.5,1.7,2.3,3.7,2.2,6c0,0.2,0,0.5-0.1,0.7
				c-0.3,0.4-0.7,0.9-1.1,1c-0.3,0.1-0.8-0.5-1-0.9c-0.7-1.4-1.4-2.8-2.1-4.1c-0.1-0.2-0.3-0.4-0.6-0.6c-1.5-1.3-1.9-1.3-2.6,0.6
				c-1.2,3.2-1.9,6.5-2.2,9.8c-0.3,3.2-0.6,6.3-0.8,9.5c-0.1,1.1,0.2,2.2,0.3,3.3c0.1,0.8,0.6,0.8,1.1,0.5c0.9-0.6,1.7-1.2,2.4-1.9
				c1.7-1.6,3.4-3.3,5-5.1c0.7-0.8,1.1-1.9,1.7-2.8c2-3.3,5.3-3.4,7.3-0.2c0.7,1.2,1.1,2.7,1.4,4c0.4,2.5,0.3,5.1-0.3,7.6
				c-0.5,2.1-0.8,4.2-1.1,6.3c-0.1,0.7,0,1.4,0.2,2.3c0.3-0.4,0.7-0.8,0.9-1.3c1.2-2.7,2.5-5.5,3.6-8.3c1.5-4.1,3-8.2,4.4-12.3
				c0.2-0.5,0.2-1.1,0.1-1.7c-0.2-3.3-0.4-6.7,0.9-9.9c0.9-2.3,2.7-3.4,4.5-2.7c0.9,0.4,1.7,1.1,2.2,1.9c1,1.4,1.5,3.1,1.6,4.9
				c0.1,2.3,0.4,4.5,0.4,6.8c0,2.4-0.3,4.9-0.4,7.3c0,1.5,0.1,3,0.2,4.5c0.1,0.6,0.4,1.1,0.6,1.7
				C152.3,151.4,152.4,151.4,152.6,151.5z"/>
			<path d="M255.7,134.3c0.8-1.2,1.5-2.4,2.4-3.5c3.1-4,6.8-7.4,11.7-9c2.6-0.9,5.7,0.2,7.3,2.4c1.7,2.4,2.4,5.1,2.6,8
				c0.4,5.8-0.6,11.5-1.8,17.2c-0.5,2.3-0.8,4.7-1.2,7c-0.1,0.3,0,0.6,0,1c0.1,0,0.2,0.1,0.3,0.1c1.4-1.6,2.8-3.2,4.2-4.8
				c2.4-2.9,4.7-5.9,7.1-8.8c0.8-1,0.6-2,0.6-3.1c0.1-3.2,0.8-6.2,2.8-8.8c1-1.3,2.2-2.1,3.8-2.3c1.3-0.2,2.8,0.4,3.3,1.8
				c0.5,1.6,0.9,3.3,0.9,4.9c0,2.5-0.4,5.1-0.6,7.6c-0.1,1.9-0.2,3.7,0,5.6c0.3,3.1,3.2,4.6,6,3.3c3.4-1.5,5.7-4.2,7.6-7.3
				c2.4-4,3.4-8.4,3.2-13.1c0-0.3-0.1-0.7-0.1-0.8c-1.8,0.2-3.4,0.6-5.1,0.6c-3.2,0.1-5.9-1-8.1-3.4c-2.2-2.4-2.5-6.1-0.6-8.9
				c1.7-2.6,5-3.6,8.1-2.5c3.2,1.1,5.2,3.5,6.5,6.4c0.6,1.2,1,2.6,1.6,4c1.6-1.7,3.2-3.3,4.8-4.9c0.3-0.3,0.6-0.6,0.9-1
				c0.5-0.6,1.1-0.9,1.7-0.3c0.3,0.4,0.3,1.3,0,1.6c-1.5,1.8-3,3.8-4.8,5.1c-1.8,1.2-2.3,2.5-2.2,4.6c0.3,4.2-0.2,8.4-1.9,12.4
				c-1.9,4.6-4.8,8.4-9.4,10.7c-3.8,1.9-7.7,2.3-11.5-0.1c-2.8-1.8-4.5-4.6-5.7-7.7c-0.3-0.7-0.5-1.4-0.8-2.2c-1,1.2-2,2.3-2.8,3.5
				c-2,2.5-3.9,5-5.8,7.5c-0.8,1-1.7,1.9-2.7,2.7c-1.8,1.6-3.9,1.2-4.8-1c-1.1-2.6-2.2-5.4-2.9-8.2c-0.9-3.6-1.5-7.2-1.3-11
				c0.1-3.8,0.4-7.6,0.7-11.3c0-0.2,0.1-0.3,0.1-0.5c0.1-1.3-0.2-1.6-1.5-1.3c-2.8,0.7-4.9,2.4-6.8,4.6c-2.7,3.1-4.3,6.7-5.3,10.6
				c-0.4,1.4-0.2,3-0.3,4.4c-0.1,0.9-0.1,1.9-0.2,2.8c-0.1,1-0.7,1.7-1.6,1.9c-1,0.2-1.9-0.1-2.3-1c-1-2.3-2-4.7-2.9-7.1
				c-1.2-3.2-1.8-6.5-2-9.9c-0.1-2.5,0.1-5,1-7.3c0.4-1.1,1.2-1.8,2.5-1.9c1.2-0.1,2,0.5,2.6,1.5c1.5,2.5,2.3,5.3,2.6,8.2
				c0,0.2,0.1,0.5,0.1,0.7C255.6,134.2,255.6,134.2,255.7,134.3z M315.4,129.3c-0.6-2.8-1.8-5.3-3.9-7.1c-1.2-1.1-2.8-1.6-4.4-1.3
				c-1.3,0.2-2.2,1.1-2.6,2.4c-0.5,1.6-0.1,3.1,1,4.3C308,130.3,311.8,131,315.4,129.3z"/>
			<path d="M205.9,129.4c0-1.7,0-3.6,0-5.4c0-5.3,0.3-10.6,1.9-15.7c0.3-1,1-2,1.6-2.9c1-1.3,2.7-1.2,3.7,0c1.2,1.4,1.7,3,2.1,4.7
				c0.9,3.7,1.2,7.4,1.2,11.2c0,3.4-0.1,6.8-0.1,10.1c0,0.3,0.3,0.8,0.5,0.8c3.6,1,7.1,1.2,10.4-0.8c1.7-1,3-2.4,3.6-4.4
				c0.5-1.8,0.2-3.4-1-4.8c-0.8-1-1.6-1-2.6-0.2c-0.7,0.5-1.2,1.2-2,1.5c-0.5,0.2-1.2,0.2-1.7,0c-0.3-0.2-0.5-1.1-0.3-1.4
				c1-1.8,2.4-3.3,4.7-3.5c2.4-0.1,4.7,2,5.2,4.6c0.9,4.3-1.4,8.7-5.5,10.8c-3.5,1.8-7.3,1.9-11.1,1.4c-0.1,0-0.3,0-0.6-0.1
				c-0.1,0.9-0.2,1.7-0.2,2.6c-0.2,4.1-0.6,8.1-0.6,12.2c0,2.3,0.3,4.5,0.6,6.8c0.1,0.5,0.5,0.9,0.8,1.4c0.4-0.3,0.9-0.5,1.2-0.9
				c1.6-2.3,3.2-4.6,4.6-7c1.1-1.8,2-3.8,2.9-5.7c0.3-0.7,0.8-1.2,1.6-0.9c0.8,0.3,0.7,1,0.5,1.7c-1.3,2.8-2.5,5.6-3.9,8.3
				c-1.1,2.1-2.2,4.1-3.7,6c-2,2.6-4.8,2.4-6.9-0.2c-1.7-2.3-2.6-4.9-3.3-7.6c-0.9-3.2-1.7-6.5-2.3-9.7c-0.5-2.7-0.8-5.4-1.1-8.1
				c-0.1-0.6-0.2-0.9-0.9-1c-2.5-0.2-5-0.1-7.1,1.5c-0.5,0.4-1.3,0.6-1.6,0c-0.3-0.4-0.3-1.3,0-1.7c1-1.7,2.7-2.4,4.5-2.8
				C202.6,129.6,204.2,129.6,205.9,129.4z"/>
			<path d="M195.9,122.5c0,0.5,0,0.9-0.1,1.3c-0.2,0.4-0.6,0.9-0.9,1c-0.4,0.1-1-0.2-1.4-0.4c-0.3-0.3-0.5-0.7-0.6-1.2
				c-0.6-2-1.2-4-1.7-6.1c-0.3-1,0.1-1.9,0.9-2.2c0.7-0.3,1.6,0.1,2.2,0.9C195.6,117.8,195.5,120.3,195.9,122.5z"/>
			<path d="M147.3,116.6c0,1.3-1,2.5-2.4,2.5c-1.4,0.1-2.7-1.2-2.7-2.5c0-1.3,1.2-2.5,2.5-2.5C146.1,114.1,147.3,115.3,147.3,116.6z
				"/>
		</g>
		<g>
			<path class="st0" d="M373.9,177.5c-6.2-6.2-16.7-9.1-24.9-5.2c-9.9,4.7-7.3,18.4,3.2,20.3c3.6,0.6,7.8-0.1,10.4-2.7
				c2.7-2.6,3.2-7.8-0.3-10c-2.2-1.3-5.9-1.1-7.6,1c-1.7,2.2-0.3,3.4,2,3.2c0.5,0,0.7-0.8,1.1-0.9c5.5-0.8,1.9,8.2-5.7,5.4
				c-5.5-2-7.3-8.9-2.3-12.4c7.6-5.4,20.7,0.1,23.5,8.6c3.2,9.4-5.9,15.4-14.1,16.1c-8.8,0.7-17.1-3.1-24.2-8
				c-6.1-4.2-18.1-12.9-24.8-4.6c-1.3,1.6-3.1,7.2,0.8,6.7c0.7-0.1,1.2-0.6,1.7-1c0.3-0.2,0-0.9,0.2-1.1c0,0,0,0,0,0
				c0-2.5,2.1-3.8,6.3-3.9c1.9,0.1,4.2,1.4,5.8,2.3c7.5,4.2,13.7,9.7,22.2,12.1c5.8,1.6,12.2,2,18.1,0.1
				C377.1,199.7,382.3,187.5,373.9,177.5z"/>
			<path class="st0" d="M119.1,184.4C119.1,184.4,119.1,184.4,119.1,184.4C119.1,184.4,119.1,184.4,119.1,184.4
				c-10.9-3.6-19.9,7.7-28.4,12.3c-7.8,4.2-18.2,6.6-26.3,1.8c-6.7-3.9-8.3-12.2-3.1-18.3c4.4-5.1,22.9-10.9,23.8,0.7
				c0.2,2.3-1.1,5.3-3.1,7.2c0,0-0.1,0.1-0.1,0.1c-0.9,0.4-1.8,0.8-2.8,1.1c-0.9,0.2-1.8,0.3-2.7,0.2c-0.4,0-0.8-0.1-1.2-0.2
				c-0.7-0.3-1.4-0.8-2.1-1.4c-2-1.8-2.4-4.8,1-4.6c1.2,0.1,1,1.3,2.6,0.6c3-1.3,0.1-4.1-1.9-4.6c-2.5-0.7-5.6,0.5-6.9,2.8
				c-2.2,3.9,0.6,8.3,4.3,9.8c3.5,1.4,7.8,0.9,11.1-0.9c10.1-5.4,6.2-18.3-4.1-20.1c-7.9-1.4-17.6,2.1-22.3,8.8
				c-7.4,10.5,0.1,21.9,11.4,24.3c12.8,2.7,24.4-3.8,34.3-11.2c1.9-1.4,4.2-3.4,6.4-4.1c1.9-0.7,8.3-1.3,9.5,0.5
				c0.7,1,0.3,2.5,1,3.3c0.7,0.8,1.7,0.9,2.6,0.5C126.4,191.1,121.4,185.5,119.1,184.4z"/>
		</g>
	</g>
	<g>
		<path class="st0" d="M135.5,289.9c-2.8-0.5-2.7,2.2-1.7,3.7c2,3.1,4.6,5.8,7,8.7c-7.7-0.4-15.5-0.9-23.2-1.5
			c-4.1-0.3-8.1-0.6-12.2-0.8c-3.8-0.3-10,0.5-13.2-1.5c-2.2-1.4-5.6-11.8-9.4-9.1c-0.8,0.6-1,1.1-0.8,2c0.2,1.1,1.5,2.2,2.1,3
			c1,1.4,1.9,2.9,2.8,4.4c-2.4-0.2-3.8-0.9-5.5-3.3c-0.7-0.9-1.6-3-2.9-3.3c-0.7-0.2-1.7,0-2.3,0.6c-2,2,1.6,4.5,2.4,6.1
			c1.9,4-3.9,5-3,8.3c0.3,1.2,1.4,1.3,2.4,1.1c3.1-0.6,3.6-6.8,7.1-5.9c3.7,1-2.9,5.8-2.4,8.2c0.3,1.3,1.4,1.4,2.4,1.2
			c2.8-0.5,3.8-5.1,5.2-7.1c2.4-3.6,10.3-1.4,14.3-1.1c10.7,0.7,21.4,1.5,32,2.1c0.7,0,4.7,0.3,4.7,0c0,0.3-1.6,1.7-1.8,1.9
			c-1.9,2.1-3.8,4.1-5.7,6.2c-1.1,1.2-4,4.9-0.1,4.7c1.3-0.1,2.1-1.2,2.8-2.1c1.9-2.1,3.8-4.2,5.7-6.2c1.1-1.2,5.1-4.1,5-6.1
			c-0.3-2.3-3.5-4.9-4.9-6.6C140.8,295.7,138.2,290.4,135.5,289.9z"/>
		<path class="st0" d="M355.5,294.8c0.2-1,0.6-1.5-0.3-2.2c-1-0.9-2.5-0.1-3.3,0.6c-1.8,1.5-2.7,6-5.8,5.7c-3.1-0.4,1.1-4.4,2-5.9
			c0.9-1.4,2.4-4.1-0.7-3.9c-3.1,0.2-4.8,5.6-6.3,7.6c-2.2,2.9-4.2,2.7-7.7,3c-3.5,0.2-6.9,0.5-10.4,0.7c-6.2,0.4-12.4,0.9-18.5,1.3
			c-3.2,0.2-6.5,0.4-9.7,0.6c-1.1,0.1-2.4,0.2-3.5,0.2c-0.5,0-0.8,0-1,0.1c0.1-0.1,0.3-0.3,0.4-0.6c0.9-1.9,9.8-9.2,7.2-11.5
			c-2.6-2.3-6.3,4.2-7.2,5.4c-1.8,2.2-3.6,4.3-5.3,6.6c-0.5,0.6-1.4,1.4-1.4,2.3c0,0.8,0.6,1.2,1.1,1.8c1.8,2.4,4.2,4.6,6.3,6.8
			c0.3,0.4,7.9,9.4,8.3,3.6c0.1-1.7-2.8-3.8-3.8-4.9c-1.8-2-3.6-4-5.5-5.9c7.8-0.4,15.7-0.9,23.5-1.5c4.1-0.3,8.2-0.6,12.4-0.9
			c1.6-0.1,3.7-0.5,5.8-0.7c1.5-0.1,2.9-0.2,4.4-0.3c0.7,0,1.5,0.1,2.1,0.2c3.9,0.9,3.8,9.5,8.1,9.1c4.7-0.4-0.6-7.1-2.1-9.4
			c1.8-0.1,3,0.1,4.6,1.6c0.9,0.9,1.5,2.3,2.4,3.2c0.7,0.6,1.3,1.3,2.2,1.2c4-0.4,0.4-4.6-0.6-6
			C350.4,298.8,354.8,297.9,355.5,294.8z"/>
	</g>
</g>
</svg>
