<?xml version="1.0" encoding="utf-8"?>
<!-- Generator: Adobe Illustrator 21.1.0, SVG Export Plug-In . SVG Version: 6.00 Build 0)  -->
<svg version="1.1" id="Calque_1" xmlns="http://www.w3.org/2000/svg" xmlns:xlink="http://www.w3.org/1999/xlink" x="0px" y="0px"
	 viewBox="0 0 432 432" style="enable-background:new 0 0 432 432;" xml:space="preserve">
<style type="text/css">
	.st0{fill:#FBB03B;}
	.st1{fill:#AC5247;}
	.st2{fill:#F5967C;}
	.st3{fill:#962942;}
	.st4{fill:#E2896B;}
	.st5{fill:#D5ACAA;}
	.st6{fill:#DDCCC4;}
	.st7{fill:#F7C0AE;}
	.st8{fill:#1A1A1A;}
	.st9{fill:#0071BC;}
	.st10{fill:#7490A5;}
	.st11{fill:#D0876F;}
	.st12{fill:#E2AE74;}
	.st13{fill:#D14758;}
	.st14{fill:#D88460;}
	.st15{fill:#84422C;}
	.st16{fill:#3B4F84;}
	.st17{fill:#3F5584;}
	.st18{fill:#5796B4;}
	.st19{fill:#333333;}
	.st20{fill:#EB8390;}
	.st21{fill:#8A8DB4;}
	.st22{fill:#C4D0F0;}
	.st23{fill:#009245;}
	.st24{fill:#F7931E;}
	.st25{fill:#534741;}
	.st26{fill:#BF8271;}
	.st27{fill:#202749;}
	.st28{fill:#57678A;}
	.st29{fill:#F3A186;}
	.st30{fill:#C6966D;}
	.st31{fill:#516184;}
	.st32{fill:#5B8451;}
	.st33{fill:#C6836D;}
	.st34{fill:#C69C6D;}
	.st35{fill:#9B849C;}
	.st36{fill:#8CA562;}
	.st37{fill:#F5957C;}
	.st38{fill:#BC9688;}
	.st39{fill:#6E8DAF;}
	.st40{fill:#E28F74;}
	.st41{fill:#AF735E;}
	.st42{fill:#8193BB;}
	.st43{fill:#6F9147;}
	.st44{fill:#DD9F4E;}
	.st45{fill:#4F5F82;}
	.st46{fill:#52874F;}
	.st47{fill:#7A5D41;}
	.st48{fill:#808080;}
	.st49{fill:#98B58B;}
	.st50{fill:#E07F65;}
	.st51{fill:#736357;}
	.st52{fill:#E29774;}
	.st53{fill:#95543E;}
	.st54{fill:#66853E;}
	.st55{fill:#6B6871;}
	.st56{fill:#689B62;}
	.st57{fill:#A1BDBE;}
	.st58{fill:#999999;}
	.st59{fill:#A67C52;}
	.st60{fill:#E0D2BE;}
	.st61{fill:#A9B792;}
	.st62{fill:#7E8D66;}
	.st63{fill:#394587;}
	.st64{fill:#3E6D55;}
	.st65{fill:#3A735C;}
	.st66{fill:#C66B4C;}
	.st67{fill:#456C8C;}
	.st68{fill:#BF8E71;}
	.st69{fill:#6D9B65;}
	.st70{fill:#BF987D;}
	.st71{fill:#8F95B2;}
	.st72{fill:#5799A0;}
	.st73{fill:#857A71;}
	.st74{fill:#84686F;}
	.st75{fill:#E2B4A3;}
	.st76{fill:#718E9F;}
	.st77{fill:#B5748A;}
	.st78{fill:#A8766C;}
	.st79{fill:#9B657D;}
	.st80{fill:#9F6754;}
	.st81{fill:#11937F;}
	.st82{fill:#9A4B5E;}
	.st83{fill:#9AB580;}
	.st84{fill:#BD8579;}
	.st85{fill:#86A4B7;}
	.st86{fill:#6F9FB2;}
	.st87{fill:#B57E83;}
	.st88{fill:#B28C78;}
	.st89{fill:#254165;}
	.st90{fill:#79412E;}
	.st91{fill:#BA5A61;}
	.st92{fill:#4D4D4D;}
	.st93{fill:#96AF86;}
	.st94{fill:#EAAE60;}
	.st95{fill:#684033;}
	.st96{fill:#B57C6A;}
	.st97{fill:#C1272D;}
	.st98{fill:#447F7A;}
	.st99{fill:#7CBEB8;}
	.st100{fill:#76A3A1;}
	.st101{fill:#ECD580;}
	.st102{fill:#EB423D;}
	.st103{fill:#EE7A32;}
	.st104{fill:#9E8065;}
	.st105{fill:#231F20;}
	.st106{fill:#725740;}
	.st107{fill:#504657;}
	.st108{fill:#6A5B75;}
	.st109{fill:#BC842C;}
	.st110{fill:#673E46;}
	.st111{fill:#BB808C;}
	.st112{fill:#8E2C40;}
	.st113{fill:#75967E;}
	.st114{fill:#B9AA85;}
	.st115{fill:#9898AF;}
	.st116{fill:#9EC7C8;}
	.st117{fill:#BBBDBF;}
	.st118{fill:#CEACB4;}
	.st119{fill:#DC986F;}
	.st120{fill:#B01E69;}
	.st121{fill:#FFFFFF;}
	.st122{fill:#C19CAF;}
	.st123{fill:#B59736;}
	.st124{fill:#1E8C92;}
	.st125{fill:#9F4868;}
	.st126{fill:#A9B0CF;}
	.st127{fill:#B7768E;}
	.st128{fill:#617C68;}
	.st129{fill:#BB5666;}
	.st130{fill:#C3AEB5;}
</style>
<g>
	<g>
		<path class="st104" d="M377.8,256.6c-0.2-0.5-0.4-0.9-0.8-1.5c-0.8-1-1.7-1.9-2.9-2.5c-1-0.6-2.1-1.1-3.2-1.6
			c-6.2-2.9-12.2-4-18.2-3.4l-1.4,0.1c-1.2,0.1-2.4,0.2-3.6,0.4c-4.7,0.6-8.9,1.6-12.9,3.1c-5.6,2.1-10.6,5.4-15.4,8.5l-0.5,0.3
			c-1.6,1-3.2,2.1-4.8,3.1c-3.1,2-6.3,4.1-9.4,6.1c-1.5,1-3.2,1.8-4.8,2.5c-0.5,0.2-0.9,0.5-1.4,0.7c-1.1,0.5-2.1,0.8-3.1,0.8
			c-0.8,0-1.4-0.3-1.9-0.9c-0.7-0.9-1.3-1.9-1.8-3.3c-0.7-2-1-4.1-1.2-5.9c-0.4-3.7-0.5-7.4-0.2-11c0.4-5.7,0.9-11.5,1.4-17.2
			c0-0.5,0.1-1.1,0.2-1.6c0-0.2,0-0.3,0.1-0.5c0.1,0,0.3,0,0.4,0c3.6,0.6,7.3,1,11.1,1.1c6.4,0.2,12.1-0.6,17.5-2.6
			c5.6-2.1,9.7-5.1,12.7-9.2c0.5-0.7,1-1.5,1.4-2.3c0.5-1.1,0-2.4-1.1-3c-1-0.7-2.3-0.5-3.2,0.4c-0.3,0.3-0.5,0.6-0.7,1
			c-0.9,1.5-2,2.7-3.6,3.5c-0.8,0.4-1.6,0.9-2.4,1.3c-3.9,1.9-8.3,2.9-13.9,3.2c-4.3,0.2-8.8-0.1-14.6-0.9c-0.6-0.1-1.3-0.2-1.9-0.3
			l-0.6-0.1l0-0.1c0-0.2,0-0.4,0.1-0.6c0.2-1.7,0.5-3.3,0.7-5c0.8-5.7,1.6-11.6,2.8-17.3c0.2-0.8,0.4-1.9,0.3-2.9
			c-0.1-1.9-1-3.3-2.7-4.1c-1.7-0.8-3.3-0.5-4.9,0.7c-0.9,0.7-1.5,1.5-1.8,2.6c-0.5,1.3-0.8,2.5-1,3.5c-1.1,4.7-1.7,9.5-2.4,14.1
			c-0.1,1-0.3,2-0.4,2.9c-0.1,1-0.3,2-0.4,3l-0.2,1.1c0,0,0,0,0,0c-0.2,0-0.4-0.1-0.6-0.1c-1.1-0.3-2.2-0.6-3.3-0.8
			c-2.7-0.7-5.5-1.4-8.2-2.1l-1.9-0.5c-7.2-2-14.6-4-22.1-5.5c-4.7-0.9-9-1.4-13.2-1.6c-4.2-0.2-8.3,0.3-11.8,0.7
			c-4.1,0.5-7.5,1.5-10.5,3c-1,0.5-1.9,1-2.7,1.6c-0.5,0.4-0.9,1-1.1,1.6c-0.2,0.5-0.1,1,0.1,1.4c0.3,0.4,0.8,0.6,1.3,0.6
			c0.4,0,0.9-0.1,1.5-0.2c3.9-1.1,8.1-1.7,12.9-2c6.9-0.4,13.9,0.1,20.7,1.5c5.3,1.1,10.6,2.7,15.7,4.2l0.3,0.1
			c3.2,1,6.5,1.9,9.7,2.9c2.7,0.8,5.4,1.6,8.1,2.4c0.9,0.3,1.9,0.5,2.8,0.7c0.3,0.1,0.7,0.2,1,0.3c0,0,0,0.1,0,0.1
			c0,0.2,0,0.4,0,0.6c-0.1,0.9-0.2,1.8-0.3,2.6c-0.1,1.2-0.3,2.4-0.4,3.6c-0.7,7.6-1.2,13.9-1.2,20.4c0,0.5-0.1,0.9-0.2,1.2
			c-1.9,4.8-4,10.4-6.2,16c-1,2.6-2.2,4.7-3.6,6.6c-1,1.4-2,2.4-3.1,3.2c-1.4,1-2.6,0.9-4-0.4c-0.3-0.3-0.6-0.7-0.9-1l-0.1-0.1
			c-1.7-2.2-3.2-4.6-4.4-7.1c-2.4-4.6-3.6-9.9-3.8-15.9c0-0.5,0-1,0-1.5l0-0.3c0.3,0,0.6,0,0.9,0c0.9,0,1.7,0,2.5,0
			c5.9-0.4,10.5-4,12.1-9.5c0.7-2.5,0.6-5-0.5-7.3c-1.6-3.5-4.6-6-8.1-6.8c-3.4-0.7-6.9,0.3-9.7,2.8c-1.3,1.2-2.4,2.6-3.4,4.1
			c-1.3,2.1-2.2,4.5-2.8,7.2c-0.2,0.8-0.4,1.6-0.5,2.4c-0.2,1.1-0.5,2.3-0.8,3.4c-0.2,0.8-0.5,1.6-0.8,2.4c-0.2,0.6-0.4,1.1-0.6,1.7
			c-0.5,1.4-0.9,2.9-1.4,4.3c-0.3,1-0.6,2-1,3.1c-1.1,3.5-2.4,6.3-3.8,8.6c-1.6,2.5-3.3,4.2-5.3,5.4c-1.6,1-3.2,1-4.6,0.2
			c-0.7-0.5-1.4-1.2-1.8-1.7c-2.1-2.6-3.4-5.5-4.5-8.1c-1.8-4.4-2.6-8.8-2.3-13.1c0-0.2,0-0.3,0.1-0.5c0,0,0,0,0.1,0
			c8,0.9,13.8-4.3,16.3-9c1.5-2.7,1.7-5.5,0.5-8.3c-1.4-3.4-4.2-5.9-7.7-6.8c-3.5-0.9-7.2-0.2-9.9,2c-1.6,1.3-3,2.9-4.3,4.9
			c-1.7,2.6-2.9,5.6-3.9,9.2c0,0.1-0.1,0.2-0.1,0.4c0,0-0.1-0.1-0.1-0.1c-0.3-0.3-0.6-0.5-0.9-0.8c-0.7-0.8-1.5-1.8-2.2-2.8
			c-0.5-0.8-1.1-1.6-1.6-2.4c-0.4-0.7-0.9-1.4-1.3-2.1c-0.4-0.6-0.9-1.3-1.5-1.8c-0.7-0.6-1.6-0.7-2.5-0.5c-0.8,0.3-1.5,1-1.8,1.9
			c-0.1,0.5-0.2,1.1-0.2,1.8c0,1.4,0,2.8,0,4.1l0,0.3c0,1.3,0,2.6,0,3.9c0.1,6.2,0.2,12.7-0.2,19l0,0.3c-0.3,4.5-0.5,9.1-1.4,13.5
			c-0.4,2.3-1,4.6-1.7,6.9c-0.3,1.1-0.8,2.1-1.6,2.9c-0.3,0.4-0.6,0.6-0.8,0.5c-0.2,0-0.4-0.2-0.6-0.6c-0.6-0.8-1-1.7-1.4-2.6
			c-2.6-6.4-4.1-13.3-4.4-21.2c-0.2-4.7,0-9.3,0.2-13.3c0.1-1.2,0.1-2.4,0.2-3.6c0.1-1.9,0.2-3.9,0.3-5.8c0-1.1,0-2.3-0.1-3.7
			c-0.1-1.5-0.7-2.8-1.6-3.8c-1.4-1.5-3.1-1.9-4.9-1.3c-1.7,0.6-2.8,1.9-3,3.9c-0.1,0.6-0.1,1.1-0.1,1.5c0,2.2-0.4,4.5-1.2,6.8
			c-0.1,0.3-0.2,0.6-0.3,0.9c-0.2,0.4-0.3,0.9-0.5,1.3c-1,2.9-2.3,6.2-4,9.3c-0.9,1.6-2,3.5-3.6,5.1c-0.4,0.4-0.8,0.7-1.2,0.9
			c0,0,0,0,0,0c-0.1-0.1-0.2-0.2-0.3-0.3c-0.2-0.3-0.4-0.7-0.6-1.1c-1.2-2.9-1.9-6-2.1-9.3c-0.1-1.8-0.1-3.7-0.2-5.5
			c0-1.2,0-2.4-0.1-3.5c0-1.4-0.1-2.5-0.2-3.6c-0.2-1.5-0.5-2.7-1.1-3.8c-0.9-1.7-2.5-2.9-4.2-3.2c-1.8-0.3-3.6,0.3-5.1,1.6
			c-0.5,0.4-0.9,0.9-1.3,1.4l-0.2,0.2c-0.5,0.6-1.1,1.3-1.6,1.9c-1,1.1-1.9,2.3-3,3.4c-1.5,1.7-3.1,3.4-4.6,5
			c-0.6,0.6-1.2,1.3-1.8,1.9c-0.1,0.1-0.2,0.2-0.4,0.3l-4.8-5c0,0,0,0,0.1,0c0.2-0.2,0.5-0.3,0.7-0.6c2.9-3,5.1-6,6.8-9.3
			c1.1-2.2,2.4-5.1,2.8-8.3c0.7-5.4-2.6-10.5-7.8-11.9c-6.1-1.7-13.1,1-16.6,6.4c-3.2,5-4,10.7-2.3,16.9c0.9,3.1,2.5,6.1,5.1,9.3
			c0.2,0.2,0.3,0.4,0.5,0.6l0,0c-0.3,0.2-0.6,0.4-0.9,0.6c-0.8,0.5-1.7,1.1-2.5,1.5c-7.5,4.5-16.1,7.6-26.2,9.4
			c-6.4,1.2-13.3,1.1-20.3-0.3c-3.8-0.7-7.8-1.9-12.4-3.6l-0.3-0.1c-0.3-0.1-0.7-0.3-1.1-0.4c-1.3-0.3-2.4,0-3.3,1
			c-0.9,0.9-1,2.1-0.5,3.4c0.3,0.6,0.7,1.2,1.2,1.6c0.5,0.5,1.1,0.9,1.9,1.2c3.7,1.8,7.9,2.8,13,3.2c3.2,0.3,6.5,0.2,9.7,0.1l0.8,0
			c5.5-0.2,10.6-0.7,15.5-1.8c3.5-0.7,8.1-1.8,12.4-3.6c5.6-2.3,10.7-5.4,15.4-8.4l0.7-0.4l6.1,6.3l-0.5,0.8c-0.4,0.5-0.7,1-1.1,1.5
			c-0.8,1.1-1.6,2.3-2.4,3.5c-2.5,3.8-4.2,7.5-5.2,11.2c-0.6,2.3-0.8,4.1-0.4,5.8c0.9,4.7,3.7,8,8.2,9.6c5,1.8,9.9,0.9,14.7-2.6
			c2.2-1.6,3.8-3.9,4.8-6.7c1-3,1.1-6.2,0.3-9.9c-1.2-5.6-3.6-10.8-7.5-15.9c-0.4-0.5-0.8-1-1.2-1.6l-0.4-0.6c0.5-0.5,1-1,1.4-1.5
			c2.7-2.8,5.4-5.8,9.1-7.7l0,0.9c0,1,0,1.9,0,2.8c0,2.9,0,6.3,0.4,9.6c0.4,3.1,0.9,5.4,1.7,7.6c1,2.6,2.6,4.6,4.8,6.1
			c3,2,6.5,1.8,9.2-0.7c0.6-0.6,1.2-1.2,1.6-1.8c0.7-1.1,1.3-2,1.8-3.1c0.9-2.1,1.8-4.3,2.7-6.4c0.3-0.8,0.6-1.6,1-2.4
			c0,0,0,0,0-0.1c-0.2,4.3-0.2,8.3,0.1,12.2c0.3,4.7,0.9,8.8,1.8,12.6c0.9,3.9,2.2,7,3.9,9.6c1.6,2.4,3.4,4.1,5.4,5.3
			c1.4,0.8,2.8,1.2,4.1,1.2c2.3,0,4.4-1.2,5.9-3.5c0.6-0.9,1.1-1.8,1.4-2.6c0.4-1,1-2.4,1.3-3.9c1.6-6.4,2.4-13.5,2.5-21.7
			c0.1-4.8,0.1-9.6,0.2-14.3c0-2.3,0-4.6,0.1-6.8c0-0.1,0-0.1,0-0.2c2.2,2.8,4.3,4.8,6.7,6.3l-0.1,1.3c0,0.2,0,0.4-0.1,0.5
			c0,0.4-0.1,0.7-0.1,1.1c-0.4,7,1.1,13.9,4.3,20.5c1.3,2.6,3.2,4.9,5.6,6.7c3.7,2.9,7.8,3.6,12.1,2.2c2.2-0.7,4.2-2.1,6.1-4.2
			c2.3-2.5,4.2-5.4,5.6-8.6c0.8-1.8,1.5-3.8,2.2-5.6c0.3-0.8,0.6-1.5,0.9-2.3c0.5,3.8,1.2,7,2.2,9.8c1.7,4.7,3.5,8.1,5.8,10.9
			c2.2,2.6,4.7,4.4,7.6,5.3c3.5,1.1,6.8,0.5,9.8-1.7c1.4-1.1,2.7-2.5,3.9-4.3c2.1-3.1,3.6-6,4.7-9.1c0.7-2.1,1.4-4.2,2.1-6.2
			c0.3-1,0.6-1.9,0.9-2.9c0,0,0,0,0-0.1c0.4,2.1,1,4.8,2.3,7.2c2.5,5,7.4,7.3,13.1,6.1c1.9-0.4,3.8-1.2,5.9-2.5
			c3.8-2.5,7.5-4.9,10.6-7c1.5-1,3-2,4.4-3.1c1.7-1.2,3.5-2.4,5.2-3.6c4.7-3.1,9.6-5.7,14.6-7.7c4.1-1.6,8.6-2.6,13.4-3
			c4.5-0.3,9.2,0.4,14,2.2c1.6,0.6,3.1,1.2,4.7,1.9c1.1,0.5,2.3,0.9,3.5,1.4c0.8,0.3,1.7,0.6,2.7,0.7c1,0.1,1.8-0.3,2.4-1
			C378,258.6,378.2,257.6,377.8,256.6z M253.8,254.9c0.4-3.1,1.1-5.4,2.2-7.5c0.8-1.5,1.8-2.6,3.1-3.5c0.9-0.6,1.7-0.6,2.7-0.1
			c2.4,1.2,3.3,3.1,2.6,5.7c-0.6,2.4-2,4.1-4.3,5C258.2,255.2,256.2,255.4,253.8,254.9z M221.4,244.5c0.6-0.8,1.3-1.6,2.1-2.3
			c0.8-0.7,2.1-1.4,3.7-0.6c1.6,0.7,2.4,2,2.5,3.6c0.1,1.3-0.2,2.5-0.9,3.6c-2.7,4.3-6.5,6.1-11.2,5.3c0,0,0,0-0.1,0
			c0.1-0.2,0.1-0.5,0.2-0.7c0.2-0.7,0.3-1.4,0.5-2.1C219.1,248.4,220.1,246.3,221.4,244.5z M134.2,265.6c0.4,0.5,0.7,1.1,1.1,1.6
			c2.1,3.3,3.5,6.6,4.3,10.1c0.8,3.7-0.4,6.8-3.3,9.1c-1.7,1.3-3.5,1.8-5.4,1.5c-2.5-0.5-4.5-2.8-4.6-5.5c-0.1-1.3,0.2-2.7,0.7-4.4
			c1.4-4.2,3.7-8.5,6.9-12.9C134,265.2,134.1,265.4,134.2,265.6z M126.2,231.8c1.1-3.1,3.1-5.1,6-6c0.3-0.1,0.6-0.2,0.9-0.2
			c0.7,0,1.2,0.4,1.6,1.2c1.3,2.4,1.6,5.1,0.8,7.9c-0.6,2.4-1.7,4.7-3.3,6.9c-0.5,0.7-1.1,1.5-1.7,2.2c-0.2,0.3-0.4,0.5-0.6,0.8
			c-2-2.2-3.3-4.7-3.9-7.4C125.9,235.7,125.6,233.7,126.2,231.8z"/>
		<g>
			<g>
				<path class="st105" d="M161.2,192.2c0.2,1.6,0.7,3.2,1,4.8c0.2,0.8,0.4,1.6,0.5,2.3c0.1,1.6-0.6,2.6-2.1,3
					c-0.7,0.2-1.5,0.4-2.2,0.4c-1.9,0-3-0.7-3.6-2.5c-0.7-2.3-1.2-4.7-1.7-7.1c-1.5-7.1-2-14.2-2.2-21.4c-0.1-5.4,0.4-10.8,1.4-16.1
					c0.4-2.2,1.7-3.4,4.6-3c1.4,0.2,2.8,0.5,4.1,0.9c1.9,0.6,2.6,1.9,2,3.8c-0.8,2.6-1.8,5.2-2.4,7.9c-1.5,5.9-1.6,11.8-0.8,17.7
					c0.2,1.3,0.3,2.6,0.5,3.9c0.1,0.6,0.3,1,1.1,1c1.7-0.1,3.5-0.1,5.2-0.1c0.6,0,0.9-0.2,0.8-0.8c0-0.4,0-0.8,0-1.3
					c0-8.2,0.1-16.3,0.4-24.5c0.1-2.1,0.2-4.2,0.3-6.3c0-1.8,1.6-3.4,3.4-3.4c1.5-0.1,2.9,0,4.3,0.3c1.8,0.3,2.7,1.3,2.8,3.1
					c0.1,2.4-0.2,4.8-0.5,7.2c-0.7,6.6-1.2,13.2-1.1,19.8c0.1,5.5,0.1,11.1,0,16.6c0,0.7-0.1,1.4-0.2,2.1c-0.2,1.4-1,2.3-2.4,2.6
					c-1.1,0.2-2.3,0.4-3.5,0.4c-2.4-0.2-3.7-1.5-3.8-3.9c0-1.9,0.1-3.9,0.1-5.8c0-2.2,0.3-1.9-2-1.9c-1.2,0-2.4,0-3.7,0.1
					C161.4,192.1,161.4,192.1,161.2,192.2z"/>
				<path class="st105" d="M180.9,177.4c0-6.1,0.9-11.3,3-16.3c4.7-11.6,15.6-12.9,19.3-3.1c1.9,4.8,2.8,9.9,3.2,15.1
					c0.5,6.3,0,12.6-1.5,18.7c-0.5,2.1-1.2,4.2-2.3,6.1c-1,1.8-2.3,3.2-3.9,4.3c-3.8,2.7-7.9,1.4-10.4-1.1c-1.1-1.1-1.9-2.3-2.6-3.7
					c-2.4-4.4-3.7-9.2-4.5-14.3C181,180.9,180.9,178.9,180.9,177.4z M197.7,156.8c-1.3,0.9-3.4,6.5-4,8.9
					c-1.6,6.4-2.1,12.9-1.6,19.5c0.3,4,1.4,7.8,3.2,11.3c1,2,1.5,2,2.9,0.4c1.2-1.4,1.9-3.2,2.5-5.1c1.1-3.8,1.6-7.6,1.8-11.6
					c0.1-2.8,0-5.7-0.3-8.5C201.7,166.9,200,158.9,197.7,156.8z"/>
				<path class="st105" d="M234.5,164.5c-0.5,2.4-1,4.5-1.5,6.6c-0.4,1.8-0.8,3.6-1.1,5.4c-0.1,0.7-0.3,1.3-0.7,1.9
					c-0.9,1.5-2.7,1.6-3.8,0.2c-0.4-0.5-0.6-1.1-0.9-1.6c-1.8-4-3.4-8-5.1-12.1c-0.2-0.4-0.4-0.9-0.7-1.5c-0.5,1.5-0.5,2.9-0.6,4.2
					c-0.4,5-0.8,10.1-1,15.2c-0.1,2.6-0.2,5.2-0.1,7.8c0.1,2.9,0.3,5.8,0.4,8.7c0.1,2.8-0.6,3.6-3.2,4.1c-1.7,0.3-3.3,0.2-4.8-0.9
					c-0.8-0.6-1.2-1.2-1.2-2.2c0-2.5-0.1-5-0.3-7.5c-0.5-5.6-0.5-11.3-0.8-16.9c-0.2-4.1,0.1-8.2,0.2-12.3c0-2.4,0-4.7,0.3-7.1
					c0.3-2.8,1.3-3.7,3.9-3.9c2-0.2,3.9-0.2,5.9-0.1c1.2,0.1,1.9,0.7,2.3,1.8c1.7,5,3.9,9.7,5.8,14.6c0.3,0.8,0.7,1.6,1.1,2.5
					c0.5-1,0.5-1.9,0.7-2.8c1.1-4.8,2.1-9.7,4-14.3c0.4-0.9,0.8-1.8,1.2-2.6c0.5-1,1.4-1.5,2.5-1.4c2,0.2,4,0.2,6,0.2
					c1.8,0,3.1,1.3,3.2,3.1c0,0.9,0,1.7-0.1,2.6c-0.7,7.3-1,14.5-1.1,21.8c0,6.1-0.1,12.2-0.1,18.3c0,1.1,0,2.1-0.1,3.2
					c-0.2,1.9-1.2,2.8-3.1,3.1c-1.7,0.3-3.1-0.5-3.8-2c-0.6-1.3-0.7-2.8-0.9-4.2c-0.8-6-1.5-12-2-18c-0.3-4.1-0.4-8.2-0.4-12.3
					C234.6,165.7,234.8,165.2,234.5,164.5z"/>
				<path class="st105" d="M248.7,171.4c0-4.6,0.2-9.6,1.4-14.6c0.2-1,0.6-2,1-2.9c0.8-1.5,2-2.3,3.7-2.5c3.2-0.4,6.4-0.1,9.6,0.1
					c0.3,0,0.6,0.1,1,0.2c0.9,0.3,1.4,1.1,1.3,2c-0.1,0.8-0.8,1.6-1.7,1.7c-0.6,0.1-1.3,0-2-0.1c-0.3,0-0.6-0.1-0.8-0.1
					c-1.7-0.1-1.7-0.1-2,1.5c-0.5,3.2-1,6.4-1.5,9.7c-0.8,5.8-1,11.6-0.5,17.5c0.1,0.7,0.1,1.4,0.1,2.1c0,0.5,0.3,0.8,0.9,0.8
					c0.8,0,1.6,0,2.4,0c0.5,0,1,0.1,1.5,0.4c0.7,0.5,1,1.3,0.8,2.1c-0.3,0.8-1.1,1.4-2.2,1.4c-0.6,0-1.2-0.1-1.8-0.1
					c-0.9,0-1,0.1-0.9,0.9c0.2,2.3,0.5,4.5,0.7,6.8c0.1,0.9,0.2,0.9,1.1,0.8c1-0.2,2-0.3,3-0.6c1.3-0.4,2.5,0.1,2.8,1.2
					c0.3,1.1-0.4,2.2-1.6,2.6c-0.8,0.2-1.6,0.4-2.5,0.5c-2.4,0.3-4.7,0.8-7.1,0.9c-2.4,0-3-0.3-4-2.8c-0.5-1.3-0.6-2.6-0.8-3.9
					c-0.6-3.7-0.9-7.4-1.3-11.2C248.9,181.1,248.9,176.4,248.7,171.4z"/>
			</g>
			<g>
				<path class="st105" d="M160.1,349.1c0.2,1.6,0.7,3.2,1,4.8c0.2,0.8,0.4,1.6,0.5,2.3c0.1,1.6-0.6,2.6-2.1,3
					c-0.7,0.2-1.5,0.4-2.2,0.4c-1.9,0-3-0.7-3.6-2.5c-0.7-2.3-1.2-4.7-1.7-7.1c-1.5-7.1-2-14.2-2.2-21.4c-0.1-5.4,0.4-10.8,1.4-16.1
					c0.4-2.2,1.7-3.4,4.6-3c1.4,0.2,2.8,0.5,4.1,0.9c1.9,0.6,2.6,1.9,2,3.8c-0.8,2.6-1.8,5.2-2.4,7.9c-1.5,5.9-1.6,11.8-0.8,17.7
					c0.2,1.3,0.3,2.6,0.5,3.9c0.1,0.6,0.3,1,1.1,1c1.7-0.1,3.5-0.1,5.2-0.1c0.6,0,0.9-0.2,0.8-0.8c0-0.4,0-0.8,0-1.3
					c0-8.2,0.1-16.3,0.4-24.5c0.1-2.1,0.2-4.2,0.3-6.3c0-1.8,1.6-3.4,3.4-3.4c1.5-0.1,2.9,0,4.3,0.3c1.8,0.3,2.7,1.3,2.8,3.1
					c0.1,2.4-0.2,4.8-0.5,7.2c-0.7,6.6-1.2,13.2-1.1,19.8c0.1,5.5,0.1,11.1,0,16.6c0,0.7-0.1,1.4-0.2,2.1c-0.2,1.4-1,2.3-2.4,2.6
					c-1.1,0.2-2.3,0.4-3.5,0.4c-2.4-0.2-3.7-1.5-3.8-3.9c0-1.9,0.1-3.9,0.1-5.8c0-2.2,0.3-1.9-2-1.9c-1.2,0-2.4,0-3.7,0.1
					C160.4,349,160.3,349.1,160.1,349.1z"/>
				<path class="st105" d="M179.9,334.3c0-6.1,0.9-11.3,3-16.3c4.7-11.6,15.6-12.9,19.3-3.1c1.9,4.8,2.8,9.9,3.2,15.1
					c0.5,6.3,0,12.6-1.5,18.7c-0.5,2.1-1.2,4.2-2.3,6.1c-1,1.8-2.3,3.2-3.9,4.3c-3.8,2.7-7.9,1.4-10.4-1.1c-1.1-1.1-1.9-2.3-2.6-3.7
					c-2.4-4.4-3.7-9.2-4.5-14.3C180,337.9,179.8,335.8,179.9,334.3z M196.6,313.7c-1.3,0.9-3.4,6.5-4,8.9
					c-1.6,6.4-2.1,12.9-1.6,19.5c0.3,4,1.4,7.8,3.2,11.3c1,2,1.5,2,2.9,0.4c1.2-1.4,1.9-3.2,2.5-5.1c1.1-3.8,1.6-7.6,1.8-11.6
					c0.1-2.8,0-5.7-0.3-8.5C200.6,323.9,198.9,315.8,196.6,313.7z"/>
				<path class="st105" d="M233.4,321.5c-0.5,2.4-1,4.5-1.5,6.6c-0.4,1.8-0.8,3.6-1.1,5.4c-0.1,0.7-0.3,1.3-0.7,1.9
					c-0.9,1.5-2.7,1.6-3.8,0.2c-0.4-0.5-0.6-1.1-0.9-1.6c-1.8-4-3.4-8-5.1-12.1c-0.2-0.4-0.4-0.9-0.7-1.5c-0.5,1.5-0.5,2.9-0.6,4.2
					c-0.4,5-0.8,10.1-1,15.2c-0.1,2.6-0.2,5.2-0.1,7.8c0.1,2.9,0.3,5.8,0.4,8.7c0.1,2.8-0.6,3.6-3.2,4.1c-1.7,0.3-3.3,0.2-4.8-0.9
					c-0.8-0.6-1.2-1.2-1.2-2.2c0-2.5-0.1-5-0.3-7.5c-0.5-5.6-0.5-11.3-0.8-16.9c-0.2-4.1,0.1-8.2,0.2-12.3c0-2.4,0-4.7,0.3-7.1
					c0.3-2.8,1.3-3.7,3.9-3.9c2-0.2,3.9-0.2,5.9-0.1c1.2,0.1,1.9,0.7,2.3,1.8c1.7,5,3.9,9.7,5.8,14.6c0.3,0.8,0.7,1.6,1.1,2.5
					c0.5-1,0.5-1.9,0.7-2.8c1.1-4.8,2.1-9.7,4-14.3c0.4-0.9,0.8-1.8,1.2-2.6c0.5-1,1.4-1.5,2.5-1.4c2,0.2,4,0.2,6,0.2
					c1.8,0,3.1,1.3,3.2,3.1c0,0.9,0,1.7-0.1,2.6c-0.7,7.3-1,14.5-1.1,21.8c0,6.1-0.1,12.2-0.1,18.3c0,1.1,0,2.1-0.1,3.2
					c-0.2,1.9-1.2,2.8-3.1,3.1c-1.7,0.3-3.1-0.5-3.8-2c-0.6-1.3-0.7-2.8-0.9-4.2c-0.8-6-1.5-12-2-18c-0.3-4.1-0.4-8.2-0.4-12.3
					C233.6,322.6,233.7,322.2,233.4,321.5z"/>
				<path class="st105" d="M247.6,328.3c0-4.6,0.2-9.6,1.4-14.6c0.2-1,0.6-2,1-2.9c0.8-1.5,2-2.3,3.7-2.5c3.2-0.4,6.4-0.1,9.6,0.1
					c0.3,0,0.6,0.1,1,0.2c0.9,0.3,1.4,1.1,1.3,2c-0.1,0.8-0.8,1.6-1.7,1.7c-0.6,0.1-1.3,0-2-0.1c-0.3,0-0.6-0.1-0.8-0.1
					c-1.7-0.1-1.7-0.1-2,1.5c-0.5,3.2-1,6.4-1.5,9.7c-0.8,5.8-1,11.6-0.5,17.5c0.1,0.7,0.1,1.4,0.1,2.1c0,0.5,0.3,0.8,0.9,0.8
					c0.8,0,1.6,0,2.4,0c0.5,0,1,0.1,1.5,0.4c0.7,0.5,1,1.3,0.8,2.1c-0.3,0.8-1.1,1.4-2.2,1.4c-0.6,0-1.2-0.1-1.8-0.1
					c-0.9,0-1,0.1-0.9,0.9c0.2,2.3,0.5,4.5,0.7,6.8c0.1,0.9,0.2,0.9,1.1,0.8c1-0.2,2-0.3,3-0.6c1.3-0.4,2.5,0.1,2.8,1.2
					c0.3,1.1-0.4,2.2-1.6,2.6c-0.8,0.2-1.6,0.4-2.5,0.5c-2.4,0.3-4.7,0.8-7.1,0.9c-2.4,0-3-0.3-4-2.8c-0.5-1.3-0.6-2.6-0.8-3.9
					c-0.6-3.7-0.9-7.4-1.3-11.2C247.9,338,247.8,333.4,247.6,328.3z"/>
			</g>
		</g>
	</g>
	<g>
		<path class="st106" d="M253.8,89.5c2,0,3.6-1.6,3.6-3.6c0-2-1.6-3.6-3.6-3.6h-18.3c-2,0-3.6,1.6-3.6,3.6c0,0.6,0.2,1.1,0.4,1.6
			c0.3,0.5,0.6,0.9,1.1,1.3c0.6,0.5,1.3,0.7,2.2,0.7h1.7h15H253.8z"/>
		<path class="st104" d="M273.5,134.4c-1.7-2.1-16.8-0.7-21.2-1.1c0.1-3.2-0.7-32.7-0.1-40.8h-15c-0.2,1.9,0,5.2-0.7,14.7
			c-0.1,0-0.1,0-0.2,0.1c-5.5-11.8-18.8-40.8-27.4-34.9c-17,22.3-22.2,34.9-35.2,58.8c-1.1,1.9-20.5-0.1-21.1,2.2
			c-1.1,4.2,9.4,0.2,93.2,4.1c14.5,0.7,25.8-0.2,26.8-0.4C274,136.6,274.4,135.4,273.5,134.4z M226.3,110.5c-0.1,0-0.2,0-0.4,0
			c-4,0-8.1,0-12.1,0c0-4.1,0-8.1,0-12.2C220.2,99.2,225.2,104.2,226.3,110.5z M208.9,98.3c0,4.1,0,8.1,0,12.2c-4,0-8.1,0-12.1,0
			C197.9,104.3,202.7,99.4,208.9,98.3z M196.8,115.3c4,0,8.1,0,12.1,0c0,4.1,0,8.2,0,12.4C202.7,126.6,197.8,121.6,196.8,115.3z
			 M213.8,127.8c0-4.1,0-8.3,0-12.4c4,0,8.1,0,12.1,0c0.1,0,0.3,0,0.4,0C225.3,121.7,220.2,126.8,213.8,127.8z"/>
	</g>
</g>
</svg>
